{"results":[{"id":"https://www.gov.uk/api/organisations/care-quality-commission","title":"Care Quality Commission","format":"Executive non-departmental public body","updated_at":"2014-10-15T15:35:55.000+01:00","web_url":"https://www.gov.uk/government/organisations/care-quality-commission","details":{"slug":"care-quality-commission","abbreviation":"CQC","logo_formatted_name":"Care Quality \r\nCommission","organisation_brand_colour_class_name":"department-of-health","organisation_logo_type_class_name":"no-identity","closed_at":null,"govuk_status":"exempt","content_id":"a124d48a-7c10-48c9-9a1a-514f9d59cdbf"},"analytics_identifier":"PB251","parent_organisations":[{"id":"https://www.gov.uk/api/organisations/department-of-health","web_url":"https://www.gov.uk/government/organisations/department-of-health"}],"child_organisations":[]},{"id":"https://www.gov.uk/api/organisations/human-fertilisation-and-embryology-authority","title":"Human Fertilisation and Embryology Authority","format":"Executive non-departmental public body","updated_at":"2014-10-15T15:35:56.000+01:00","web_url":"https://www.gov.uk/government/organisations/human-fertilisation-and-embryology-authority","details":{"slug":"human-fertilisation-and-embryology-authority","abbreviation":"HFEA","logo_formatted_name":"Human Fertilisation \r\nand Embryology \r\nAuthority","organisation_brand_colour_class_name":"department-of-health","organisation_logo_type_class_name":"no-identity","closed_at":null,"govuk_status":"exempt","content_id":"12c1fef7-2477-409c-bc14-839eeac85bca"},"analytics_identifier":"PB253","parent_organisations":[{"id":"https://www.gov.uk/api/organisations/department-of-health","web_url":"https://www.gov.uk/government/organisations/department-of-health"}],"child_organisations":[]},{"id":"https://www.gov.uk/api/organisations/human-tissue-authority","title":"Human Tissue Authority","format":"Executive non-departmental public body","updated_at":"2015-08-21T13:43:11.000+01:00","web_url":"https://www.gov.uk/government/organisations/human-tissue-authority","details":{"slug":"human-tissue-authority","abbreviation":"HTA","logo_formatted_name":"Human Tissue \r\nAuthority","organisation_brand_colour_class_name":"department-of-health","organisation_logo_type_class_name":"no-identity","closed_at":null,"govuk_status":"exempt","content_id":"d2f1fdad-1c75-49d2-8395-6689312ce992"},"analytics_identifier":"PB254","parent_organisations":[{"id":"https://www.gov.uk/api/organisations/department-of-health","web_url":"https://www.gov.uk/government/organisations/department-of-health"}],"child_organisations":[]},{"id":"https://www.gov.uk/api/organisations/monitor","title":"Monitor","format":"Executive non-departmental public body","updated_at":"2016-09-07T17:53:06.000+01:00","web_url":"https://www.gov.uk/government/organisations/monitor","details":{"slug":"monitor","abbreviation":"Monitor","logo_formatted_name":"Monitor","organisation_brand_colour_class_name":"department-of-health","organisation_logo_type_class_name":"no-identity","closed_at":null,"govuk_status":"closed","content_id":"f285e31f-e2ba-4014-a0d9-013365f27166"},"analytics_identifier":"PB255","parent_organisations":[{"id":"https://www.gov.uk/api/organisations/department-of-health","web_url":"https://www.gov.uk/government/organisations/department-of-health"}],"child_organisations":[]},{"id":"https://www.gov.uk/api/organisations/foreign-compensation-commission","title":"Foreign Compensation Commission","format":"Tribunal non-departmental public body","updated_at":"2014-10-15T15:35:56.000+01:00","web_url":"https://www.gov.uk/government/organisations/foreign-compensation-commission","details":{"slug":"foreign-compensation-commission","abbreviation":"FCC","logo_formatted_name":"Foreign Compensation Commission","organisation_brand_colour_class_name":null,"organisation_logo_type_class_name":"single-identity","closed_at":null,"govuk_status":"closed","content_id":"8fe1001f-009c-4c19-b4b1-f6c4327484bb"},"analytics_identifier":"PB257","parent_organisations":[],"child_organisations":[]},{"id":"https://www.gov.uk/api/organisations/uk-financial-investments-limited","title":"UK Financial Investments Limited","format":"Other","updated_at":"2014-12-01T12:54:03.000+00:00","web_url":"https://www.gov.uk/government/organisations/uk-financial-investments-limited","details":{"slug":"uk-financial-investments-limited","abbreviation":"UKFI","logo_formatted_name":"UK Financial\r\nInvestments Limited","organisation_brand_colour_class_name":"hm-treasury","organisation_logo_type_class_name":"no-identity","closed_at":null,"govuk_status":"live","content_id":"de2cca29-9491-4392-838a-8ce619ef9ae2"},"analytics_identifier":"PC259","parent_organisations":[{"id":"https://www.gov.uk/api/organisations/hm-treasury","web_url":"https://www.gov.uk/government/organisations/hm-treasury"},{"id":"https://www.gov.uk/api/organisations/uk-government-investments","web_url":"https://www.gov.uk/government/organisations/uk-government-investments"}],"child_organisations":[]},{"id":"https://www.gov.uk/api/organisations/office-for-budget-responsibility","title":"Office for Budget Responsibility","format":"Executive non-departmental public body","updated_at":"2014-10-15T15:35:57.000+01:00","web_url":"https://www.gov.uk/government/organisations/office-for-budget-responsibility","details":{"slug":"office-for-budget-responsibility","abbreviation":"OBR","logo_formatted_name":"Office for\r\nBudget\r\nResponsibility","organisation_brand_colour_class_name":"hm-treasury","organisation_logo_type_class_name":"no-identity","closed_at":null,"govuk_status":"exempt","content_id":"1c117305-51f8-497a-9372-9330d1e59497"},"analytics_identifier":"PB260","parent_organisations":[{"id":"https://www.gov.uk/api/organisations/hm-treasury","web_url":"https://www.gov.uk/government/organisations/hm-treasury"}],"child_organisations":[]},{"id":"https://www.gov.uk/api/organisations/office-of-tax-simplification","title":"Office of Tax Simplification","format":"Independent monitoring body","updated_at":"2016-12-19T17:05:23.000+00:00","web_url":"https://www.gov.uk/government/organisations/office-of-tax-simplification","details":{"slug":"office-of-tax-simplification","abbreviation":"OTS","logo_formatted_name":"Office of\r\nTax Simplification","organisation_brand_colour_class_name":"hm-treasury","organisation_logo_type_class_name":"no-identity","closed_at":null,"govuk_status":"live","content_id":"3d4c4dd4-4bdd-4493-aebf-a6f89db95aed"},"analytics_identifier":"OT261","parent_organisations":[],"child_organisations":[]},{"id":"https://www.gov.uk/api/organisations/office-of-the-immigration-services-commissioner","title":"Office of the Immigration Services Commissioner","format":"Executive non-departmental public body","updated_at":"2016-05-27T12:20:28.000+01:00","web_url":"https://www.gov.uk/government/organisations/office-of-the-immigration-services-commissioner","details":{"slug":"office-of-the-immigration-services-commissioner","abbreviation":"OISC","logo_formatted_name":"Office of the Immigration Services Commissioner","organisation_brand_colour_class_name":"home-office","organisation_logo_type_class_name":"custom","closed_at":null,"govuk_status":"live","content_id":"97fa8d93-bdc4-476f-8f10-1c426383734b"},"analytics_identifier":"PB263","parent_organisations":[{"id":"https://www.gov.uk/api/organisations/home-office","web_url":"https://www.gov.uk/government/organisations/home-office"}],"child_organisations":[]},{"id":"https://www.gov.uk/api/organisations/security-industry-authority","title":"Security Industry Authority","format":"Executive non-departmental public body","updated_at":"2014-10-15T15:35:58.000+01:00","web_url":"https://www.gov.uk/government/organisations/security-industry-authority","details":{"slug":"security-industry-authority","abbreviation":"SIA","logo_formatted_name":"Security Industry Authority","organisation_brand_colour_class_name":"home-office","organisation_logo_type_class_name":"no-identity","closed_at":null,"govuk_status":"exempt","content_id":"5a0dd987-eea3-470c-97fa-e346c5cff682"},"analytics_identifier":"PB264","parent_organisations":[{"id":"https://www.gov.uk/api/organisations/home-office","web_url":"https://www.gov.uk/government/organisations/home-office"}],"child_organisations":[]},{"id":"https://www.gov.uk/api/organisations/serious-organised-crime-agency","title":"Serious Organised Crime Agency","format":"Executive non-departmental public body","updated_at":"2014-10-15T15:35:58.000+01:00","web_url":"https://www.gov.uk/government/organisations/serious-organised-crime-agency","details":{"slug":"serious-organised-crime-agency","abbreviation":"SOCA","logo_formatted_name":"Serious Organised Crime Agency","organisation_brand_colour_class_name":"home-office","organisation_logo_type_class_name":"no-identity","closed_at":"2013-10-06T00:00:00.000+01:00","govuk_status":"closed","content_id":"d38f09d9-fdd0-4755-9946-e0f1c7de8fdb"},"analytics_identifier":"PB265","parent_organisations":[{"id":"https://www.gov.uk/api/organisations/home-office","web_url":"https://www.gov.uk/government/organisations/home-office"}],"child_organisations":[]},{"id":"https://www.gov.uk/api/organisations/office-of-manpower-economics","title":"Office of Manpower Economics","format":"Other","updated_at":"2016-07-25T15:20:48.000+01:00","web_url":"https://www.gov.uk/government/organisations/office-of-manpower-economics","details":{"slug":"office-of-manpower-economics","abbreviation":"OME","logo_formatted_name":"Office of Manpower Economics","organisation_brand_colour_class_name":"department-for-business-innovation-skills","organisation_logo_type_class_name":"single-identity","closed_at":null,"govuk_status":"live","content_id":"0432ce78-0eba-4f37-814c-528a05f72dbd"},"analytics_identifier":"PB266","parent_organisations":[{"id":"https://www.gov.uk/api/organisations/department-for-business-energy-and-industrial-strategy","web_url":"https://www.gov.uk/government/organisations/department-for-business-energy-and-industrial-strategy"}],"child_organisations":[]},{"id":"https://www.gov.uk/api/organisations/equality-and-human-rights-commission","title":"Equality and Human Rights Commission","format":"Executive non-departmental public body","updated_at":"2016-02-11T12:34:58.000+00:00","web_url":"https://www.gov.uk/government/organisations/equality-and-human-rights-commission","details":{"slug":"equality-and-human-rights-commission","abbreviation":"EHRC","logo_formatted_name":"Equality and Human Rights Commission","organisation_brand_colour_class_name":"department-for-education","organisation_logo_type_class_name":"single-identity","closed_at":null,"govuk_status":"exempt","content_id":"673fea70-eba1-4218-8d13-84aa9bbfd20c"},"analytics_identifier":"OT269","parent_organisations":[{"id":"https://www.gov.uk/api/organisations/department-for-education","web_url":"https://www.gov.uk/government/organisations/department-for-education"}],"child_organisations":[]},{"id":"https://www.gov.uk/api/organisations/investigatory-powers-tribunal","title":"Investigatory Powers Tribunal","format":"Tribunal non-departmental public body","updated_at":"2015-04-22T11:05:11.000+01:00","web_url":"https://www.gov.uk/government/organisations/investigatory-powers-tribunal","details":{"slug":"investigatory-powers-tribunal","abbreviation":"IPT","logo_formatted_name":"Investigatory Powers Tribunal","organisation_brand_colour_class_name":null,"organisation_logo_type_class_name":"no-identity","closed_at":null,"govuk_status":"exempt","content_id":"4f3914c9-9b7f-48e7-85fd-30cd98d6c9fe"},"analytics_identifier":"PB270","parent_organisations":[{"id":"https://www.gov.uk/api/organisations/home-office","web_url":"https://www.gov.uk/government/organisations/home-office"}],"child_organisations":[]},{"id":"https://www.gov.uk/api/organisations/advisory-council-on-the-misuse-of-drugs","title":"Advisory Council on the Misuse of Drugs","format":"Advisory non-departmental public body","updated_at":"2015-11-19T13:46:50.000+00:00","web_url":"https://www.gov.uk/government/organisations/advisory-council-on-the-misuse-of-drugs","details":{"slug":"advisory-council-on-the-misuse-of-drugs","abbreviation":"ACMD","logo_formatted_name":"Advisory Council on \r\nthe Misuse of Drugs","organisation_brand_colour_class_name":null,"organisation_logo_type_class_name":"no-identity","closed_at":null,"govuk_status":"live","content_id":"f12ec794-c57e-4ffc-a2eb-aeeb07f12905"},"analytics_identifier":"PB271","parent_organisations":[{"id":"https://www.gov.uk/api/organisations/home-office","web_url":"https://www.gov.uk/government/organisations/home-office"}],"child_organisations":[]},{"id":"https://www.gov.uk/api/organisations/police-advisory-board-for-england-and-wales","title":"Police Advisory Board for England and Wales","format":"Advisory non-departmental public body","updated_at":"2014-10-15T15:35:59.000+01:00","web_url":"https://www.gov.uk/government/organisations/police-advisory-board-for-england-and-wales","details":{"slug":"police-advisory-board-for-england-and-wales","abbreviation":"PAB","logo_formatted_name":"Police Advisory Board for England and Wales","organisation_brand_colour_class_name":null,"organisation_logo_type_class_name":"no-identity","closed_at":null,"govuk_status":"live","content_id":"7e3bacb0-231d-48a2-be62-2fae4cb94e0b"},"analytics_identifier":"PB273","parent_organisations":[{"id":"https://www.gov.uk/api/organisations/home-office","web_url":"https://www.gov.uk/government/organisations/home-office"}],"child_organisations":[]},{"id":"https://www.gov.uk/api/organisations/technical-advisory-board","title":"Technical Advisory Board","format":"Advisory non-departmental public body","updated_at":"2014-10-15T15:36:00.000+01:00","web_url":"https://www.gov.uk/government/organisations/technical-advisory-board","details":{"slug":"technical-advisory-board","abbreviation":"TAB","logo_formatted_name":"Technical Advisory Board","organisation_brand_colour_class_name":null,"organisation_logo_type_class_name":"no-identity","closed_at":null,"govuk_status":"live","content_id":"6ed5afe4-c914-48a6-a783-710fc5d1d4b4"},"analytics_identifier":"PB274","parent_organisations":[{"id":"https://www.gov.uk/api/organisations/home-office","web_url":"https://www.gov.uk/government/organisations/home-office"}],"child_organisations":[]},{"id":"https://www.gov.uk/api/organisations/migration-advisory-committee","title":"Migration Advisory Committee","format":"Advisory non-departmental public body","updated_at":"2014-10-15T15:36:00.000+01:00","web_url":"https://www.gov.uk/government/organisations/migration-advisory-committee","details":{"slug":"migration-advisory-committee","abbreviation":"MAC","logo_formatted_name":"Migration Advisory \r\nCommittee","organisation_brand_colour_class_name":null,"organisation_logo_type_class_name":"no-identity","closed_at":null,"govuk_status":"live","content_id":"141baba8-f1c1-404d-9e3d-13db046e7b39"},"analytics_identifier":"PB275","parent_organisations":[{"id":"https://www.gov.uk/api/organisations/home-office","web_url":"https://www.gov.uk/government/organisations/home-office"}],"child_organisations":[]},{"id":"https://www.gov.uk/api/organisations/national-dna-database-ethics-group","title":"National DNA Database Ethics Group","format":"Advisory non-departmental public body","updated_at":"2014-10-15T15:36:00.000+01:00","web_url":"https://www.gov.uk/government/organisations/national-dna-database-ethics-group","details":{"slug":"national-dna-database-ethics-group","abbreviation":"NDNAD","logo_formatted_name":"National DNA \r\nDatabase \r\nEthics Group","organisation_brand_colour_class_name":null,"organisation_logo_type_class_name":"no-identity","closed_at":null,"govuk_status":"live","content_id":"8559ab3b-383c-428c-b57c-7604e22ce8e2"},"analytics_identifier":"PB276","parent_organisations":[{"id":"https://www.gov.uk/api/organisations/home-office","web_url":"https://www.gov.uk/government/organisations/home-office"}],"child_organisations":[]},{"id":"https://www.gov.uk/api/organisations/police-arbitration-tribunal","title":"Police Arbitration Tribunal","format":"Tribunal non-departmental public body","updated_at":"2015-05-01T12:16:15.000+01:00","web_url":"https://www.gov.uk/government/organisations/police-arbitration-tribunal","details":{"slug":"police-arbitration-tribunal","abbreviation":"PAT","logo_formatted_name":"Police Arbitration \r\nTribunal","organisation_brand_colour_class_name":null,"organisation_logo_type_class_name":"no-identity","closed_at":null,"govuk_status":"closed","content_id":"03fa0510-eeb1-41a6-a7d7-cb45185b2a2e"},"analytics_identifier":"PB277","parent_organisations":[{"id":"https://www.gov.uk/api/organisations/home-office","web_url":"https://www.gov.uk/government/organisations/home-office"}],"child_organisations":[]}],"previous_page_url":"https://www.gov.uk/api/organisations?page=9","next_page_url":"https://www.gov.uk/api/organisations?page=11","current_page":10,"total":1009,"pages":51,"page_size":20,"start_index":181,"_response_info":{"status":"ok","links":[{"href":"https://www.gov.uk/api/organisations?page=9","rel":"previous"},{"href":"https://www.gov.uk/api/organisations?page=11","rel":"next"},{"href":"https://www.gov.uk/api/organisations?page=10","rel":"self"}]}}
