{"results":[],"previous_page_url":"https://www.gov.uk/api/organisations?page=99","current_page":100,"total":1009,"pages":51,"page_size":20,"start_index":1981,"_response_info":{"status":"ok","links":[{"href":"https://www.gov.uk/api/organisations?page=99","rel":"previous"},{"href":"https://www.gov.uk/api/organisations?page=100","rel":"self"}]}}
