{"results":[{"id":"https://www.gov.uk/api/organisations/police-discipline-appeals-tribunal","title":"Police Discipline Appeals Tribunal","format":"Tribunal non-departmental public body","updated_at":"2015-05-07T17:02:09.000+01:00","web_url":"https://www.gov.uk/government/organisations/police-discipline-appeals-tribunal","details":{"slug":"police-discipline-appeals-tribunal","abbreviation":"Police Discipline","logo_formatted_name":"Police Discipline Appeals Tribunal ","organisation_brand_colour_class_name":null,"organisation_logo_type_class_name":"no-identity","closed_at":null,"govuk_status":"live","content_id":"1f3efab6-9890-4ccd-9dff-647907b21dba"},"analytics_identifier":"PB278","parent_organisations":[{"id":"https://www.gov.uk/api/organisations/home-office","web_url":"https://www.gov.uk/government/organisations/home-office"}],"child_organisations":[]},{"id":"https://www.gov.uk/api/organisations/hm-inspectorate-of-constabulary","title":"HM Inspectorate of Constabulary","format":"Other","updated_at":"2014-10-15T15:36:01.000+01:00","web_url":"https://www.gov.uk/government/organisations/hm-inspectorate-of-constabulary","details":{"slug":"hm-inspectorate-of-constabulary","abbreviation":"HMIC","logo_formatted_name":"HM Inspectorate of Constabulary","organisation_brand_colour_class_name":null,"organisation_logo_type_class_name":"no-identity","closed_at":null,"govuk_status":"exempt","content_id":"124c53f6-67ce-48a1-9b13-10dd26500b70"},"analytics_identifier":"OT281","parent_organisations":[{"id":"https://www.gov.uk/api/organisations/home-office","web_url":"https://www.gov.uk/government/organisations/home-office"}],"child_organisations":[]},{"id":"https://www.gov.uk/api/organisations/independent-chief-inspector-of-borders-and-immigration","title":"Independent Chief Inspector of Borders and Immigration ","format":"Independent monitoring body","updated_at":"2016-12-19T13:27:41.000+00:00","web_url":"https://www.gov.uk/government/organisations/independent-chief-inspector-of-borders-and-immigration","details":{"slug":"independent-chief-inspector-of-borders-and-immigration","abbreviation":"Independent Chief Inspector","logo_formatted_name":"Independent \r\nChief Inspector \r\nof Borders and \r\nImmigration ","organisation_brand_colour_class_name":"home-office","organisation_logo_type_class_name":"ho","closed_at":null,"govuk_status":"exempt","content_id":"e71e4ae0-7b14-48f0-9cc9-8150ce5d0cd3"},"analytics_identifier":"OT284","parent_organisations":[{"id":"https://www.gov.uk/api/organisations/home-office","web_url":"https://www.gov.uk/government/organisations/home-office"}],"child_organisations":[]},{"id":"https://www.gov.uk/api/organisations/royal-naval-museum","title":"National Museum of the Royal Navy","format":"Executive non-departmental public body","updated_at":"2014-10-15T15:36:01.000+01:00","web_url":"https://www.gov.uk/government/organisations/royal-naval-museum","details":{"slug":"royal-naval-museum","abbreviation":"RNM","logo_formatted_name":"Royal Naval Museum","organisation_brand_colour_class_name":"ministry-of-defence","organisation_logo_type_class_name":"no-identity","closed_at":null,"govuk_status":"exempt","content_id":"a2a82282-91a6-467e-b396-494cf770d02c"},"analytics_identifier":"PB290","parent_organisations":[{"id":"https://www.gov.uk/api/organisations/ministry-of-defence","web_url":"https://www.gov.uk/government/organisations/ministry-of-defence"}],"child_organisations":[]},{"id":"https://www.gov.uk/api/organisations/royal-museums-greenwich","title":"Royal Museums Greenwich","format":"Executive non-departmental public body","updated_at":"2014-10-15T15:36:02.000+01:00","web_url":"https://www.gov.uk/government/organisations/royal-museums-greenwich","details":{"slug":"royal-museums-greenwich","abbreviation":"RMG","logo_formatted_name":"Royal Museums Greenwich","organisation_brand_colour_class_name":"department-for-culture-media-sport","organisation_logo_type_class_name":"no-identity","closed_at":null,"govuk_status":"exempt","content_id":"0fb2c31d-c6dd-4be9-9a0b-297edc5b4930"},"analytics_identifier":"PB291","parent_organisations":[{"id":"https://www.gov.uk/api/organisations/department-for-culture-media-sport","web_url":"https://www.gov.uk/government/organisations/department-for-culture-media-sport"}],"child_organisations":[]},{"id":"https://www.gov.uk/api/organisations/civil-justice-council","title":"Civil Justice Council","format":"Advisory non-departmental public body","updated_at":"2014-10-15T15:36:02.000+01:00","web_url":"https://www.gov.uk/government/organisations/civil-justice-council","details":{"slug":"civil-justice-council","abbreviation":"CJC","logo_formatted_name":"Civil Justice Council","organisation_brand_colour_class_name":"ministry-of-justice","organisation_logo_type_class_name":"no-identity","closed_at":null,"govuk_status":"exempt","content_id":"3f99ade1-1078-4a38-8b20-b14fa9ad90ee"},"analytics_identifier":"PB293","parent_organisations":[{"id":"https://www.gov.uk/api/organisations/ministry-of-justice","web_url":"https://www.gov.uk/government/organisations/ministry-of-justice"}],"child_organisations":[]},{"id":"https://www.gov.uk/api/organisations/law-commission","title":"Law Commission","format":"Advisory non-departmental public body","updated_at":"2014-10-15T15:36:02.000+01:00","web_url":"https://www.gov.uk/government/organisations/law-commission","details":{"slug":"law-commission","abbreviation":"","logo_formatted_name":"Law Commission","organisation_brand_colour_class_name":"ministry-of-justice","organisation_logo_type_class_name":"no-identity","closed_at":null,"govuk_status":"exempt","content_id":"664625d0-5799-4a70-9e79-95a1df8cb887"},"analytics_identifier":"PB294","parent_organisations":[{"id":"https://www.gov.uk/api/organisations/ministry-of-justice","web_url":"https://www.gov.uk/government/organisations/ministry-of-justice"}],"child_organisations":[]},{"id":"https://www.gov.uk/api/organisations/the-sentencing-council-for-england-and-wales","title":"Sentencing Council for England and Wales","format":"Advisory non-departmental public body","updated_at":"2016-05-12T15:14:21.000+01:00","web_url":"https://www.gov.uk/government/organisations/the-sentencing-council-for-england-and-wales","details":{"slug":"the-sentencing-council-for-england-and-wales","abbreviation":"SC","logo_formatted_name":"Sentencing Council \r\nfor England and Wales","organisation_brand_colour_class_name":"ministry-of-justice","organisation_logo_type_class_name":"no-identity","closed_at":null,"govuk_status":"exempt","content_id":"cffae6e9-47d4-4f92-a026-753f5b32d0ad"},"analytics_identifier":"PB295","parent_organisations":[{"id":"https://www.gov.uk/api/organisations/ministry-of-justice","web_url":"https://www.gov.uk/government/organisations/ministry-of-justice"}],"child_organisations":[]},{"id":"https://www.gov.uk/api/organisations/victim-s-advisory-panel","title":"Victims' Advisory Panel","format":"Advisory non-departmental public body","updated_at":"2016-04-18T08:29:55.000+01:00","web_url":"https://www.gov.uk/government/organisations/victim-s-advisory-panel","details":{"slug":"victim-s-advisory-panel","abbreviation":"VAP","logo_formatted_name":"Victims' \r\nAdvisory \r\nPanel","organisation_brand_colour_class_name":"ministry-of-justice","organisation_logo_type_class_name":"no-identity","closed_at":"2013-07-15T00:00:00.000+01:00","govuk_status":"closed","content_id":"9466746e-bf99-4962-b87a-06d27d7e7a78"},"analytics_identifier":"PB296","parent_organisations":[{"id":"https://www.gov.uk/api/organisations/ministry-of-justice","web_url":"https://www.gov.uk/government/organisations/ministry-of-justice"}],"child_organisations":[]},{"id":"https://www.gov.uk/api/organisations/criminal-injuries-compensation-authority","title":"Criminal Injuries Compensation Authority","format":"Executive agency","updated_at":"2015-04-01T13:07:50.000+01:00","web_url":"https://www.gov.uk/government/organisations/criminal-injuries-compensation-authority","details":{"slug":"criminal-injuries-compensation-authority","abbreviation":"CICA","logo_formatted_name":"Criminal Injuries Compensation Authority","organisation_brand_colour_class_name":"ministry-of-justice","organisation_logo_type_class_name":"single-identity","closed_at":null,"govuk_status":"live","content_id":"5bf3b781-5f71-4f16-891e-4254c9398094"},"analytics_identifier":"PB297","parent_organisations":[{"id":"https://www.gov.uk/api/organisations/ministry-of-justice","web_url":"https://www.gov.uk/government/organisations/ministry-of-justice"}],"child_organisations":[]},{"id":"https://www.gov.uk/api/organisations/information-commissioner-s-office","title":"Information Commissioner's Office","format":"Executive non-departmental public body","updated_at":"2015-11-26T11:09:41.000+00:00","web_url":"https://www.gov.uk/government/organisations/information-commissioner-s-office","details":{"slug":"information-commissioner-s-office","abbreviation":"ICO","logo_formatted_name":"Information Commissioner's Office","organisation_brand_colour_class_name":"ministry-of-justice","organisation_logo_type_class_name":"no-identity","closed_at":null,"govuk_status":"exempt","content_id":"763d15dd-c454-4f5b-876d-838a6cfc2fae"},"analytics_identifier":"PB298","parent_organisations":[{"id":"https://www.gov.uk/api/organisations/department-for-culture-media-sport","web_url":"https://www.gov.uk/government/organisations/department-for-culture-media-sport"}],"child_organisations":[]},{"id":"https://www.gov.uk/api/organisations/judicial-appointments-commission","title":"Judicial Appointments Commission","format":"Executive non-departmental public body","updated_at":"2014-10-15T15:36:03.000+01:00","web_url":"https://www.gov.uk/government/organisations/judicial-appointments-commission","details":{"slug":"judicial-appointments-commission","abbreviation":"JAC","logo_formatted_name":"Judicial Appointments Commission","organisation_brand_colour_class_name":"ministry-of-justice","organisation_logo_type_class_name":"no-identity","closed_at":null,"govuk_status":"exempt","content_id":"48ab7323-b4b7-41a4-bb8e-487ebdd5cdae"},"analytics_identifier":"PB299","parent_organisations":[{"id":"https://www.gov.uk/api/organisations/ministry-of-justice","web_url":"https://www.gov.uk/government/organisations/ministry-of-justice"}],"child_organisations":[]},{"id":"https://www.gov.uk/api/organisations/legal-services-commission","title":"Legal Services Commission","format":"Executive agency","updated_at":"2014-10-15T15:36:03.000+01:00","web_url":"https://www.gov.uk/government/organisations/legal-services-commission","details":{"slug":"legal-services-commission","abbreviation":"","logo_formatted_name":"Legal Services Commission","organisation_brand_colour_class_name":"ministry-of-justice","organisation_logo_type_class_name":"no-identity","closed_at":null,"govuk_status":"closed","content_id":"8010b372-ea79-467b-9221-da7a2330ea72"},"analytics_identifier":"PB300","parent_organisations":[{"id":"https://www.gov.uk/api/organisations/ministry-of-justice","web_url":"https://www.gov.uk/government/organisations/ministry-of-justice"}],"child_organisations":[]},{"id":"https://www.gov.uk/api/organisations/parole-board","title":"Parole Board","format":"Executive non-departmental public body","updated_at":"2016-02-26T12:45:21.000+00:00","web_url":"https://www.gov.uk/government/organisations/parole-board","details":{"slug":"parole-board","abbreviation":"Parole Board","logo_formatted_name":"Parole Board","organisation_brand_colour_class_name":"ministry-of-justice","organisation_logo_type_class_name":"custom","closed_at":null,"govuk_status":"live","content_id":"6c16969d-d8df-4580-aa3b-6e6982f62cd5"},"analytics_identifier":"PB301","parent_organisations":[{"id":"https://www.gov.uk/api/organisations/ministry-of-justice","web_url":"https://www.gov.uk/government/organisations/ministry-of-justice"}],"child_organisations":[]},{"id":"https://www.gov.uk/api/organisations/youth-justice-board-for-england-and-wales","title":"Youth Justice Board for England and Wales","format":"Executive non-departmental public body","updated_at":"2016-08-24T08:51:58.000+01:00","web_url":"https://www.gov.uk/government/organisations/youth-justice-board-for-england-and-wales","details":{"slug":"youth-justice-board-for-england-and-wales","abbreviation":"YJB","logo_formatted_name":"Youth Justice Board \r\nfor England and Wales","organisation_brand_colour_class_name":"ministry-of-justice","organisation_logo_type_class_name":"custom","closed_at":null,"govuk_status":"live","content_id":"7ad091b4-9098-4abd-aae3-1d2b790ee11e"},"analytics_identifier":"PB302","parent_organisations":[{"id":"https://www.gov.uk/api/organisations/ministry-of-justice","web_url":"https://www.gov.uk/government/organisations/ministry-of-justice"}],"child_organisations":[]},{"id":"https://www.gov.uk/api/organisations/office-for-national-statistics","title":"Office for National Statistics","format":"Other","updated_at":"2014-10-15T15:36:04.000+01:00","web_url":"https://www.gov.uk/government/organisations/office-for-national-statistics","details":{"slug":"office-for-national-statistics","abbreviation":"ONS","logo_formatted_name":"Office for National Statistics","organisation_brand_colour_class_name":null,"organisation_logo_type_class_name":"no-identity","closed_at":null,"govuk_status":"exempt","content_id":"5da4ab94-39b2-40cf-99ae-1af4f6b4206d"},"analytics_identifier":"D303","parent_organisations":[{"id":"https://www.gov.uk/api/organisations/uk-statistics-authority","web_url":"https://www.gov.uk/government/organisations/uk-statistics-authority"}],"child_organisations":[]},{"id":"https://www.gov.uk/api/organisations/the-security-service-mi5","title":"The Security Service","format":"Other","updated_at":"2014-10-15T15:36:04.000+01:00","web_url":"https://www.gov.uk/government/organisations/the-security-service-mi5","details":{"slug":"the-security-service-mi5","abbreviation":"MI5","logo_formatted_name":"The Security Service","organisation_brand_colour_class_name":null,"organisation_logo_type_class_name":"no-identity","closed_at":null,"govuk_status":"exempt","content_id":"3d41fee8-845c-456f-857b-12cc35763003"},"analytics_identifier":"OT304","parent_organisations":[{"id":"https://www.gov.uk/api/organisations/home-office","web_url":"https://www.gov.uk/government/organisations/home-office"}],"child_organisations":[{"id":"https://www.gov.uk/api/organisations/centre-for-the-protection-of-national-infrastructure","web_url":"https://www.gov.uk/government/organisations/centre-for-the-protection-of-national-infrastructure"}]},{"id":"https://www.gov.uk/api/organisations/secret-intelligence-service","title":"Secret Intelligence Service","format":"Other","updated_at":"2014-10-15T15:36:05.000+01:00","web_url":"https://www.gov.uk/government/organisations/secret-intelligence-service","details":{"slug":"secret-intelligence-service","abbreviation":"SIS","logo_formatted_name":"Secret Intelligence Service","organisation_brand_colour_class_name":"foreign-commonwealth-office","organisation_logo_type_class_name":"single-identity","closed_at":null,"govuk_status":"exempt","content_id":"aaa6186d-9753-4532-b500-6ab745045231"},"analytics_identifier":"OT305","parent_organisations":[{"id":"https://www.gov.uk/api/organisations/foreign-commonwealth-office","web_url":"https://www.gov.uk/government/organisations/foreign-commonwealth-office"}],"child_organisations":[]},{"id":"https://www.gov.uk/api/organisations/government-communications-headquarters","title":"Government Communications Headquarters","format":"Other","updated_at":"2014-10-15T15:36:05.000+01:00","web_url":"https://www.gov.uk/government/organisations/government-communications-headquarters","details":{"slug":"government-communications-headquarters","abbreviation":"GCHQ","logo_formatted_name":"Government Communications Headquarters","organisation_brand_colour_class_name":"foreign-commonwealth-office","organisation_logo_type_class_name":"single-identity","closed_at":null,"govuk_status":"exempt","content_id":"dbae9ee3-b1da-4fda-8dd6-8f2c568c9b1d"},"analytics_identifier":"OT306","parent_organisations":[{"id":"https://www.gov.uk/api/organisations/foreign-commonwealth-office","web_url":"https://www.gov.uk/government/organisations/foreign-commonwealth-office"}],"child_organisations":[{"id":"https://www.gov.uk/api/organisations/cesg","web_url":"https://www.gov.uk/government/organisations/cesg"},{"id":"https://www.gov.uk/api/organisations/centre-for-the-protection-of-national-infrastructure","web_url":"https://www.gov.uk/government/organisations/centre-for-the-protection-of-national-infrastructure"}]},{"id":"https://www.gov.uk/api/organisations/national-army-museum","title":"National Army Museum","format":"Executive non-departmental public body","updated_at":"2014-10-15T15:36:05.000+01:00","web_url":"https://www.gov.uk/government/organisations/national-army-museum","details":{"slug":"national-army-museum","abbreviation":"NAM","logo_formatted_name":"National Army Museum","organisation_brand_colour_class_name":"ministry-of-defence","organisation_logo_type_class_name":"no-identity","closed_at":null,"govuk_status":"exempt","content_id":"6e025dd8-a7f3-4d9e-8936-eb93f5419dc8"},"analytics_identifier":"PB307","parent_organisations":[{"id":"https://www.gov.uk/api/organisations/ministry-of-defence","web_url":"https://www.gov.uk/government/organisations/ministry-of-defence"}],"child_organisations":[]}],"previous_page_url":"https://www.gov.uk/api/organisations?page=10","next_page_url":"https://www.gov.uk/api/organisations?page=12","current_page":11,"total":1009,"pages":51,"page_size":20,"start_index":201,"_response_info":{"status":"ok","links":[{"href":"https://www.gov.uk/api/organisations?page=10","rel":"previous"},{"href":"https://www.gov.uk/api/organisations?page=12","rel":"next"},{"href":"https://www.gov.uk/api/organisations?page=11","rel":"self"}]}}
