{"results":[{"id":"https://www.gov.uk/api/organisations/royal-air-force-museum","title":"Royal Air Force Museum","format":"Executive non-departmental public body","updated_at":"2014-10-15T15:36:05.000+01:00","web_url":"https://www.gov.uk/government/organisations/royal-air-force-museum","details":{"slug":"royal-air-force-museum","abbreviation":"RAFM","logo_formatted_name":"Royal Air Force Museum","organisation_brand_colour_class_name":"ministry-of-defence","organisation_logo_type_class_name":"no-identity","closed_at":null,"govuk_status":"exempt","content_id":"f8d90636-4655-4a20-865d-95a51fe4380b"},"analytics_identifier":"PB308","parent_organisations":[{"id":"https://www.gov.uk/api/organisations/ministry-of-defence","web_url":"https://www.gov.uk/government/organisations/ministry-of-defence"}],"child_organisations":[]},{"id":"https://www.gov.uk/api/organisations/royal-marines-museum","title":"Royal Marines Museum","format":"Other","updated_at":"2014-10-15T15:36:05.000+01:00","web_url":"https://www.gov.uk/government/organisations/royal-marines-museum","details":{"slug":"royal-marines-museum","abbreviation":"RMM","logo_formatted_name":"Royal Marines \r\nMuseum","organisation_brand_colour_class_name":"ministry-of-defence","organisation_logo_type_class_name":"mod","closed_at":null,"govuk_status":"exempt","content_id":"2f19ac9b-692b-4d33-a2b0-201daf0cd92f"},"analytics_identifier":"PB310","parent_organisations":[{"id":"https://www.gov.uk/api/organisations/ministry-of-defence","web_url":"https://www.gov.uk/government/organisations/ministry-of-defence"}],"child_organisations":[]},{"id":"https://www.gov.uk/api/organisations/fleet-air-arm-museum","title":"Fleet Air Arm Museum ","format":"Other","updated_at":"2014-10-15T15:36:06.000+01:00","web_url":"https://www.gov.uk/government/organisations/fleet-air-arm-museum","details":{"slug":"fleet-air-arm-museum","abbreviation":"","logo_formatted_name":"Fleet Air \r\nArm Museum ","organisation_brand_colour_class_name":"ministry-of-defence","organisation_logo_type_class_name":"mod","closed_at":null,"govuk_status":"exempt","content_id":"8c3b5dee-0e61-4d0b-888d-5c510c6b80ac"},"analytics_identifier":"PB311","parent_organisations":[{"id":"https://www.gov.uk/api/organisations/ministry-of-defence","web_url":"https://www.gov.uk/government/organisations/ministry-of-defence"}],"child_organisations":[]},{"id":"https://www.gov.uk/api/organisations/british-council","title":"British Council","format":"Executive non-departmental public body","updated_at":"2014-10-15T15:36:06.000+01:00","web_url":"https://www.gov.uk/government/organisations/british-council","details":{"slug":"british-council","abbreviation":"British Council","logo_formatted_name":"British Council","organisation_brand_colour_class_name":"foreign-commonwealth-office","organisation_logo_type_class_name":"no-identity","closed_at":null,"govuk_status":"exempt","content_id":"37d2c134-1285-4907-a366-611617cfe44c"},"analytics_identifier":"OT313","parent_organisations":[{"id":"https://www.gov.uk/api/organisations/foreign-commonwealth-office","web_url":"https://www.gov.uk/government/organisations/foreign-commonwealth-office"}],"child_organisations":[]},{"id":"https://www.gov.uk/api/organisations/marshall-aid-commemoration-commission","title":"Marshall Aid Commemoration Commission","format":"Executive non-departmental public body","updated_at":"2014-10-15T15:36:06.000+01:00","web_url":"https://www.gov.uk/government/organisations/marshall-aid-commemoration-commission","details":{"slug":"marshall-aid-commemoration-commission","abbreviation":"MACC","logo_formatted_name":"Marshall Aid \r\nCommemoration Commission","organisation_brand_colour_class_name":"foreign-commonwealth-office","organisation_logo_type_class_name":"no-identity","closed_at":null,"govuk_status":"exempt","content_id":"c3704b95-a9b8-4dcc-84f4-5af987813d18"},"analytics_identifier":"OT315","parent_organisations":[{"id":"https://www.gov.uk/api/organisations/foreign-commonwealth-office","web_url":"https://www.gov.uk/government/organisations/foreign-commonwealth-office"}],"child_organisations":[]},{"id":"https://www.gov.uk/api/organisations/westminster-foundation-for-democracy","title":"Westminster Foundation for Democracy","format":"Executive non-departmental public body","updated_at":"2014-10-15T15:36:06.000+01:00","web_url":"https://www.gov.uk/government/organisations/westminster-foundation-for-democracy","details":{"slug":"westminster-foundation-for-democracy","abbreviation":"","logo_formatted_name":"Westminster \r\nFoundation for \r\nDemocracy","organisation_brand_colour_class_name":"foreign-commonwealth-office","organisation_logo_type_class_name":"no-identity","closed_at":null,"govuk_status":"exempt","content_id":"9d2fc568-068a-45ec-9ee1-ba65abb4a4e9"},"analytics_identifier":"OT316","parent_organisations":[{"id":"https://www.gov.uk/api/organisations/foreign-commonwealth-office","web_url":"https://www.gov.uk/government/organisations/foreign-commonwealth-office"}],"child_organisations":[]},{"id":"https://www.gov.uk/api/organisations/biotechnology-biological-sciences-research-council","title":"Biotechnology and Biological Sciences Research Council","format":"Executive non-departmental public body","updated_at":"2016-07-25T14:56:40.000+01:00","web_url":"https://www.gov.uk/government/organisations/biotechnology-biological-sciences-research-council","details":{"slug":"biotechnology-biological-sciences-research-council","abbreviation":"BBSRC","logo_formatted_name":"Biotechnology \u0026 Biological Sciences\r\nResearch Council","organisation_brand_colour_class_name":"department-for-business-innovation-skills","organisation_logo_type_class_name":"no-identity","closed_at":null,"govuk_status":"exempt","content_id":"fbc7160d-50dc-4b6b-bd1e-ec0300b8610e"},"analytics_identifier":"PB317","parent_organisations":[{"id":"https://www.gov.uk/api/organisations/department-for-business-energy-and-industrial-strategy","web_url":"https://www.gov.uk/government/organisations/department-for-business-energy-and-industrial-strategy"}],"child_organisations":[]},{"id":"https://www.gov.uk/api/organisations/competition-service","title":"Competition Service","format":"Executive non-departmental public body","updated_at":"2014-12-19T14:43:01.000+00:00","web_url":"https://www.gov.uk/government/organisations/competition-service","details":{"slug":"competition-service","abbreviation":"CS","logo_formatted_name":"Competition Service","organisation_brand_colour_class_name":"department-for-business-innovation-skills","organisation_logo_type_class_name":"single-identity","closed_at":null,"govuk_status":"exempt","content_id":"493c404d-956f-492e-b07f-500f16eca8a5"},"analytics_identifier":"PB318","parent_organisations":[{"id":"https://www.gov.uk/api/organisations/department-for-business-energy-and-industrial-strategy","web_url":"https://www.gov.uk/government/organisations/department-for-business-energy-and-industrial-strategy"}],"child_organisations":[]},{"id":"https://www.gov.uk/api/organisations/criminal-cases-review-commission","title":"Criminal Cases Review Commission","format":"Executive non-departmental public body","updated_at":"2015-03-30T12:29:48.000+01:00","web_url":"https://www.gov.uk/government/organisations/criminal-cases-review-commission","details":{"slug":"criminal-cases-review-commission","abbreviation":"CCRC","logo_formatted_name":"Criminal Cases Review Commission","organisation_brand_colour_class_name":"ministry-of-justice","organisation_logo_type_class_name":"no-identity","closed_at":null,"govuk_status":"exempt","content_id":"47b15cdf-cd1b-47e7-883f-792b284e4526"},"analytics_identifier":"IM320","parent_organisations":[{"id":"https://www.gov.uk/api/organisations/ministry-of-justice","web_url":"https://www.gov.uk/government/organisations/ministry-of-justice"}],"child_organisations":[]},{"id":"https://www.gov.uk/api/organisations/hm-prison-service","title":"HM Prison Service","format":"Executive agency","updated_at":"2014-10-15T15:36:07.000+01:00","web_url":"https://www.gov.uk/government/organisations/hm-prison-service","details":{"slug":"hm-prison-service","abbreviation":"HMPS","logo_formatted_name":"HM Prison Service","organisation_brand_colour_class_name":"ministry-of-justice","organisation_logo_type_class_name":"custom","closed_at":null,"govuk_status":"live","content_id":"05b3ff92-52c9-4577-b08e-7514b40c98ff"},"analytics_identifier":"EA321","parent_organisations":[{"id":"https://www.gov.uk/api/organisations/ministry-of-justice","web_url":"https://www.gov.uk/government/organisations/ministry-of-justice"}],"child_organisations":[]},{"id":"https://www.gov.uk/api/organisations/hm-inspectorate-of-prisons","title":"HM Inspectorate of Prisons","format":"Other","updated_at":"2014-10-15T15:36:08.000+01:00","web_url":"https://www.gov.uk/government/organisations/hm-inspectorate-of-prisons","details":{"slug":"hm-inspectorate-of-prisons","abbreviation":"","logo_formatted_name":"Her Majesty's Inspectorate of Prisons","organisation_brand_colour_class_name":"ministry-of-justice","organisation_logo_type_class_name":"no-identity","closed_at":null,"govuk_status":"exempt","content_id":"d85bc1fb-fca0-4d10-b9ff-a637ed4110bc"},"analytics_identifier":"IM324","parent_organisations":[{"id":"https://www.gov.uk/api/organisations/ministry-of-justice","web_url":"https://www.gov.uk/government/organisations/ministry-of-justice"}],"child_organisations":[]},{"id":"https://www.gov.uk/api/organisations/hm-inspectorate-of-probation","title":"HM Inspectorate of Probation","format":"Other","updated_at":"2014-10-15T15:36:08.000+01:00","web_url":"https://www.gov.uk/government/organisations/hm-inspectorate-of-probation","details":{"slug":"hm-inspectorate-of-probation","abbreviation":"","logo_formatted_name":"Her Majesty's Inspectorate of Probation","organisation_brand_colour_class_name":"ministry-of-justice","organisation_logo_type_class_name":"no-identity","closed_at":null,"govuk_status":"exempt","content_id":"906f6d40-ba00-48ae-9c41-a0964dfa1b81"},"analytics_identifier":"IM325","parent_organisations":[{"id":"https://www.gov.uk/api/organisations/ministry-of-justice","web_url":"https://www.gov.uk/government/organisations/ministry-of-justice"}],"child_organisations":[]},{"id":"https://www.gov.uk/api/organisations/victims-commissioner","title":"Victims' Commissioner","format":"Other","updated_at":"2014-12-03T09:56:05.000+00:00","web_url":"https://www.gov.uk/government/organisations/victims-commissioner","details":{"slug":"victims-commissioner","abbreviation":"","logo_formatted_name":"Victims' Commissioner","organisation_brand_colour_class_name":"ministry-of-justice","organisation_logo_type_class_name":"single-identity","closed_at":null,"govuk_status":"exempt","content_id":"28d6fb6e-d601-4cc4-802b-e060474e0f7e"},"analytics_identifier":"PB326","parent_organisations":[{"id":"https://www.gov.uk/api/organisations/ministry-of-justice","web_url":"https://www.gov.uk/government/organisations/ministry-of-justice"}],"child_organisations":[]},{"id":"https://www.gov.uk/api/organisations/prisons-and-probation-ombudsman","title":"Prisons and Probation Ombudsman","format":"Other","updated_at":"2014-10-15T15:36:08.000+01:00","web_url":"https://www.gov.uk/government/organisations/prisons-and-probation-ombudsman","details":{"slug":"prisons-and-probation-ombudsman","abbreviation":"PPO","logo_formatted_name":"Prisons and Probation Ombudsman","organisation_brand_colour_class_name":"ministry-of-justice","organisation_logo_type_class_name":"no-identity","closed_at":null,"govuk_status":"exempt","content_id":"5f7442a4-8c5c-4674-a4ac-ff403119f947"},"analytics_identifier":"IM327","parent_organisations":[{"id":"https://www.gov.uk/api/organisations/ministry-of-justice","web_url":"https://www.gov.uk/government/organisations/ministry-of-justice"}],"child_organisations":[]},{"id":"https://www.gov.uk/api/organisations/official-solicitor-and-public-trustee","title":"Official Solicitor and Public Trustee","format":"Other","updated_at":"2015-01-30T16:03:00.000+00:00","web_url":"https://www.gov.uk/government/organisations/official-solicitor-and-public-trustee","details":{"slug":"official-solicitor-and-public-trustee","abbreviation":"OSPT","logo_formatted_name":"Official Solicitor \r\nand Public Trustee","organisation_brand_colour_class_name":"ministry-of-justice","organisation_logo_type_class_name":"single-identity","closed_at":null,"govuk_status":"live","content_id":"0fac336b-7685-4b1b-bdf1-37e4e964bf67"},"analytics_identifier":"OT328","parent_organisations":[{"id":"https://www.gov.uk/api/organisations/ministry-of-justice","web_url":"https://www.gov.uk/government/organisations/ministry-of-justice"}],"child_organisations":[]},{"id":"https://www.gov.uk/api/organisations/the-legal-ombudsman","title":"The Legal Ombudsman","format":"Other","updated_at":"2014-10-15T15:36:09.000+01:00","web_url":"https://www.gov.uk/government/organisations/the-legal-ombudsman","details":{"slug":"the-legal-ombudsman","abbreviation":"","logo_formatted_name":"The Legal Ombudsman","organisation_brand_colour_class_name":"ministry-of-justice","organisation_logo_type_class_name":"no-identity","closed_at":null,"govuk_status":"exempt","content_id":"68c38333-e325-4446-a514-86a958f740bb"},"analytics_identifier":"IM329","parent_organisations":[{"id":"https://www.gov.uk/api/organisations/ministry-of-justice","web_url":"https://www.gov.uk/government/organisations/ministry-of-justice"}],"child_organisations":[]},{"id":"https://www.gov.uk/api/organisations/legal-services-board","title":"Legal Services Board","format":"Executive non-departmental public body","updated_at":"2014-10-15T15:36:09.000+01:00","web_url":"https://www.gov.uk/government/organisations/legal-services-board","details":{"slug":"legal-services-board","abbreviation":"LSB","logo_formatted_name":"Legal Services Board","organisation_brand_colour_class_name":"ministry-of-justice","organisation_logo_type_class_name":"no-identity","closed_at":null,"govuk_status":"exempt","content_id":"1bfc68b1-30d5-4924-8e2d-b4b9eed71b26"},"analytics_identifier":"IM332","parent_organisations":[{"id":"https://www.gov.uk/api/organisations/ministry-of-justice","web_url":"https://www.gov.uk/government/organisations/ministry-of-justice"}],"child_organisations":[]},{"id":"https://www.gov.uk/api/organisations/judicial-appointments-and-conduct-ombudsman","title":"Judicial Appointments and Conduct Ombudsman","format":"Other","updated_at":"2014-10-15T15:36:09.000+01:00","web_url":"https://www.gov.uk/government/organisations/judicial-appointments-and-conduct-ombudsman","details":{"slug":"judicial-appointments-and-conduct-ombudsman","abbreviation":"JACO","logo_formatted_name":"Judicial Appointments and \r\nConduct Ombudsman","organisation_brand_colour_class_name":"ministry-of-justice","organisation_logo_type_class_name":"custom","closed_at":null,"govuk_status":"live","content_id":"26e55584-4db9-4476-a527-a3c5cb1eb6d2"},"analytics_identifier":"IM333","parent_organisations":[{"id":"https://www.gov.uk/api/organisations/ministry-of-justice","web_url":"https://www.gov.uk/government/organisations/ministry-of-justice"}],"child_organisations":[]},{"id":"https://www.gov.uk/api/organisations/independent-commission-for-aid-impact","title":"Independent Commission for Aid Impact","format":"Advisory non-departmental public body","updated_at":"2014-10-15T15:36:09.000+01:00","web_url":"https://www.gov.uk/government/organisations/independent-commission-for-aid-impact","details":{"slug":"independent-commission-for-aid-impact","abbreviation":"ICAI","logo_formatted_name":"Independent Commission \r\nfor Aid Impact","organisation_brand_colour_class_name":"department-for-international-development","organisation_logo_type_class_name":"no-identity","closed_at":null,"govuk_status":"exempt","content_id":"576ef8b8-7d03-402a-a849-8da28ca72151"},"analytics_identifier":"IM335","parent_organisations":[{"id":"https://www.gov.uk/api/organisations/department-for-international-development","web_url":"https://www.gov.uk/government/organisations/department-for-international-development"}],"child_organisations":[]},{"id":"https://www.gov.uk/api/organisations/advisory-committee-on-business-appointments","title":"Advisory Committee on Business Appointments","format":"Advisory non-departmental public body","updated_at":"2015-02-18T09:33:11.000+00:00","web_url":"https://www.gov.uk/government/organisations/advisory-committee-on-business-appointments","details":{"slug":"advisory-committee-on-business-appointments","abbreviation":"ACOBA","logo_formatted_name":"Advisory Committee on Business Appointments","organisation_brand_colour_class_name":"cabinet-office","organisation_logo_type_class_name":"single-identity","closed_at":null,"govuk_status":"live","content_id":"6e414d7c-61af-4113-b039-435e461ddaf2"},"analytics_identifier":"PB336","parent_organisations":[{"id":"https://www.gov.uk/api/organisations/cabinet-office","web_url":"https://www.gov.uk/government/organisations/cabinet-office"}],"child_organisations":[]}],"previous_page_url":"https://www.gov.uk/api/organisations?page=11","next_page_url":"https://www.gov.uk/api/organisations?page=13","current_page":12,"total":1009,"pages":51,"page_size":20,"start_index":221,"_response_info":{"status":"ok","links":[{"href":"https://www.gov.uk/api/organisations?page=11","rel":"previous"},{"href":"https://www.gov.uk/api/organisations?page=13","rel":"next"},{"href":"https://www.gov.uk/api/organisations?page=12","rel":"self"}]}}
