{"results":[{"id":"https://www.gov.uk/api/organisations/boundary-commission-for-england","title":"Boundary Commission for England","format":"Advisory non-departmental public body","updated_at":"2014-10-15T15:36:10.000+01:00","web_url":"https://www.gov.uk/government/organisations/boundary-commission-for-england","details":{"slug":"boundary-commission-for-england","abbreviation":"BCE","logo_formatted_name":"Boundary Commission for England","organisation_brand_colour_class_name":"cabinet-office","organisation_logo_type_class_name":"no-identity","closed_at":null,"govuk_status":"exempt","content_id":"020e53fd-8dad-4387-8f05-66ec045f6769"},"analytics_identifier":"PB337","parent_organisations":[{"id":"https://www.gov.uk/api/organisations/cabinet-office","web_url":"https://www.gov.uk/government/organisations/cabinet-office"}],"child_organisations":[]},{"id":"https://www.gov.uk/api/organisations/house-of-lords-appointments-commission","title":"House of Lords Appointments Commission","format":"Advisory non-departmental public body","updated_at":"2014-10-15T15:36:10.000+01:00","web_url":"https://www.gov.uk/government/organisations/house-of-lords-appointments-commission","details":{"slug":"house-of-lords-appointments-commission","abbreviation":"HOLAC","logo_formatted_name":"House of Lords \r\nAppointments \r\nCommission","organisation_brand_colour_class_name":"cabinet-office","organisation_logo_type_class_name":"portcullis","closed_at":null,"govuk_status":"exempt","content_id":"53e21b5a-ee6e-42b5-9c8b-5e060d4fda9d"},"analytics_identifier":"IM341","parent_organisations":[{"id":"https://www.gov.uk/api/organisations/cabinet-office","web_url":"https://www.gov.uk/government/organisations/cabinet-office"}],"child_organisations":[]},{"id":"https://www.gov.uk/api/organisations/privy-council-office","title":"Privy Council Office","format":"Other","updated_at":"2014-10-15T15:36:10.000+01:00","web_url":"https://www.gov.uk/government/organisations/privy-council-office","details":{"slug":"privy-council-office","abbreviation":"PCO","logo_formatted_name":"Privy Council Office","organisation_brand_colour_class_name":"cabinet-office","organisation_logo_type_class_name":"single-identity","closed_at":null,"govuk_status":"exempt","content_id":"46d4b289-88ec-4123-be2e-ea7d3bcf73a1"},"analytics_identifier":"OT342","parent_organisations":[{"id":"https://www.gov.uk/api/organisations/cabinet-office","web_url":"https://www.gov.uk/government/organisations/cabinet-office"}],"child_organisations":[]},{"id":"https://www.gov.uk/api/organisations/audit-commission","title":"Audit Commission","format":"Public corporation","updated_at":"2015-03-28T11:01:32.000+00:00","web_url":"https://www.gov.uk/government/organisations/audit-commission","details":{"slug":"audit-commission","abbreviation":"Audit Commission","logo_formatted_name":"Audit Commission","organisation_brand_colour_class_name":"department-for-communities-and-local-government","organisation_logo_type_class_name":"no-identity","closed_at":"2015-03-31T00:00:00.000+01:00","govuk_status":"closed","content_id":"57636ab1-bff6-4512-a559-c943f85cba3c"},"analytics_identifier":"PC343","parent_organisations":[{"id":"https://www.gov.uk/api/organisations/department-for-communities-and-local-government","web_url":"https://www.gov.uk/government/organisations/department-for-communities-and-local-government"}],"child_organisations":[]},{"id":"https://www.gov.uk/api/organisations/hm-crown-prosecution-service-inspectorate","title":"HM Crown Prosecution Service Inspectorate","format":"Other","updated_at":"2014-10-15T15:36:11.000+01:00","web_url":"https://www.gov.uk/government/organisations/hm-crown-prosecution-service-inspectorate","details":{"slug":"hm-crown-prosecution-service-inspectorate","abbreviation":"HMCPSI","logo_formatted_name":"HM Crown Prosecution \r\nService Inspectorate","organisation_brand_colour_class_name":"attorney-generals-office","organisation_logo_type_class_name":"no-identity","closed_at":null,"govuk_status":"exempt","content_id":"80d7633e-2e65-46f0-8328-d71692ca3cc4"},"analytics_identifier":"OT347","parent_organisations":[{"id":"https://www.gov.uk/api/organisations/attorney-generals-office","web_url":"https://www.gov.uk/government/organisations/attorney-generals-office"}],"child_organisations":[]},{"id":"https://www.gov.uk/api/organisations/pension-protection-fund","title":"Pension Protection Fund","format":"Public corporation","updated_at":"2014-10-15T15:36:11.000+01:00","web_url":"https://www.gov.uk/government/organisations/pension-protection-fund","details":{"slug":"pension-protection-fund","abbreviation":"PPF","logo_formatted_name":"Pension \r\nProtection Fund","organisation_brand_colour_class_name":"department-for-work-pensions","organisation_logo_type_class_name":"single-identity","closed_at":null,"govuk_status":"exempt","content_id":"234e02d3-ec77-4a99-b523-e4f5993d7a38"},"analytics_identifier":"PB348","parent_organisations":[{"id":"https://www.gov.uk/api/organisations/department-for-work-pensions","web_url":"https://www.gov.uk/government/organisations/department-for-work-pensions"}],"child_organisations":[]},{"id":"https://www.gov.uk/api/organisations/independent-living-fund","title":"Independent Living Fund","format":"Executive non-departmental public body","updated_at":"2015-07-01T07:34:03.000+01:00","web_url":"https://www.gov.uk/government/organisations/independent-living-fund","details":{"slug":"independent-living-fund","abbreviation":"ILF","logo_formatted_name":"Independent\r\nLiving Fund","organisation_brand_colour_class_name":"department-for-work-pensions","organisation_logo_type_class_name":"single-identity","closed_at":null,"govuk_status":"closed","content_id":"b8a6a8f2-d04f-4346-90c1-d28898565866"},"analytics_identifier":"PB349","parent_organisations":[{"id":"https://www.gov.uk/api/organisations/department-for-work-pensions","web_url":"https://www.gov.uk/government/organisations/department-for-work-pensions"}],"child_organisations":[]},{"id":"https://www.gov.uk/api/organisations/remploy-ltd","title":"Remploy Ltd","format":"Executive non-departmental public body","updated_at":"2015-07-31T10:52:00.000+01:00","web_url":"https://www.gov.uk/government/organisations/remploy-ltd","details":{"slug":"remploy-ltd","abbreviation":"Remploy","logo_formatted_name":"Remploy Ltd","organisation_brand_colour_class_name":"department-for-work-pensions","organisation_logo_type_class_name":"no-identity","closed_at":null,"govuk_status":"closed","content_id":"03291b96-fa53-4dd9-8268-8975ee6bc94c"},"analytics_identifier":"PB350","parent_organisations":[{"id":"https://www.gov.uk/api/organisations/department-for-work-pensions","web_url":"https://www.gov.uk/government/organisations/department-for-work-pensions"}],"child_organisations":[]},{"id":"https://www.gov.uk/api/organisations/office-of-fair-trading","title":"Office of Fair Trading","format":"Non-ministerial department","updated_at":"2014-10-15T15:36:11.000+01:00","web_url":"https://www.gov.uk/government/organisations/office-of-fair-trading","details":{"slug":"office-of-fair-trading","abbreviation":"OFT","logo_formatted_name":"Office of Fair Trading","organisation_brand_colour_class_name":"department-for-business-innovation-skills","organisation_logo_type_class_name":"no-identity","closed_at":null,"govuk_status":"closed","content_id":"50fdc300-48b8-4ac8-8dc3-7bc1ef054da1"},"analytics_identifier":"D352","parent_organisations":[{"id":"https://www.gov.uk/api/organisations/department-for-business-innovation-skills","web_url":"https://www.gov.uk/government/organisations/department-for-business-innovation-skills"}],"child_organisations":[]},{"id":"https://www.gov.uk/api/organisations/competition-commission","title":"Competition Commission","format":"Executive non-departmental public body","updated_at":"2014-10-15T15:36:12.000+01:00","web_url":"https://www.gov.uk/government/organisations/competition-commission","details":{"slug":"competition-commission","abbreviation":"CC","logo_formatted_name":"Competition Commission","organisation_brand_colour_class_name":"department-for-business-innovation-skills","organisation_logo_type_class_name":"custom","closed_at":null,"govuk_status":"closed","content_id":"2a3c8f3c-4cd8-4c84-adf4-2ef07c212ec3"},"analytics_identifier":"PB353","parent_organisations":[{"id":"https://www.gov.uk/api/organisations/department-for-business-innovation-skills","web_url":"https://www.gov.uk/government/organisations/department-for-business-innovation-skills"}],"child_organisations":[]},{"id":"https://www.gov.uk/api/organisations/regulatory-policy-committee","title":"Regulatory Policy Committee","format":"Advisory non-departmental public body","updated_at":"2014-10-15T15:36:12.000+01:00","web_url":"https://www.gov.uk/government/organisations/regulatory-policy-committee","details":{"slug":"regulatory-policy-committee","abbreviation":"RPC","logo_formatted_name":"Regulatory Policy Committee","organisation_brand_colour_class_name":"department-for-business-innovation-skills","organisation_logo_type_class_name":"custom","closed_at":null,"govuk_status":"live","content_id":"855e9471-8f8e-49cb-b613-28058188ced7"},"analytics_identifier":"PB354","parent_organisations":[{"id":"https://www.gov.uk/api/organisations/department-for-business-energy-and-industrial-strategy","web_url":"https://www.gov.uk/government/organisations/department-for-business-energy-and-industrial-strategy"}],"child_organisations":[]},{"id":"https://www.gov.uk/api/organisations/copyright-tribunal","title":"Copyright Tribunal","format":"Tribunal non-departmental public body","updated_at":"2014-11-12T11:44:16.000+00:00","web_url":"https://www.gov.uk/government/organisations/copyright-tribunal","details":{"slug":"copyright-tribunal","abbreviation":"","logo_formatted_name":"Copyright Tribunal","organisation_brand_colour_class_name":"department-for-business-innovation-skills","organisation_logo_type_class_name":"single-identity","closed_at":null,"govuk_status":"live","content_id":"d622096e-34ec-47ab-9d17-b185458bccf2"},"analytics_identifier":"PB355","parent_organisations":[{"id":"https://www.gov.uk/api/organisations/department-for-business-energy-and-industrial-strategy","web_url":"https://www.gov.uk/government/organisations/department-for-business-energy-and-industrial-strategy"}],"child_organisations":[]},{"id":"https://www.gov.uk/api/organisations/consumer-focus","title":"Consumer Futures","format":"Executive non-departmental public body","updated_at":"2014-10-15T15:36:12.000+01:00","web_url":"https://www.gov.uk/government/organisations/consumer-focus","details":{"slug":"consumer-focus","abbreviation":"","logo_formatted_name":"Consumer Futures","organisation_brand_colour_class_name":"department-for-business-innovation-skills","organisation_logo_type_class_name":"no-identity","closed_at":"2014-04-01T00:00:00.000+01:00","govuk_status":"closed","content_id":"86f177d5-bf19-4fd2-8b78-fe37482b100d"},"analytics_identifier":"PB356","parent_organisations":[{"id":"https://www.gov.uk/api/organisations/department-for-business-innovation-skills","web_url":"https://www.gov.uk/government/organisations/department-for-business-innovation-skills"}],"child_organisations":[]},{"id":"https://www.gov.uk/api/organisations/export-guarantees-advisory-council","title":"Export Guarantees Advisory Council","format":"Advisory non-departmental public body","updated_at":"2014-10-15T15:36:13.000+01:00","web_url":"https://www.gov.uk/government/organisations/export-guarantees-advisory-council","details":{"slug":"export-guarantees-advisory-council","abbreviation":"EGAC","logo_formatted_name":"Export Guarantees Advisory Council","organisation_brand_colour_class_name":"uk-export-finance","organisation_logo_type_class_name":"single-identity","closed_at":null,"govuk_status":"live","content_id":"724a1175-b20d-4de9-bbbc-c2c6f2ac2863"},"analytics_identifier":"PB357","parent_organisations":[{"id":"https://www.gov.uk/api/organisations/uk-export-finance","web_url":"https://www.gov.uk/government/organisations/uk-export-finance"}],"child_organisations":[]},{"id":"https://www.gov.uk/api/organisations/land-registration-rule-committee","title":"Land Registration Rule Committee","format":"Advisory non-departmental public body","updated_at":"2014-10-15T15:36:13.000+01:00","web_url":"https://www.gov.uk/government/organisations/land-registration-rule-committee","details":{"slug":"land-registration-rule-committee","abbreviation":"LRRC","logo_formatted_name":"Land Registration Rule Committee","organisation_brand_colour_class_name":"department-for-business-innovation-skills","organisation_logo_type_class_name":"single-identity","closed_at":null,"govuk_status":"live","content_id":"25ee0af2-ee25-4dde-b5dd-1b75b0bad76e"},"analytics_identifier":"PB358","parent_organisations":[{"id":"https://www.gov.uk/api/organisations/department-for-business-energy-and-industrial-strategy","web_url":"https://www.gov.uk/government/organisations/department-for-business-energy-and-industrial-strategy"}],"child_organisations":[]},{"id":"https://www.gov.uk/api/organisations/uk-green-investment-bank","title":"UK Green Investment Bank","format":"Other","updated_at":"2016-07-25T15:22:45.000+01:00","web_url":"https://www.gov.uk/government/organisations/uk-green-investment-bank","details":{"slug":"uk-green-investment-bank","abbreviation":"GIB","logo_formatted_name":"UK Green Investment Bank","organisation_brand_colour_class_name":"department-for-business-innovation-skills","organisation_logo_type_class_name":"no-identity","closed_at":null,"govuk_status":"exempt","content_id":"dc960890-6e46-417e-bc8d-2404f086bccd"},"analytics_identifier":"OT360","parent_organisations":[{"id":"https://www.gov.uk/api/organisations/department-for-business-energy-and-industrial-strategy","web_url":"https://www.gov.uk/government/organisations/department-for-business-energy-and-industrial-strategy"}],"child_organisations":[]},{"id":"https://www.gov.uk/api/organisations/government-procurement-service","title":"Government Procurement Service","format":"Executive agency","updated_at":"2014-10-15T15:36:13.000+01:00","web_url":"https://www.gov.uk/government/organisations/government-procurement-service","details":{"slug":"government-procurement-service","abbreviation":"GPS","logo_formatted_name":"Government Procurement Service","organisation_brand_colour_class_name":"cabinet-office","organisation_logo_type_class_name":"single-identity","closed_at":null,"govuk_status":"closed","content_id":"dab2e4db-e548-49d0-afe1-0c06a20fc195"},"analytics_identifier":"EA365","parent_organisations":[],"child_organisations":[]},{"id":"https://www.gov.uk/api/organisations/civil-service-commission","title":"Civil Service Commission","format":"Executive non-departmental public body","updated_at":"2014-12-19T14:41:29.000+00:00","web_url":"https://www.gov.uk/government/organisations/civil-service-commission","details":{"slug":"civil-service-commission","abbreviation":"CSC","logo_formatted_name":"Civil Service Commission","organisation_brand_colour_class_name":"cabinet-office","organisation_logo_type_class_name":"single-identity","closed_at":null,"govuk_status":"exempt","content_id":"b64de654-e360-4cdd-ac99-f0c93a20c0ca"},"analytics_identifier":"PB366","parent_organisations":[{"id":"https://www.gov.uk/api/organisations/cabinet-office","web_url":"https://www.gov.uk/government/organisations/cabinet-office"}],"child_organisations":[]},{"id":"https://www.gov.uk/api/organisations/security-vetting-appeals-panel","title":"Security Vetting Appeals Panel","format":"Advisory non-departmental public body","updated_at":"2015-03-02T14:56:12.000+00:00","web_url":"https://www.gov.uk/government/organisations/security-vetting-appeals-panel","details":{"slug":"security-vetting-appeals-panel","abbreviation":"SVAP","logo_formatted_name":"Security Vetting Appeals Panel","organisation_brand_colour_class_name":"cabinet-office","organisation_logo_type_class_name":"single-identity","closed_at":null,"govuk_status":"live","content_id":"feb0ab2b-dc16-4fc7-abff-8668618d6987"},"analytics_identifier":"PB367","parent_organisations":[{"id":"https://www.gov.uk/api/organisations/cabinet-office","web_url":"https://www.gov.uk/government/organisations/cabinet-office"}],"child_organisations":[]},{"id":"https://www.gov.uk/api/organisations/review-body-on-senior-salaries","title":"Senior Salaries Review Body ","format":"Advisory non-departmental public body","updated_at":"2014-10-15T15:36:14.000+01:00","web_url":"https://www.gov.uk/government/organisations/review-body-on-senior-salaries","details":{"slug":"review-body-on-senior-salaries","abbreviation":"SSRB","logo_formatted_name":"Review Body on Senior Salaries ","organisation_brand_colour_class_name":"cabinet-office","organisation_logo_type_class_name":"single-identity","closed_at":null,"govuk_status":"live","content_id":"e3115d57-8ee5-4bbf-96e0-f167c8729a6e"},"analytics_identifier":"PB368","parent_organisations":[{"id":"https://www.gov.uk/api/organisations/cabinet-office","web_url":"https://www.gov.uk/government/organisations/cabinet-office"}],"child_organisations":[]}],"previous_page_url":"https://www.gov.uk/api/organisations?page=12","next_page_url":"https://www.gov.uk/api/organisations?page=14","current_page":13,"total":1009,"pages":51,"page_size":20,"start_index":241,"_response_info":{"status":"ok","links":[{"href":"https://www.gov.uk/api/organisations?page=12","rel":"previous"},{"href":"https://www.gov.uk/api/organisations?page=14","rel":"next"},{"href":"https://www.gov.uk/api/organisations?page=13","rel":"self"}]}}
