{"results":[{"id":"https://www.gov.uk/api/organisations/housing-ombudsman","title":"Housing Ombudsman","format":"Executive non-departmental public body","updated_at":"2014-10-15T15:36:14.000+01:00","web_url":"https://www.gov.uk/government/organisations/housing-ombudsman","details":{"slug":"housing-ombudsman","abbreviation":"HOS","logo_formatted_name":"Housing Ombudsman","organisation_brand_colour_class_name":"department-for-communities-and-local-government","organisation_logo_type_class_name":"no-identity","closed_at":null,"govuk_status":"exempt","content_id":"9e28ceb5-667e-4950-bd82-22dec742f20d"},"analytics_identifier":"PB372","parent_organisations":[{"id":"https://www.gov.uk/api/organisations/department-for-communities-and-local-government","web_url":"https://www.gov.uk/government/organisations/department-for-communities-and-local-government"}],"child_organisations":[]},{"id":"https://www.gov.uk/api/organisations/leasehold-advisory-service","title":"Leasehold Advisory Service","format":"Executive non-departmental public body","updated_at":"2014-10-15T15:36:15.000+01:00","web_url":"https://www.gov.uk/government/organisations/leasehold-advisory-service","details":{"slug":"leasehold-advisory-service","abbreviation":"LEASE","logo_formatted_name":"Leasehold Advisory Service","organisation_brand_colour_class_name":"department-for-communities-and-local-government","organisation_logo_type_class_name":"single-identity","closed_at":null,"govuk_status":"exempt","content_id":"efe5af99-f8ae-4dd3-867b-e29119f65fe4"},"analytics_identifier":"PB373","parent_organisations":[{"id":"https://www.gov.uk/api/organisations/department-for-communities-and-local-government","web_url":"https://www.gov.uk/government/organisations/department-for-communities-and-local-government"}],"child_organisations":[]},{"id":"https://www.gov.uk/api/organisations/london-thames-gateway-development-corporation","title":"London Thames Gateway Development Corporation","format":"Executive non-departmental public body","updated_at":"2014-10-15T15:36:15.000+01:00","web_url":"https://www.gov.uk/government/organisations/london-thames-gateway-development-corporation","details":{"slug":"london-thames-gateway-development-corporation","abbreviation":"LTGDC","logo_formatted_name":"London Thames Gateway Development Corporation","organisation_brand_colour_class_name":"department-for-communities-and-local-government","organisation_logo_type_class_name":"single-identity","closed_at":"2013-02-28T00:00:00.000+00:00","govuk_status":"closed","content_id":"f1e5373d-6b82-47a4-9dfe-595f060360f6"},"analytics_identifier":"PB374","parent_organisations":[{"id":"https://www.gov.uk/api/organisations/department-for-communities-and-local-government","web_url":"https://www.gov.uk/government/organisations/department-for-communities-and-local-government"}],"child_organisations":[]},{"id":"https://www.gov.uk/api/organisations/valuation-tribunal-service-for-england-valuation-tribunal-service","title":"Valuation Tribunal Service","format":"Executive non-departmental public body","updated_at":"2016-07-26T13:39:05.000+01:00","web_url":"https://www.gov.uk/government/organisations/valuation-tribunal-service-for-england-valuation-tribunal-service","details":{"slug":"valuation-tribunal-service-for-england-valuation-tribunal-service","abbreviation":"VTS","logo_formatted_name":"Valuation Tribunal Service","organisation_brand_colour_class_name":"department-for-communities-and-local-government","organisation_logo_type_class_name":"no-identity","closed_at":null,"govuk_status":"exempt","content_id":"7e6ad32c-a97f-48cb-a3aa-b0d134d639fa"},"analytics_identifier":"PB375","parent_organisations":[{"id":"https://www.gov.uk/api/organisations/department-for-communities-and-local-government","web_url":"https://www.gov.uk/government/organisations/department-for-communities-and-local-government"}],"child_organisations":[]},{"id":"https://www.gov.uk/api/organisations/visitengland","title":"VisitEngland","format":"Executive non-departmental public body","updated_at":"2015-05-18T09:43:22.000+01:00","web_url":"https://www.gov.uk/government/organisations/visitengland","details":{"slug":"visitengland","abbreviation":"VE","logo_formatted_name":"VisitEngland","organisation_brand_colour_class_name":"department-for-culture-media-sport","organisation_logo_type_class_name":"no-identity","closed_at":null,"govuk_status":"exempt","content_id":"8ac8728f-ae2e-4e4b-ac38-819bbf55269e"},"analytics_identifier":"PB376","parent_organisations":[{"id":"https://www.gov.uk/api/organisations/department-for-culture-media-sport","web_url":"https://www.gov.uk/government/organisations/department-for-culture-media-sport"}],"child_organisations":[]},{"id":"https://www.gov.uk/api/organisations/uk-anti-doping","title":"UK Anti-Doping","format":"Executive non-departmental public body","updated_at":"2014-10-15T15:36:16.000+01:00","web_url":"https://www.gov.uk/government/organisations/uk-anti-doping","details":{"slug":"uk-anti-doping","abbreviation":"UKAD","logo_formatted_name":"UK Anti-Doping","organisation_brand_colour_class_name":"department-for-culture-media-sport","organisation_logo_type_class_name":"no-identity","closed_at":null,"govuk_status":"exempt","content_id":"2fc4bc8b-5937-4c8c-86dd-7de689b21022"},"analytics_identifier":"PB377","parent_organisations":[{"id":"https://www.gov.uk/api/organisations/department-for-culture-media-sport","web_url":"https://www.gov.uk/government/organisations/department-for-culture-media-sport"}],"child_organisations":[]},{"id":"https://www.gov.uk/api/organisations/victoria-and-albert-museum","title":"Victoria and Albert Museum","format":"Executive non-departmental public body","updated_at":"2014-10-15T15:36:16.000+01:00","web_url":"https://www.gov.uk/government/organisations/victoria-and-albert-museum","details":{"slug":"victoria-and-albert-museum","abbreviation":"VAM","logo_formatted_name":"Victoria and Albert Museum","organisation_brand_colour_class_name":"department-for-culture-media-sport","organisation_logo_type_class_name":"no-identity","closed_at":null,"govuk_status":"exempt","content_id":"30b3709d-2140-4795-b511-0256f62eb6ca"},"analytics_identifier":"PB378","parent_organisations":[{"id":"https://www.gov.uk/api/organisations/department-for-culture-media-sport","web_url":"https://www.gov.uk/government/organisations/department-for-culture-media-sport"}],"child_organisations":[]},{"id":"https://www.gov.uk/api/organisations/the-theatres-trust","title":"The Theatres Trust","format":"Advisory non-departmental public body","updated_at":"2014-10-15T15:36:16.000+01:00","web_url":"https://www.gov.uk/government/organisations/the-theatres-trust","details":{"slug":"the-theatres-trust","abbreviation":"TTT","logo_formatted_name":"The Theatres Trust","organisation_brand_colour_class_name":"department-for-culture-media-sport","organisation_logo_type_class_name":"no-identity","closed_at":null,"govuk_status":"exempt","content_id":"939c2f15-f739-4e98-80ba-675be1f462d8"},"analytics_identifier":"PB380","parent_organisations":[{"id":"https://www.gov.uk/api/organisations/department-for-culture-media-sport","web_url":"https://www.gov.uk/government/organisations/department-for-culture-media-sport"}],"child_organisations":[]},{"id":"https://www.gov.uk/api/organisations/the-reviewing-committee-on-the-export-of-works-of-art-and-objects-of-cultural-interest","title":"The Reviewing Committee on the Export of Works of Art and Objects of Cultural Interest","format":"Advisory non-departmental public body","updated_at":"2014-10-15T15:36:16.000+01:00","web_url":"https://www.gov.uk/government/organisations/the-reviewing-committee-on-the-export-of-works-of-art-and-objects-of-cultural-interest","details":{"slug":"the-reviewing-committee-on-the-export-of-works-of-art-and-objects-of-cultural-interest","abbreviation":"RCEWA","logo_formatted_name":"The Reviewing Committee \r\non the Export of Works of Art \r\nand Objects of Cultural Interest","organisation_brand_colour_class_name":"department-for-culture-media-sport","organisation_logo_type_class_name":"no-identity","closed_at":null,"govuk_status":"exempt","content_id":"1841971f-d489-4da3-9c2b-5c9c0f6c5009"},"analytics_identifier":"PB382","parent_organisations":[{"id":"https://www.gov.uk/api/organisations/department-for-culture-media-sport","web_url":"https://www.gov.uk/government/organisations/department-for-culture-media-sport"}],"child_organisations":[]},{"id":"https://www.gov.uk/api/organisations/treasure-valuation-committee","title":"Treasure Valuation Committee","format":"Advisory non-departmental public body","updated_at":"2014-12-19T14:50:52.000+00:00","web_url":"https://www.gov.uk/government/organisations/treasure-valuation-committee","details":{"slug":"treasure-valuation-committee","abbreviation":"TVC","logo_formatted_name":"Treasure Valuation Committee","organisation_brand_colour_class_name":"department-for-culture-media-sport","organisation_logo_type_class_name":"single-identity","closed_at":null,"govuk_status":"exempt","content_id":"92cb30a3-5da7-4309-afcd-72603723ef3f"},"analytics_identifier":"PB383","parent_organisations":[{"id":"https://www.gov.uk/api/organisations/department-for-culture-media-sport","web_url":"https://www.gov.uk/government/organisations/department-for-culture-media-sport"}],"child_organisations":[]},{"id":"https://www.gov.uk/api/organisations/ofcom","title":"Ofcom","format":"Other","updated_at":"2014-10-15T15:36:17.000+01:00","web_url":"https://www.gov.uk/government/organisations/ofcom","details":{"slug":"ofcom","abbreviation":"Ofcom","logo_formatted_name":"Ofcom","organisation_brand_colour_class_name":"department-for-culture-media-sport","organisation_logo_type_class_name":"no-identity","closed_at":null,"govuk_status":"exempt","content_id":"956ecc87-b889-4c41-ac39-ba6a6ba48e97"},"analytics_identifier":"OT385","parent_organisations":[{"id":"https://www.gov.uk/api/organisations/department-for-culture-media-sport","web_url":"https://www.gov.uk/government/organisations/department-for-culture-media-sport"}],"child_organisations":[]},{"id":"https://www.gov.uk/api/organisations/channel-4","title":"Channel 4","format":"Public corporation","updated_at":"2014-10-15T15:36:17.000+01:00","web_url":"https://www.gov.uk/government/organisations/channel-4","details":{"slug":"channel-4","abbreviation":"C4","logo_formatted_name":"Channel 4","organisation_brand_colour_class_name":"department-for-culture-media-sport","organisation_logo_type_class_name":"no-identity","closed_at":null,"govuk_status":"exempt","content_id":"2766247d-5731-46f7-9dfe-fc74f243929d"},"analytics_identifier":"PC386","parent_organisations":[{"id":"https://www.gov.uk/api/organisations/department-for-culture-media-sport","web_url":"https://www.gov.uk/government/organisations/department-for-culture-media-sport"}],"child_organisations":[]},{"id":"https://www.gov.uk/api/organisations/s4c","title":"S4C","format":"Other","updated_at":"2016-06-14T10:51:21.000+01:00","web_url":"https://www.gov.uk/government/organisations/s4c","details":{"slug":"s4c","abbreviation":"S4C","logo_formatted_name":"S4C","organisation_brand_colour_class_name":"department-for-culture-media-sport","organisation_logo_type_class_name":"no-identity","closed_at":null,"govuk_status":"exempt","content_id":"dd0229b4-f5c2-4049-a485-cf1470dfd53d"},"analytics_identifier":"PC387","parent_organisations":[{"id":"https://www.gov.uk/api/organisations/department-for-culture-media-sport","web_url":"https://www.gov.uk/government/organisations/department-for-culture-media-sport"}],"child_organisations":[]},{"id":"https://www.gov.uk/api/organisations/bbc","title":"BBC","format":"Public corporation","updated_at":"2014-10-15T15:36:17.000+01:00","web_url":"https://www.gov.uk/government/organisations/bbc","details":{"slug":"bbc","abbreviation":"BBC","logo_formatted_name":"BBC","organisation_brand_colour_class_name":"department-for-culture-media-sport","organisation_logo_type_class_name":"no-identity","closed_at":null,"govuk_status":"exempt","content_id":"bcd239a4-68bd-402a-963f-b8647a4c8e46"},"analytics_identifier":"PC388","parent_organisations":[{"id":"https://www.gov.uk/api/organisations/department-for-culture-media-sport","web_url":"https://www.gov.uk/government/organisations/department-for-culture-media-sport"}],"child_organisations":[]},{"id":"https://www.gov.uk/api/organisations/historic-royal-palaces","title":"Historic Royal Palaces","format":"Public corporation","updated_at":"2014-10-15T15:36:18.000+01:00","web_url":"https://www.gov.uk/government/organisations/historic-royal-palaces","details":{"slug":"historic-royal-palaces","abbreviation":"HRP","logo_formatted_name":"Historic Royal Palaces","organisation_brand_colour_class_name":"department-for-culture-media-sport","organisation_logo_type_class_name":"no-identity","closed_at":null,"govuk_status":"exempt","content_id":"a3fc9456-1a58-4549-9672-c3528fd75632"},"analytics_identifier":"PC389","parent_organisations":[{"id":"https://www.gov.uk/api/organisations/department-for-culture-media-sport","web_url":"https://www.gov.uk/government/organisations/department-for-culture-media-sport"}],"child_organisations":[]},{"id":"https://www.gov.uk/api/organisations/heritage-lottery-fund","title":"Heritage Lottery Fund (administered by the NHMF)","format":"Executive non-departmental public body","updated_at":"2015-05-19T09:17:11.000+01:00","web_url":"https://www.gov.uk/government/organisations/heritage-lottery-fund","details":{"slug":"heritage-lottery-fund","abbreviation":"HLF","logo_formatted_name":"Heritage Lottery Fund","organisation_brand_colour_class_name":"department-for-culture-media-sport","organisation_logo_type_class_name":"no-identity","closed_at":null,"govuk_status":"exempt","content_id":"d82fa952-4654-41e8-8ac0-8e1c7aecb531"},"analytics_identifier":"PC390","parent_organisations":[{"id":"https://www.gov.uk/api/organisations/department-for-culture-media-sport","web_url":"https://www.gov.uk/government/organisations/department-for-culture-media-sport"}],"child_organisations":[]},{"id":"https://www.gov.uk/api/organisations/advisory-committee-on-conscientious-objectors","title":"Advisory Committee on Conscientious Objectors","format":"Advisory non-departmental public body","updated_at":"2014-10-15T15:36:18.000+01:00","web_url":"https://www.gov.uk/government/organisations/advisory-committee-on-conscientious-objectors","details":{"slug":"advisory-committee-on-conscientious-objectors","abbreviation":"ACCO","logo_formatted_name":"Advisory Committee on \r\nConscientious Objectors","organisation_brand_colour_class_name":"ministry-of-defence","organisation_logo_type_class_name":"mod","closed_at":null,"govuk_status":"live","content_id":"a090e915-247a-4a63-a283-f22f948f27b3"},"analytics_identifier":"PB392","parent_organisations":[{"id":"https://www.gov.uk/api/organisations/ministry-of-defence","web_url":"https://www.gov.uk/government/organisations/ministry-of-defence"}],"child_organisations":[]},{"id":"https://www.gov.uk/api/organisations/advisory-group-on-military-medicine","title":"Advisory Group on Military Medicine","format":"Other","updated_at":"2014-10-15T15:36:18.000+01:00","web_url":"https://www.gov.uk/government/organisations/advisory-group-on-military-medicine","details":{"slug":"advisory-group-on-military-medicine","abbreviation":"AGoMM","logo_formatted_name":"Advisory Group \r\non Military Medicine","organisation_brand_colour_class_name":"ministry-of-defence","organisation_logo_type_class_name":"mod","closed_at":null,"govuk_status":"live","content_id":"384b4ae9-e039-4897-be06-cf61e3599d91"},"analytics_identifier":"PB393","parent_organisations":[{"id":"https://www.gov.uk/api/organisations/ministry-of-defence","web_url":"https://www.gov.uk/government/organisations/ministry-of-defence"}],"child_organisations":[]},{"id":"https://www.gov.uk/api/organisations/armed-forces-pay-review-body","title":"Armed Forces' Pay Review Body","format":"Advisory non-departmental public body","updated_at":"2014-10-15T15:36:18.000+01:00","web_url":"https://www.gov.uk/government/organisations/armed-forces-pay-review-body","details":{"slug":"armed-forces-pay-review-body","abbreviation":"AFPRB","logo_formatted_name":"Armed Forces' Pay Review Body","organisation_brand_colour_class_name":"ministry-of-defence","organisation_logo_type_class_name":"single-identity","closed_at":null,"govuk_status":"live","content_id":"0cd45244-7fac-4c82-9657-d2633892c6db"},"analytics_identifier":"PB394","parent_organisations":[{"id":"https://www.gov.uk/api/organisations/ministry-of-defence","web_url":"https://www.gov.uk/government/organisations/ministry-of-defence"}],"child_organisations":[]},{"id":"https://www.gov.uk/api/organisations/central-advisory-committee-on-pensions-and-compensation","title":"Central Advisory Committee on Pensions and Compensation ","format":"Advisory non-departmental public body","updated_at":"2016-06-17T11:12:50.000+01:00","web_url":"https://www.gov.uk/government/organisations/central-advisory-committee-on-pensions-and-compensation","details":{"slug":"central-advisory-committee-on-pensions-and-compensation","abbreviation":"CAC Pensions and Compensation","logo_formatted_name":"Central Advisory Committee \r\non Pensions and Compensation","organisation_brand_colour_class_name":"ministry-of-defence","organisation_logo_type_class_name":"mod","closed_at":null,"govuk_status":"closed","content_id":"828140a0-769b-4a61-b37f-5528df4edb33"},"analytics_identifier":"PB395","parent_organisations":[{"id":"https://www.gov.uk/api/organisations/ministry-of-defence","web_url":"https://www.gov.uk/government/organisations/ministry-of-defence"}],"child_organisations":[]}],"previous_page_url":"https://www.gov.uk/api/organisations?page=13","next_page_url":"https://www.gov.uk/api/organisations?page=15","current_page":14,"total":1009,"pages":51,"page_size":20,"start_index":261,"_response_info":{"status":"ok","links":[{"href":"https://www.gov.uk/api/organisations?page=13","rel":"previous"},{"href":"https://www.gov.uk/api/organisations?page=15","rel":"next"},{"href":"https://www.gov.uk/api/organisations?page=14","rel":"self"}]}}
