{"results":[{"id":"https://www.gov.uk/api/organisations/defence-nuclear-safety-committee","title":"Defence Nuclear Safety Committee","format":"Advisory non-departmental public body","updated_at":"2014-10-15T15:36:19.000+01:00","web_url":"https://www.gov.uk/government/organisations/defence-nuclear-safety-committee","details":{"slug":"defence-nuclear-safety-committee","abbreviation":"DNSC","logo_formatted_name":"Defence Nuclear \r\nSafety Committee","organisation_brand_colour_class_name":"ministry-of-defence","organisation_logo_type_class_name":"mod","closed_at":null,"govuk_status":"live","content_id":"8cf971c3-7fb2-4c14-b7e6-ba8119a13705"},"analytics_identifier":"PB396","parent_organisations":[{"id":"https://www.gov.uk/api/organisations/ministry-of-defence","web_url":"https://www.gov.uk/government/organisations/ministry-of-defence"}],"child_organisations":[]},{"id":"https://www.gov.uk/api/organisations/defence-scientific-advisory-council","title":"Defence Scientific Advisory Council","format":"Advisory non-departmental public body","updated_at":"2014-10-15T15:36:19.000+01:00","web_url":"https://www.gov.uk/government/organisations/defence-scientific-advisory-council","details":{"slug":"defence-scientific-advisory-council","abbreviation":"DSAC","logo_formatted_name":"Defence Scientific \r\nAdvisory Council","organisation_brand_colour_class_name":"ministry-of-defence","organisation_logo_type_class_name":"mod","closed_at":null,"govuk_status":"live","content_id":"88079297-1d6c-4e30-9fc4-9cc879c3c702"},"analytics_identifier":"PB397","parent_organisations":[{"id":"https://www.gov.uk/api/organisations/ministry-of-defence","web_url":"https://www.gov.uk/government/organisations/ministry-of-defence"}],"child_organisations":[]},{"id":"https://www.gov.uk/api/organisations/national-employer-advisory-board","title":"National Employer Advisory Board","format":"Advisory non-departmental public body","updated_at":"2014-10-15T15:36:19.000+01:00","web_url":"https://www.gov.uk/government/organisations/national-employer-advisory-board","details":{"slug":"national-employer-advisory-board","abbreviation":"NEAB","logo_formatted_name":"National Employer \r\nAdvisory Board","organisation_brand_colour_class_name":"ministry-of-defence","organisation_logo_type_class_name":"mod","closed_at":null,"govuk_status":"live","content_id":"fbeb7cc1-c9a0-4cc6-9550-6dd87c262f5f"},"analytics_identifier":"PB399","parent_organisations":[{"id":"https://www.gov.uk/api/organisations/ministry-of-defence","web_url":"https://www.gov.uk/government/organisations/ministry-of-defence"}],"child_organisations":[]},{"id":"https://www.gov.uk/api/organisations/nuclear-research-advisory-council","title":"Nuclear Research Advisory Council","format":"Advisory non-departmental public body","updated_at":"2014-10-15T15:36:20.000+01:00","web_url":"https://www.gov.uk/government/organisations/nuclear-research-advisory-council","details":{"slug":"nuclear-research-advisory-council","abbreviation":"NRAC","logo_formatted_name":"Nuclear Research \r\nAdvisory Council","organisation_brand_colour_class_name":"ministry-of-defence","organisation_logo_type_class_name":"mod","closed_at":null,"govuk_status":"live","content_id":"92963897-7720-443f-81aa-65bb6be7e6f5"},"analytics_identifier":"PB400","parent_organisations":[{"id":"https://www.gov.uk/api/organisations/ministry-of-defence","web_url":"https://www.gov.uk/government/organisations/ministry-of-defence"}],"child_organisations":[]},{"id":"https://www.gov.uk/api/organisations/oil-and-pipelines-agency","title":"The Oil and Pipelines Agency","format":"Public corporation","updated_at":"2014-10-15T15:36:20.000+01:00","web_url":"https://www.gov.uk/government/organisations/oil-and-pipelines-agency","details":{"slug":"oil-and-pipelines-agency","abbreviation":"OPA","logo_formatted_name":"The Oil and Pipelines Agency","organisation_brand_colour_class_name":"ministry-of-defence","organisation_logo_type_class_name":"single-identity","closed_at":null,"govuk_status":"live","content_id":"fae8eb44-b6ce-4795-82f9-fc9a9058265a"},"analytics_identifier":"PB401","parent_organisations":[{"id":"https://www.gov.uk/api/organisations/ministry-of-defence","web_url":"https://www.gov.uk/government/organisations/ministry-of-defence"}],"child_organisations":[]},{"id":"https://www.gov.uk/api/organisations/science-advisory-committee-on-the-medical-implications-of-less-lethal-weapons","title":"Scientific Advisory Committee on the Medical Implications of Less-Lethal Weapons","format":"Advisory non-departmental public body","updated_at":"2014-10-15T15:36:20.000+01:00","web_url":"https://www.gov.uk/government/organisations/science-advisory-committee-on-the-medical-implications-of-less-lethal-weapons","details":{"slug":"science-advisory-committee-on-the-medical-implications-of-less-lethal-weapons","abbreviation":"SACMILL","logo_formatted_name":"Scientific Advisory Committee \r\non the Medical Implications of \r\nLess-Lethal Weapons","organisation_brand_colour_class_name":"ministry-of-defence","organisation_logo_type_class_name":"mod","closed_at":null,"govuk_status":"live","content_id":"c746a78d-c490-44da-8ed5-7733fc8da353"},"analytics_identifier":"PB402","parent_organisations":[{"id":"https://www.gov.uk/api/organisations/ministry-of-defence","web_url":"https://www.gov.uk/government/organisations/ministry-of-defence"}],"child_organisations":[]},{"id":"https://www.gov.uk/api/organisations/veterans-advisory-and-pensions-committees-x13","title":"Veterans Advisory and Pensions Committees","format":"Advisory non-departmental public body","updated_at":"2015-11-11T17:00:24.000+00:00","web_url":"https://www.gov.uk/government/organisations/veterans-advisory-and-pensions-committees-x13","details":{"slug":"veterans-advisory-and-pensions-committees-x13","abbreviation":"VAPC","logo_formatted_name":"Veterans Advisory and \r\nPensions Committees","organisation_brand_colour_class_name":null,"organisation_logo_type_class_name":"custom","closed_at":null,"govuk_status":"live","content_id":"dfe3c6ad-238b-4330-924a-33000e5b0df0"},"analytics_identifier":"PB403","parent_organisations":[{"id":"https://www.gov.uk/api/organisations/ministry-of-defence","web_url":"https://www.gov.uk/government/organisations/ministry-of-defence"}],"child_organisations":[]},{"id":"https://www.gov.uk/api/organisations/service-complaints-commissioner","title":"Service Complaints Commissioner","format":"Other","updated_at":"2016-01-07T13:45:53.000+00:00","web_url":"https://www.gov.uk/government/organisations/service-complaints-commissioner","details":{"slug":"service-complaints-commissioner","abbreviation":"SCC","logo_formatted_name":"Service Complaints Commissioner","organisation_brand_colour_class_name":"ministry-of-defence","organisation_logo_type_class_name":"no-identity","closed_at":"2016-01-01T00:00:00.000+00:00","govuk_status":"closed","content_id":"524fdeea-0b6e-404f-8ce8-2b3b7a853d66"},"analytics_identifier":"OT404","parent_organisations":[{"id":"https://www.gov.uk/api/organisations/ministry-of-defence","web_url":"https://www.gov.uk/government/organisations/ministry-of-defence"}],"child_organisations":[]},{"id":"https://www.gov.uk/api/organisations/defence-academy","title":"Defence Academy of the United Kingdom","format":"Other","updated_at":"2014-10-15T15:36:21.000+01:00","web_url":"https://www.gov.uk/government/organisations/defence-academy","details":{"slug":"defence-academy","abbreviation":"DA","logo_formatted_name":"Defence Academy\r\nof the United Kingdom","organisation_brand_colour_class_name":"ministry-of-defence","organisation_logo_type_class_name":"mod","closed_at":null,"govuk_status":"exempt","content_id":"cd90ce57-4f15-464a-8b3b-d3ea24c04429"},"analytics_identifier":"OT405","parent_organisations":[{"id":"https://www.gov.uk/api/organisations/ministry-of-defence","web_url":"https://www.gov.uk/government/organisations/ministry-of-defence"}],"child_organisations":[]},{"id":"https://www.gov.uk/api/organisations/service-prosecuting-authority","title":"Service Prosecuting Authority","format":"Other","updated_at":"2014-10-15T15:36:21.000+01:00","web_url":"https://www.gov.uk/government/organisations/service-prosecuting-authority","details":{"slug":"service-prosecuting-authority","abbreviation":"SPA","logo_formatted_name":"Service \r\nProsecuting \r\nAuthority","organisation_brand_colour_class_name":"ministry-of-defence","organisation_logo_type_class_name":"mod","closed_at":null,"govuk_status":"exempt","content_id":"5c29e774-0d4a-4d08-9200-4b051a9695b7"},"analytics_identifier":"OT406","parent_organisations":[{"id":"https://www.gov.uk/api/organisations/ministry-of-defence","web_url":"https://www.gov.uk/government/organisations/ministry-of-defence"}],"child_organisations":[]},{"id":"https://www.gov.uk/api/organisations/defence-press-and-broadcasting-advisory-committee","title":"Defence, Press and Broadcasting Advisory Committee","format":"Other","updated_at":"2015-07-31T10:16:16.000+01:00","web_url":"https://www.gov.uk/government/organisations/defence-press-and-broadcasting-advisory-committee","details":{"slug":"defence-press-and-broadcasting-advisory-committee","abbreviation":"DPBAC","logo_formatted_name":"Defence, Press and \r\nBroadcasting Advisory Committee","organisation_brand_colour_class_name":"ministry-of-defence","organisation_logo_type_class_name":"no-identity","closed_at":"2015-07-31T00:00:00.000+01:00","govuk_status":"closed","content_id":"e3a01f96-9331-4d57-b8fe-f0efe05e7b0e"},"analytics_identifier":"OT408","parent_organisations":[{"id":"https://www.gov.uk/api/organisations/ministry-of-defence","web_url":"https://www.gov.uk/government/organisations/ministry-of-defence"}],"child_organisations":[]},{"id":"https://www.gov.uk/api/organisations/royal-navy-submarine-museum","title":"Royal Navy Submarine Museum","format":"Other","updated_at":"2014-10-15T15:36:22.000+01:00","web_url":"https://www.gov.uk/government/organisations/royal-navy-submarine-museum","details":{"slug":"royal-navy-submarine-museum","abbreviation":"RNSM","logo_formatted_name":"Royal Navy Submarine Museum","organisation_brand_colour_class_name":"ministry-of-defence","organisation_logo_type_class_name":"no-identity","closed_at":null,"govuk_status":"exempt","content_id":"5e757ef5-434b-4a72-bef5-6227c01afab1"},"analytics_identifier":"OT409","parent_organisations":[{"id":"https://www.gov.uk/api/organisations/ministry-of-defence","web_url":"https://www.gov.uk/government/organisations/ministry-of-defence"}],"child_organisations":[]},{"id":"https://www.gov.uk/api/organisations/defence-sixth-form-college","title":"Defence Sixth Form College","format":"Other","updated_at":"2014-10-15T15:36:22.000+01:00","web_url":"https://www.gov.uk/government/organisations/defence-sixth-form-college","details":{"slug":"defence-sixth-form-college","abbreviation":"DSFC","logo_formatted_name":"Defence Sixth Form College","organisation_brand_colour_class_name":"ministry-of-defence","organisation_logo_type_class_name":"no-identity","closed_at":null,"govuk_status":"exempt","content_id":"0897872d-3f43-43b0-8d68-7f03d2440274"},"analytics_identifier":"OT411","parent_organisations":[{"id":"https://www.gov.uk/api/organisations/ministry-of-defence","web_url":"https://www.gov.uk/government/organisations/ministry-of-defence"}],"child_organisations":[]},{"id":"https://www.gov.uk/api/organisations/office-of-the-children-s-commissioner","title":"Office of the Children's Commissioner","format":"Executive non-departmental public body","updated_at":"2014-10-15T15:36:23.000+01:00","web_url":"https://www.gov.uk/government/organisations/office-of-the-children-s-commissioner","details":{"slug":"office-of-the-children-s-commissioner","abbreviation":"","logo_formatted_name":"The Office of the Children's Commissioner","organisation_brand_colour_class_name":"department-for-education","organisation_logo_type_class_name":"no-identity","closed_at":null,"govuk_status":"exempt","content_id":"5600e779-18df-493c-980e-e95b132a0bb5"},"analytics_identifier":"PB413","parent_organisations":[{"id":"https://www.gov.uk/api/organisations/department-for-education","web_url":"https://www.gov.uk/government/organisations/department-for-education"}],"child_organisations":[]},{"id":"https://www.gov.uk/api/organisations/school-teachers-review-body","title":"School Teachers' Review Body","format":"Advisory non-departmental public body","updated_at":"2014-10-15T15:36:23.000+01:00","web_url":"https://www.gov.uk/government/organisations/school-teachers-review-body","details":{"slug":"school-teachers-review-body","abbreviation":"STRB","logo_formatted_name":"School Teachers' Review Body","organisation_brand_colour_class_name":"department-for-education","organisation_logo_type_class_name":"single-identity","closed_at":null,"govuk_status":"live","content_id":"ab9a4afd-4e0f-4e76-8b9c-4c2afe955ac1"},"analytics_identifier":"PB414","parent_organisations":[{"id":"https://www.gov.uk/api/organisations/department-for-education","web_url":"https://www.gov.uk/government/organisations/department-for-education"}],"child_organisations":[]},{"id":"https://www.gov.uk/api/organisations/national-forest-company","title":"National Forest Company","format":"Executive non-departmental public body","updated_at":"2014-10-15T15:36:23.000+01:00","web_url":"https://www.gov.uk/government/organisations/national-forest-company","details":{"slug":"national-forest-company","abbreviation":"NFC","logo_formatted_name":"National Forest Company","organisation_brand_colour_class_name":"department-for-environment-food-rural-affairs","organisation_logo_type_class_name":"no-identity","closed_at":null,"govuk_status":"exempt","content_id":"bb74310b-0d52-49d8-bd38-72df8f868950"},"analytics_identifier":"PB415","parent_organisations":[{"id":"https://www.gov.uk/api/organisations/department-for-environment-food-rural-affairs","web_url":"https://www.gov.uk/government/organisations/department-for-environment-food-rural-affairs"}],"child_organisations":[]},{"id":"https://www.gov.uk/api/organisations/agricultural-wages-committee-x13","title":"Agricultural Wages Committee","format":"Executive non-departmental public body","updated_at":"2014-10-15T15:36:24.000+01:00","web_url":"https://www.gov.uk/government/organisations/agricultural-wages-committee-x13","details":{"slug":"agricultural-wages-committee-x13","abbreviation":"AWC","logo_formatted_name":"Agricultural Wages Committee (x15)","organisation_brand_colour_class_name":"department-for-environment-food-rural-affairs","organisation_logo_type_class_name":"single-identity","closed_at":"2013-12-16T00:00:00.000+00:00","govuk_status":"closed","content_id":"efc4c66c-2876-49bc-b8fd-52ef1dfe211b"},"analytics_identifier":"PB420","parent_organisations":[{"id":"https://www.gov.uk/api/organisations/department-for-environment-food-rural-affairs","web_url":"https://www.gov.uk/government/organisations/department-for-environment-food-rural-affairs"}],"child_organisations":[]},{"id":"https://www.gov.uk/api/organisations/agricultural-dwelling-house-advisory-committees-x16","title":"Agricultural Dwelling House Advisory Committees (x16)","format":"Advisory non-departmental public body","updated_at":"2014-10-15T15:36:24.000+01:00","web_url":"https://www.gov.uk/government/organisations/agricultural-dwelling-house-advisory-committees-x16","details":{"slug":"agricultural-dwelling-house-advisory-committees-x16","abbreviation":"ADHAC","logo_formatted_name":"Agricultural Dwelling House Advisory Committees (x16)","organisation_brand_colour_class_name":"department-for-environment-food-rural-affairs","organisation_logo_type_class_name":"single-identity","closed_at":"2013-12-16T00:00:00.000+00:00","govuk_status":"closed","content_id":"e1239732-600c-486f-894b-e7fde07e5935"},"analytics_identifier":"PB421","parent_organisations":[{"id":"https://www.gov.uk/api/organisations/department-for-environment-food-rural-affairs","web_url":"https://www.gov.uk/government/organisations/department-for-environment-food-rural-affairs"}],"child_organisations":[]},{"id":"https://www.gov.uk/api/organisations/plant-varieties-and-seeds-tribunal","title":"Plant Varieties and Seeds Tribunal","format":"Tribunal non-departmental public body","updated_at":"2015-02-13T15:58:20.000+00:00","web_url":"https://www.gov.uk/government/organisations/plant-varieties-and-seeds-tribunal","details":{"slug":"plant-varieties-and-seeds-tribunal","abbreviation":"PVST","logo_formatted_name":"Plant Varieties and Seeds Tribunal","organisation_brand_colour_class_name":"department-for-environment-food-rural-affairs","organisation_logo_type_class_name":"single-identity","closed_at":null,"govuk_status":"live","content_id":"f3139802-fa73-4275-90f1-92232198a52e"},"analytics_identifier":"PB423","parent_organisations":[{"id":"https://www.gov.uk/api/organisations/department-for-environment-food-rural-affairs","web_url":"https://www.gov.uk/government/organisations/department-for-environment-food-rural-affairs"}],"child_organisations":[]},{"id":"https://www.gov.uk/api/organisations/drinking-water-inspectorate","title":"Drinking Water Inspectorate","format":"Other","updated_at":"2014-10-15T15:36:24.000+01:00","web_url":"https://www.gov.uk/government/organisations/drinking-water-inspectorate","details":{"slug":"drinking-water-inspectorate","abbreviation":"DWI","logo_formatted_name":"Drinking Water Inspectorate","organisation_brand_colour_class_name":"department-for-environment-food-rural-affairs","organisation_logo_type_class_name":"no-identity","closed_at":null,"govuk_status":"exempt","content_id":"d1461afd-ce85-40f9-bcae-4841ed9be1aa"},"analytics_identifier":"OT425","parent_organisations":[{"id":"https://www.gov.uk/api/organisations/department-for-environment-food-rural-affairs","web_url":"https://www.gov.uk/government/organisations/department-for-environment-food-rural-affairs"}],"child_organisations":[]}],"previous_page_url":"https://www.gov.uk/api/organisations?page=14","next_page_url":"https://www.gov.uk/api/organisations?page=16","current_page":15,"total":1009,"pages":51,"page_size":20,"start_index":281,"_response_info":{"status":"ok","links":[{"href":"https://www.gov.uk/api/organisations?page=14","rel":"previous"},{"href":"https://www.gov.uk/api/organisations?page=16","rel":"next"},{"href":"https://www.gov.uk/api/organisations?page=15","rel":"self"}]}}
