{"results":[{"id":"https://www.gov.uk/api/organisations/great-britain-china-centre","title":"Great Britain-China Centre","format":"Executive non-departmental public body","updated_at":"2016-07-20T15:30:01.000+01:00","web_url":"https://www.gov.uk/government/organisations/great-britain-china-centre","details":{"slug":"great-britain-china-centre","abbreviation":"GBCC","logo_formatted_name":"Great Britain China Centre","organisation_brand_colour_class_name":"foreign-commonwealth-office","organisation_logo_type_class_name":"no-identity","closed_at":null,"govuk_status":"exempt","content_id":"e6f0d3e8-33c5-4639-a093-19b76a8714a1"},"analytics_identifier":"PB426","parent_organisations":[{"id":"https://www.gov.uk/api/organisations/foreign-commonwealth-office","web_url":"https://www.gov.uk/government/organisations/foreign-commonwealth-office"}],"child_organisations":[]},{"id":"https://www.gov.uk/api/organisations/bbc-world-service","title":"BBC World Service","format":"Public corporation","updated_at":"2014-10-15T15:36:25.000+01:00","web_url":"https://www.gov.uk/government/organisations/bbc-world-service","details":{"slug":"bbc-world-service","abbreviation":"BBCWS","logo_formatted_name":"BBC World Service","organisation_brand_colour_class_name":"foreign-commonwealth-office","organisation_logo_type_class_name":"no-identity","closed_at":null,"govuk_status":"exempt","content_id":"143c2558-4495-477c-b433-7e357273fc48"},"analytics_identifier":"PC427","parent_organisations":[{"id":"https://www.gov.uk/api/organisations/foreign-commonwealth-office","web_url":"https://www.gov.uk/government/organisations/foreign-commonwealth-office"}],"child_organisations":[]},{"id":"https://www.gov.uk/api/organisations/boundary-commission-for-northern-ireland","title":"Boundary Commission for Northern Ireland","format":"Advisory non-departmental public body","updated_at":"2014-10-15T15:36:25.000+01:00","web_url":"https://www.gov.uk/government/organisations/boundary-commission-for-northern-ireland","details":{"slug":"boundary-commission-for-northern-ireland","abbreviation":"BCNI","logo_formatted_name":"Boundary Commission for Northern Ireland","organisation_brand_colour_class_name":"northern-ireland-office","organisation_logo_type_class_name":"no-identity","closed_at":null,"govuk_status":"exempt","content_id":"b511923a-f055-4c62-a138-6204e50d3efc"},"analytics_identifier":"OT428","parent_organisations":[{"id":"https://www.gov.uk/api/organisations/northern-ireland-office","web_url":"https://www.gov.uk/government/organisations/northern-ireland-office"}],"child_organisations":[]},{"id":"https://www.gov.uk/api/organisations/northern-ireland-human-rights-commission","title":"Northern Ireland Human Rights Commission","format":"Executive non-departmental public body","updated_at":"2014-10-15T15:36:25.000+01:00","web_url":"https://www.gov.uk/government/organisations/northern-ireland-human-rights-commission","details":{"slug":"northern-ireland-human-rights-commission","abbreviation":"NIHRC","logo_formatted_name":"Northern Ireland Human Rights Commission","organisation_brand_colour_class_name":"northern-ireland-office","organisation_logo_type_class_name":"no-identity","closed_at":null,"govuk_status":"exempt","content_id":"0c9e53f3-e5fc-4a23-9095-4868ffb4537d"},"analytics_identifier":"OT429","parent_organisations":[{"id":"https://www.gov.uk/api/organisations/northern-ireland-office","web_url":"https://www.gov.uk/government/organisations/northern-ireland-office"}],"child_organisations":[]},{"id":"https://www.gov.uk/api/organisations/parades-commission-for-northern-ireland","title":"Parades Commission for Northern Ireland","format":"Executive non-departmental public body","updated_at":"2014-10-15T15:36:26.000+01:00","web_url":"https://www.gov.uk/government/organisations/parades-commission-for-northern-ireland","details":{"slug":"parades-commission-for-northern-ireland","abbreviation":"PCNI","logo_formatted_name":"Parades Commission for Northern Ireland","organisation_brand_colour_class_name":"northern-ireland-office","organisation_logo_type_class_name":"no-identity","closed_at":null,"govuk_status":"exempt","content_id":"1c5e8c3b-0918-4cf5-a252-a9a7245d8c5a"},"analytics_identifier":"OT430","parent_organisations":[{"id":"https://www.gov.uk/api/organisations/northern-ireland-office","web_url":"https://www.gov.uk/government/organisations/northern-ireland-office"}],"child_organisations":[]},{"id":"https://www.gov.uk/api/organisations/boundary-commission-for-scotland","title":"Boundary Commission for Scotland","format":"Advisory non-departmental public body","updated_at":"2014-10-15T15:36:26.000+01:00","web_url":"https://www.gov.uk/government/organisations/boundary-commission-for-scotland","details":{"slug":"boundary-commission-for-scotland","abbreviation":"BCS","logo_formatted_name":"Boundary Commission \r\nfor Scotland","organisation_brand_colour_class_name":"scotland-office","organisation_logo_type_class_name":"so","closed_at":null,"govuk_status":"exempt","content_id":"4019c5c7-fba6-4b57-bf3e-3f6b01af1ae8"},"analytics_identifier":"OT431","parent_organisations":[{"id":"https://www.gov.uk/api/organisations/scotland-office","web_url":"https://www.gov.uk/government/organisations/scotland-office"}],"child_organisations":[]},{"id":"https://www.gov.uk/api/organisations/boundary-commission-for-wales","title":"Boundary Commission for Wales","format":"Advisory non-departmental public body","updated_at":"2014-10-15T15:36:26.000+01:00","web_url":"https://www.gov.uk/government/organisations/boundary-commission-for-wales","details":{"slug":"boundary-commission-for-wales","abbreviation":"BCW","logo_formatted_name":"Boundary \r\nCommission \r\nfor Wales","organisation_brand_colour_class_name":"wales-office","organisation_logo_type_class_name":"wales","closed_at":null,"govuk_status":"exempt","content_id":"b775fc36-4c81-4f4c-95b8-8bd13c07772c"},"analytics_identifier":"OT432","parent_organisations":[{"id":"https://www.gov.uk/api/organisations/cabinet-office","web_url":"https://www.gov.uk/government/organisations/cabinet-office"}],"child_organisations":[]},{"id":"https://www.gov.uk/api/organisations/the-adjudicator-s-office","title":"The Adjudicator’s Office","format":"Other","updated_at":"2014-10-15T15:36:26.000+01:00","web_url":"https://www.gov.uk/government/organisations/the-adjudicator-s-office","details":{"slug":"the-adjudicator-s-office","abbreviation":"","logo_formatted_name":"The Adjudicator’s Office","organisation_brand_colour_class_name":"hm-revenue-customs","organisation_logo_type_class_name":"single-identity","closed_at":null,"govuk_status":"exempt","content_id":"e7e47593-78d2-4f08-86bd-32a54bdbd766"},"analytics_identifier":"OT433","parent_organisations":[{"id":"https://www.gov.uk/api/organisations/hm-revenue-customs","web_url":"https://www.gov.uk/government/organisations/hm-revenue-customs"}],"child_organisations":[]},{"id":"https://www.gov.uk/api/organisations/royal-mint-advisory-committee","title":"Royal Mint Advisory Committee","format":"Advisory non-departmental public body","updated_at":"2014-10-15T15:36:27.000+01:00","web_url":"https://www.gov.uk/government/organisations/royal-mint-advisory-committee","details":{"slug":"royal-mint-advisory-committee","abbreviation":"RMAC","logo_formatted_name":"Royal Mint Advisory Committee","organisation_brand_colour_class_name":"hm-treasury","organisation_logo_type_class_name":"no-identity","closed_at":null,"govuk_status":"live","content_id":"5a4e80a1-aaf8-40b1-bfda-9153bb79733e"},"analytics_identifier":"PB434","parent_organisations":[{"id":"https://www.gov.uk/api/organisations/hm-treasury","web_url":"https://www.gov.uk/government/organisations/hm-treasury"}],"child_organisations":[]},{"id":"https://www.gov.uk/api/organisations/supreme-court-of-the-united-kingdom","title":"Supreme Court of the United Kingdom","format":"Non-ministerial department","updated_at":"2014-10-15T15:36:27.000+01:00","web_url":"https://www.gov.uk/government/organisations/supreme-court-of-the-united-kingdom","details":{"slug":"supreme-court-of-the-united-kingdom","abbreviation":"SCUK","logo_formatted_name":"Supreme Court \r\nof the \r\nUnited Kingdom","organisation_brand_colour_class_name":null,"organisation_logo_type_class_name":"no-identity","closed_at":null,"govuk_status":"exempt","content_id":"ed629212-17e1-44cd-b41a-52103cdaaea9"},"analytics_identifier":"D435","parent_organisations":[],"child_organisations":[]},{"id":"https://www.gov.uk/api/organisations/administrative-justice-and-tribunals-council","title":"Administrative Justice and Tribunals Council","format":"Advisory non-departmental public body","updated_at":"2014-10-15T15:36:27.000+01:00","web_url":"https://www.gov.uk/government/organisations/administrative-justice-and-tribunals-council","details":{"slug":"administrative-justice-and-tribunals-council","abbreviation":"AJTC","logo_formatted_name":"Administrative Justice \r\nand Tribunals Council","organisation_brand_colour_class_name":"ministry-of-justice","organisation_logo_type_class_name":"no-identity","closed_at":null,"govuk_status":"closed","content_id":"1248e572-5f97-4c70-bba8-b8e2da8b45bf"},"analytics_identifier":"PB436","parent_organisations":[{"id":"https://www.gov.uk/api/organisations/ministry-of-justice","web_url":"https://www.gov.uk/government/organisations/ministry-of-justice"}],"child_organisations":[]},{"id":"https://www.gov.uk/api/organisations/advisory-committees-on-justices-of-the-peace","title":"Advisory Committees on Justices of the Peace","format":"Advisory non-departmental public body","updated_at":"2014-10-15T15:36:27.000+01:00","web_url":"https://www.gov.uk/government/organisations/advisory-committees-on-justices-of-the-peace","details":{"slug":"advisory-committees-on-justices-of-the-peace","abbreviation":"ACJP","logo_formatted_name":"Advisory Committees on \r\nJustices of the Peace","organisation_brand_colour_class_name":"ministry-of-justice","organisation_logo_type_class_name":"no-identity","closed_at":null,"govuk_status":"exempt","content_id":"a8a3406a-d2bf-418d-b2d7-26f06c9747ee"},"analytics_identifier":"PB437","parent_organisations":[{"id":"https://www.gov.uk/api/organisations/ministry-of-justice","web_url":"https://www.gov.uk/government/organisations/ministry-of-justice"}],"child_organisations":[]},{"id":"https://www.gov.uk/api/organisations/the-advisory-council-on-national-records-and-archives","title":"The Advisory Council on National Records and Archives","format":"Advisory non-departmental public body","updated_at":"2016-04-18T08:25:40.000+01:00","web_url":"https://www.gov.uk/government/organisations/the-advisory-council-on-national-records-and-archives","details":{"slug":"the-advisory-council-on-national-records-and-archives","abbreviation":"ACNRA","logo_formatted_name":"The Advisory Council on National Records and Archives","organisation_brand_colour_class_name":"department-for-culture-media-sport","organisation_logo_type_class_name":"single-identity","closed_at":null,"govuk_status":"exempt","content_id":"1d2551af-6a93-4666-8977-e82ed4a8a336"},"analytics_identifier":"PB438","parent_organisations":[{"id":"https://www.gov.uk/api/organisations/department-for-culture-media-sport","web_url":"https://www.gov.uk/government/organisations/department-for-culture-media-sport"}],"child_organisations":[]},{"id":"https://www.gov.uk/api/organisations/civil-procedure-rules-committee","title":"Civil Procedure Rule Committee","format":"Advisory non-departmental public body","updated_at":"2014-10-28T17:01:09.000+00:00","web_url":"https://www.gov.uk/government/organisations/civil-procedure-rules-committee","details":{"slug":"civil-procedure-rules-committee","abbreviation":"CPRC","logo_formatted_name":"Civil Procedure Rule Committee","organisation_brand_colour_class_name":"ministry-of-justice","organisation_logo_type_class_name":"single-identity","closed_at":null,"govuk_status":"live","content_id":"8a252529-24b3-43a7-a1ef-de90f413000a"},"analytics_identifier":"PB440","parent_organisations":[{"id":"https://www.gov.uk/api/organisations/ministry-of-justice","web_url":"https://www.gov.uk/government/organisations/ministry-of-justice"}],"child_organisations":[]},{"id":"https://www.gov.uk/api/organisations/family-justice-council","title":"Family Justice Council","format":"Advisory non-departmental public body","updated_at":"2014-10-15T15:36:28.000+01:00","web_url":"https://www.gov.uk/government/organisations/family-justice-council","details":{"slug":"family-justice-council","abbreviation":"FJC","logo_formatted_name":"Family Justice Council","organisation_brand_colour_class_name":"ministry-of-justice","organisation_logo_type_class_name":"no-identity","closed_at":null,"govuk_status":"exempt","content_id":"63ba61da-3566-4f67-b960-a76a23c3898f"},"analytics_identifier":"PB441","parent_organisations":[{"id":"https://www.gov.uk/api/organisations/ministry-of-justice","web_url":"https://www.gov.uk/government/organisations/ministry-of-justice"}],"child_organisations":[]},{"id":"https://www.gov.uk/api/organisations/family-procedure-rule-committee","title":"Family Procedure Rule Committee","format":"Advisory non-departmental public body","updated_at":"2014-11-07T14:55:13.000+00:00","web_url":"https://www.gov.uk/government/organisations/family-procedure-rule-committee","details":{"slug":"family-procedure-rule-committee","abbreviation":"FPRC","logo_formatted_name":"Family Procedure Rule Committee","organisation_brand_colour_class_name":"ministry-of-justice","organisation_logo_type_class_name":"single-identity","closed_at":null,"govuk_status":"live","content_id":"04261dc0-e80f-482b-98e6-f0998394ec72"},"analytics_identifier":"PB442","parent_organisations":[{"id":"https://www.gov.uk/api/organisations/ministry-of-justice","web_url":"https://www.gov.uk/government/organisations/ministry-of-justice"}],"child_organisations":[]},{"id":"https://www.gov.uk/api/organisations/independent-advisory-panel-on-deaths-in-custody","title":"Independent Advisory Panel on Deaths in Custody","format":"Advisory non-departmental public body","updated_at":"2014-10-15T15:36:28.000+01:00","web_url":"https://www.gov.uk/government/organisations/independent-advisory-panel-on-deaths-in-custody","details":{"slug":"independent-advisory-panel-on-deaths-in-custody","abbreviation":"IAPDC","logo_formatted_name":"IAPDC","organisation_brand_colour_class_name":"ministry-of-justice","organisation_logo_type_class_name":"single-identity","closed_at":null,"govuk_status":"exempt","content_id":"c815749f-a60c-43c6-91b1-895aceba412f"},"analytics_identifier":"PB443","parent_organisations":[{"id":"https://www.gov.uk/api/organisations/ministry-of-justice","web_url":"https://www.gov.uk/government/organisations/ministry-of-justice"}],"child_organisations":[]},{"id":"https://www.gov.uk/api/organisations/independent-monitoring-boards-of-prisons-immigration-removal-centres-and-short-term-holding-rooms","title":"Independent Monitoring Boards of Prisons, Immigration, Removal Centres and Short Term Holding Rooms","format":"Other","updated_at":"2015-03-30T12:30:44.000+01:00","web_url":"https://www.gov.uk/government/organisations/independent-monitoring-boards-of-prisons-immigration-removal-centres-and-short-term-holding-rooms","details":{"slug":"independent-monitoring-boards-of-prisons-immigration-removal-centres-and-short-term-holding-rooms","abbreviation":"IMBPIRC","logo_formatted_name":"Independent Monitoring Boards of Prisons, Immigration, Removal Centres and Short Term Holding Rooms","organisation_brand_colour_class_name":"ministry-of-justice","organisation_logo_type_class_name":"single-identity","closed_at":null,"govuk_status":"exempt","content_id":"6752d15f-19e3-4235-afa0-96f191f18c54"},"analytics_identifier":"OT444","parent_organisations":[{"id":"https://www.gov.uk/api/organisations/ministry-of-justice","web_url":"https://www.gov.uk/government/organisations/ministry-of-justice"}],"child_organisations":[]},{"id":"https://www.gov.uk/api/organisations/insolvency-rules-committee","title":"Insolvency Rules Committee","format":"Advisory non-departmental public body","updated_at":"2016-07-25T15:12:20.000+01:00","web_url":"https://www.gov.uk/government/organisations/insolvency-rules-committee","details":{"slug":"insolvency-rules-committee","abbreviation":"IRC","logo_formatted_name":"Insolvency Rules Committee","organisation_brand_colour_class_name":"ministry-of-justice","organisation_logo_type_class_name":"no-identity","closed_at":null,"govuk_status":"live","content_id":"f46df4d8-dfa3-40a1-bd9a-6d6148ce43be"},"analytics_identifier":"PB445","parent_organisations":[{"id":"https://www.gov.uk/api/organisations/department-for-business-energy-and-industrial-strategy","web_url":"https://www.gov.uk/government/organisations/department-for-business-energy-and-industrial-strategy"}],"child_organisations":[]},{"id":"https://www.gov.uk/api/organisations/prison-services-pay-review-body","title":"Prison Service Pay Review Body","format":"Advisory non-departmental public body","updated_at":"2014-10-15T15:36:29.000+01:00","web_url":"https://www.gov.uk/government/organisations/prison-services-pay-review-body","details":{"slug":"prison-services-pay-review-body","abbreviation":"PSPRB","logo_formatted_name":"Prison Service Pay Review Body","organisation_brand_colour_class_name":"ministry-of-justice","organisation_logo_type_class_name":"single-identity","closed_at":null,"govuk_status":"live","content_id":"3b5c4f57-19c0-4501-8818-f1da500e8495"},"analytics_identifier":"PB446","parent_organisations":[{"id":"https://www.gov.uk/api/organisations/ministry-of-justice","web_url":"https://www.gov.uk/government/organisations/ministry-of-justice"}],"child_organisations":[]}],"previous_page_url":"https://www.gov.uk/api/organisations?page=15","next_page_url":"https://www.gov.uk/api/organisations?page=17","current_page":16,"total":1009,"pages":51,"page_size":20,"start_index":301,"_response_info":{"status":"ok","links":[{"href":"https://www.gov.uk/api/organisations?page=15","rel":"previous"},{"href":"https://www.gov.uk/api/organisations?page=17","rel":"next"},{"href":"https://www.gov.uk/api/organisations?page=16","rel":"self"}]}}
