{"results":[{"id":"https://www.gov.uk/api/organisations/tribunal-procedure-committee","title":"Tribunal Procedure Committee","format":"Advisory non-departmental public body","updated_at":"2014-10-31T14:34:30.000+00:00","web_url":"https://www.gov.uk/government/organisations/tribunal-procedure-committee","details":{"slug":"tribunal-procedure-committee","abbreviation":"TPC","logo_formatted_name":"Tribunal Procedure Committee","organisation_brand_colour_class_name":"ministry-of-justice","organisation_logo_type_class_name":"single-identity","closed_at":null,"govuk_status":"live","content_id":"74c41a82-c057-4a8f-8cb5-3683cfc1e45c"},"analytics_identifier":"PB448","parent_organisations":[{"id":"https://www.gov.uk/api/organisations/ministry-of-justice","web_url":"https://www.gov.uk/government/organisations/ministry-of-justice"}],"child_organisations":[]},{"id":"https://www.gov.uk/api/organisations/independent-police-complaint-commission","title":"Independent Police Complaints Commission","format":"Executive non-departmental public body","updated_at":"2014-10-15T15:36:30.000+01:00","web_url":"https://www.gov.uk/government/organisations/independent-police-complaint-commission","details":{"slug":"independent-police-complaint-commission","abbreviation":"IPCC","logo_formatted_name":"Independent Police Complaints Commission","organisation_brand_colour_class_name":"home-office","organisation_logo_type_class_name":"no-identity","closed_at":null,"govuk_status":"exempt","content_id":"5aeea609-52dc-4cc6-ab47-c5936a3bcee5"},"analytics_identifier":"PB456","parent_organisations":[{"id":"https://www.gov.uk/api/organisations/home-office","web_url":"https://www.gov.uk/government/organisations/home-office"}],"child_organisations":[]},{"id":"https://www.gov.uk/api/organisations/office-of-surveillance-commissioners","title":"Office of Surveillance Commissioners","format":"Tribunal non-departmental public body","updated_at":"2014-10-15T15:36:30.000+01:00","web_url":"https://www.gov.uk/government/organisations/office-of-surveillance-commissioners","details":{"slug":"office-of-surveillance-commissioners","abbreviation":"OSC","logo_formatted_name":"Office of Surveillance Commissioners","organisation_brand_colour_class_name":null,"organisation_logo_type_class_name":"no-identity","closed_at":null,"govuk_status":"exempt","content_id":"ece080aa-adc5-41fc-b2c9-4e10cd6ae265"},"analytics_identifier":"PB457","parent_organisations":[{"id":"https://www.gov.uk/api/organisations/home-office","web_url":"https://www.gov.uk/government/organisations/home-office"}],"child_organisations":[]},{"id":"https://www.gov.uk/api/organisations/police-negotiating-board","title":"Police Negotiating Board","format":"Advisory non-departmental public body","updated_at":"2015-05-01T12:18:30.000+01:00","web_url":"https://www.gov.uk/government/organisations/police-negotiating-board","details":{"slug":"police-negotiating-board","abbreviation":"PNB","logo_formatted_name":"Police Negotiating Board","organisation_brand_colour_class_name":null,"organisation_logo_type_class_name":"no-identity","closed_at":null,"govuk_status":"closed","content_id":"d0b8a90d-5be6-4f7b-80b0-00213fa50169"},"analytics_identifier":"PB458","parent_organisations":[{"id":"https://www.gov.uk/api/organisations/home-office","web_url":"https://www.gov.uk/government/organisations/home-office"}],"child_organisations":[]},{"id":"https://www.gov.uk/api/organisations/directly-operated-railways-limited","title":"Directly Operated Railways Limited","format":"Executive non-departmental public body","updated_at":"2016-10-05T13:34:23.000+01:00","web_url":"https://www.gov.uk/government/organisations/directly-operated-railways-limited","details":{"slug":"directly-operated-railways-limited","abbreviation":"DOR","logo_formatted_name":"Directly Operated\r\nRailways Limited","organisation_brand_colour_class_name":"department-for-transport","organisation_logo_type_class_name":"no-identity","closed_at":null,"govuk_status":"exempt","content_id":"debb39a6-cc57-442e-8673-65af9bd0e624"},"analytics_identifier":"PB459","parent_organisations":[{"id":"https://www.gov.uk/api/organisations/department-for-transport","web_url":"https://www.gov.uk/government/organisations/department-for-transport"}],"child_organisations":[]},{"id":"https://www.gov.uk/api/organisations/high-speed-two-limited","title":"High Speed Two (HS2) Limited","format":"Executive non-departmental public body","updated_at":"2017-01-13T12:27:51.000+00:00","web_url":"https://www.gov.uk/government/organisations/high-speed-two-limited","details":{"slug":"high-speed-two-limited","abbreviation":"HS2 Ltd","logo_formatted_name":"High Speed Two Limited","organisation_brand_colour_class_name":"department-for-transport","organisation_logo_type_class_name":"custom","closed_at":null,"govuk_status":"live","content_id":"b80fab8b-6ed4-426a-bb8d-f4b614437671"},"analytics_identifier":"PB460","parent_organisations":[{"id":"https://www.gov.uk/api/organisations/department-for-transport","web_url":"https://www.gov.uk/government/organisations/department-for-transport"}],"child_organisations":[]},{"id":"https://www.gov.uk/api/organisations/british-transport-police-authority","title":"British Transport Police Authority","format":"Executive non-departmental public body","updated_at":"2014-10-15T15:36:31.000+01:00","web_url":"https://www.gov.uk/government/organisations/british-transport-police-authority","details":{"slug":"british-transport-police-authority","abbreviation":"BTPA","logo_formatted_name":"British Transport Police Authority","organisation_brand_colour_class_name":"department-for-transport","organisation_logo_type_class_name":"no-identity","closed_at":null,"govuk_status":"exempt","content_id":"18d0b663-f4ad-4ead-b6e0-4efab7454456"},"analytics_identifier":"PB461","parent_organisations":[{"id":"https://www.gov.uk/api/organisations/department-for-transport","web_url":"https://www.gov.uk/government/organisations/department-for-transport"}],"child_organisations":[]},{"id":"https://www.gov.uk/api/organisations/trinity-house","title":"Trinity House","format":"Executive non-departmental public body","updated_at":"2014-10-15T15:36:31.000+01:00","web_url":"https://www.gov.uk/government/organisations/trinity-house","details":{"slug":"trinity-house","abbreviation":"TLS","logo_formatted_name":"Trinity House","organisation_brand_colour_class_name":"department-for-transport","organisation_logo_type_class_name":"no-identity","closed_at":null,"govuk_status":"exempt","content_id":"d514dc11-5204-452e-9c43-1c040fdb6005"},"analytics_identifier":"PB462","parent_organisations":[{"id":"https://www.gov.uk/api/organisations/department-for-transport","web_url":"https://www.gov.uk/government/organisations/department-for-transport"}],"child_organisations":[]},{"id":"https://www.gov.uk/api/organisations/northern-lighthouse-board","title":"Northern Lighthouse Board","format":"Executive non-departmental public body","updated_at":"2014-10-15T15:36:31.000+01:00","web_url":"https://www.gov.uk/government/organisations/northern-lighthouse-board","details":{"slug":"northern-lighthouse-board","abbreviation":"NLB","logo_formatted_name":"Northern Lighthouse Board","organisation_brand_colour_class_name":"department-for-transport","organisation_logo_type_class_name":"no-identity","closed_at":null,"govuk_status":"exempt","content_id":"de9cee94-b1c6-45b4-a371-dbead4a9b6a5"},"analytics_identifier":"PB463","parent_organisations":[{"id":"https://www.gov.uk/api/organisations/department-for-transport","web_url":"https://www.gov.uk/government/organisations/department-for-transport"}],"child_organisations":[]},{"id":"https://www.gov.uk/api/organisations/passenger-focus","title":"Passenger Focus","format":"Executive non-departmental public body","updated_at":"2015-04-01T09:37:35.000+01:00","web_url":"https://www.gov.uk/government/organisations/passenger-focus","details":{"slug":"passenger-focus","abbreviation":"PF","logo_formatted_name":"Passenger Focus","organisation_brand_colour_class_name":"department-for-transport","organisation_logo_type_class_name":"no-identity","closed_at":"2015-04-01T00:00:00.000+01:00","govuk_status":"closed","content_id":"6293a5cd-80b1-4d6d-8f8d-9fb58b37d81e"},"analytics_identifier":"PB464","parent_organisations":[{"id":"https://www.gov.uk/api/organisations/department-for-transport","web_url":"https://www.gov.uk/government/organisations/department-for-transport"}],"child_organisations":[]},{"id":"https://www.gov.uk/api/organisations/traffic-commissioners","title":"Traffic Commissioners for Great Britain","format":"Tribunal non-departmental public body","updated_at":"2016-11-14T13:42:44.000+00:00","web_url":"https://www.gov.uk/government/organisations/traffic-commissioners","details":{"slug":"traffic-commissioners","abbreviation":"TC","logo_formatted_name":"Traffic Commissioners\r\nfor Great Britain","organisation_brand_colour_class_name":"department-for-transport","organisation_logo_type_class_name":"single-identity","closed_at":null,"govuk_status":"live","content_id":"78dfc32b-b1ef-44ca-924c-a2cf773e87ca"},"analytics_identifier":"PB465","parent_organisations":[{"id":"https://www.gov.uk/api/organisations/department-for-transport","web_url":"https://www.gov.uk/government/organisations/department-for-transport"}],"child_organisations":[]},{"id":"https://www.gov.uk/api/organisations/railway-heritage-committee","title":"Railway Heritage Committee","format":"Executive non-departmental public body","updated_at":"2014-10-15T15:36:32.000+01:00","web_url":"https://www.gov.uk/government/organisations/railway-heritage-committee","details":{"slug":"railway-heritage-committee","abbreviation":"RHC","logo_formatted_name":"Railway Heritage Committee","organisation_brand_colour_class_name":"department-for-transport","organisation_logo_type_class_name":"single-identity","closed_at":"2013-03-31T00:00:00.000+00:00","govuk_status":"closed","content_id":"63dfedcf-0b7a-4890-ab98-affa70b15738"},"analytics_identifier":"PB466","parent_organisations":[{"id":"https://www.gov.uk/api/organisations/department-for-transport","web_url":"https://www.gov.uk/government/organisations/department-for-transport"}],"child_organisations":[]},{"id":"https://www.gov.uk/api/organisations/brb-residuary-ltd","title":"BRB (Residuary) Ltd","format":"Public corporation","updated_at":"2014-10-15T15:36:32.000+01:00","web_url":"https://www.gov.uk/government/organisations/brb-residuary-ltd","details":{"slug":"brb-residuary-ltd","abbreviation":"BRBR","logo_formatted_name":"BRB (Residuary) Ltd","organisation_brand_colour_class_name":"department-for-transport","organisation_logo_type_class_name":"no-identity","closed_at":"2013-09-30T00:00:00.000+01:00","govuk_status":"closed","content_id":"0698337c-7475-4578-9498-e1cbf2c2ff84"},"analytics_identifier":"PC467","parent_organisations":[{"id":"https://www.gov.uk/api/organisations/department-for-transport","web_url":"https://www.gov.uk/government/organisations/department-for-transport"}],"child_organisations":[]},{"id":"https://www.gov.uk/api/organisations/trust-ports","title":"Trust ports","format":"Other","updated_at":"2014-12-19T14:51:20.000+00:00","web_url":"https://www.gov.uk/government/organisations/trust-ports","details":{"slug":"trust-ports","abbreviation":"TP","logo_formatted_name":"Trust ports","organisation_brand_colour_class_name":"department-for-transport","organisation_logo_type_class_name":"single-identity","closed_at":null,"govuk_status":"closed","content_id":"ba3417fb-5a6e-4635-86f6-7ec051f1e328"},"analytics_identifier":"PC468","parent_organisations":[{"id":"https://www.gov.uk/api/organisations/department-for-transport","web_url":"https://www.gov.uk/government/organisations/department-for-transport"}],"child_organisations":[]},{"id":"https://www.gov.uk/api/organisations/civil-aviation-authority","title":"Civil Aviation Authority","format":"Public corporation","updated_at":"2014-10-15T15:36:33.000+01:00","web_url":"https://www.gov.uk/government/organisations/civil-aviation-authority","details":{"slug":"civil-aviation-authority","abbreviation":"CAA","logo_formatted_name":"Civil Aviation Authority","organisation_brand_colour_class_name":"department-for-transport","organisation_logo_type_class_name":"no-identity","closed_at":null,"govuk_status":"exempt","content_id":"1400bcfb-c0f2-4e1c-b8fb-1135a2b83088"},"analytics_identifier":"PC469","parent_organisations":[{"id":"https://www.gov.uk/api/organisations/department-for-transport","web_url":"https://www.gov.uk/government/organisations/department-for-transport"}],"child_organisations":[]},{"id":"https://www.gov.uk/api/organisations/marine-accident-investigation-branch","title":"Marine Accident Investigation Branch","format":"Other","updated_at":"2015-04-18T10:12:26.000+01:00","web_url":"https://www.gov.uk/government/organisations/marine-accident-investigation-branch","details":{"slug":"marine-accident-investigation-branch","abbreviation":"MAIB","logo_formatted_name":"Marine Accident\r\nInvestigation Branch","organisation_brand_colour_class_name":"department-for-transport","organisation_logo_type_class_name":"custom","closed_at":null,"govuk_status":"live","content_id":"9c66b9a3-1e6a-48e8-974d-2a5635f84679"},"analytics_identifier":"PC472","parent_organisations":[{"id":"https://www.gov.uk/api/organisations/department-for-transport","web_url":"https://www.gov.uk/government/organisations/department-for-transport"}],"child_organisations":[]},{"id":"https://www.gov.uk/api/organisations/national-institute-for-clinical-excellence","title":"National Institute for Health and Care Excellence","format":"Executive non-departmental public body","updated_at":"2014-10-15T15:36:33.000+01:00","web_url":"https://www.gov.uk/government/organisations/national-institute-for-clinical-excellence","details":{"slug":"national-institute-for-clinical-excellence","abbreviation":"NICE","logo_formatted_name":"National Institute for \r\nHealth and Care Excellence","organisation_brand_colour_class_name":"department-of-health","organisation_logo_type_class_name":"no-identity","closed_at":null,"govuk_status":"exempt","content_id":"1ad98e10-6422-4202-9d39-e341787d527c"},"analytics_identifier":"PB474","parent_organisations":[{"id":"https://www.gov.uk/api/organisations/department-of-health","web_url":"https://www.gov.uk/government/organisations/department-of-health"}],"child_organisations":[]},{"id":"https://www.gov.uk/api/organisations/review-board-for-government-contracts","title":"Review Board for Government Contracts","format":"Advisory non-departmental public body","updated_at":"2016-09-23T13:03:28.000+01:00","web_url":"https://www.gov.uk/government/organisations/review-board-for-government-contracts","details":{"slug":"review-board-for-government-contracts","abbreviation":"RBGC","logo_formatted_name":"Review Board for \r\nGovernment Contracts","organisation_brand_colour_class_name":"ministry-of-defence","organisation_logo_type_class_name":"mod","closed_at":"2014-12-18T00:00:00.000+00:00","govuk_status":"closed","content_id":"c39fbb1f-d643-4087-b210-ddb88c45336b"},"analytics_identifier":"PB477","parent_organisations":[{"id":"https://www.gov.uk/api/organisations/ministry-of-defence","web_url":"https://www.gov.uk/government/organisations/ministry-of-defence"}],"child_organisations":[]},{"id":"https://www.gov.uk/api/organisations/public-health-england","title":"Public Health England","format":"Executive agency","updated_at":"2014-10-15T15:36:33.000+01:00","web_url":"https://www.gov.uk/government/organisations/public-health-england","details":{"slug":"public-health-england","abbreviation":"PHE","logo_formatted_name":"Public Health \r\nEngland","organisation_brand_colour_class_name":"department-of-health","organisation_logo_type_class_name":"single-identity","closed_at":null,"govuk_status":"live","content_id":"1343f283-19e9-4fbb-86b1-58c7549d874b"},"analytics_identifier":"EA480","parent_organisations":[{"id":"https://www.gov.uk/api/organisations/department-of-health","web_url":"https://www.gov.uk/government/organisations/department-of-health"}],"child_organisations":[]},{"id":"https://www.gov.uk/api/organisations/nhs-commissioning-board","title":"NHS England","format":"Executive non-departmental public body","updated_at":"2014-10-15T15:36:34.000+01:00","web_url":"https://www.gov.uk/government/organisations/nhs-commissioning-board","details":{"slug":"nhs-commissioning-board","abbreviation":"","logo_formatted_name":"NHS England","organisation_brand_colour_class_name":"department-of-health","organisation_logo_type_class_name":"no-identity","closed_at":null,"govuk_status":"exempt","content_id":"f07b4bb8-8af6-42da-a161-3d90027e980c"},"analytics_identifier":"PB481","parent_organisations":[{"id":"https://www.gov.uk/api/organisations/department-of-health","web_url":"https://www.gov.uk/government/organisations/department-of-health"}],"child_organisations":[]}],"previous_page_url":"https://www.gov.uk/api/organisations?page=16","next_page_url":"https://www.gov.uk/api/organisations?page=18","current_page":17,"total":1009,"pages":51,"page_size":20,"start_index":321,"_response_info":{"status":"ok","links":[{"href":"https://www.gov.uk/api/organisations?page=16","rel":"previous"},{"href":"https://www.gov.uk/api/organisations?page=18","rel":"next"},{"href":"https://www.gov.uk/api/organisations?page=17","rel":"self"}]}}
