{"results":[{"id":"https://www.gov.uk/api/organisations/health-research-authority","title":"Health Research Authority","format":"Executive non-departmental public body","updated_at":"2015-08-21T13:45:58.000+01:00","web_url":"https://www.gov.uk/government/organisations/health-research-authority","details":{"slug":"health-research-authority","abbreviation":"HRA","logo_formatted_name":"The Health \r\nResearch \r\nAuthority","organisation_brand_colour_class_name":"department-of-health","organisation_logo_type_class_name":"no-identity","closed_at":null,"govuk_status":"exempt","content_id":"ce54091b-f918-40c7-8a94-2242571b3507"},"analytics_identifier":"OT483","parent_organisations":[{"id":"https://www.gov.uk/api/organisations/department-of-health","web_url":"https://www.gov.uk/government/organisations/department-of-health"}],"child_organisations":[]},{"id":"https://www.gov.uk/api/organisations/nhs-trust-development-authority","title":"NHS Trust Development Authority","format":"Executive non-departmental public body","updated_at":"2016-09-07T17:53:56.000+01:00","web_url":"https://www.gov.uk/government/organisations/nhs-trust-development-authority","details":{"slug":"nhs-trust-development-authority","abbreviation":"NHS TDA","logo_formatted_name":"NHS Trust Development Authority","organisation_brand_colour_class_name":"department-of-health","organisation_logo_type_class_name":"no-identity","closed_at":null,"govuk_status":"closed","content_id":"4ecebcc6-8cb0-4906-bd84-8541fbc8f7b3"},"analytics_identifier":"OT484","parent_organisations":[{"id":"https://www.gov.uk/api/organisations/department-of-health","web_url":"https://www.gov.uk/government/organisations/department-of-health"}],"child_organisations":[]},{"id":"https://www.gov.uk/api/organisations/nhs-blood-and-transplant","title":"NHS Blood and Transplant","format":"Executive non-departmental public body","updated_at":"2015-08-21T13:47:30.000+01:00","web_url":"https://www.gov.uk/government/organisations/nhs-blood-and-transplant","details":{"slug":"nhs-blood-and-transplant","abbreviation":"NHSBT","logo_formatted_name":"NHS Blood and Transplant","organisation_brand_colour_class_name":"department-of-health","organisation_logo_type_class_name":"no-identity","closed_at":null,"govuk_status":"exempt","content_id":"3e40a8d5-a3fd-4b7a-9e60-7df3849a8e42"},"analytics_identifier":"OT486","parent_organisations":[{"id":"https://www.gov.uk/api/organisations/department-of-health","web_url":"https://www.gov.uk/government/organisations/department-of-health"}],"child_organisations":[]},{"id":"https://www.gov.uk/api/organisations/nhs-litigation-authority","title":"NHS Litigation Authority","format":"Executive non-departmental public body","updated_at":"2015-08-21T13:44:56.000+01:00","web_url":"https://www.gov.uk/government/organisations/nhs-litigation-authority","details":{"slug":"nhs-litigation-authority","abbreviation":"NHSLA","logo_formatted_name":"NHS Litigation Authority","organisation_brand_colour_class_name":"department-of-health","organisation_logo_type_class_name":"no-identity","closed_at":null,"govuk_status":"exempt","content_id":"d3cfb789-27b7-4f4e-82a0-a29c9ca0c363"},"analytics_identifier":"OT488","parent_organisations":[{"id":"https://www.gov.uk/api/organisations/department-of-health","web_url":"https://www.gov.uk/government/organisations/department-of-health"}],"child_organisations":[]},{"id":"https://www.gov.uk/api/organisations/advisory-panel-on-public-sector-information","title":"Advisory Panel on Public Sector Information","format":"Advisory non-departmental public body","updated_at":"2016-04-18T08:28:12.000+01:00","web_url":"https://www.gov.uk/government/organisations/advisory-panel-on-public-sector-information","details":{"slug":"advisory-panel-on-public-sector-information","abbreviation":"APPSI","logo_formatted_name":"Advisory Panel on Public Sector Information","organisation_brand_colour_class_name":"ministry-of-justice","organisation_logo_type_class_name":"single-identity","closed_at":"2015-10-18T00:00:00.000+01:00","govuk_status":"closed","content_id":"7dba9cc9-b522-460a-8f24-77f7be003a39"},"analytics_identifier":"PB491","parent_organisations":[{"id":"https://www.gov.uk/api/organisations/ministry-of-justice","web_url":"https://www.gov.uk/government/organisations/ministry-of-justice"}],"child_organisations":[]},{"id":"https://www.gov.uk/api/organisations/chevening-foundation","title":"Chevening Scholarship Programme ","format":"Other","updated_at":"2014-10-15T15:36:35.000+01:00","web_url":"https://www.gov.uk/government/organisations/chevening-foundation","details":{"slug":"chevening-foundation","abbreviation":"Chevening","logo_formatted_name":"Chevening Scholarship Programme ","organisation_brand_colour_class_name":"foreign-commonwealth-office","organisation_logo_type_class_name":"no-identity","closed_at":null,"govuk_status":"exempt","content_id":"740574ed-f753-4c56-9f2e-3176520d65a2"},"analytics_identifier":"OT492","parent_organisations":[{"id":"https://www.gov.uk/api/organisations/foreign-commonwealth-office","web_url":"https://www.gov.uk/government/organisations/foreign-commonwealth-office"}],"child_organisations":[]},{"id":"https://www.gov.uk/api/organisations/london-and-continental-railways-ltd","title":"London and Continental Railways Ltd","format":"Public corporation","updated_at":"2014-10-15T15:36:35.000+01:00","web_url":"https://www.gov.uk/government/organisations/london-and-continental-railways-ltd","details":{"slug":"london-and-continental-railways-ltd","abbreviation":"LCR","logo_formatted_name":"London and Continental \r\nRailways Ltd","organisation_brand_colour_class_name":"department-for-transport","organisation_logo_type_class_name":"single-identity","closed_at":null,"govuk_status":"exempt","content_id":"a9a27d7f-c0d2-4a1b-9ad2-baf38f4dc1db"},"analytics_identifier":"PC493","parent_organisations":[{"id":"https://www.gov.uk/api/organisations/department-for-transport","web_url":"https://www.gov.uk/government/organisations/department-for-transport"}],"child_organisations":[]},{"id":"https://www.gov.uk/api/organisations/airports-commission","title":"Airports Commission","format":"Other","updated_at":"2016-01-04T15:27:06.000+00:00","web_url":"https://www.gov.uk/government/organisations/airports-commission","details":{"slug":"airports-commission","abbreviation":"","logo_formatted_name":"Airports Commission","organisation_brand_colour_class_name":"department-for-transport","organisation_logo_type_class_name":"no-identity","closed_at":"2015-07-02T00:00:00.000+01:00","govuk_status":"closed","content_id":"5f8931ae-479b-473c-b6b8-967fed23d10a"},"analytics_identifier":"OT494","parent_organisations":[{"id":"https://www.gov.uk/api/organisations/department-for-transport","web_url":"https://www.gov.uk/government/organisations/department-for-transport"}],"child_organisations":[]},{"id":"https://www.gov.uk/api/organisations/defence-equipment-and-support","title":"Defence Equipment and Support","format":"Sub-organisation","updated_at":"2015-06-01T14:54:42.000+01:00","web_url":"https://www.gov.uk/government/organisations/defence-equipment-and-support","details":{"slug":"defence-equipment-and-support","abbreviation":"DE\u0026S","logo_formatted_name":"Defence Equipment \r\nand Support","organisation_brand_colour_class_name":"ministry-of-defence","organisation_logo_type_class_name":"no-identity","closed_at":null,"govuk_status":"live","content_id":"73833cda-22ca-4711-87f9-73a98814315d"},"analytics_identifier":"OT495","parent_organisations":[{"id":"https://www.gov.uk/api/organisations/ministry-of-defence","web_url":"https://www.gov.uk/government/organisations/ministry-of-defence"}],"child_organisations":[]},{"id":"https://www.gov.uk/api/organisations/defence-infrastructure-organisation","title":"Defence Infrastructure Organisation","format":"Sub-organisation","updated_at":"2015-06-01T14:56:06.000+01:00","web_url":"https://www.gov.uk/government/organisations/defence-infrastructure-organisation","details":{"slug":"defence-infrastructure-organisation","abbreviation":"DIO","logo_formatted_name":"Defence Infrastructure Organisation","organisation_brand_colour_class_name":"ministry-of-defence","organisation_logo_type_class_name":"no-identity","closed_at":null,"govuk_status":"live","content_id":"73068a99-7122-4cad-a876-35ca0b0778b4"},"analytics_identifier":"OT496","parent_organisations":[{"id":"https://www.gov.uk/api/organisations/ministry-of-defence","web_url":"https://www.gov.uk/government/organisations/ministry-of-defence"}],"child_organisations":[]},{"id":"https://www.gov.uk/api/organisations/joint-forces-command","title":"Joint Forces Command","format":"Sub-organisation","updated_at":"2014-10-15T15:36:36.000+01:00","web_url":"https://www.gov.uk/government/organisations/joint-forces-command","details":{"slug":"joint-forces-command","abbreviation":"JFC","logo_formatted_name":"Joint Forces Command","organisation_brand_colour_class_name":"ministry-of-defence","organisation_logo_type_class_name":"no-identity","closed_at":null,"govuk_status":"live","content_id":"28441569-a901-4d7a-8b11-c0411ad008e2"},"analytics_identifier":"OT498","parent_organisations":[{"id":"https://www.gov.uk/api/organisations/ministry-of-defence","web_url":"https://www.gov.uk/government/organisations/ministry-of-defence"}],"child_organisations":[]},{"id":"https://www.gov.uk/api/organisations/the-shareholder-executive","title":"The Shareholder Executive","format":"Other","updated_at":"2016-04-01T11:08:34.000+01:00","web_url":"https://www.gov.uk/government/organisations/the-shareholder-executive","details":{"slug":"the-shareholder-executive","abbreviation":"ShEx","logo_formatted_name":"The\r\nShareholder\r\nExecutive","organisation_brand_colour_class_name":"department-for-business-innovation-skills","organisation_logo_type_class_name":"single-identity","closed_at":"2016-04-01T00:00:00.000+01:00","govuk_status":"closed","content_id":"80a4898c-0540-4f6b-9ad5-17b67faf058e"},"analytics_identifier":"PB500","parent_organisations":[{"id":"https://www.gov.uk/api/organisations/department-for-business-innovation-skills","web_url":"https://www.gov.uk/government/organisations/department-for-business-innovation-skills"}],"child_organisations":[]},{"id":"https://www.gov.uk/api/organisations/the-west-northamptonshire-development-corporation","title":"West Northamptonshire Development Corporation","format":"Executive non-departmental public body","updated_at":"2014-10-15T15:36:36.000+01:00","web_url":"https://www.gov.uk/government/organisations/the-west-northamptonshire-development-corporation","details":{"slug":"the-west-northamptonshire-development-corporation","abbreviation":"WNDC","logo_formatted_name":"West \r\nNorthamptonshire \r\nDevelopment \r\nCorporation\r\n","organisation_brand_colour_class_name":"department-for-communities-and-local-government","organisation_logo_type_class_name":"single-identity","closed_at":null,"govuk_status":"closed","content_id":"e43a338e-c266-45be-b8e8-5e17f9a7f7ce"},"analytics_identifier":"PB501","parent_organisations":[{"id":"https://www.gov.uk/api/organisations/department-for-communities-and-local-government","web_url":"https://www.gov.uk/government/organisations/department-for-communities-and-local-government"}],"child_organisations":[]},{"id":"https://www.gov.uk/api/organisations/office-for-life-sciences","title":"Office for Life Sciences","format":"Sub-organisation","updated_at":"2016-02-26T10:55:02.000+00:00","web_url":"https://www.gov.uk/government/organisations/office-for-life-sciences","details":{"slug":"office-for-life-sciences","abbreviation":"OLS","logo_formatted_name":"Office for Life Sciences","organisation_brand_colour_class_name":null,"organisation_logo_type_class_name":"no-identity","closed_at":null,"govuk_status":"live","content_id":"e54fd95b-b175-48f5-a406-bd36396f38a3"},"analytics_identifier":"OT502","parent_organisations":[{"id":"https://www.gov.uk/api/organisations/department-of-health","web_url":"https://www.gov.uk/government/organisations/department-of-health"},{"id":"https://www.gov.uk/api/organisations/department-for-business-energy-and-industrial-strategy","web_url":"https://www.gov.uk/government/organisations/department-for-business-energy-and-industrial-strategy"}],"child_organisations":[]},{"id":"https://www.gov.uk/api/organisations/local-government-ombudsman","title":"Local Government Ombudsman","format":"Other","updated_at":"2014-10-15T15:36:37.000+01:00","web_url":"https://www.gov.uk/government/organisations/local-government-ombudsman","details":{"slug":"local-government-ombudsman","abbreviation":"LGO","logo_formatted_name":"Local Government Ombudsman","organisation_brand_colour_class_name":"department-for-communities-and-local-government","organisation_logo_type_class_name":"no-identity","closed_at":null,"govuk_status":"exempt","content_id":"9ada320d-b9c6-4a67-92c5-10a5aee9ba10"},"analytics_identifier":"PB503","parent_organisations":[{"id":"https://www.gov.uk/api/organisations/department-for-communities-and-local-government","web_url":"https://www.gov.uk/government/organisations/department-for-communities-and-local-government"}],"child_organisations":[]},{"id":"https://www.gov.uk/api/organisations/chief-fire-and-rescue-adviser-unit","title":"Chief Fire and Rescue Adviser","format":"Sub-organisation","updated_at":"2016-04-06T13:26:59.000+01:00","web_url":"https://www.gov.uk/government/organisations/chief-fire-and-rescue-adviser-unit","details":{"slug":"chief-fire-and-rescue-adviser-unit","abbreviation":"CFRA","logo_formatted_name":"CFRA","organisation_brand_colour_class_name":"home-office","organisation_logo_type_class_name":"single-identity","closed_at":null,"govuk_status":"live","content_id":"4082456a-b07f-4a36-8fc1-f063b8921243"},"analytics_identifier":"OT504","parent_organisations":[{"id":"https://www.gov.uk/api/organisations/home-office","web_url":"https://www.gov.uk/government/organisations/home-office"}],"child_organisations":[]},{"id":"https://www.gov.uk/api/organisations/national-security","title":"National security and intelligence","format":"Sub-organisation","updated_at":"2014-10-15T15:36:37.000+01:00","web_url":"https://www.gov.uk/government/organisations/national-security","details":{"slug":"national-security","abbreviation":"","logo_formatted_name":"National security and intelligence","organisation_brand_colour_class_name":"cabinet-office","organisation_logo_type_class_name":"single-identity","closed_at":null,"govuk_status":"live","content_id":"354bc716-9654-4b5e-b24d-172588e24ca3"},"analytics_identifier":"OT505","parent_organisations":[{"id":"https://www.gov.uk/api/organisations/cabinet-office","web_url":"https://www.gov.uk/government/organisations/cabinet-office"}],"child_organisations":[]},{"id":"https://www.gov.uk/api/organisations/government-equalities-office","title":"Government Equalities Office  ","format":"Other","updated_at":"2016-11-17T16:04:36.000+00:00","web_url":"https://www.gov.uk/government/organisations/government-equalities-office","details":{"slug":"government-equalities-office","abbreviation":"GEO","logo_formatted_name":"Government\r\nEqualities Office\r\n","organisation_brand_colour_class_name":"department-for-culture-media-sport","organisation_logo_type_class_name":"single-identity","closed_at":null,"govuk_status":"live","content_id":"3df55660-43a9-4494-8146-a0a492a975b6"},"analytics_identifier":"OT506","parent_organisations":[{"id":"https://www.gov.uk/api/organisations/department-for-education","web_url":"https://www.gov.uk/government/organisations/department-for-education"}],"child_organisations":[]},{"id":"https://www.gov.uk/api/organisations/efficiency-and-reform-group","title":"Efficiency and Reform Group","format":"Sub-organisation","updated_at":"2014-10-15T15:36:38.000+01:00","web_url":"https://www.gov.uk/government/organisations/efficiency-and-reform-group","details":{"slug":"efficiency-and-reform-group","abbreviation":"ERG","logo_formatted_name":"Efficiency and Reform Group","organisation_brand_colour_class_name":"cabinet-office","organisation_logo_type_class_name":"single-identity","closed_at":null,"govuk_status":"live","content_id":"ec61fac5-95e9-46bb-8429-7129aab6d96d"},"analytics_identifier":"OT507","parent_organisations":[{"id":"https://www.gov.uk/api/organisations/cabinet-office","web_url":"https://www.gov.uk/government/organisations/cabinet-office"}],"child_organisations":[{"id":"https://www.gov.uk/api/organisations/government-digital-service","web_url":"https://www.gov.uk/government/organisations/government-digital-service"}]},{"id":"https://www.gov.uk/api/organisations/board-of-trustees-of-the-royal-botanic-gardens-kew","title":"Board of Trustees of the Royal Botanic Gardens Kew","format":"Executive non-departmental public body","updated_at":"2016-04-15T15:13:20.000+01:00","web_url":"https://www.gov.uk/government/organisations/board-of-trustees-of-the-royal-botanic-gardens-kew","details":{"slug":"board-of-trustees-of-the-royal-botanic-gardens-kew","abbreviation":"","logo_formatted_name":"Board of Trustees \r\nof the Royal Botanic \r\nGardens Kew","organisation_brand_colour_class_name":"department-for-environment-food-rural-affairs","organisation_logo_type_class_name":"no-identity","closed_at":null,"govuk_status":"exempt","content_id":"52b8ed10-ed3e-43a3-9bc6-4967c3867e16"},"analytics_identifier":"PB508","parent_organisations":[{"id":"https://www.gov.uk/api/organisations/department-for-environment-food-rural-affairs","web_url":"https://www.gov.uk/government/organisations/department-for-environment-food-rural-affairs"}],"child_organisations":[]}],"previous_page_url":"https://www.gov.uk/api/organisations?page=17","next_page_url":"https://www.gov.uk/api/organisations?page=19","current_page":18,"total":1009,"pages":51,"page_size":20,"start_index":341,"_response_info":{"status":"ok","links":[{"href":"https://www.gov.uk/api/organisations?page=17","rel":"previous"},{"href":"https://www.gov.uk/api/organisations?page=19","rel":"next"},{"href":"https://www.gov.uk/api/organisations?page=18","rel":"self"}]}}
