{"results":[{"id":"https://www.gov.uk/api/organisations/disclosure-and-barring-service","title":"Disclosure and Barring Service","format":"Executive non-departmental public body","updated_at":"2014-10-15T15:36:38.000+01:00","web_url":"https://www.gov.uk/government/organisations/disclosure-and-barring-service","details":{"slug":"disclosure-and-barring-service","abbreviation":"DBS","logo_formatted_name":"Disclosure \u0026\r\nBarring Service","organisation_brand_colour_class_name":"home-office","organisation_logo_type_class_name":"ho","closed_at":null,"govuk_status":"live","content_id":"77311cfc-4947-4a94-8b96-5412b1a359ab"},"analytics_identifier":"PB509","parent_organisations":[{"id":"https://www.gov.uk/api/organisations/home-office","web_url":"https://www.gov.uk/government/organisations/home-office"}],"child_organisations":[]},{"id":"https://www.gov.uk/api/organisations/social-mobility-and-child-poverty-commission","title":"Social Mobility and Child Poverty Commission","format":"Advisory non-departmental public body","updated_at":"2016-05-16T10:37:09.000+01:00","web_url":"https://www.gov.uk/government/organisations/social-mobility-and-child-poverty-commission","details":{"slug":"social-mobility-and-child-poverty-commission","abbreviation":"SMCP Commission","logo_formatted_name":"Social Mobility and \r\nChild Poverty \r\nCommission","organisation_brand_colour_class_name":"department-for-education","organisation_logo_type_class_name":"single-identity","closed_at":"2016-05-16T00:00:00.000+01:00","govuk_status":"closed","content_id":"64f4bc11-2a27-46a1-b246-b16c8243c91b"},"analytics_identifier":"PB510","parent_organisations":[{"id":"https://www.gov.uk/api/organisations/cabinet-office","web_url":"https://www.gov.uk/government/organisations/cabinet-office"},{"id":"https://www.gov.uk/api/organisations/department-for-education","web_url":"https://www.gov.uk/government/organisations/department-for-education"},{"id":"https://www.gov.uk/api/organisations/department-for-work-pensions","web_url":"https://www.gov.uk/government/organisations/department-for-work-pensions"}],"child_organisations":[]},{"id":"https://www.gov.uk/api/organisations/independent-reviewer-of-terrorism-legislation","title":"Independent Reviewer of Terrorism Legislation","format":"Other","updated_at":"2014-10-15T15:36:39.000+01:00","web_url":"https://www.gov.uk/government/organisations/independent-reviewer-of-terrorism-legislation","details":{"slug":"independent-reviewer-of-terrorism-legislation","abbreviation":"Independent Reviewer","logo_formatted_name":"Independent Reviewer \r\nof Terrorism Legislation","organisation_brand_colour_class_name":"home-office","organisation_logo_type_class_name":"single-identity","closed_at":null,"govuk_status":"exempt","content_id":"e10280ca-1e4d-4819-af01-cf2950ff65b5"},"analytics_identifier":"OT511","parent_organisations":[{"id":"https://www.gov.uk/api/organisations/home-office","web_url":"https://www.gov.uk/government/organisations/home-office"}],"child_organisations":[]},{"id":"https://www.gov.uk/api/organisations/intelligence-services-commissioner","title":"Intelligence Services Commissioner","format":"Other","updated_at":"2014-10-23T10:04:36.000+01:00","web_url":"https://www.gov.uk/government/organisations/intelligence-services-commissioner","details":{"slug":"intelligence-services-commissioner","abbreviation":"ISC","logo_formatted_name":"Intelligence \r\nServices \r\nCommissioner","organisation_brand_colour_class_name":"home-office","organisation_logo_type_class_name":"single-identity","closed_at":null,"govuk_status":"exempt","content_id":"5c5ce8b0-8a4a-44d4-a37c-9a5595025d14"},"analytics_identifier":"OT512","parent_organisations":[{"id":"https://www.gov.uk/api/organisations/home-office","web_url":"https://www.gov.uk/government/organisations/home-office"}],"child_organisations":[]},{"id":"https://www.gov.uk/api/organisations/interception-of-communications-commissioner","title":"Interception of Communications Commissioner","format":"Other","updated_at":"2014-10-15T15:36:39.000+01:00","web_url":"https://www.gov.uk/government/organisations/interception-of-communications-commissioner","details":{"slug":"interception-of-communications-commissioner","abbreviation":"Interception Commissioner\t","logo_formatted_name":"Interception of \r\nCommunications \r\nCommissioner","organisation_brand_colour_class_name":"home-office","organisation_logo_type_class_name":"single-identity","closed_at":null,"govuk_status":"exempt","content_id":"ceb78367-8aa4-494b-ab44-71bdaeff939f"},"analytics_identifier":"OT513","parent_organisations":[{"id":"https://www.gov.uk/api/organisations/home-office","web_url":"https://www.gov.uk/government/organisations/home-office"}],"child_organisations":[]},{"id":"https://www.gov.uk/api/organisations/office-for-low-emission-vehicles","title":"Office for Low Emission Vehicles","format":"Sub-organisation","updated_at":"2016-09-08T11:27:05.000+01:00","web_url":"https://www.gov.uk/government/organisations/office-for-low-emission-vehicles","details":{"slug":"office-for-low-emission-vehicles","abbreviation":"OLEV","logo_formatted_name":"Office for Low Emission Vehicles","organisation_brand_colour_class_name":"department-for-transport","organisation_logo_type_class_name":"single-identity","closed_at":null,"govuk_status":"live","content_id":"767f262c-9c80-44c2-9614-53d505ecc34b"},"analytics_identifier":"OT514","parent_organisations":[{"id":"https://www.gov.uk/api/organisations/department-for-transport","web_url":"https://www.gov.uk/government/organisations/department-for-transport"},{"id":"https://www.gov.uk/api/organisations/department-for-business-energy-and-industrial-strategy","web_url":"https://www.gov.uk/government/organisations/department-for-business-energy-and-industrial-strategy"}],"child_organisations":[]},{"id":"https://www.gov.uk/api/organisations/office-of-the-parliamentary-counsel","title":"Office of the Parliamentary Counsel","format":"Sub-organisation","updated_at":"2014-10-15T15:36:40.000+01:00","web_url":"https://www.gov.uk/government/organisations/office-of-the-parliamentary-counsel","details":{"slug":"office-of-the-parliamentary-counsel","abbreviation":"OPC","logo_formatted_name":"Office of the Parliamentary Counsel","organisation_brand_colour_class_name":"cabinet-office","organisation_logo_type_class_name":"single-identity","closed_at":null,"govuk_status":"live","content_id":"9f80fe62-b229-4517-9e32-f560b5c518ce"},"analytics_identifier":"OT515","parent_organisations":[{"id":"https://www.gov.uk/api/organisations/cabinet-office","web_url":"https://www.gov.uk/government/organisations/cabinet-office"}],"child_organisations":[]},{"id":"https://www.gov.uk/api/organisations/criminal-procedure-rule-committee","title":"Criminal Procedure Rule Committee","format":"Advisory non-departmental public body","updated_at":"2014-11-07T11:07:14.000+00:00","web_url":"https://www.gov.uk/government/organisations/criminal-procedure-rule-committee","details":{"slug":"criminal-procedure-rule-committee","abbreviation":"","logo_formatted_name":"Criminal Procedure \r\nRule Committee","organisation_brand_colour_class_name":"ministry-of-justice","organisation_logo_type_class_name":"single-identity","closed_at":null,"govuk_status":"live","content_id":"83724558-8e63-4fd2-9fc3-8ba968174644"},"analytics_identifier":"PB516","parent_organisations":[{"id":"https://www.gov.uk/api/organisations/ministry-of-justice","web_url":"https://www.gov.uk/government/organisations/ministry-of-justice"}],"child_organisations":[]},{"id":"https://www.gov.uk/api/organisations/commissioner-for-public-appointments","title":"Commissioner for Public Appointments","format":"Other","updated_at":"2014-12-19T14:42:27.000+00:00","web_url":"https://www.gov.uk/government/organisations/commissioner-for-public-appointments","details":{"slug":"commissioner-for-public-appointments","abbreviation":"","logo_formatted_name":"Commissioner for \r\nPublic Appointments","organisation_brand_colour_class_name":"cabinet-office","organisation_logo_type_class_name":"single-identity","closed_at":null,"govuk_status":"exempt","content_id":"c2082391-55b3-404c-90a2-2df73a43633a"},"analytics_identifier":"OT517","parent_organisations":[{"id":"https://www.gov.uk/api/organisations/cabinet-office","web_url":"https://www.gov.uk/government/organisations/cabinet-office"}],"child_organisations":[]},{"id":"https://www.gov.uk/api/organisations/mckay-commission","title":"The McKay Commission","format":"Other","updated_at":"2014-10-15T15:36:40.000+01:00","web_url":"https://www.gov.uk/government/organisations/mckay-commission","details":{"slug":"mckay-commission","abbreviation":"TMC","logo_formatted_name":"McKay Commission","organisation_brand_colour_class_name":"cabinet-office","organisation_logo_type_class_name":"single-identity","closed_at":null,"govuk_status":"closed","content_id":"0f950b2a-0396-475b-896f-975bd811ad7c"},"analytics_identifier":"OT518","parent_organisations":[{"id":"https://www.gov.uk/api/organisations/cabinet-office","web_url":"https://www.gov.uk/government/organisations/cabinet-office"}],"child_organisations":[]},{"id":"https://www.gov.uk/api/organisations/the-parliamentary-and-health-service-ombudsman","title":"The Parliamentary and Health Service Ombudsman ","format":"Other","updated_at":"2014-10-15T15:36:40.000+01:00","web_url":"https://www.gov.uk/government/organisations/the-parliamentary-and-health-service-ombudsman","details":{"slug":"the-parliamentary-and-health-service-ombudsman","abbreviation":"The Ombudsman","logo_formatted_name":"The Parliamentary \r\nand Health Service\r\nOmbudsman ","organisation_brand_colour_class_name":"cabinet-office","organisation_logo_type_class_name":"no-identity","closed_at":null,"govuk_status":"exempt","content_id":"8e0d056a-96f7-4240-8ae5-7bd7aa7ce94c"},"analytics_identifier":"OT519","parent_organisations":[],"child_organisations":[]},{"id":"https://www.gov.uk/api/organisations/behavioural-insights-team","title":"Behavioural Insights Team","format":"Other","updated_at":"2014-11-06T12:09:38.000+00:00","web_url":"https://www.gov.uk/government/organisations/behavioural-insights-team","details":{"slug":"behavioural-insights-team","abbreviation":"BIT","logo_formatted_name":"Behavioural Insights Team","organisation_brand_colour_class_name":null,"organisation_logo_type_class_name":"single-identity","closed_at":null,"govuk_status":"closed","content_id":"fb4c4650-17ee-428b-8961-0051b027baa9"},"analytics_identifier":"OT520","parent_organisations":[],"child_organisations":[]},{"id":"https://www.gov.uk/api/organisations/insolvency-practitioners-tribunal","title":"Insolvency Practitioners Tribunal","format":"Tribunal non-departmental public body","updated_at":"2014-10-15T15:36:41.000+01:00","web_url":"https://www.gov.uk/government/organisations/insolvency-practitioners-tribunal","details":{"slug":"insolvency-practitioners-tribunal","abbreviation":"IPT","logo_formatted_name":"Insolvency \r\nPractitioners\r\nTribunal","organisation_brand_colour_class_name":"department-for-business-innovation-skills","organisation_logo_type_class_name":"single-identity","closed_at":null,"govuk_status":"live","content_id":"64642a32-f3f6-40ab-99ea-7abd5053081f"},"analytics_identifier":"PB521","parent_organisations":[{"id":"https://www.gov.uk/api/organisations/department-for-business-energy-and-industrial-strategy","web_url":"https://www.gov.uk/government/organisations/department-for-business-energy-and-industrial-strategy"}],"child_organisations":[]},{"id":"https://www.gov.uk/api/organisations/advisory-committee-on-clinical-excellence-awards","title":"Advisory Committee on Clinical Excellence Awards","format":"Advisory non-departmental public body","updated_at":"2014-10-15T15:36:41.000+01:00","web_url":"https://www.gov.uk/government/organisations/advisory-committee-on-clinical-excellence-awards","details":{"slug":"advisory-committee-on-clinical-excellence-awards","abbreviation":"ACCEA","logo_formatted_name":"Advisory Committee on \r\nClinical Excellence \r\nAwards","organisation_brand_colour_class_name":"department-of-health","organisation_logo_type_class_name":"no-identity","closed_at":null,"govuk_status":"live","content_id":"aee6b528-c1f5-404c-bc69-d584e63e20a5"},"analytics_identifier":"OT522","parent_organisations":[{"id":"https://www.gov.uk/api/organisations/department-of-health","web_url":"https://www.gov.uk/government/organisations/department-of-health"}],"child_organisations":[]},{"id":"https://www.gov.uk/api/organisations/administration-of-radioactive-substances-advisory-committee","title":"Administration of Radioactive Substances Advisory Committee","format":"Advisory non-departmental public body","updated_at":"2014-12-01T10:29:59.000+00:00","web_url":"https://www.gov.uk/government/organisations/administration-of-radioactive-substances-advisory-committee","details":{"slug":"administration-of-radioactive-substances-advisory-committee","abbreviation":"ARSAC","logo_formatted_name":"Administration of \r\nRadioactive Substances \r\nAdvisory Committee","organisation_brand_colour_class_name":"department-of-health","organisation_logo_type_class_name":"single-identity","closed_at":null,"govuk_status":"live","content_id":"b5bd9a64-4315-492e-9679-3e2f6799c769"},"analytics_identifier":"PB523","parent_organisations":[{"id":"https://www.gov.uk/api/organisations/department-of-health","web_url":"https://www.gov.uk/government/organisations/department-of-health"}],"child_organisations":[]},{"id":"https://www.gov.uk/api/organisations/british-pharmacopoeia","title":"British Pharmacopoeia Commission","format":"Advisory non-departmental public body","updated_at":"2015-08-07T14:43:49.000+01:00","web_url":"https://www.gov.uk/government/organisations/british-pharmacopoeia","details":{"slug":"british-pharmacopoeia","abbreviation":"","logo_formatted_name":"British\r\nPharmacopoeia","organisation_brand_colour_class_name":"department-of-health","organisation_logo_type_class_name":"single-identity","closed_at":null,"govuk_status":"exempt","content_id":"613ca78b-1269-4e0b-9a9f-2acbaa4c398a"},"analytics_identifier":"PB524","parent_organisations":[{"id":"https://www.gov.uk/api/organisations/department-of-health","web_url":"https://www.gov.uk/government/organisations/department-of-health"}],"child_organisations":[]},{"id":"https://www.gov.uk/api/organisations/commission-on-human-medicines","title":"Commission on Human Medicines","format":"Advisory non-departmental public body","updated_at":"2015-10-20T15:58:14.000+01:00","web_url":"https://www.gov.uk/government/organisations/commission-on-human-medicines","details":{"slug":"commission-on-human-medicines","abbreviation":"CHM","logo_formatted_name":"Commission on Human Medicines","organisation_brand_colour_class_name":"department-of-health","organisation_logo_type_class_name":"single-identity","closed_at":null,"govuk_status":"live","content_id":"7fc0e673-49b7-4e95-9cfc-bed33f9b9b9e"},"analytics_identifier":"PB525","parent_organisations":[{"id":"https://www.gov.uk/api/organisations/department-of-health","web_url":"https://www.gov.uk/government/organisations/department-of-health"}],"child_organisations":[]},{"id":"https://www.gov.uk/api/organisations/committee-on-mutagenicity-of-chemicals-in-food-consumer-products-and-the-environment","title":"Committee on Mutagenicity of Chemicals in Food, Consumer Products and the Environment","format":"Advisory non-departmental public body","updated_at":"2015-12-17T16:53:05.000+00:00","web_url":"https://www.gov.uk/government/organisations/committee-on-mutagenicity-of-chemicals-in-food-consumer-products-and-the-environment","details":{"slug":"committee-on-mutagenicity-of-chemicals-in-food-consumer-products-and-the-environment","abbreviation":"COM","logo_formatted_name":"Committee on Mutagenicity of \r\nChemicals in Food, Consumer Products \r\nand the Environment","organisation_brand_colour_class_name":"department-of-health","organisation_logo_type_class_name":"single-identity","closed_at":null,"govuk_status":"live","content_id":"ab5cc717-daaa-4491-89ed-292433358ccc"},"analytics_identifier":"PB526","parent_organisations":[{"id":"https://www.gov.uk/api/organisations/department-of-health","web_url":"https://www.gov.uk/government/organisations/department-of-health"},{"id":"https://www.gov.uk/api/organisations/food-standards-agency","web_url":"https://www.gov.uk/government/organisations/food-standards-agency"}],"child_organisations":[]},{"id":"https://www.gov.uk/api/organisations/independent-reconfiguration-panel","title":"Independent Reconfiguration Panel","format":"Advisory non-departmental public body","updated_at":"2014-11-11T11:26:34.000+00:00","web_url":"https://www.gov.uk/government/organisations/independent-reconfiguration-panel","details":{"slug":"independent-reconfiguration-panel","abbreviation":"IRP","logo_formatted_name":"Independent \r\nReconfiguration \r\nPanel","organisation_brand_colour_class_name":"department-of-health","organisation_logo_type_class_name":"single-identity","closed_at":null,"govuk_status":"live","content_id":"171abbf3-beca-46b9-a0c3-4b4ff1e8c8ed"},"analytics_identifier":"PB527","parent_organisations":[{"id":"https://www.gov.uk/api/organisations/department-of-health","web_url":"https://www.gov.uk/government/organisations/department-of-health"}],"child_organisations":[]},{"id":"https://www.gov.uk/api/organisations/nhs-business-services-authority","title":"NHS Business Services Authority","format":"Executive non-departmental public body","updated_at":"2015-08-21T13:46:46.000+01:00","web_url":"https://www.gov.uk/government/organisations/nhs-business-services-authority","details":{"slug":"nhs-business-services-authority","abbreviation":"NHSBSA","logo_formatted_name":"NHS \r\nBusiness Services \r\nAuthority","organisation_brand_colour_class_name":"department-of-health","organisation_logo_type_class_name":"single-identity","closed_at":null,"govuk_status":"exempt","content_id":"07cebb86-ead7-4b80-ac96-fbd68a8d8b6f"},"analytics_identifier":"OT529","parent_organisations":[{"id":"https://www.gov.uk/api/organisations/department-of-health","web_url":"https://www.gov.uk/government/organisations/department-of-health"}],"child_organisations":[{"id":"https://www.gov.uk/api/organisations/counter-fraud-and-security-management-service","web_url":"https://www.gov.uk/government/organisations/counter-fraud-and-security-management-service"}]}],"previous_page_url":"https://www.gov.uk/api/organisations?page=18","next_page_url":"https://www.gov.uk/api/organisations?page=20","current_page":19,"total":1009,"pages":51,"page_size":20,"start_index":361,"_response_info":{"status":"ok","links":[{"href":"https://www.gov.uk/api/organisations?page=18","rel":"previous"},{"href":"https://www.gov.uk/api/organisations?page=20","rel":"next"},{"href":"https://www.gov.uk/api/organisations?page=19","rel":"self"}]}}
