{"results":[{"id":"https://www.gov.uk/api/organisations/office-of-the-leader-of-the-house-of-lords","title":"Office of the Leader of the House of Lords","format":"Ministerial department","updated_at":"2016-07-18T18:26:50.000+01:00","web_url":"https://www.gov.uk/government/organisations/office-of-the-leader-of-the-house-of-lords","details":{"slug":"office-of-the-leader-of-the-house-of-lords","abbreviation":"OLHL","logo_formatted_name":"Office of the\r\nLeader of the\r\nHouse of Lords","organisation_brand_colour_class_name":"office-of-the-leader-of-the-house-of-lords","organisation_logo_type_class_name":"portcullis","closed_at":null,"govuk_status":"live","content_id":"7f6b788d-1e91-4f87-b315-8a44fb773182"},"analytics_identifier":"D22","parent_organisations":[{"id":"https://www.gov.uk/api/organisations/cabinet-office","web_url":"https://www.gov.uk/government/organisations/cabinet-office"}],"child_organisations":[]},{"id":"https://www.gov.uk/api/organisations/scotland-office","title":"Scotland Office","format":"Ministerial department","updated_at":"2017-01-18T13:52:48.000+00:00","web_url":"https://www.gov.uk/government/organisations/scotland-office","details":{"slug":"scotland-office","abbreviation":"Scotland Office","logo_formatted_name":"Scotland Office","organisation_brand_colour_class_name":"scotland-office","organisation_logo_type_class_name":"so","closed_at":null,"govuk_status":"live","content_id":"db674609-f9d6-4700-b5c7-31ae810a661b"},"analytics_identifier":"D23","parent_organisations":[],"child_organisations":[{"id":"https://www.gov.uk/api/organisations/boundary-commission-for-scotland","web_url":"https://www.gov.uk/government/organisations/boundary-commission-for-scotland"}]},{"id":"https://www.gov.uk/api/organisations/office-of-the-secretary-of-state-for-wales","title":"Office of the Secretary of State for Wales","format":"Ministerial department","updated_at":"2016-12-08T12:36:00.000+00:00","web_url":"https://www.gov.uk/government/organisations/office-of-the-secretary-of-state-for-wales","details":{"slug":"office-of-the-secretary-of-state-for-wales","abbreviation":"WO","logo_formatted_name":"Wales Office\r\nSwyddfa Cymru","organisation_brand_colour_class_name":"wales-office","organisation_logo_type_class_name":"custom","closed_at":null,"govuk_status":"live","content_id":"4f9fe232-e7a2-48e8-99b1-8f7828680493"},"analytics_identifier":"D24","parent_organisations":[],"child_organisations":[]},{"id":"https://www.gov.uk/api/organisations/hm-revenue-customs","title":"HM Revenue \u0026 Customs","format":"Non-ministerial department","updated_at":"2015-05-13T11:09:06.000+01:00","web_url":"https://www.gov.uk/government/organisations/hm-revenue-customs","details":{"slug":"hm-revenue-customs","abbreviation":"HMRC","logo_formatted_name":"HM Revenue\r\n\u0026 Customs","organisation_brand_colour_class_name":"hm-revenue-customs","organisation_logo_type_class_name":"hmrc","closed_at":null,"govuk_status":"live","content_id":"6667cce2-e809-4e21-ae09-cb0bdc1ddda3"},"analytics_identifier":"D25","parent_organisations":[],"child_organisations":[{"id":"https://www.gov.uk/api/organisations/valuation-office-agency","web_url":"https://www.gov.uk/government/organisations/valuation-office-agency"},{"id":"https://www.gov.uk/api/organisations/the-adjudicator-s-office","web_url":"https://www.gov.uk/government/organisations/the-adjudicator-s-office"}]},{"id":"https://www.gov.uk/api/organisations/companies-house","title":"Companies House ","format":"Executive agency","updated_at":"2016-06-01T09:53:04.000+01:00","web_url":"https://www.gov.uk/government/organisations/companies-house","details":{"slug":"companies-house","abbreviation":"Companies House","logo_formatted_name":"Companies House ","organisation_brand_colour_class_name":"department-for-business-innovation-skills","organisation_logo_type_class_name":"single-identity","closed_at":null,"govuk_status":"live","content_id":"c36bd301-d0c5-4492-86ad-ee7843b8383b"},"analytics_identifier":"EA26","parent_organisations":[{"id":"https://www.gov.uk/api/organisations/department-for-business-energy-and-industrial-strategy","web_url":"https://www.gov.uk/government/organisations/department-for-business-energy-and-industrial-strategy"}],"child_organisations":[]},{"id":"https://www.gov.uk/api/organisations/student-loans-company","title":"Student Loans Company","format":"Executive non-departmental public body","updated_at":"2016-07-25T17:08:14.000+01:00","web_url":"https://www.gov.uk/government/organisations/student-loans-company","details":{"slug":"student-loans-company","abbreviation":"SLC","logo_formatted_name":"Student Loans Company","organisation_brand_colour_class_name":"department-for-business-innovation-skills","organisation_logo_type_class_name":"no-identity","closed_at":null,"govuk_status":"exempt","content_id":"9a9111aa-1db8-4025-8dd2-e08ec3175e72"},"analytics_identifier":"PB27","parent_organisations":[{"id":"https://www.gov.uk/api/organisations/department-for-education","web_url":"https://www.gov.uk/government/organisations/department-for-education"}],"child_organisations":[]},{"id":"https://www.gov.uk/api/organisations/acas","title":"Advisory, Conciliation and Arbitration Service","format":"Executive non-departmental public body","updated_at":"2016-07-25T14:55:29.000+01:00","web_url":"https://www.gov.uk/government/organisations/acas","details":{"slug":"acas","abbreviation":"Acas","logo_formatted_name":"Advisory, Conciliation and Arbitration Service","organisation_brand_colour_class_name":"department-for-business-innovation-skills","organisation_logo_type_class_name":"no-identity","closed_at":null,"govuk_status":"exempt","content_id":"fb40955a-d2ff-4993-a052-91a7558cbb79"},"analytics_identifier":"PB28","parent_organisations":[{"id":"https://www.gov.uk/api/organisations/department-for-business-energy-and-industrial-strategy","web_url":"https://www.gov.uk/government/organisations/department-for-business-energy-and-industrial-strategy"}],"child_organisations":[]},{"id":"https://www.gov.uk/api/organisations/national-fraud-authority","title":"National Fraud Authority","format":"Executive agency","updated_at":"2014-10-15T15:35:23.000+01:00","web_url":"https://www.gov.uk/government/organisations/national-fraud-authority","details":{"slug":"national-fraud-authority","abbreviation":"NFA","logo_formatted_name":"National Fraud Authority","organisation_brand_colour_class_name":"home-office","organisation_logo_type_class_name":"ho","closed_at":"2014-03-31T00:00:00.000+01:00","govuk_status":"closed","content_id":"9e2fa982-1cf6-400e-bfce-c8222a2efce3"},"analytics_identifier":"PB29","parent_organisations":[{"id":"https://www.gov.uk/api/organisations/home-office","web_url":"https://www.gov.uk/government/organisations/home-office"}],"child_organisations":[]},{"id":"https://www.gov.uk/api/organisations/treasury-solicitor-s-department","title":"Treasury Solicitor’s Department","format":"Non-ministerial department","updated_at":"2015-04-01T08:27:50.000+01:00","web_url":"https://www.gov.uk/government/organisations/treasury-solicitor-s-department","details":{"slug":"treasury-solicitor-s-department","abbreviation":"TSol","logo_formatted_name":"Treasury \r\nSolicitor’s \r\nDepartment","organisation_brand_colour_class_name":"attorney-generals-office","organisation_logo_type_class_name":"single-identity","closed_at":"2015-04-01T00:00:00.000+01:00","govuk_status":"closed","content_id":"cae0cb98-8c71-416e-b7af-c46f535219fd"},"analytics_identifier":"D30","parent_organisations":[{"id":"https://www.gov.uk/api/organisations/attorney-generals-office","web_url":"https://www.gov.uk/government/organisations/attorney-generals-office"}],"child_organisations":[{"id":"https://www.gov.uk/api/organisations/bank-of-england","web_url":"https://www.gov.uk/government/organisations/bank-of-england"}]},{"id":"https://www.gov.uk/api/organisations/uk-space-agency","title":"UK Space Agency","format":"Executive agency","updated_at":"2015-09-28T12:25:08.000+01:00","web_url":"https://www.gov.uk/government/organisations/uk-space-agency","details":{"slug":"uk-space-agency","abbreviation":"","logo_formatted_name":"UK Space Agency","organisation_brand_colour_class_name":"department-for-business-innovation-skills","organisation_logo_type_class_name":"custom","closed_at":null,"govuk_status":"live","content_id":"1a22a221-513b-4a8d-ae97-e3668b6d5568"},"analytics_identifier":"EA31","parent_organisations":[{"id":"https://www.gov.uk/api/organisations/department-for-business-energy-and-industrial-strategy","web_url":"https://www.gov.uk/government/organisations/department-for-business-energy-and-industrial-strategy"}],"child_organisations":[]},{"id":"https://www.gov.uk/api/organisations/insolvency-service","title":"The Insolvency Service","format":"Executive agency","updated_at":"2016-02-18T22:44:12.000+00:00","web_url":"https://www.gov.uk/government/organisations/insolvency-service","details":{"slug":"insolvency-service","abbreviation":"the Insolvency Service","logo_formatted_name":"The Insolvency \r\nService","organisation_brand_colour_class_name":"department-for-business-innovation-skills","organisation_logo_type_class_name":"single-identity","closed_at":null,"govuk_status":"live","content_id":"c8406408-8376-45e0-95b4-7e74cef2c260"},"analytics_identifier":"EA32","parent_organisations":[{"id":"https://www.gov.uk/api/organisations/department-for-business-energy-and-industrial-strategy","web_url":"https://www.gov.uk/government/organisations/department-for-business-energy-and-industrial-strategy"}],"child_organisations":[]},{"id":"https://www.gov.uk/api/organisations/national-measurement-office","title":"National Measurement Office","format":"Executive agency","updated_at":"2015-04-01T08:30:07.000+01:00","web_url":"https://www.gov.uk/government/organisations/national-measurement-office","details":{"slug":"national-measurement-office","abbreviation":"NMO","logo_formatted_name":"National \r\nMeasurement \r\nOffice","organisation_brand_colour_class_name":"department-for-business-innovation-skills","organisation_logo_type_class_name":"bis","closed_at":"2015-03-31T00:00:00.000+01:00","govuk_status":"closed","content_id":"bf70fb51-06d0-4625-85bb-410bdf42cddc"},"analytics_identifier":"EA33","parent_organisations":[{"id":"https://www.gov.uk/api/organisations/department-for-business-innovation-skills","web_url":"https://www.gov.uk/government/organisations/department-for-business-innovation-skills"}],"child_organisations":[]},{"id":"https://www.gov.uk/api/organisations/intellectual-property-office","title":"Intellectual Property Office","format":"Executive agency","updated_at":"2015-02-17T11:00:13.000+00:00","web_url":"https://www.gov.uk/government/organisations/intellectual-property-office","details":{"slug":"intellectual-property-office","abbreviation":"IPO","logo_formatted_name":"Intellectual\r\nProperty \r\nOffice","organisation_brand_colour_class_name":"department-for-business-innovation-skills","organisation_logo_type_class_name":"single-identity","closed_at":null,"govuk_status":"live","content_id":"5d6f9583-991f-413d-ae83-be7274e5eae4"},"analytics_identifier":"EA34","parent_organisations":[{"id":"https://www.gov.uk/api/organisations/department-for-business-energy-and-industrial-strategy","web_url":"https://www.gov.uk/government/organisations/department-for-business-energy-and-industrial-strategy"}],"child_organisations":[{"id":"https://www.gov.uk/api/organisations/company-names-tribunal","web_url":"https://www.gov.uk/government/organisations/company-names-tribunal"}]},{"id":"https://www.gov.uk/api/organisations/fire-service-college","title":"Fire Service College","format":"Other","updated_at":"2014-10-15T15:35:24.000+01:00","web_url":"https://www.gov.uk/government/organisations/fire-service-college","details":{"slug":"fire-service-college","abbreviation":"FSC","logo_formatted_name":"Fire Service College","organisation_brand_colour_class_name":null,"organisation_logo_type_class_name":"no-identity","closed_at":null,"govuk_status":"exempt","content_id":"530bbbdf-8b69-45e2-b0aa-ba1e868076ac"},"analytics_identifier":"EA37","parent_organisations":[],"child_organisations":[]},{"id":"https://www.gov.uk/api/organisations/ordnance-survey","title":"Ordnance Survey","format":"Non-ministerial department","updated_at":"2016-07-25T14:49:29.000+01:00","web_url":"https://www.gov.uk/government/organisations/ordnance-survey","details":{"slug":"ordnance-survey","abbreviation":"OS","logo_formatted_name":"Ordnance Survey","organisation_brand_colour_class_name":"department-for-business-innovation-skills","organisation_logo_type_class_name":"no-identity","closed_at":null,"govuk_status":"exempt","content_id":"b6d83795-a693-4f88-90fb-a5f67cd680a3"},"analytics_identifier":"D38","parent_organisations":[{"id":"https://www.gov.uk/api/organisations/department-for-business-energy-and-industrial-strategy","web_url":"https://www.gov.uk/government/organisations/department-for-business-energy-and-industrial-strategy"}],"child_organisations":[]},{"id":"https://www.gov.uk/api/organisations/planning-inspectorate","title":"Planning Inspectorate","format":"Executive agency","updated_at":"2015-12-17T10:08:45.000+00:00","web_url":"https://www.gov.uk/government/organisations/planning-inspectorate","details":{"slug":"planning-inspectorate","abbreviation":"The Planning Inspectorate","logo_formatted_name":"Planning\r\nInspectorate","organisation_brand_colour_class_name":"department-for-communities-and-local-government","organisation_logo_type_class_name":"single-identity","closed_at":null,"govuk_status":"live","content_id":"5e946baf-6dde-4916-a55e-8d44e0cdfe58"},"analytics_identifier":"EA39","parent_organisations":[{"id":"https://www.gov.uk/api/organisations/department-for-communities-and-local-government","web_url":"https://www.gov.uk/government/organisations/department-for-communities-and-local-government"},{"id":"https://www.gov.uk/api/organisations/welsh-government","web_url":"https://www.gov.uk/government/organisations/welsh-government"}],"child_organisations":[]},{"id":"https://www.gov.uk/api/organisations/queen-elizabeth-ii-conference-centre","title":"Queen Elizabeth II Conference Centre","format":"Executive agency","updated_at":"2014-10-15T15:35:24.000+01:00","web_url":"https://www.gov.uk/government/organisations/queen-elizabeth-ii-conference-centre","details":{"slug":"queen-elizabeth-ii-conference-centre","abbreviation":"QEIICC","logo_formatted_name":"Queen Elizabeth II \r\nConference Centre","organisation_brand_colour_class_name":"department-for-communities-and-local-government","organisation_logo_type_class_name":"no-identity","closed_at":null,"govuk_status":"exempt","content_id":"c2da0e5f-4706-4fe8-be25-eaca49dd1f86"},"analytics_identifier":"EA40","parent_organisations":[{"id":"https://www.gov.uk/api/organisations/department-for-communities-and-local-government","web_url":"https://www.gov.uk/government/organisations/department-for-communities-and-local-government"}],"child_organisations":[]},{"id":"https://www.gov.uk/api/organisations/royal-parks","title":"Royal Parks","format":"Executive agency","updated_at":"2014-10-15T15:35:25.000+01:00","web_url":"https://www.gov.uk/government/organisations/royal-parks","details":{"slug":"royal-parks","abbreviation":"Royal Parks","logo_formatted_name":"Royal Parks","organisation_brand_colour_class_name":"department-for-culture-media-sport","organisation_logo_type_class_name":"no-identity","closed_at":null,"govuk_status":"exempt","content_id":"2cff7e4b-452d-4322-9222-ecf89ea5caaf"},"analytics_identifier":"EA41","parent_organisations":[{"id":"https://www.gov.uk/api/organisations/department-for-culture-media-sport","web_url":"https://www.gov.uk/government/organisations/department-for-culture-media-sport"}],"child_organisations":[]},{"id":"https://www.gov.uk/api/organisations/defence-science-and-technology-laboratory","title":"Defence Science and Technology Laboratory","format":"Executive agency","updated_at":"2015-05-26T11:35:43.000+01:00","web_url":"https://www.gov.uk/government/organisations/defence-science-and-technology-laboratory","details":{"slug":"defence-science-and-technology-laboratory","abbreviation":"Dstl","logo_formatted_name":"Defence Science and Technology Laboratory","organisation_brand_colour_class_name":"ministry-of-defence","organisation_logo_type_class_name":"custom","closed_at":null,"govuk_status":"live","content_id":"43b6c342-c6b7-4ef1-93d2-98f0a9130ccc"},"analytics_identifier":"EA42","parent_organisations":[{"id":"https://www.gov.uk/api/organisations/ministry-of-defence","web_url":"https://www.gov.uk/government/organisations/ministry-of-defence"}],"child_organisations":[{"id":"https://www.gov.uk/api/organisations/centre-for-defence-enterprise","web_url":"https://www.gov.uk/government/organisations/centre-for-defence-enterprise"},{"id":"https://www.gov.uk/api/organisations/defence-and-security-accelerator","web_url":"https://www.gov.uk/government/organisations/defence-and-security-accelerator"}]},{"id":"https://www.gov.uk/api/organisations/defence-support-group","title":"Defence Support Group","format":"Executive agency","updated_at":"2015-04-22T15:23:33.000+01:00","web_url":"https://www.gov.uk/government/organisations/defence-support-group","details":{"slug":"defence-support-group","abbreviation":"DSG","logo_formatted_name":"Defence Support Group","organisation_brand_colour_class_name":"ministry-of-defence","organisation_logo_type_class_name":"no-identity","closed_at":"2015-03-31T00:00:00.000+01:00","govuk_status":"closed","content_id":"fb79ea06-ac7a-4373-8335-2da06c77819f"},"analytics_identifier":"EA44","parent_organisations":[{"id":"https://www.gov.uk/api/organisations/ministry-of-defence","web_url":"https://www.gov.uk/government/organisations/ministry-of-defence"}],"child_organisations":[]}],"previous_page_url":"https://www.gov.uk/api/organisations?page=1","next_page_url":"https://www.gov.uk/api/organisations?page=3","current_page":2,"total":1009,"pages":51,"page_size":20,"start_index":21,"_response_info":{"status":"ok","links":[{"href":"https://www.gov.uk/api/organisations?page=1","rel":"previous"},{"href":"https://www.gov.uk/api/organisations?page=3","rel":"next"},{"href":"https://www.gov.uk/api/organisations?page=2","rel":"self"}]}}
