{"results":[{"id":"https://www.gov.uk/api/organisations/review-body-on-doctors-and-dentists-remuneration","title":"Review Body on Doctors' and Dentists' Remuneration","format":"Advisory non-departmental public body","updated_at":"2014-10-15T15:36:43.000+01:00","web_url":"https://www.gov.uk/government/organisations/review-body-on-doctors-and-dentists-remuneration","details":{"slug":"review-body-on-doctors-and-dentists-remuneration","abbreviation":"DDRB","logo_formatted_name":"Review Body on \r\nDoctors' and Dentists' \r\nRemuneration","organisation_brand_colour_class_name":"department-of-health","organisation_logo_type_class_name":"single-identity","closed_at":null,"govuk_status":"live","content_id":"928b7987-72a2-485f-bf70-7d7c1238bc0c"},"analytics_identifier":"PB530","parent_organisations":[{"id":"https://www.gov.uk/api/organisations/department-of-health","web_url":"https://www.gov.uk/government/organisations/department-of-health"}],"child_organisations":[]},{"id":"https://www.gov.uk/api/organisations/nhs-pay-review-body","title":"NHS Pay Review Body","format":"Advisory non-departmental public body","updated_at":"2014-10-15T15:36:43.000+01:00","web_url":"https://www.gov.uk/government/organisations/nhs-pay-review-body","details":{"slug":"nhs-pay-review-body","abbreviation":"NHSPRB","logo_formatted_name":"NHS \r\nPay Review \r\nBody","organisation_brand_colour_class_name":"department-of-health","organisation_logo_type_class_name":"single-identity","closed_at":null,"govuk_status":"live","content_id":"0c9b6c77-7e98-4a39-98a2-8e56b201217c"},"analytics_identifier":"PB531","parent_organisations":[{"id":"https://www.gov.uk/api/organisations/department-of-health","web_url":"https://www.gov.uk/government/organisations/department-of-health"}],"child_organisations":[]},{"id":"https://www.gov.uk/api/organisations/prime-ministers-office-10-downing-street","title":"Prime Minister's Office, 10 Downing Street","format":"Executive office","updated_at":"2015-03-09T20:00:54.000+00:00","web_url":"https://www.gov.uk/government/organisations/prime-ministers-office-10-downing-street","details":{"slug":"prime-ministers-office-10-downing-street","abbreviation":"Number 10","logo_formatted_name":"Prime Minister's Office, 10 Downing Street","organisation_brand_colour_class_name":"cabinet-office","organisation_logo_type_class_name":"eo","closed_at":null,"govuk_status":"live","content_id":"705dbea4-8bd7-422e-ba9c-254557f77f81"},"analytics_identifier":"OT532","parent_organisations":[{"id":"https://www.gov.uk/api/organisations/cabinet-office","web_url":"https://www.gov.uk/government/organisations/cabinet-office"}],"child_organisations":[{"id":"https://www.gov.uk/api/organisations/uk-holocaust-memorial-foundation","web_url":"https://www.gov.uk/government/organisations/uk-holocaust-memorial-foundation"}]},{"id":"https://www.gov.uk/api/organisations/investigation-into-the-role-of-jimmy-savile-at-broadmoor-hospital","title":"Broadmoor Hospital investigation","format":"Sub-organisation","updated_at":"2014-10-15T15:36:44.000+01:00","web_url":"https://www.gov.uk/government/organisations/investigation-into-the-role-of-jimmy-savile-at-broadmoor-hospital","details":{"slug":"investigation-into-the-role-of-jimmy-savile-at-broadmoor-hospital","abbreviation":"","logo_formatted_name":"Broadmoor\r\nHospital\r\ninvestigation","organisation_brand_colour_class_name":"department-of-health","organisation_logo_type_class_name":"single-identity","closed_at":null,"govuk_status":"live","content_id":"75fcbd7a-e253-4498-bcf6-7e4c1ddf995f"},"analytics_identifier":"OT533","parent_organisations":[{"id":"https://www.gov.uk/api/organisations/department-of-health","web_url":"https://www.gov.uk/government/organisations/department-of-health"}],"child_organisations":[]},{"id":"https://www.gov.uk/api/organisations/animals-in-science-committee","title":"Animals in Science Committee","format":"Advisory non-departmental public body","updated_at":"2014-10-15T15:36:44.000+01:00","web_url":"https://www.gov.uk/government/organisations/animals-in-science-committee","details":{"slug":"animals-in-science-committee","abbreviation":"ASC","logo_formatted_name":"Animals in Science Committee","organisation_brand_colour_class_name":null,"organisation_logo_type_class_name":"no-identity","closed_at":null,"govuk_status":"live","content_id":"39a657d9-6482-4ee6-af90-cf9914ae2439"},"analytics_identifier":"PB534","parent_organisations":[{"id":"https://www.gov.uk/api/organisations/home-office","web_url":"https://www.gov.uk/government/organisations/home-office"}],"child_organisations":[]},{"id":"https://www.gov.uk/api/organisations/border-force","title":"Border Force","format":"Sub-organisation","updated_at":"2016-05-09T12:10:45.000+01:00","web_url":"https://www.gov.uk/government/organisations/border-force","details":{"slug":"border-force","abbreviation":"BF","logo_formatted_name":"Border Force","organisation_brand_colour_class_name":"home-office","organisation_logo_type_class_name":"ho","closed_at":null,"govuk_status":"live","content_id":"3808b369-f1d6-44d3-a5b2-a7b7ac931106"},"analytics_identifier":"OT535","parent_organisations":[{"id":"https://www.gov.uk/api/organisations/home-office","web_url":"https://www.gov.uk/government/organisations/home-office"}],"child_organisations":[]},{"id":"https://www.gov.uk/api/organisations/forensic-science-regulator","title":"Forensic Science Regulator","format":"Other","updated_at":"2015-12-04T16:44:46.000+00:00","web_url":"https://www.gov.uk/government/organisations/forensic-science-regulator","details":{"slug":"forensic-science-regulator","abbreviation":"FSR","logo_formatted_name":"Forensic Science \r\nRegulator","organisation_brand_colour_class_name":null,"organisation_logo_type_class_name":"no-identity","closed_at":null,"govuk_status":"live","content_id":"403b037a-5975-46d3-bb3b-02405ca964b8"},"analytics_identifier":"OT536","parent_organisations":[{"id":"https://www.gov.uk/api/organisations/home-office","web_url":"https://www.gov.uk/government/organisations/home-office"}],"child_organisations":[]},{"id":"https://www.gov.uk/api/organisations/deputy-prime-ministers-office","title":"Deputy Prime Minister's Office","format":"Executive office","updated_at":"2015-05-11T17:17:58.000+01:00","web_url":"https://www.gov.uk/government/organisations/deputy-prime-ministers-office","details":{"slug":"deputy-prime-ministers-office","abbreviation":"DPMO","logo_formatted_name":"The Deputy Prime Minister's Office","organisation_brand_colour_class_name":"cabinet-office","organisation_logo_type_class_name":"eo","closed_at":null,"govuk_status":"closed","content_id":"5a1467ef-2946-4d06-831d-8153d25d6ff4"},"analytics_identifier":"OT537","parent_organisations":[{"id":"https://www.gov.uk/api/organisations/cabinet-office","web_url":"https://www.gov.uk/government/organisations/cabinet-office"}],"child_organisations":[]},{"id":"https://www.gov.uk/api/organisations/health-and-social-care-information-centre","title":"Health and Social Care Information Centre","format":"Executive non-departmental public body","updated_at":"2016-08-03T11:44:05.000+01:00","web_url":"https://www.gov.uk/government/organisations/health-and-social-care-information-centre","details":{"slug":"health-and-social-care-information-centre","abbreviation":"HSCIC","logo_formatted_name":"Health and \r\nSocial Care \r\nInformation Centre","organisation_brand_colour_class_name":"department-of-health","organisation_logo_type_class_name":"no-identity","closed_at":"2016-08-01T00:00:00.000+01:00","govuk_status":"closed","content_id":"dad552a3-bb63-4825-a3ec-f06c4409bda4"},"analytics_identifier":"OT538","parent_organisations":[{"id":"https://www.gov.uk/api/organisations/department-of-health","web_url":"https://www.gov.uk/government/organisations/department-of-health"}],"child_organisations":[]},{"id":"https://www.gov.uk/api/organisations/health-education-england","title":"Health Education England","format":"Executive non-departmental public body","updated_at":"2015-08-17T11:23:39.000+01:00","web_url":"https://www.gov.uk/government/organisations/health-education-england","details":{"slug":"health-education-england","abbreviation":"HEE","logo_formatted_name":"Health \r\nEducation\r\nEngland","organisation_brand_colour_class_name":"department-of-health","organisation_logo_type_class_name":"no-identity","closed_at":null,"govuk_status":"exempt","content_id":"b48f2dab-c504-41b6-8c95-1da4cf97065f"},"analytics_identifier":"OT539","parent_organisations":[{"id":"https://www.gov.uk/api/organisations/department-of-health","web_url":"https://www.gov.uk/government/organisations/department-of-health"}],"child_organisations":[]},{"id":"https://www.gov.uk/api/organisations/infrastructure-uk","title":"Infrastructure UK","format":"Sub-organisation","updated_at":"2016-01-05T14:13:36.000+00:00","web_url":"https://www.gov.uk/government/organisations/infrastructure-uk","details":{"slug":"infrastructure-uk","abbreviation":"IUK","logo_formatted_name":"Infrastructure UK","organisation_brand_colour_class_name":"hm-treasury","organisation_logo_type_class_name":"no-identity","closed_at":null,"govuk_status":"closed","content_id":"697bf058-5764-467c-8969-32102447953b"},"analytics_identifier":"OT540","parent_organisations":[{"id":"https://www.gov.uk/api/organisations/hm-treasury","web_url":"https://www.gov.uk/government/organisations/hm-treasury"}],"child_organisations":[]},{"id":"https://www.gov.uk/api/organisations/national-college-for-teaching-and-leadership","title":"National College for Teaching and Leadership","format":"Executive agency","updated_at":"2015-05-20T09:20:51.000+01:00","web_url":"https://www.gov.uk/government/organisations/national-college-for-teaching-and-leadership","details":{"slug":"national-college-for-teaching-and-leadership","abbreviation":"NCTL","logo_formatted_name":"National College for \r\nTeaching \u0026 Leadership","organisation_brand_colour_class_name":"department-for-education","organisation_logo_type_class_name":"single-identity","closed_at":null,"govuk_status":"live","content_id":"e1cbab66-b0d3-4186-917c-afd4f3fb6967"},"analytics_identifier":"EA541","parent_organisations":[{"id":"https://www.gov.uk/api/organisations/department-for-education","web_url":"https://www.gov.uk/government/organisations/department-for-education"}],"child_organisations":[]},{"id":"https://www.gov.uk/api/organisations/northumberland-national-park-authority","title":"Northumberland National Park Authority","format":"Other","updated_at":"2014-10-21T10:27:05.000+01:00","web_url":"https://www.gov.uk/government/organisations/northumberland-national-park-authority","details":{"slug":"northumberland-national-park-authority","abbreviation":"","logo_formatted_name":"Northumberland \r\nNational Park \r\nAuthority","organisation_brand_colour_class_name":"department-for-environment-food-rural-affairs","organisation_logo_type_class_name":"single-identity","closed_at":null,"govuk_status":"exempt","content_id":"47ced70c-1c03-42d8-8ead-4e7270563864"},"analytics_identifier":"OT543","parent_organisations":[{"id":"https://www.gov.uk/api/organisations/department-for-environment-food-rural-affairs","web_url":"https://www.gov.uk/government/organisations/department-for-environment-food-rural-affairs"}],"child_organisations":[]},{"id":"https://www.gov.uk/api/organisations/peak-district-national-park","title":"Peak District National Park Authority","format":"Other","updated_at":"2014-10-15T15:36:46.000+01:00","web_url":"https://www.gov.uk/government/organisations/peak-district-national-park","details":{"slug":"peak-district-national-park","abbreviation":"PDNP","logo_formatted_name":"Peak District\r\nNational Park Authority","organisation_brand_colour_class_name":"department-for-environment-food-rural-affairs","organisation_logo_type_class_name":"no-identity","closed_at":null,"govuk_status":"exempt","content_id":"0d1ad2e2-b336-48af-965d-1f26ba51a6af"},"analytics_identifier":"OT545","parent_organisations":[{"id":"https://www.gov.uk/api/organisations/department-for-environment-food-rural-affairs","web_url":"https://www.gov.uk/government/organisations/department-for-environment-food-rural-affairs"}],"child_organisations":[]},{"id":"https://www.gov.uk/api/organisations/south-downs-national-park-authority","title":"South Downs National Park Authority","format":"Other","updated_at":"2014-10-15T15:36:46.000+01:00","web_url":"https://www.gov.uk/government/organisations/south-downs-national-park-authority","details":{"slug":"south-downs-national-park-authority","abbreviation":"SDNP","logo_formatted_name":"South Downs\r\nNational Park Authority","organisation_brand_colour_class_name":"department-for-environment-food-rural-affairs","organisation_logo_type_class_name":"no-identity","closed_at":null,"govuk_status":"exempt","content_id":"dade1d0f-5a69-4b57-8798-f60c1a75e706"},"analytics_identifier":"OT546","parent_organisations":[{"id":"https://www.gov.uk/api/organisations/department-for-environment-food-rural-affairs","web_url":"https://www.gov.uk/government/organisations/department-for-environment-food-rural-affairs"}],"child_organisations":[]},{"id":"https://www.gov.uk/api/organisations/yorkshire-dales-national-park-authority","title":"Yorkshire Dales National Park Authority","format":"Other","updated_at":"2014-10-15T15:36:47.000+01:00","web_url":"https://www.gov.uk/government/organisations/yorkshire-dales-national-park-authority","details":{"slug":"yorkshire-dales-national-park-authority","abbreviation":"YDNP","logo_formatted_name":"Yorkshire Dales \r\nNational Park Authority","organisation_brand_colour_class_name":"department-for-environment-food-rural-affairs","organisation_logo_type_class_name":"no-identity","closed_at":null,"govuk_status":"exempt","content_id":"830a6924-20ee-4390-9d8b-409632dae5ba"},"analytics_identifier":"OT547","parent_organisations":[{"id":"https://www.gov.uk/api/organisations/department-for-environment-food-rural-affairs","web_url":"https://www.gov.uk/government/organisations/department-for-environment-food-rural-affairs"}],"child_organisations":[]},{"id":"https://www.gov.uk/api/organisations/biometrics-commissioner","title":"Biometrics Commissioner","format":"Other","updated_at":"2014-10-23T10:40:10.000+01:00","web_url":"https://www.gov.uk/government/organisations/biometrics-commissioner","details":{"slug":"biometrics-commissioner","abbreviation":"","logo_formatted_name":"Biometrics\r\nCommissioner","organisation_brand_colour_class_name":null,"organisation_logo_type_class_name":"custom","closed_at":null,"govuk_status":"live","content_id":"8dc110c3-4b94-4dd0-b5c6-217a6102a298"},"analytics_identifier":"OT548","parent_organisations":[{"id":"https://www.gov.uk/api/organisations/home-office","web_url":"https://www.gov.uk/government/organisations/home-office"}],"child_organisations":[]},{"id":"https://www.gov.uk/api/organisations/government-estates-management","title":"Government Estates Management","format":"Other","updated_at":"2014-10-15T15:36:47.000+01:00","web_url":"https://www.gov.uk/government/organisations/government-estates-management","details":{"slug":"government-estates-management","abbreviation":"GEM","logo_formatted_name":"Government Estates\r\nManagement","organisation_brand_colour_class_name":"cabinet-office","organisation_logo_type_class_name":"single-identity","closed_at":null,"govuk_status":"live","content_id":"ae20564a-68e3-4da9-a331-a2df8060e2e2"},"analytics_identifier":"OT549","parent_organisations":[{"id":"https://www.gov.uk/api/organisations/cabinet-office","web_url":"https://www.gov.uk/government/organisations/cabinet-office"}],"child_organisations":[]},{"id":"https://www.gov.uk/api/organisations/competition-and-markets-authority","title":"Competition and Markets Authority","format":"Non-ministerial department","updated_at":"2015-03-10T16:23:14.000+00:00","web_url":"https://www.gov.uk/government/organisations/competition-and-markets-authority","details":{"slug":"competition-and-markets-authority","abbreviation":"CMA","logo_formatted_name":"Competition and \r\nMarkets Authority","organisation_brand_colour_class_name":"department-for-business-innovation-skills","organisation_logo_type_class_name":"custom","closed_at":null,"govuk_status":"live","content_id":"957eb4ec-089b-4f71-ba2a-dc69ac8919ea"},"analytics_identifier":"D550","parent_organisations":[{"id":"https://www.gov.uk/api/organisations/department-for-business-energy-and-industrial-strategy","web_url":"https://www.gov.uk/government/organisations/department-for-business-energy-and-industrial-strategy"}],"child_organisations":[]},{"id":"https://www.gov.uk/api/organisations/groceries-code-adjudicator","title":"Groceries Code Adjudicator","format":"Other","updated_at":"2016-11-15T12:55:21.000+00:00","web_url":"https://www.gov.uk/government/organisations/groceries-code-adjudicator","details":{"slug":"groceries-code-adjudicator","abbreviation":"GCA","logo_formatted_name":"Groceries Code Adjudicator\r\n","organisation_brand_colour_class_name":"department-for-business-innovation-skills","organisation_logo_type_class_name":"single-identity","closed_at":null,"govuk_status":"live","content_id":"c39170d6-85de-408e-87cf-37d0005bb791"},"analytics_identifier":"OT551","parent_organisations":[{"id":"https://www.gov.uk/api/organisations/department-for-business-energy-and-industrial-strategy","web_url":"https://www.gov.uk/government/organisations/department-for-business-energy-and-industrial-strategy"}],"child_organisations":[]}],"previous_page_url":"https://www.gov.uk/api/organisations?page=19","next_page_url":"https://www.gov.uk/api/organisations?page=21","current_page":20,"total":1009,"pages":51,"page_size":20,"start_index":381,"_response_info":{"status":"ok","links":[{"href":"https://www.gov.uk/api/organisations?page=19","rel":"previous"},{"href":"https://www.gov.uk/api/organisations?page=21","rel":"next"},{"href":"https://www.gov.uk/api/organisations?page=20","rel":"self"}]}}
