{"results":[{"id":"https://www.gov.uk/api/organisations/surveillance-camera-commissioner","title":"Surveillance Camera Commissioner","format":"Other","updated_at":"2014-12-18T16:52:48.000+00:00","web_url":"https://www.gov.uk/government/organisations/surveillance-camera-commissioner","details":{"slug":"surveillance-camera-commissioner","abbreviation":"SCC","logo_formatted_name":"Surveillance \r\nCamera \r\nCommissioner","organisation_brand_colour_class_name":null,"organisation_logo_type_class_name":"custom","closed_at":null,"govuk_status":"live","content_id":"e0f81015-d2a5-4f08-be6e-c68aa8f9f43f"},"analytics_identifier":"OT552","parent_organisations":[{"id":"https://www.gov.uk/api/organisations/home-office","web_url":"https://www.gov.uk/government/organisations/home-office"}],"child_organisations":[]},{"id":"https://www.gov.uk/api/organisations/office-of-the-regulator-of-community-interest-companies","title":"Office of the Regulator of Community Interest Companies","format":"Other","updated_at":"2016-07-25T15:21:48.000+01:00","web_url":"https://www.gov.uk/government/organisations/office-of-the-regulator-of-community-interest-companies","details":{"slug":"office-of-the-regulator-of-community-interest-companies","abbreviation":"CIC Regulator","logo_formatted_name":"Office of the Regulator of Community Interest Companies","organisation_brand_colour_class_name":"department-for-business-innovation-skills","organisation_logo_type_class_name":"custom","closed_at":null,"govuk_status":"live","content_id":"518ea730-81db-4d3b-8080-50cd6e0784cd"},"analytics_identifier":"OT553","parent_organisations":[{"id":"https://www.gov.uk/api/organisations/department-for-business-energy-and-industrial-strategy","web_url":"https://www.gov.uk/government/organisations/department-for-business-energy-and-industrial-strategy"}],"child_organisations":[]},{"id":"https://www.gov.uk/api/organisations/uk-visas-and-immigration","title":"UK Visas and Immigration","format":"Sub-organisation","updated_at":"2014-10-15T15:36:48.000+01:00","web_url":"https://www.gov.uk/government/organisations/uk-visas-and-immigration","details":{"slug":"uk-visas-and-immigration","abbreviation":"UKVI","logo_formatted_name":"UK Visas and Immigration","organisation_brand_colour_class_name":"home-office","organisation_logo_type_class_name":"ho","closed_at":null,"govuk_status":"live","content_id":"04148522-b0c1-4137-b687-5f3c3bdd561a"},"analytics_identifier":"OT554","parent_organisations":[{"id":"https://www.gov.uk/api/organisations/home-office","web_url":"https://www.gov.uk/government/organisations/home-office"}],"child_organisations":[]},{"id":"https://www.gov.uk/api/organisations/government-office-for-science","title":"Government Office for Science","format":"Other","updated_at":"2016-07-08T16:51:24.000+01:00","web_url":"https://www.gov.uk/government/organisations/government-office-for-science","details":{"slug":"government-office-for-science","abbreviation":"GO-Science","logo_formatted_name":"Government \r\nOffice for Science","organisation_brand_colour_class_name":"cabinet-office","organisation_logo_type_class_name":"single-identity","closed_at":null,"govuk_status":"live","content_id":"37c13dbd-1662-4c14-8a09-d4f921851e00"},"analytics_identifier":"OT555","parent_organisations":[{"id":"https://www.gov.uk/api/organisations/department-for-business-energy-and-industrial-strategy","web_url":"https://www.gov.uk/government/organisations/department-for-business-energy-and-industrial-strategy"}],"child_organisations":[]},{"id":"https://www.gov.uk/api/organisations/legal-aid-agency","title":"Legal Aid Agency","format":"Executive agency","updated_at":"2016-10-20T09:05:18.000+01:00","web_url":"https://www.gov.uk/government/organisations/legal-aid-agency","details":{"slug":"legal-aid-agency","abbreviation":"LAA","logo_formatted_name":"Legal Aid \r\nAgency","organisation_brand_colour_class_name":null,"organisation_logo_type_class_name":"single-identity","closed_at":null,"govuk_status":"live","content_id":"6ba90ae6-972d-4d48-ad66-693bbb31496d"},"analytics_identifier":"EA556","parent_organisations":[{"id":"https://www.gov.uk/api/organisations/ministry-of-justice","web_url":"https://www.gov.uk/government/organisations/ministry-of-justice"}],"child_organisations":[]},{"id":"https://www.gov.uk/api/organisations/export-control-organisation","title":"Export Control Organisation","format":"Sub-organisation","updated_at":"2016-08-22T11:16:43.000+01:00","web_url":"https://www.gov.uk/government/organisations/export-control-organisation","details":{"slug":"export-control-organisation","abbreviation":"ECO","logo_formatted_name":"Export Control Organisation","organisation_brand_colour_class_name":"uk-trade-investment","organisation_logo_type_class_name":"no-identity","closed_at":null,"govuk_status":"live","content_id":"183520bb-7f82-487d-91d4-bb079cc259a2"},"analytics_identifier":"OT557","parent_organisations":[{"id":"https://www.gov.uk/api/organisations/department-for-international-trade","web_url":"https://www.gov.uk/government/organisations/department-for-international-trade"}],"child_organisations":[]},{"id":"https://www.gov.uk/api/organisations/national-crime-agency","title":"National Crime Agency","format":"Non-ministerial department","updated_at":"2014-10-15T15:36:49.000+01:00","web_url":"https://www.gov.uk/government/organisations/national-crime-agency","details":{"slug":"national-crime-agency","abbreviation":"NCA","logo_formatted_name":"National Crime Agency","organisation_brand_colour_class_name":null,"organisation_logo_type_class_name":"no-identity","closed_at":null,"govuk_status":"exempt","content_id":"4623aadb-f96e-4bfb-b6fb-007dab3c5185"},"analytics_identifier":"PB558","parent_organisations":[],"child_organisations":[]},{"id":"https://www.gov.uk/api/organisations/healthcare-uk","title":"Healthcare UK","format":"Sub-organisation","updated_at":"2016-07-26T13:23:58.000+01:00","web_url":"https://www.gov.uk/government/organisations/healthcare-uk","details":{"slug":"healthcare-uk","abbreviation":"Healthcare UK","logo_formatted_name":"Healthcare UK","organisation_brand_colour_class_name":null,"organisation_logo_type_class_name":"custom","closed_at":null,"govuk_status":"live","content_id":"036eacbb-80b5-471d-8793-293b7cdc68e2"},"analytics_identifier":"OT559","parent_organisations":[{"id":"https://www.gov.uk/api/organisations/department-of-health","web_url":"https://www.gov.uk/government/organisations/department-of-health"},{"id":"https://www.gov.uk/api/organisations/uk-trade-investment","web_url":"https://www.gov.uk/government/organisations/uk-trade-investment"}],"child_organisations":[]},{"id":"https://www.gov.uk/api/organisations/cesg","title":"CESG","format":"Sub-organisation","updated_at":"2014-10-15T15:36:50.000+01:00","web_url":"https://www.gov.uk/government/organisations/cesg","details":{"slug":"cesg","abbreviation":"CESG","logo_formatted_name":"CESG","organisation_brand_colour_class_name":"foreign-commonwealth-office","organisation_logo_type_class_name":"single-identity","closed_at":null,"govuk_status":"exempt","content_id":"e3a2fb8d-6b69-4bce-9c51-38e8e2d128c9"},"analytics_identifier":"OT563","parent_organisations":[{"id":"https://www.gov.uk/api/organisations/government-communications-headquarters","web_url":"https://www.gov.uk/government/organisations/government-communications-headquarters"}],"child_organisations":[]},{"id":"https://www.gov.uk/api/organisations/bona-vacantia","title":"Bona Vacantia","format":"Sub-organisation","updated_at":"2015-03-31T19:33:12.000+01:00","web_url":"https://www.gov.uk/government/organisations/bona-vacantia","details":{"slug":"bona-vacantia","abbreviation":"BVD","logo_formatted_name":"Bona Vacantia ","organisation_brand_colour_class_name":"attorney-generals-office","organisation_logo_type_class_name":"single-identity","closed_at":null,"govuk_status":"live","content_id":"c9109663-0128-4db4-b513-a9cdfb691034"},"analytics_identifier":"OT564","parent_organisations":[{"id":"https://www.gov.uk/api/organisations/government-legal-department","web_url":"https://www.gov.uk/government/organisations/government-legal-department"}],"child_organisations":[]},{"id":"https://www.gov.uk/api/organisations/morecambe-bay-investigation","title":"Morecambe Bay Investigation","format":"Other","updated_at":"2015-08-10T10:46:27.000+01:00","web_url":"https://www.gov.uk/government/organisations/morecambe-bay-investigation","details":{"slug":"morecambe-bay-investigation","abbreviation":"","logo_formatted_name":"Morecambe Bay \r\nInvestigation","organisation_brand_colour_class_name":"department-of-health","organisation_logo_type_class_name":"single-identity","closed_at":null,"govuk_status":"live","content_id":"33f69a27-4bee-4f4a-bd3c-7ec62562be74"},"analytics_identifier":"OT565","parent_organisations":[{"id":"https://www.gov.uk/api/organisations/department-of-health","web_url":"https://www.gov.uk/government/organisations/department-of-health"}],"child_organisations":[]},{"id":"https://www.gov.uk/api/organisations/open-public-services","title":"Open Public Services","format":"Sub-organisation","updated_at":"2015-03-09T20:00:54.000+00:00","web_url":"https://www.gov.uk/government/organisations/open-public-services","details":{"slug":"open-public-services","abbreviation":"OPS","logo_formatted_name":"Open Public Services","organisation_brand_colour_class_name":"cabinet-office","organisation_logo_type_class_name":"single-identity","closed_at":null,"govuk_status":"live","content_id":"83579fe6-c696-4bea-9eab-f33fedd4d277"},"analytics_identifier":"OT566","parent_organisations":[{"id":"https://www.gov.uk/api/organisations/cabinet-office","web_url":"https://www.gov.uk/government/organisations/cabinet-office"}],"child_organisations":[]},{"id":"https://www.gov.uk/api/organisations/centre-for-the-protection-of-national-infrastructure","title":"Centre for the Protection of National Infrastructure","format":"Other","updated_at":"2014-10-15T15:36:51.000+01:00","web_url":"https://www.gov.uk/government/organisations/centre-for-the-protection-of-national-infrastructure","details":{"slug":"centre-for-the-protection-of-national-infrastructure","abbreviation":"CPNI","logo_formatted_name":"Centre for the Protection \r\nof National Infrastructure","organisation_brand_colour_class_name":"cabinet-office","organisation_logo_type_class_name":"single-identity","closed_at":null,"govuk_status":"exempt","content_id":"0a4fbc59-b9c3-47e6-8092-4bdf4e4d16db"},"analytics_identifier":"OT567","parent_organisations":[{"id":"https://www.gov.uk/api/organisations/the-security-service-mi5","web_url":"https://www.gov.uk/government/organisations/the-security-service-mi5"},{"id":"https://www.gov.uk/api/organisations/government-communications-headquarters","web_url":"https://www.gov.uk/government/organisations/government-communications-headquarters"}],"child_organisations":[]},{"id":"https://www.gov.uk/api/organisations/better-regulation-delivery-office","title":"Better Regulation Delivery Office","format":"Other","updated_at":"2016-04-01T09:51:42.000+01:00","web_url":"https://www.gov.uk/government/organisations/better-regulation-delivery-office","details":{"slug":"better-regulation-delivery-office","abbreviation":"BRDO","logo_formatted_name":"Better\r\nRegulation\r\nDelivery Office","organisation_brand_colour_class_name":"department-for-business-innovation-skills","organisation_logo_type_class_name":"bis","closed_at":"2016-03-31T00:00:00.000+01:00","govuk_status":"closed","content_id":"bb371e6d-6c48-495a-bc64-494856345e99"},"analytics_identifier":"OT569","parent_organisations":[{"id":"https://www.gov.uk/api/organisations/department-for-business-innovation-skills","web_url":"https://www.gov.uk/government/organisations/department-for-business-innovation-skills"}],"child_organisations":[{"id":"https://www.gov.uk/api/organisations/national-measurement-and-regulation-office","web_url":"https://www.gov.uk/government/organisations/national-measurement-and-regulation-office"}]},{"id":"https://www.gov.uk/api/organisations/driver-and-vehicle-standards-agency","title":"Driver and Vehicle Standards Agency","format":"Executive agency","updated_at":"2016-11-18T12:50:04.000+00:00","web_url":"https://www.gov.uk/government/organisations/driver-and-vehicle-standards-agency","details":{"slug":"driver-and-vehicle-standards-agency","abbreviation":"DVSA","logo_formatted_name":"Driver \u0026 Vehicle\r\nStandards\r\nAgency","organisation_brand_colour_class_name":"department-for-transport","organisation_logo_type_class_name":"single-identity","closed_at":null,"govuk_status":"live","content_id":"d39237a5-678b-4bb5-a372-eb2cb036933d"},"analytics_identifier":"EA570","parent_organisations":[{"id":"https://www.gov.uk/api/organisations/department-for-transport","web_url":"https://www.gov.uk/government/organisations/department-for-transport"}],"child_organisations":[]},{"id":"https://www.gov.uk/api/organisations/tate","title":"Tate","format":"Executive non-departmental public body","updated_at":"2015-05-18T09:44:34.000+01:00","web_url":"https://www.gov.uk/government/organisations/tate","details":{"slug":"tate","abbreviation":"Tate","logo_formatted_name":"The Tate","organisation_brand_colour_class_name":null,"organisation_logo_type_class_name":"single-identity","closed_at":null,"govuk_status":"exempt","content_id":"7b38b48c-aad8-48f6-8bfa-1c48e07ef483"},"analytics_identifier":"PB571","parent_organisations":[{"id":"https://www.gov.uk/api/organisations/department-for-culture-media-sport","web_url":"https://www.gov.uk/government/organisations/department-for-culture-media-sport"}],"child_organisations":[]},{"id":"https://www.gov.uk/api/organisations/wave-hub","title":"Wave Hub","format":"Other","updated_at":"2016-07-25T15:23:54.000+01:00","web_url":"https://www.gov.uk/government/organisations/wave-hub","details":{"slug":"wave-hub","abbreviation":"","logo_formatted_name":"Wave Hub","organisation_brand_colour_class_name":"department-for-business-innovation-skills","organisation_logo_type_class_name":"single-identity","closed_at":null,"govuk_status":"exempt","content_id":"e952f0a0-e912-4d71-b127-1b116339265c"},"analytics_identifier":"OT572","parent_organisations":[{"id":"https://www.gov.uk/api/organisations/department-for-business-energy-and-industrial-strategy","web_url":"https://www.gov.uk/government/organisations/department-for-business-energy-and-industrial-strategy"}],"child_organisations":[]},{"id":"https://www.gov.uk/api/organisations/advisory-committee-on-animal-feedingstuffs","title":"Advisory Committee on Animal Feedingstuffs","format":"Advisory non-departmental public body","updated_at":"2014-10-15T15:36:52.000+01:00","web_url":"https://www.gov.uk/government/organisations/advisory-committee-on-animal-feedingstuffs","details":{"slug":"advisory-committee-on-animal-feedingstuffs","abbreviation":"ACAF","logo_formatted_name":"Advisory Committee on \r\nAnimal Feedingstuffs","organisation_brand_colour_class_name":null,"organisation_logo_type_class_name":"single-identity","closed_at":null,"govuk_status":"exempt","content_id":"b02a8db0-6bbb-4010-9584-1a6623dc7012"},"analytics_identifier":"PB573","parent_organisations":[{"id":"https://www.gov.uk/api/organisations/food-standards-agency","web_url":"https://www.gov.uk/government/organisations/food-standards-agency"}],"child_organisations":[]},{"id":"https://www.gov.uk/api/organisations/advisory-committee-on-novel-foods-and-processes","title":"Advisory Committee on Novel Foods and Processes","format":"Advisory non-departmental public body","updated_at":"2014-10-15T15:36:52.000+01:00","web_url":"https://www.gov.uk/government/organisations/advisory-committee-on-novel-foods-and-processes","details":{"slug":"advisory-committee-on-novel-foods-and-processes","abbreviation":"ACNFP","logo_formatted_name":"Advisory Committee \r\non Novel Foods \r\nand Processes","organisation_brand_colour_class_name":null,"organisation_logo_type_class_name":"single-identity","closed_at":null,"govuk_status":"exempt","content_id":"c175500c-c1f1-46e3-9e4d-02ef02202264"},"analytics_identifier":"PB574","parent_organisations":[{"id":"https://www.gov.uk/api/organisations/food-standards-agency","web_url":"https://www.gov.uk/government/organisations/food-standards-agency"}],"child_organisations":[]},{"id":"https://www.gov.uk/api/organisations/advisory-committee-on-the-microbiological-safety-of-food","title":"Advisory Committee on the Microbiological Safety of Food","format":"Advisory non-departmental public body","updated_at":"2014-10-15T15:36:53.000+01:00","web_url":"https://www.gov.uk/government/organisations/advisory-committee-on-the-microbiological-safety-of-food","details":{"slug":"advisory-committee-on-the-microbiological-safety-of-food","abbreviation":"ACMSF","logo_formatted_name":"Advisory Committee \r\non the Microbiological \r\nSafety of Food","organisation_brand_colour_class_name":null,"organisation_logo_type_class_name":"single-identity","closed_at":null,"govuk_status":"exempt","content_id":"53a94971-b4db-48e4-b2c8-2e452f0f090d"},"analytics_identifier":"PB575","parent_organisations":[{"id":"https://www.gov.uk/api/organisations/food-standards-agency","web_url":"https://www.gov.uk/government/organisations/food-standards-agency"}],"child_organisations":[]}],"previous_page_url":"https://www.gov.uk/api/organisations?page=20","next_page_url":"https://www.gov.uk/api/organisations?page=22","current_page":21,"total":1009,"pages":51,"page_size":20,"start_index":401,"_response_info":{"status":"ok","links":[{"href":"https://www.gov.uk/api/organisations?page=20","rel":"previous"},{"href":"https://www.gov.uk/api/organisations?page=22","rel":"next"},{"href":"https://www.gov.uk/api/organisations?page=21","rel":"self"}]}}
