{"results":[{"id":"https://www.gov.uk/api/organisations/committee-on-toxicity-of-chemicals-in-food-consumer-products-and-the-environment","title":"Committee on Toxicity of Chemicals in Food, Consumer Products and the Environment","format":"Advisory non-departmental public body","updated_at":"2014-10-15T15:36:53.000+01:00","web_url":"https://www.gov.uk/government/organisations/committee-on-toxicity-of-chemicals-in-food-consumer-products-and-the-environment","details":{"slug":"committee-on-toxicity-of-chemicals-in-food-consumer-products-and-the-environment","abbreviation":"COT","logo_formatted_name":"Committee on Toxicity of \r\nChemicals in Food, \r\nConsumer Products \r\nand the Environment","organisation_brand_colour_class_name":null,"organisation_logo_type_class_name":"single-identity","closed_at":null,"govuk_status":"exempt","content_id":"b61e9dd6-8797-4179-830d-7ef98dd00d55"},"analytics_identifier":"PB576","parent_organisations":[{"id":"https://www.gov.uk/api/organisations/food-standards-agency","web_url":"https://www.gov.uk/government/organisations/food-standards-agency"}],"child_organisations":[]},{"id":"https://www.gov.uk/api/organisations/general-advisory-committee-on-science","title":"General Advisory Committee on Science","format":"Advisory non-departmental public body","updated_at":"2014-10-15T15:36:53.000+01:00","web_url":"https://www.gov.uk/government/organisations/general-advisory-committee-on-science","details":{"slug":"general-advisory-committee-on-science","abbreviation":"GACS","logo_formatted_name":"General Advisory \r\nCommittee on Science","organisation_brand_colour_class_name":null,"organisation_logo_type_class_name":"single-identity","closed_at":null,"govuk_status":"exempt","content_id":"7c75bfa9-f13b-4d1e-b083-1fb75d5f7a76"},"analytics_identifier":"PB577","parent_organisations":[{"id":"https://www.gov.uk/api/organisations/food-standards-agency","web_url":"https://www.gov.uk/government/organisations/food-standards-agency"}],"child_organisations":[]},{"id":"https://www.gov.uk/api/organisations/social-science-research-committee","title":"Social Science Research Committee","format":"Advisory non-departmental public body","updated_at":"2014-10-15T15:36:54.000+01:00","web_url":"https://www.gov.uk/government/organisations/social-science-research-committee","details":{"slug":"social-science-research-committee","abbreviation":"SSRC","logo_formatted_name":"Social Science \r\nResearch Committee","organisation_brand_colour_class_name":null,"organisation_logo_type_class_name":"single-identity","closed_at":null,"govuk_status":"exempt","content_id":"4e66f90b-17fe-4d83-83f8-92f42f3071ab"},"analytics_identifier":"PB578","parent_organisations":[{"id":"https://www.gov.uk/api/organisations/food-standards-agency","web_url":"https://www.gov.uk/government/organisations/food-standards-agency"}],"child_organisations":[]},{"id":"https://www.gov.uk/api/organisations/independent-case-examiner","title":"Independent Case Examiner","format":"Other","updated_at":"2014-10-15T15:36:54.000+01:00","web_url":"https://www.gov.uk/government/organisations/independent-case-examiner","details":{"slug":"independent-case-examiner","abbreviation":"ICE","logo_formatted_name":"Independent Case Examiner","organisation_brand_colour_class_name":"department-for-work-pensions","organisation_logo_type_class_name":"single-identity","closed_at":null,"govuk_status":"live","content_id":"98fe93e5-1c17-49cb-97bd-01bdc822f9db"},"analytics_identifier":"OT579","parent_organisations":[{"id":"https://www.gov.uk/api/organisations/department-for-work-pensions","web_url":"https://www.gov.uk/government/organisations/department-for-work-pensions"}],"child_organisations":[]},{"id":"https://www.gov.uk/api/organisations/national-crime-agency-remuneration-review-body","title":"National Crime Agency Remuneration Review Body ","format":"Other","updated_at":"2015-05-07T17:17:18.000+01:00","web_url":"https://www.gov.uk/government/organisations/national-crime-agency-remuneration-review-body","details":{"slug":"national-crime-agency-remuneration-review-body","abbreviation":"NCARRB","logo_formatted_name":"National Crime Agency Remuneration Review Body ","organisation_brand_colour_class_name":"home-office","organisation_logo_type_class_name":"single-identity","closed_at":null,"govuk_status":"live","content_id":"546e6646-80df-433a-ad10-6dea80ebd8ca"},"analytics_identifier":"PB580","parent_organisations":[{"id":"https://www.gov.uk/api/organisations/home-office","web_url":"https://www.gov.uk/government/organisations/home-office"}],"child_organisations":[]},{"id":"https://www.gov.uk/api/organisations/queens-harbour-master","title":"Queen's Harbour Master","format":"Sub-organisation","updated_at":"2014-11-20T14:32:50.000+00:00","web_url":"https://www.gov.uk/government/organisations/queens-harbour-master","details":{"slug":"queens-harbour-master","abbreviation":"QHM","logo_formatted_name":"Queen's Harbour Master","organisation_brand_colour_class_name":"ministry-of-defence","organisation_logo_type_class_name":"mod","closed_at":null,"govuk_status":"live","content_id":"deaee9ef-4979-45b9-afc6-6cdb56abd2e3"},"analytics_identifier":"OT581","parent_organisations":[{"id":"https://www.gov.uk/api/organisations/ministry-of-defence","web_url":"https://www.gov.uk/government/organisations/ministry-of-defence"}],"child_organisations":[]},{"id":"https://www.gov.uk/api/organisations/scottish-office","title":"Scottish Office","format":"Ministerial department","updated_at":"2015-03-09T20:00:55.000+00:00","web_url":"https://www.gov.uk/government/organisations/scottish-office","details":{"slug":"scottish-office","abbreviation":null,"logo_formatted_name":"Scottish Office","organisation_brand_colour_class_name":null,"organisation_logo_type_class_name":"single-identity","closed_at":null,"govuk_status":"closed","content_id":"13670958-b893-46a7-8044-af0d6a873e7e"},"analytics_identifier":"D582","parent_organisations":[],"child_organisations":[]},{"id":"https://www.gov.uk/api/organisations/department-for-education-and-skills","title":"Department for Education and Skills","format":"Ministerial department","updated_at":"2015-03-09T20:00:48.000+00:00","web_url":"https://www.gov.uk/government/organisations/department-for-education-and-skills","details":{"slug":"department-for-education-and-skills","abbreviation":"","logo_formatted_name":"Department for Education and Skills","organisation_brand_colour_class_name":null,"organisation_logo_type_class_name":"single-identity","closed_at":null,"govuk_status":"closed","content_id":"77c1621f-a392-4393-9d8c-9969cd98c1e7"},"analytics_identifier":"D583","parent_organisations":[],"child_organisations":[]},{"id":"https://www.gov.uk/api/organisations/department-of-social-security","title":"Department of Social Security","format":"Ministerial department","updated_at":"2015-03-09T20:00:50.000+00:00","web_url":"https://www.gov.uk/government/organisations/department-of-social-security","details":{"slug":"department-of-social-security","abbreviation":"","logo_formatted_name":"Department of Social Security","organisation_brand_colour_class_name":null,"organisation_logo_type_class_name":"single-identity","closed_at":null,"govuk_status":"closed","content_id":"e2768146-3fe2-4a81-b1b5-9c931deca22b"},"analytics_identifier":"D584","parent_organisations":[],"child_organisations":[]},{"id":"https://www.gov.uk/api/organisations/department-of-education","title":"Department of Education (Northern Ireland)","format":"Other","updated_at":"2016-01-25T15:18:10.000+00:00","web_url":"https://www.gov.uk/government/organisations/department-of-education","details":{"slug":"department-of-education","abbreviation":"","logo_formatted_name":"Department of Education (Northern Ireland)","organisation_brand_colour_class_name":null,"organisation_logo_type_class_name":"single-identity","closed_at":null,"govuk_status":"joining","content_id":"b2590ca4-2e95-48a5-96bf-88e0548920f7"},"analytics_identifier":"D585","parent_organisations":[],"child_organisations":[]},{"id":"https://www.gov.uk/api/organisations/department-of-trade-and-industry","title":"Department of Trade and Industry","format":"Ministerial department","updated_at":"2015-03-09T20:00:51.000+00:00","web_url":"https://www.gov.uk/government/organisations/department-of-trade-and-industry","details":{"slug":"department-of-trade-and-industry","abbreviation":"","logo_formatted_name":"Department of Trade and Industry","organisation_brand_colour_class_name":null,"organisation_logo_type_class_name":"single-identity","closed_at":null,"govuk_status":"closed","content_id":"fc490b59-de8a-4fa8-b5cc-4d9de65b329b"},"analytics_identifier":"D586","parent_organisations":[],"child_organisations":[]},{"id":"https://www.gov.uk/api/organisations/department-for-constitutional-affairs","title":"Department for Constitutional Affairs","format":"Ministerial department","updated_at":"2015-03-09T20:00:48.000+00:00","web_url":"https://www.gov.uk/government/organisations/department-for-constitutional-affairs","details":{"slug":"department-for-constitutional-affairs","abbreviation":"","logo_formatted_name":"Department for Constitutional Affairs","organisation_brand_colour_class_name":null,"organisation_logo_type_class_name":"single-identity","closed_at":null,"govuk_status":"closed","content_id":"e7c374b2-35c8-4b7d-a6d5-7f2e9f8f3556"},"analytics_identifier":"D587","parent_organisations":[],"child_organisations":[]},{"id":"https://www.gov.uk/api/organisations/firearms-consultative-committee","title":"Firearms Consultative Committee","format":"Other","updated_at":"2014-10-15T15:36:56.000+01:00","web_url":"https://www.gov.uk/government/organisations/firearms-consultative-committee","details":{"slug":"firearms-consultative-committee","abbreviation":null,"logo_formatted_name":"Firearms Consultative Committee","organisation_brand_colour_class_name":null,"organisation_logo_type_class_name":"single-identity","closed_at":null,"govuk_status":"closed","content_id":"3b2ac159-ff1e-44d1-b692-eb9bc537be9c"},"analytics_identifier":"OT588","parent_organisations":[],"child_organisations":[]},{"id":"https://www.gov.uk/api/organisations/animal-procedures-committee","title":"Animal Procedures Committee","format":"Other","updated_at":"2014-10-15T15:36:56.000+01:00","web_url":"https://www.gov.uk/government/organisations/animal-procedures-committee","details":{"slug":"animal-procedures-committee","abbreviation":"","logo_formatted_name":"Animal Procedures Committee","organisation_brand_colour_class_name":null,"organisation_logo_type_class_name":"no-identity","closed_at":"2012-12-31T00:00:00.000+00:00","govuk_status":"closed","content_id":"53e57623-3d6f-47c2-a839-a59a9981aba9"},"analytics_identifier":"OT589","parent_organisations":[],"child_organisations":[]},{"id":"https://www.gov.uk/api/organisations/welsh-office","title":"Welsh Office","format":"Other","updated_at":"2015-03-09T20:00:56.000+00:00","web_url":"https://www.gov.uk/government/organisations/welsh-office","details":{"slug":"welsh-office","abbreviation":null,"logo_formatted_name":"Welsh Office","organisation_brand_colour_class_name":null,"organisation_logo_type_class_name":"single-identity","closed_at":null,"govuk_status":"closed","content_id":"6cc81e25-a8a7-41ff-b328-5441ca39d57d"},"analytics_identifier":"OT590","parent_organisations":[],"child_organisations":[]},{"id":"https://www.gov.uk/api/organisations/department-of-the-environment","title":"Department of the Environment (Northern Ireland)","format":"Ministerial department","updated_at":"2014-10-15T15:36:57.000+01:00","web_url":"https://www.gov.uk/government/organisations/department-of-the-environment","details":{"slug":"department-of-the-environment","abbreviation":"","logo_formatted_name":"Department of the Environment","organisation_brand_colour_class_name":null,"organisation_logo_type_class_name":"single-identity","closed_at":null,"govuk_status":"closed","content_id":"6b012ebf-20c4-4125-929f-8867ad2a2b4e"},"analytics_identifier":"D591","parent_organisations":[],"child_organisations":[]},{"id":"https://www.gov.uk/api/organisations/monopolies-and-mergers-commission","title":"Monopolies and Mergers Commission","format":"Other","updated_at":"2014-10-15T15:36:57.000+01:00","web_url":"https://www.gov.uk/government/organisations/monopolies-and-mergers-commission","details":{"slug":"monopolies-and-mergers-commission","abbreviation":null,"logo_formatted_name":"Monopolies and Mergers Commission","organisation_brand_colour_class_name":null,"organisation_logo_type_class_name":"single-identity","closed_at":null,"govuk_status":"closed","content_id":"7a3419a5-6454-4841-a48e-d14b27cd6bf9"},"analytics_identifier":"OT592","parent_organisations":[],"child_organisations":[]},{"id":"https://www.gov.uk/api/organisations/royal-commission-on-criminal-justice","title":"Royal Commission on Criminal Justice","format":"Other","updated_at":"2014-10-15T15:36:57.000+01:00","web_url":"https://www.gov.uk/government/organisations/royal-commission-on-criminal-justice","details":{"slug":"royal-commission-on-criminal-justice","abbreviation":null,"logo_formatted_name":"Royal Commission on Criminal Justice","organisation_brand_colour_class_name":null,"organisation_logo_type_class_name":"single-identity","closed_at":null,"govuk_status":"closed","content_id":"621d5440-c479-4874-8fe1-9da4d99c0d56"},"analytics_identifier":"OT593","parent_organisations":[],"child_organisations":[]},{"id":"https://www.gov.uk/api/organisations/board-of-inland-revenue","title":"Board of Inland Revenue","format":"Other","updated_at":"2014-10-15T15:36:57.000+01:00","web_url":"https://www.gov.uk/government/organisations/board-of-inland-revenue","details":{"slug":"board-of-inland-revenue","abbreviation":null,"logo_formatted_name":"Board of Inland Revenue","organisation_brand_colour_class_name":null,"organisation_logo_type_class_name":"single-identity","closed_at":null,"govuk_status":"closed","content_id":"982f64d9-33ab-4263-a5aa-102c778cd77c"},"analytics_identifier":"OT594","parent_organisations":[],"child_organisations":[]},{"id":"https://www.gov.uk/api/organisations/lord-chancellors-department","title":"Lord Chancellor's Department","format":"Ministerial department","updated_at":"2015-03-09T20:00:53.000+00:00","web_url":"https://www.gov.uk/government/organisations/lord-chancellors-department","details":{"slug":"lord-chancellors-department","abbreviation":null,"logo_formatted_name":"Lord Chancellor's Department","organisation_brand_colour_class_name":null,"organisation_logo_type_class_name":"single-identity","closed_at":null,"govuk_status":"closed","content_id":"dfa0264d-870c-49b4-91c9-d19b1ab8dbe0"},"analytics_identifier":"D595","parent_organisations":[],"child_organisations":[]}],"previous_page_url":"https://www.gov.uk/api/organisations?page=21","next_page_url":"https://www.gov.uk/api/organisations?page=23","current_page":22,"total":1009,"pages":51,"page_size":20,"start_index":421,"_response_info":{"status":"ok","links":[{"href":"https://www.gov.uk/api/organisations?page=21","rel":"previous"},{"href":"https://www.gov.uk/api/organisations?page=23","rel":"next"},{"href":"https://www.gov.uk/api/organisations?page=22","rel":"self"}]}}
