{"results":[{"id":"https://www.gov.uk/api/organisations/victoria-climbi_-inquiry","title":"Victoria Climbié Inquiry","format":"Other","updated_at":"2014-10-15T15:36:58.000+01:00","web_url":"https://www.gov.uk/government/organisations/victoria-climbi_-inquiry","details":{"slug":"victoria-climbi_-inquiry","abbreviation":"","logo_formatted_name":"Victoria Climbié Inquiry","organisation_brand_colour_class_name":null,"organisation_logo_type_class_name":"single-identity","closed_at":null,"govuk_status":"closed","content_id":"be3caae9-863f-4372-afa4-19820fb06ee5"},"analytics_identifier":"OT596","parent_organisations":[],"child_organisations":[]},{"id":"https://www.gov.uk/api/organisations/shipman-inquiry","title":"Shipman Inquiry","format":"Other","updated_at":"2014-10-15T15:36:58.000+01:00","web_url":"https://www.gov.uk/government/organisations/shipman-inquiry","details":{"slug":"shipman-inquiry","abbreviation":null,"logo_formatted_name":"Shipman Inquiry","organisation_brand_colour_class_name":null,"organisation_logo_type_class_name":"single-identity","closed_at":null,"govuk_status":"closed","content_id":"4d3a7139-fdf1-4f0a-8d39-ffca7c6f1335"},"analytics_identifier":"OT597","parent_organisations":[],"child_organisations":[]},{"id":"https://www.gov.uk/api/organisations/department-of-constitutional-affairs","title":"Department of Constitutional Affairs","format":"Ministerial department","updated_at":"2015-03-09T20:00:50.000+00:00","web_url":"https://www.gov.uk/government/organisations/department-of-constitutional-affairs","details":{"slug":"department-of-constitutional-affairs","abbreviation":"","logo_formatted_name":"Department of Constitutional Affairs","organisation_brand_colour_class_name":null,"organisation_logo_type_class_name":"single-identity","closed_at":null,"govuk_status":"closed","content_id":"4c5f5a7b-c27d-4e73-9451-c955dd86face"},"analytics_identifier":"D598","parent_organisations":[],"child_organisations":[]},{"id":"https://www.gov.uk/api/organisations/kerr-haslam-inquiry","title":"Kerr / Haslam Inquiry","format":"Other","updated_at":"2014-10-15T15:36:59.000+01:00","web_url":"https://www.gov.uk/government/organisations/kerr-haslam-inquiry","details":{"slug":"kerr-haslam-inquiry","abbreviation":null,"logo_formatted_name":"Kerr/Haslam Inquiry","organisation_brand_colour_class_name":null,"organisation_logo_type_class_name":"single-identity","closed_at":null,"govuk_status":"closed","content_id":"e39a9b23-be55-43e1-a000-98d495808c61"},"analytics_identifier":"OT599","parent_organisations":[],"child_organisations":[]},{"id":"https://www.gov.uk/api/organisations/office-of-the-legal-services-complaints-commissioner","title":"Office of the Legal Services Complaints Commissioner","format":"Other","updated_at":"2014-10-15T15:36:59.000+01:00","web_url":"https://www.gov.uk/government/organisations/office-of-the-legal-services-complaints-commissioner","details":{"slug":"office-of-the-legal-services-complaints-commissioner","abbreviation":null,"logo_formatted_name":"Office of the Legal Services Complaints Commissioner","organisation_brand_colour_class_name":null,"organisation_logo_type_class_name":"single-identity","closed_at":null,"govuk_status":"closed","content_id":"a8b0dc0b-d13c-4c39-8d6d-454b74cb3e9f"},"analytics_identifier":"OT600","parent_organisations":[],"child_organisations":[]},{"id":"https://www.gov.uk/api/organisations/hm-court-service","title":"HM Courts Service","format":"Executive agency","updated_at":"2014-10-15T15:36:59.000+01:00","web_url":"https://www.gov.uk/government/organisations/hm-court-service","details":{"slug":"hm-court-service","abbreviation":"","logo_formatted_name":"HM Court Service","organisation_brand_colour_class_name":null,"organisation_logo_type_class_name":"single-identity","closed_at":null,"govuk_status":"closed","content_id":"d6e01278-c1e5-4e96-a553-5e3a6bebf236"},"analytics_identifier":"EA601","parent_organisations":[],"child_organisations":[]},{"id":"https://www.gov.uk/api/organisations/review-body-for-nursing-and-other-health-professions","title":"Review Body for Nursing and Other Health Professions","format":"Other","updated_at":"2014-10-15T15:37:00.000+01:00","web_url":"https://www.gov.uk/government/organisations/review-body-for-nursing-and-other-health-professions","details":{"slug":"review-body-for-nursing-and-other-health-professions","abbreviation":null,"logo_formatted_name":"Review Body for Nursing and Other Health Professions","organisation_brand_colour_class_name":null,"organisation_logo_type_class_name":"single-identity","closed_at":null,"govuk_status":"closed","content_id":"985addde-0b12-4921-b674-9625a390aefe"},"analytics_identifier":"OT604","parent_organisations":[],"child_organisations":[]},{"id":"https://www.gov.uk/api/organisations/department-of-finance-and-personnel-for-northern-ireland","title":"Department of Finance and Personnel for Northern Ireland","format":"Ministerial department","updated_at":"2014-10-15T15:37:00.000+01:00","web_url":"https://www.gov.uk/government/organisations/department-of-finance-and-personnel-for-northern-ireland","details":{"slug":"department-of-finance-and-personnel-for-northern-ireland","abbreviation":"","logo_formatted_name":"Department of Finance and Personnel for Northern Ireland","organisation_brand_colour_class_name":null,"organisation_logo_type_class_name":"single-identity","closed_at":null,"govuk_status":"closed","content_id":"85349141-6d3e-4296-b17c-d9cc73356855"},"analytics_identifier":"D605","parent_organisations":[],"child_organisations":[]},{"id":"https://www.gov.uk/api/organisations/royal-commission-on-environmental-pollution","title":"Royal Commission on Environmental Pollution","format":"Other","updated_at":"2014-10-15T15:37:00.000+01:00","web_url":"https://www.gov.uk/government/organisations/royal-commission-on-environmental-pollution","details":{"slug":"royal-commission-on-environmental-pollution","abbreviation":null,"logo_formatted_name":"Royal Commission on Environmental Pollution","organisation_brand_colour_class_name":null,"organisation_logo_type_class_name":"single-identity","closed_at":null,"govuk_status":"closed","content_id":"349a1dec-3a77-42a1-b5a4-056f733b70af"},"analytics_identifier":"OT606","parent_organisations":[],"child_organisations":[]},{"id":"https://www.gov.uk/api/organisations/department-for-innovation-universities-and-skills","title":"Department for Innovation, Universities and Skills","format":"Ministerial department","updated_at":"2015-03-09T20:00:49.000+00:00","web_url":"https://www.gov.uk/government/organisations/department-for-innovation-universities-and-skills","details":{"slug":"department-for-innovation-universities-and-skills","abbreviation":"","logo_formatted_name":"Department for Innovation, Universities and Skills","organisation_brand_colour_class_name":null,"organisation_logo_type_class_name":"single-identity","closed_at":null,"govuk_status":"closed","content_id":"04b788e1-8d6a-412e-a15a-1c1390328e47"},"analytics_identifier":"D608","parent_organisations":[],"child_organisations":[]},{"id":"https://www.gov.uk/api/organisations/department-for-children-schools-and-families","title":"Department for Children, Schools and Families","format":"Ministerial department","updated_at":"2015-03-09T20:00:48.000+00:00","web_url":"https://www.gov.uk/government/organisations/department-for-children-schools-and-families","details":{"slug":"department-for-children-schools-and-families","abbreviation":"","logo_formatted_name":"Department for Children, Schools and Families","organisation_brand_colour_class_name":null,"organisation_logo_type_class_name":"single-identity","closed_at":null,"govuk_status":"closed","content_id":"aaebe7e8-f73a-4f53-a20d-1a1caca4e289"},"analytics_identifier":"D609","parent_organisations":[],"child_organisations":[]},{"id":"https://www.gov.uk/api/organisations/office-for-criminal-justice-reform","title":"Office for Criminal Justice Reform","format":"Other","updated_at":"2014-10-15T15:37:01.000+01:00","web_url":"https://www.gov.uk/government/organisations/office-for-criminal-justice-reform","details":{"slug":"office-for-criminal-justice-reform","abbreviation":null,"logo_formatted_name":"Office for Criminal Justice Reform","organisation_brand_colour_class_name":null,"organisation_logo_type_class_name":"single-identity","closed_at":null,"govuk_status":"closed","content_id":"3d326d8d-369c-453d-ab8d-32fdfebb299c"},"analytics_identifier":"OT610","parent_organisations":[],"child_organisations":[]},{"id":"https://www.gov.uk/api/organisations/department-for-business-enterprise-and-regulatory-reform","title":"Department for Business, Enterprise and Regulatory Reform","format":"Ministerial department","updated_at":"2015-03-09T20:00:47.000+00:00","web_url":"https://www.gov.uk/government/organisations/department-for-business-enterprise-and-regulatory-reform","details":{"slug":"department-for-business-enterprise-and-regulatory-reform","abbreviation":"","logo_formatted_name":"Department for Business, Enterprise and Regulatory Reform","organisation_brand_colour_class_name":null,"organisation_logo_type_class_name":"single-identity","closed_at":null,"govuk_status":"closed","content_id":"a3773e86-b0b1-4c96-b1f4-5fff487cca39"},"analytics_identifier":"D611","parent_organisations":[],"child_organisations":[]},{"id":"https://www.gov.uk/api/organisations/scottish-law-commission","title":"Scottish Law Commission","format":"Other","updated_at":"2014-10-15T15:37:01.000+01:00","web_url":"https://www.gov.uk/government/organisations/scottish-law-commission","details":{"slug":"scottish-law-commission","abbreviation":"","logo_formatted_name":"Scottish Law Commission","organisation_brand_colour_class_name":null,"organisation_logo_type_class_name":"single-identity","closed_at":null,"govuk_status":"closed","content_id":"beeae01e-d8c1-4d6c-af84-bb7b62ee5808"},"analytics_identifier":"OT612","parent_organisations":[],"child_organisations":[]},{"id":"https://www.gov.uk/api/organisations/statistics-commission","title":"Statistics Commission","format":"Other","updated_at":"2014-10-15T15:37:02.000+01:00","web_url":"https://www.gov.uk/government/organisations/statistics-commission","details":{"slug":"statistics-commission","abbreviation":null,"logo_formatted_name":"Statistics Commission","organisation_brand_colour_class_name":null,"organisation_logo_type_class_name":"single-identity","closed_at":null,"govuk_status":"closed","content_id":"7d938082-dd73-4f8c-bd7e-01b237cfaf56"},"analytics_identifier":"OT614","parent_organisations":[],"child_organisations":[]},{"id":"https://www.gov.uk/api/organisations/independent-monitoring-commission","title":"Independent Monitoring Commission","format":"Other","updated_at":"2014-10-15T15:37:02.000+01:00","web_url":"https://www.gov.uk/government/organisations/independent-monitoring-commission","details":{"slug":"independent-monitoring-commission","abbreviation":null,"logo_formatted_name":"Independent Monitoring Commission","organisation_brand_colour_class_name":null,"organisation_logo_type_class_name":"single-identity","closed_at":null,"govuk_status":"closed","content_id":"384c5237-c897-46f8-8699-27a084cc35d0"},"analytics_identifier":"OT615","parent_organisations":[],"child_organisations":[]},{"id":"https://www.gov.uk/api/organisations/independent-review-of-the-uk-postal-services-sector","title":"Independent Review of the UK Postal Services Sector","format":"Other","updated_at":"2014-10-15T15:37:02.000+01:00","web_url":"https://www.gov.uk/government/organisations/independent-review-of-the-uk-postal-services-sector","details":{"slug":"independent-review-of-the-uk-postal-services-sector","abbreviation":null,"logo_formatted_name":"Independent Review of the UK Postal Services Sector","organisation_brand_colour_class_name":null,"organisation_logo_type_class_name":"single-identity","closed_at":null,"govuk_status":"closed","content_id":"b5acf936-fd43-4f8b-aad1-70797793e6a1"},"analytics_identifier":"OT616","parent_organisations":[],"child_organisations":[]},{"id":"https://www.gov.uk/api/organisations/office-of-hm-paymaster-general","title":"Office of HM Paymaster General","format":"Other","updated_at":"2014-10-15T15:37:02.000+01:00","web_url":"https://www.gov.uk/government/organisations/office-of-hm-paymaster-general","details":{"slug":"office-of-hm-paymaster-general","abbreviation":null,"logo_formatted_name":"Office of HM Paymaster General","organisation_brand_colour_class_name":null,"organisation_logo_type_class_name":"single-identity","closed_at":null,"govuk_status":"closed","content_id":"9ee25ea4-7984-4584-a33b-98e469c321b1"},"analytics_identifier":"OT618","parent_organisations":[],"child_organisations":[]},{"id":"https://www.gov.uk/api/organisations/independent-review-of-police-officer-and-staff-remuneration-and-conditions","title":"Independent Review of Police Officer and Staff Remuneration and Conditions","format":"Other","updated_at":"2014-10-15T15:37:03.000+01:00","web_url":"https://www.gov.uk/government/organisations/independent-review-of-police-officer-and-staff-remuneration-and-conditions","details":{"slug":"independent-review-of-police-officer-and-staff-remuneration-and-conditions","abbreviation":null,"logo_formatted_name":"Independent Review of Police Officer and Staff Remuneration and Conditions","organisation_brand_colour_class_name":null,"organisation_logo_type_class_name":"single-identity","closed_at":null,"govuk_status":"closed","content_id":"692a3012-ddc7-4859-a270-74962ac62ef0"},"analytics_identifier":"OT619","parent_organisations":[],"child_organisations":[]},{"id":"https://www.gov.uk/api/organisations/royal-liverpool-childrens-inquiry","title":"Royal Liverpool Childrens Inquiry","format":"Other","updated_at":"2014-10-15T15:37:03.000+01:00","web_url":"https://www.gov.uk/government/organisations/royal-liverpool-childrens-inquiry","details":{"slug":"royal-liverpool-childrens-inquiry","abbreviation":null,"logo_formatted_name":"Royal Liverpool Childrens Inquiry","organisation_brand_colour_class_name":null,"organisation_logo_type_class_name":"single-identity","closed_at":null,"govuk_status":"closed","content_id":"598b5cb5-83fc-4446-9445-ff5db968f4e5"},"analytics_identifier":"OT622","parent_organisations":[],"child_organisations":[]}],"previous_page_url":"https://www.gov.uk/api/organisations?page=22","next_page_url":"https://www.gov.uk/api/organisations?page=24","current_page":23,"total":1009,"pages":51,"page_size":20,"start_index":441,"_response_info":{"status":"ok","links":[{"href":"https://www.gov.uk/api/organisations?page=22","rel":"previous"},{"href":"https://www.gov.uk/api/organisations?page=24","rel":"next"},{"href":"https://www.gov.uk/api/organisations?page=23","rel":"self"}]}}
