{"results":[{"id":"https://www.gov.uk/api/organisations/qualifications-and-curriculum-authority","title":"Qualifications and Curriculum Authority","format":"Executive agency","updated_at":"2014-10-15T15:37:03.000+01:00","web_url":"https://www.gov.uk/government/organisations/qualifications-and-curriculum-authority","details":{"slug":"qualifications-and-curriculum-authority","abbreviation":"QCA","logo_formatted_name":"Qualifications and Curriculum Authority","organisation_brand_colour_class_name":null,"organisation_logo_type_class_name":"single-identity","closed_at":"2010-04-01T00:00:00.000+01:00","govuk_status":"closed","content_id":"2e7825a0-6205-42a9-a77e-24001a53c974"},"analytics_identifier":"EA624","parent_organisations":[],"child_organisations":[]},{"id":"https://www.gov.uk/api/organisations/gaming-board-for-great-britain","title":"Gaming Board for Great Britain","format":"Other","updated_at":"2014-10-15T15:37:03.000+01:00","web_url":"https://www.gov.uk/government/organisations/gaming-board-for-great-britain","details":{"slug":"gaming-board-for-great-britain","abbreviation":null,"logo_formatted_name":"Gaming Board for Great Britain","organisation_brand_colour_class_name":null,"organisation_logo_type_class_name":"single-identity","closed_at":null,"govuk_status":"closed","content_id":"25678866-86c3-430e-aef0-6a40ea41d22a"},"analytics_identifier":"OT626","parent_organisations":[],"child_organisations":[]},{"id":"https://www.gov.uk/api/organisations/public-accounts-commission","title":"Public Accounts Commission","format":"Other","updated_at":"2014-10-15T15:37:04.000+01:00","web_url":"https://www.gov.uk/government/organisations/public-accounts-commission","details":{"slug":"public-accounts-commission","abbreviation":null,"logo_formatted_name":"Public Accounts Commission","organisation_brand_colour_class_name":null,"organisation_logo_type_class_name":"single-identity","closed_at":null,"govuk_status":"closed","content_id":"e1f85de1-010e-4961-98d7-6bad785d6724"},"analytics_identifier":"OT627","parent_organisations":[],"child_organisations":[]},{"id":"https://www.gov.uk/api/organisations/derby-north-east-education-action-zone","title":"Derby North East Education Action Zone","format":"Other","updated_at":"2014-10-15T15:37:04.000+01:00","web_url":"https://www.gov.uk/government/organisations/derby-north-east-education-action-zone","details":{"slug":"derby-north-east-education-action-zone","abbreviation":null,"logo_formatted_name":"Derby North East Education Action Zone","organisation_brand_colour_class_name":null,"organisation_logo_type_class_name":"single-identity","closed_at":null,"govuk_status":"closed","content_id":"d879a016-2e79-41a9-b89f-e6f302721e97"},"analytics_identifier":"OT628","parent_organisations":[],"child_organisations":[]},{"id":"https://www.gov.uk/api/organisations/national-care-standards-commission","title":"National Care Standards Commission","format":"Other","updated_at":"2014-10-15T15:37:04.000+01:00","web_url":"https://www.gov.uk/government/organisations/national-care-standards-commission","details":{"slug":"national-care-standards-commission","abbreviation":null,"logo_formatted_name":"National Care Standards Commission","organisation_brand_colour_class_name":null,"organisation_logo_type_class_name":"single-identity","closed_at":null,"govuk_status":"closed","content_id":"e9492f8f-5721-4489-86c7-809617724565"},"analytics_identifier":"OT629","parent_organisations":[],"child_organisations":[]},{"id":"https://www.gov.uk/api/organisations/rivers-agency","title":"Rivers Agency","format":"Executive agency","updated_at":"2014-10-15T15:37:04.000+01:00","web_url":"https://www.gov.uk/government/organisations/rivers-agency","details":{"slug":"rivers-agency","abbreviation":"","logo_formatted_name":"Rivers Agency","organisation_brand_colour_class_name":null,"organisation_logo_type_class_name":"single-identity","closed_at":null,"govuk_status":"closed","content_id":"8b2f6030-0b5e-4614-9649-094808d0982a"},"analytics_identifier":"EA630","parent_organisations":[],"child_organisations":[]},{"id":"https://www.gov.uk/api/organisations/department-of-inland-revenue","title":"Department of Inland Revenue","format":"Ministerial department","updated_at":"2014-10-15T15:37:05.000+01:00","web_url":"https://www.gov.uk/government/organisations/department-of-inland-revenue","details":{"slug":"department-of-inland-revenue","abbreviation":"","logo_formatted_name":"Department of Inland Revenue","organisation_brand_colour_class_name":null,"organisation_logo_type_class_name":"single-identity","closed_at":null,"govuk_status":"closed","content_id":"af13245b-3cf0-4d82-b51e-b519b850bef2"},"analytics_identifier":"D631","parent_organisations":[],"child_organisations":[]},{"id":"https://www.gov.uk/api/organisations/kitts-green-and-shard-end-education-action-zone","title":"Kitts Green and Shard End Education Action Zone","format":"Other","updated_at":"2014-10-15T15:37:05.000+01:00","web_url":"https://www.gov.uk/government/organisations/kitts-green-and-shard-end-education-action-zone","details":{"slug":"kitts-green-and-shard-end-education-action-zone","abbreviation":null,"logo_formatted_name":"Kitts Green and Shard End Education Action Zone","organisation_brand_colour_class_name":null,"organisation_logo_type_class_name":"single-identity","closed_at":null,"govuk_status":"closed","content_id":"8d13f031-9806-4ce0-a8f5-752f4c5223da"},"analytics_identifier":"OT632","parent_organisations":[],"child_organisations":[]},{"id":"https://www.gov.uk/api/organisations/nhs-pensions-agency","title":"NHS Pensions Agency","format":"Executive agency","updated_at":"2014-10-15T15:37:05.000+01:00","web_url":"https://www.gov.uk/government/organisations/nhs-pensions-agency","details":{"slug":"nhs-pensions-agency","abbreviation":null,"logo_formatted_name":"NHS Pensions Agency","organisation_brand_colour_class_name":null,"organisation_logo_type_class_name":"single-identity","closed_at":null,"govuk_status":"closed","content_id":"7caf5447-3f0a-427d-9a8c-b9db4eba593e"},"analytics_identifier":"EA633","parent_organisations":[],"child_organisations":[]},{"id":"https://www.gov.uk/api/organisations/northern-ireland-audit-office","title":"Northern Ireland Audit Office","format":"Other","updated_at":"2014-10-15T15:37:05.000+01:00","web_url":"https://www.gov.uk/government/organisations/northern-ireland-audit-office","details":{"slug":"northern-ireland-audit-office","abbreviation":"","logo_formatted_name":"Northern Ireland Audit Office","organisation_brand_colour_class_name":null,"organisation_logo_type_class_name":"single-identity","closed_at":null,"govuk_status":"closed","content_id":"9140b9eb-3b35-4618-a7ee-b56a22648751"},"analytics_identifier":"OT634","parent_organisations":[{"id":"https://www.gov.uk/api/organisations/northern-ireland-executive","web_url":"https://www.gov.uk/government/organisations/northern-ireland-executive"}],"child_organisations":[]},{"id":"https://www.gov.uk/api/organisations/equitable-life-inquiry","title":"Equitable Life Inquiry","format":"Other","updated_at":"2014-10-15T15:37:06.000+01:00","web_url":"https://www.gov.uk/government/organisations/equitable-life-inquiry","details":{"slug":"equitable-life-inquiry","abbreviation":null,"logo_formatted_name":"Equitable Life Inquiry","organisation_brand_colour_class_name":null,"organisation_logo_type_class_name":"single-identity","closed_at":null,"govuk_status":"closed","content_id":"80f207d0-47ac-4b41-8d92-d47a5ef7ef2b"},"analytics_identifier":"OT635","parent_organisations":[],"child_organisations":[]},{"id":"https://www.gov.uk/api/organisations/office-of-the-police-ombudsman-for-northern-ireland","title":"Office of the Police Ombudsman for Northern Ireland","format":"Other","updated_at":"2014-10-15T15:37:06.000+01:00","web_url":"https://www.gov.uk/government/organisations/office-of-the-police-ombudsman-for-northern-ireland","details":{"slug":"office-of-the-police-ombudsman-for-northern-ireland","abbreviation":"","logo_formatted_name":"Office of the Police Ombudsman for Northern Ireland","organisation_brand_colour_class_name":null,"organisation_logo_type_class_name":"single-identity","closed_at":null,"govuk_status":"closed","content_id":"3f43ee0c-1989-4d2b-87db-773cec90fb0b"},"analytics_identifier":"OT636","parent_organisations":[],"child_organisations":[]},{"id":"https://www.gov.uk/api/organisations/greenwich-education-action-zone","title":"Greenwich Education Action Zone","format":"Other","updated_at":"2014-10-15T15:37:06.000+01:00","web_url":"https://www.gov.uk/government/organisations/greenwich-education-action-zone","details":{"slug":"greenwich-education-action-zone","abbreviation":null,"logo_formatted_name":"Greenwich Education Action Zone","organisation_brand_colour_class_name":null,"organisation_logo_type_class_name":"single-identity","closed_at":null,"govuk_status":"closed","content_id":"ef7ff4ec-2d2b-4db4-b125-fe409ef93256"},"analytics_identifier":"OT637","parent_organisations":[],"child_organisations":[]},{"id":"https://www.gov.uk/api/organisations/wolverhampton-education-action-zone","title":"Wolverhampton Education Action Zone","format":"Other","updated_at":"2014-10-15T15:37:06.000+01:00","web_url":"https://www.gov.uk/government/organisations/wolverhampton-education-action-zone","details":{"slug":"wolverhampton-education-action-zone","abbreviation":null,"logo_formatted_name":"Wolverhampton Education Action Zone","organisation_brand_colour_class_name":null,"organisation_logo_type_class_name":"single-identity","closed_at":null,"govuk_status":"closed","content_id":"7491e7f6-30e2-41e3-be5e-9551266bd938"},"analytics_identifier":"OT638","parent_organisations":[],"child_organisations":[]},{"id":"https://www.gov.uk/api/organisations/wednesbury-education-action-zone","title":"Wednesbury Education Action Zone","format":"Other","updated_at":"2014-10-15T15:37:06.000+01:00","web_url":"https://www.gov.uk/government/organisations/wednesbury-education-action-zone","details":{"slug":"wednesbury-education-action-zone","abbreviation":null,"logo_formatted_name":"Wednesbury Education Action Zone","organisation_brand_colour_class_name":null,"organisation_logo_type_class_name":"single-identity","closed_at":null,"govuk_status":"closed","content_id":"86f2b699-88de-468f-bb37-97e4147a2d0f"},"analytics_identifier":"OT639","parent_organisations":[],"child_organisations":[]},{"id":"https://www.gov.uk/api/organisations/bolton-education-action-zone","title":"Bolton Education Action Zone","format":"Other","updated_at":"2014-10-15T15:37:07.000+01:00","web_url":"https://www.gov.uk/government/organisations/bolton-education-action-zone","details":{"slug":"bolton-education-action-zone","abbreviation":null,"logo_formatted_name":"Bolton Education Action Zone","organisation_brand_colour_class_name":null,"organisation_logo_type_class_name":"single-identity","closed_at":null,"govuk_status":"closed","content_id":"43d3710a-ffa5-44ac-81dc-dc52fa7e3b32"},"analytics_identifier":"OT640","parent_organisations":[],"child_organisations":[]},{"id":"https://www.gov.uk/api/organisations/hamilton-oxford-education-action-zone","title":"Hamilton Oxford Education Action Zone","format":"Other","updated_at":"2014-10-15T15:37:07.000+01:00","web_url":"https://www.gov.uk/government/organisations/hamilton-oxford-education-action-zone","details":{"slug":"hamilton-oxford-education-action-zone","abbreviation":null,"logo_formatted_name":"Hamilton Oxford Education Action Zone","organisation_brand_colour_class_name":null,"organisation_logo_type_class_name":"single-identity","closed_at":null,"govuk_status":"closed","content_id":"3db907c7-3670-4607-9d6b-29f37769225b"},"analytics_identifier":"OT641","parent_organisations":[],"child_organisations":[]},{"id":"https://www.gov.uk/api/organisations/scottish-screen","title":"Scottish Screen","format":"Other","updated_at":"2014-10-15T15:37:07.000+01:00","web_url":"https://www.gov.uk/government/organisations/scottish-screen","details":{"slug":"scottish-screen","abbreviation":null,"logo_formatted_name":"Scottish Screen","organisation_brand_colour_class_name":null,"organisation_logo_type_class_name":"single-identity","closed_at":null,"govuk_status":"closed","content_id":"3d8854c6-3284-4bcc-a758-390b2e8c362b"},"analytics_identifier":"OT642","parent_organisations":[],"child_organisations":[]},{"id":"https://www.gov.uk/api/organisations/dudley-education-action-zone","title":"Dudley Education Action Zone","format":"Other","updated_at":"2014-10-15T15:37:07.000+01:00","web_url":"https://www.gov.uk/government/organisations/dudley-education-action-zone","details":{"slug":"dudley-education-action-zone","abbreviation":null,"logo_formatted_name":"Dudley Education Action Zone","organisation_brand_colour_class_name":null,"organisation_logo_type_class_name":"single-identity","closed_at":null,"govuk_status":"closed","content_id":"db4dea60-5bde-4546-b8ce-886fdfb7f30a"},"analytics_identifier":"OT643","parent_organisations":[],"child_organisations":[]},{"id":"https://www.gov.uk/api/organisations/northern-ireland-council-for-the-curriculum-examinations-and-assessment","title":"Northern Ireland Council for the Curriculum, Examinations and Assessment","format":"Other","updated_at":"2014-10-15T15:37:08.000+01:00","web_url":"https://www.gov.uk/government/organisations/northern-ireland-council-for-the-curriculum-examinations-and-assessment","details":{"slug":"northern-ireland-council-for-the-curriculum-examinations-and-assessment","abbreviation":"","logo_formatted_name":"Northern Ireland Council for the Curriculum, Examinations and Assessment","organisation_brand_colour_class_name":null,"organisation_logo_type_class_name":"single-identity","closed_at":null,"govuk_status":"closed","content_id":"cd9291d8-a04e-4afb-b680-528b8f917f47"},"analytics_identifier":"OT644","parent_organisations":[],"child_organisations":[]}],"previous_page_url":"https://www.gov.uk/api/organisations?page=23","next_page_url":"https://www.gov.uk/api/organisations?page=25","current_page":24,"total":1009,"pages":51,"page_size":20,"start_index":461,"_response_info":{"status":"ok","links":[{"href":"https://www.gov.uk/api/organisations?page=23","rel":"previous"},{"href":"https://www.gov.uk/api/organisations?page=25","rel":"next"},{"href":"https://www.gov.uk/api/organisations?page=24","rel":"self"}]}}
