{"results":[{"id":"https://www.gov.uk/api/organisations/westminster-education-action-zone","title":"Westminster Education Action Zone","format":"Other","updated_at":"2014-10-15T15:37:08.000+01:00","web_url":"https://www.gov.uk/government/organisations/westminster-education-action-zone","details":{"slug":"westminster-education-action-zone","abbreviation":null,"logo_formatted_name":"Westminster Education Action Zone","organisation_brand_colour_class_name":null,"organisation_logo_type_class_name":"single-identity","closed_at":null,"govuk_status":"closed","content_id":"d135c610-7d94-4e0c-ada9-295232bc6030"},"analytics_identifier":"OT645","parent_organisations":[],"child_organisations":[]},{"id":"https://www.gov.uk/api/organisations/north-east-derbyshire-coalfields-education-action-zone","title":"North East Derbyshire Coalfields Education Action Zone","format":"Other","updated_at":"2014-10-15T15:37:08.000+01:00","web_url":"https://www.gov.uk/government/organisations/north-east-derbyshire-coalfields-education-action-zone","details":{"slug":"north-east-derbyshire-coalfields-education-action-zone","abbreviation":null,"logo_formatted_name":"North East Derbyshire Coalfields Education Action Zone","organisation_brand_colour_class_name":null,"organisation_logo_type_class_name":"single-identity","closed_at":null,"govuk_status":"closed","content_id":"9512962f-16a5-4962-9760-15653a66105a"},"analytics_identifier":"OT646","parent_organisations":[],"child_organisations":[]},{"id":"https://www.gov.uk/api/organisations/telford-and-wrekin-education-action-zone","title":"Telford and Wrekin Education Action Zone","format":"Other","updated_at":"2014-10-15T15:37:08.000+01:00","web_url":"https://www.gov.uk/government/organisations/telford-and-wrekin-education-action-zone","details":{"slug":"telford-and-wrekin-education-action-zone","abbreviation":null,"logo_formatted_name":"Telford and Wrekin Education Action Zone","organisation_brand_colour_class_name":null,"organisation_logo_type_class_name":"single-identity","closed_at":null,"govuk_status":"closed","content_id":"4d028d6d-bd73-42a3-99ed-7060250c4a4c"},"analytics_identifier":"OT647","parent_organisations":[],"child_organisations":[]},{"id":"https://www.gov.uk/api/organisations/withernsea-and-southern-holderness-education-action-zone","title":"Withernsea and Southern Holderness Education Action Zone","format":"Other","updated_at":"2014-10-15T15:37:08.000+01:00","web_url":"https://www.gov.uk/government/organisations/withernsea-and-southern-holderness-education-action-zone","details":{"slug":"withernsea-and-southern-holderness-education-action-zone","abbreviation":null,"logo_formatted_name":"Withernsea and Southern Holderness Education Action Zone","organisation_brand_colour_class_name":null,"organisation_logo_type_class_name":"single-identity","closed_at":null,"govuk_status":"closed","content_id":"ab0829ad-485b-41f8-b7f6-013a1f8a37da"},"analytics_identifier":"OT648","parent_organisations":[],"child_organisations":[]},{"id":"https://www.gov.uk/api/organisations/northern-ireland-policing-board","title":"Northern Ireland Policing Board","format":"Other","updated_at":"2014-10-15T15:37:09.000+01:00","web_url":"https://www.gov.uk/government/organisations/northern-ireland-policing-board","details":{"slug":"northern-ireland-policing-board","abbreviation":"","logo_formatted_name":"Northern Ireland Policing Board","organisation_brand_colour_class_name":null,"organisation_logo_type_class_name":"single-identity","closed_at":null,"govuk_status":"exempt","content_id":"9d5e9caf-1a1f-4911-9209-8fd084fd683c"},"analytics_identifier":"OT649","parent_organisations":[],"child_organisations":[]},{"id":"https://www.gov.uk/api/organisations/easington-and-seaham-education-action-zone","title":"Easington and Seaham Education Action Zone","format":"Other","updated_at":"2014-10-15T15:37:09.000+01:00","web_url":"https://www.gov.uk/government/organisations/easington-and-seaham-education-action-zone","details":{"slug":"easington-and-seaham-education-action-zone","abbreviation":null,"logo_formatted_name":"Easington and Seaham Education Action Zone","organisation_brand_colour_class_name":null,"organisation_logo_type_class_name":"single-identity","closed_at":null,"govuk_status":"closed","content_id":"5c276d43-8451-4a32-8395-9f7a67f16653"},"analytics_identifier":"OT650","parent_organisations":[],"child_organisations":[]},{"id":"https://www.gov.uk/api/organisations/north-islington-education-action-zone","title":"North Islington Education Action Zone","format":"Other","updated_at":"2014-10-15T15:37:09.000+01:00","web_url":"https://www.gov.uk/government/organisations/north-islington-education-action-zone","details":{"slug":"north-islington-education-action-zone","abbreviation":null,"logo_formatted_name":"North Islington Education Action Zone","organisation_brand_colour_class_name":null,"organisation_logo_type_class_name":"single-identity","closed_at":null,"govuk_status":"closed","content_id":"936366b7-727c-4b11-95db-299f4bfcf880"},"analytics_identifier":"OT651","parent_organisations":[],"child_organisations":[]},{"id":"https://www.gov.uk/api/organisations/stoke-education-action-zone","title":"Stoke Education Action Zone","format":"Other","updated_at":"2014-10-15T15:37:09.000+01:00","web_url":"https://www.gov.uk/government/organisations/stoke-education-action-zone","details":{"slug":"stoke-education-action-zone","abbreviation":null,"logo_formatted_name":"Stoke Education Action Zone","organisation_brand_colour_class_name":null,"organisation_logo_type_class_name":"single-identity","closed_at":null,"govuk_status":"closed","content_id":"67afa984-be4d-4ac4-b557-d65271d0318b"},"analytics_identifier":"OT652","parent_organisations":[],"child_organisations":[]},{"id":"https://www.gov.uk/api/organisations/sunderland-education-action-zone","title":"Sunderland Education Action Zone","format":"Other","updated_at":"2014-10-15T15:37:09.000+01:00","web_url":"https://www.gov.uk/government/organisations/sunderland-education-action-zone","details":{"slug":"sunderland-education-action-zone","abbreviation":null,"logo_formatted_name":"Sunderland Education Action Zone","organisation_brand_colour_class_name":null,"organisation_logo_type_class_name":"single-identity","closed_at":null,"govuk_status":"closed","content_id":"d35b09ca-b14a-4938-81eb-80ab0fe0b03f"},"analytics_identifier":"OT653","parent_organisations":[],"child_organisations":[]},{"id":"https://www.gov.uk/api/organisations/peterlee-education-action-zone","title":"Peterlee Education Action Zone","format":"Other","updated_at":"2014-10-15T15:37:10.000+01:00","web_url":"https://www.gov.uk/government/organisations/peterlee-education-action-zone","details":{"slug":"peterlee-education-action-zone","abbreviation":null,"logo_formatted_name":"Peterlee Education Action Zone","organisation_brand_colour_class_name":null,"organisation_logo_type_class_name":"single-identity","closed_at":null,"govuk_status":"closed","content_id":"f4ef8906-47c6-45df-9330-7ecb8ffb66c5"},"analytics_identifier":"OT654","parent_organisations":[],"child_organisations":[]},{"id":"https://www.gov.uk/api/organisations/southend-education-action-zone","title":"Southend Education Action Zone","format":"Other","updated_at":"2014-10-15T15:37:10.000+01:00","web_url":"https://www.gov.uk/government/organisations/southend-education-action-zone","details":{"slug":"southend-education-action-zone","abbreviation":null,"logo_formatted_name":"Southend Education Action Zone","organisation_brand_colour_class_name":null,"organisation_logo_type_class_name":"single-identity","closed_at":null,"govuk_status":"closed","content_id":"4da86e25-94ff-4f5b-982f-8503e33aa697"},"analytics_identifier":"OT655","parent_organisations":[],"child_organisations":[]},{"id":"https://www.gov.uk/api/organisations/national-biological-standards-board","title":"National Biological Standards Board","format":"Executive agency","updated_at":"2014-10-15T15:37:10.000+01:00","web_url":"https://www.gov.uk/government/organisations/national-biological-standards-board","details":{"slug":"national-biological-standards-board","abbreviation":null,"logo_formatted_name":"National Biological Standards Board","organisation_brand_colour_class_name":null,"organisation_logo_type_class_name":"single-identity","closed_at":null,"govuk_status":"closed","content_id":"faa9e8d2-d5b8-4a09-875c-4617d481c32f"},"analytics_identifier":"EA656","parent_organisations":[],"child_organisations":[]},{"id":"https://www.gov.uk/api/organisations/police-service-of-northern-ireland","title":"Police Service of Northern Ireland","format":"Other","updated_at":"2014-10-15T15:37:10.000+01:00","web_url":"https://www.gov.uk/government/organisations/police-service-of-northern-ireland","details":{"slug":"police-service-of-northern-ireland","abbreviation":"","logo_formatted_name":"Police Service of Northern Ireland","organisation_brand_colour_class_name":null,"organisation_logo_type_class_name":"single-identity","closed_at":null,"govuk_status":"closed","content_id":"bc9a5403-9ee4-40a4-8d14-cc7a24202d68"},"analytics_identifier":"OT657","parent_organisations":[],"child_organisations":[]},{"id":"https://www.gov.uk/api/organisations/national-endowment-for-science-technology-and-the-arts","title":"National Endowment for Science, Technology and the Arts","format":"Other","updated_at":"2014-10-15T15:37:11.000+01:00","web_url":"https://www.gov.uk/government/organisations/national-endowment-for-science-technology-and-the-arts","details":{"slug":"national-endowment-for-science-technology-and-the-arts","abbreviation":"","logo_formatted_name":"National Endowment for Science, Technology and the Arts","organisation_brand_colour_class_name":null,"organisation_logo_type_class_name":"single-identity","closed_at":null,"govuk_status":"closed","content_id":"4eed1a78-2d66-4cf8-ac22-61542a1cfa48"},"analytics_identifier":"OT658","parent_organisations":[],"child_organisations":[]},{"id":"https://www.gov.uk/api/organisations/probation-board-for-northern-ireland","title":"Probation Board for Northern Ireland","format":"Other","updated_at":"2016-04-28T10:28:09.000+01:00","web_url":"https://www.gov.uk/government/organisations/probation-board-for-northern-ireland","details":{"slug":"probation-board-for-northern-ireland","abbreviation":"","logo_formatted_name":"Probation Board for Northern Ireland","organisation_brand_colour_class_name":null,"organisation_logo_type_class_name":"single-identity","closed_at":null,"govuk_status":"exempt","content_id":"58db0eb8-a8c0-444f-9c16-d190bc244927"},"analytics_identifier":"OT659","parent_organisations":[],"child_organisations":[]},{"id":"https://www.gov.uk/api/organisations/public-health-laboratory-service-board","title":"Public Health Laboratory Service Board","format":"Executive agency","updated_at":"2014-10-15T15:37:11.000+01:00","web_url":"https://www.gov.uk/government/organisations/public-health-laboratory-service-board","details":{"slug":"public-health-laboratory-service-board","abbreviation":null,"logo_formatted_name":"Public Health Laboratory Service Board","organisation_brand_colour_class_name":null,"organisation_logo_type_class_name":"single-identity","closed_at":null,"govuk_status":"closed","content_id":"faa18472-6314-4de0-9dda-e2bac337bf13"},"analytics_identifier":"EA660","parent_organisations":[],"child_organisations":[]},{"id":"https://www.gov.uk/api/organisations/parliamentary-contributory-pension-fund","title":"Parliamentary Contributory Pension Fund","format":"Other","updated_at":"2014-10-15T15:37:11.000+01:00","web_url":"https://www.gov.uk/government/organisations/parliamentary-contributory-pension-fund","details":{"slug":"parliamentary-contributory-pension-fund","abbreviation":null,"logo_formatted_name":"Parliamentary Contributory Pension Fund","organisation_brand_colour_class_name":null,"organisation_logo_type_class_name":"single-identity","closed_at":null,"govuk_status":"closed","content_id":"307e6294-ba89-4fbf-b108-cadcf296a319"},"analytics_identifier":"OT661","parent_organisations":[],"child_organisations":[]},{"id":"https://www.gov.uk/api/organisations/bedford-education-action-zone","title":"Bedford Education Action Zone","format":"Other","updated_at":"2014-10-15T15:37:11.000+01:00","web_url":"https://www.gov.uk/government/organisations/bedford-education-action-zone","details":{"slug":"bedford-education-action-zone","abbreviation":null,"logo_formatted_name":"Bedford Education Action Zone","organisation_brand_colour_class_name":null,"organisation_logo_type_class_name":"single-identity","closed_at":null,"govuk_status":"closed","content_id":"1e995f58-e8eb-4f14-ae86-79a626b77a09"},"analytics_identifier":"OT662","parent_organisations":[],"child_organisations":[]},{"id":"https://www.gov.uk/api/organisations/leigh-park-education-action-zone","title":"Leigh Park Education Action Zone","format":"Other","updated_at":"2014-10-15T15:37:12.000+01:00","web_url":"https://www.gov.uk/government/organisations/leigh-park-education-action-zone","details":{"slug":"leigh-park-education-action-zone","abbreviation":null,"logo_formatted_name":"Leigh Park Education Action Zone","organisation_brand_colour_class_name":null,"organisation_logo_type_class_name":"single-identity","closed_at":null,"govuk_status":"closed","content_id":"da5025ed-e79b-471e-8f39-0e6e56ced940"},"analytics_identifier":"OT663","parent_organisations":[],"child_organisations":[]},{"id":"https://www.gov.uk/api/organisations/downham-and-bellingham-education-action-zone","title":"Downham and Bellingham Education Action Zone","format":"Other","updated_at":"2014-10-15T15:37:12.000+01:00","web_url":"https://www.gov.uk/government/organisations/downham-and-bellingham-education-action-zone","details":{"slug":"downham-and-bellingham-education-action-zone","abbreviation":null,"logo_formatted_name":"Downham and Bellingham Education Action Zone","organisation_brand_colour_class_name":null,"organisation_logo_type_class_name":"single-identity","closed_at":null,"govuk_status":"closed","content_id":"545923a7-fff7-479c-a1b7-007417c6fb78"},"analytics_identifier":"OT664","parent_organisations":[],"child_organisations":[]}],"previous_page_url":"https://www.gov.uk/api/organisations?page=24","next_page_url":"https://www.gov.uk/api/organisations?page=26","current_page":25,"total":1009,"pages":51,"page_size":20,"start_index":481,"_response_info":{"status":"ok","links":[{"href":"https://www.gov.uk/api/organisations?page=24","rel":"previous"},{"href":"https://www.gov.uk/api/organisations?page=26","rel":"next"},{"href":"https://www.gov.uk/api/organisations?page=25","rel":"self"}]}}
