{"results":[{"id":"https://www.gov.uk/api/organisations/corby-education-action-zone","title":"Corby Education Action Zone","format":"Other","updated_at":"2014-10-15T15:37:12.000+01:00","web_url":"https://www.gov.uk/government/organisations/corby-education-action-zone","details":{"slug":"corby-education-action-zone","abbreviation":null,"logo_formatted_name":"Corby Education Action Zone","organisation_brand_colour_class_name":null,"organisation_logo_type_class_name":"single-identity","closed_at":null,"govuk_status":"closed","content_id":"b69832fc-1478-4115-a7be-4eae4e40ffb5"},"analytics_identifier":"OT665","parent_organisations":[],"child_organisations":[]},{"id":"https://www.gov.uk/api/organisations/bristol-education-action-zone","title":"Bristol Education Action Zone","format":"Other","updated_at":"2014-10-15T15:37:13.000+01:00","web_url":"https://www.gov.uk/government/organisations/bristol-education-action-zone","details":{"slug":"bristol-education-action-zone","abbreviation":null,"logo_formatted_name":"Bristol Education Action Zone","organisation_brand_colour_class_name":null,"organisation_logo_type_class_name":"single-identity","closed_at":null,"govuk_status":"closed","content_id":"e4d1562e-e241-4eea-973d-09b6d4792c44"},"analytics_identifier":"OT666","parent_organisations":[],"child_organisations":[]},{"id":"https://www.gov.uk/api/organisations/north-west-shropshire-education-action-zone","title":"North West Shropshire Education Action Zone","format":"Other","updated_at":"2014-10-15T15:37:13.000+01:00","web_url":"https://www.gov.uk/government/organisations/north-west-shropshire-education-action-zone","details":{"slug":"north-west-shropshire-education-action-zone","abbreviation":null,"logo_formatted_name":"North West Shropshire Education Action Zone","organisation_brand_colour_class_name":null,"organisation_logo_type_class_name":"single-identity","closed_at":null,"govuk_status":"closed","content_id":"bc65baaa-3ff2-4b56-ba19-8e31581bc58b"},"analytics_identifier":"OT667","parent_organisations":[],"child_organisations":[]},{"id":"https://www.gov.uk/api/organisations/wythenshawe-education-action-zone","title":"Wythenshawe Education Action Zone","format":"Other","updated_at":"2014-10-15T15:37:13.000+01:00","web_url":"https://www.gov.uk/government/organisations/wythenshawe-education-action-zone","details":{"slug":"wythenshawe-education-action-zone","abbreviation":null,"logo_formatted_name":"Wythenshawe Education Action Zone","organisation_brand_colour_class_name":null,"organisation_logo_type_class_name":"single-identity","closed_at":null,"govuk_status":"closed","content_id":"4614d4f6-757b-416f-bcb3-3ccf6141c2ce"},"analytics_identifier":"OT668","parent_organisations":[],"child_organisations":[]},{"id":"https://www.gov.uk/api/organisations/ellesmere-port-education-action-zone","title":"Ellesmere Port Education Action Zone","format":"Other","updated_at":"2014-10-15T15:37:13.000+01:00","web_url":"https://www.gov.uk/government/organisations/ellesmere-port-education-action-zone","details":{"slug":"ellesmere-port-education-action-zone","abbreviation":null,"logo_formatted_name":"Ellesmere Port Education Action Zone","organisation_brand_colour_class_name":null,"organisation_logo_type_class_name":"single-identity","closed_at":null,"govuk_status":"closed","content_id":"7c336df2-13c0-41e2-ade8-49b8ef8a2ec7"},"analytics_identifier":"OT669","parent_organisations":[],"child_organisations":[]},{"id":"https://www.gov.uk/api/organisations/camborne-pool-and-redruth-education-action-zone","title":"Camborne, Pool and Redruth Education Action Zone","format":"Other","updated_at":"2014-10-15T15:37:14.000+01:00","web_url":"https://www.gov.uk/government/organisations/camborne-pool-and-redruth-education-action-zone","details":{"slug":"camborne-pool-and-redruth-education-action-zone","abbreviation":null,"logo_formatted_name":"Camborne, Pool and Redruth Education Action Zone","organisation_brand_colour_class_name":null,"organisation_logo_type_class_name":"single-identity","closed_at":null,"govuk_status":"closed","content_id":"3ee89e9f-d3b6-46c3-a7c2-e6312c25d90d"},"analytics_identifier":"OT670","parent_organisations":[],"child_organisations":[]},{"id":"https://www.gov.uk/api/organisations/coventry-education-action-zone","title":"Coventry Education Action Zone","format":"Other","updated_at":"2014-10-15T15:37:14.000+01:00","web_url":"https://www.gov.uk/government/organisations/coventry-education-action-zone","details":{"slug":"coventry-education-action-zone","abbreviation":null,"logo_formatted_name":"Coventry Education Action Zone","organisation_brand_colour_class_name":null,"organisation_logo_type_class_name":"single-identity","closed_at":null,"govuk_status":"closed","content_id":"9ef005a5-0200-4fc5-beb9-15ce0ae756fb"},"analytics_identifier":"OT671","parent_organisations":[],"child_organisations":[]},{"id":"https://www.gov.uk/api/organisations/north-gillingham-education-action-zone","title":"North Gillingham Education Action Zone","format":"Other","updated_at":"2014-10-15T15:37:14.000+01:00","web_url":"https://www.gov.uk/government/organisations/north-gillingham-education-action-zone","details":{"slug":"north-gillingham-education-action-zone","abbreviation":null,"logo_formatted_name":"North Gillingham Education Action Zone","organisation_brand_colour_class_name":null,"organisation_logo_type_class_name":"single-identity","closed_at":null,"govuk_status":"closed","content_id":"f560236b-8bf4-4781-bc8d-fc0fcd16ea55"},"analytics_identifier":"OT672","parent_organisations":[],"child_organisations":[]},{"id":"https://www.gov.uk/api/organisations/gloucester-education-action-zone","title":"Gloucester Education Action Zone","format":"Other","updated_at":"2014-10-15T15:37:14.000+01:00","web_url":"https://www.gov.uk/government/organisations/gloucester-education-action-zone","details":{"slug":"gloucester-education-action-zone","abbreviation":null,"logo_formatted_name":"Gloucester Education Action Zone","organisation_brand_colour_class_name":null,"organisation_logo_type_class_name":"single-identity","closed_at":null,"govuk_status":"closed","content_id":"3c17c060-32f9-46e4-89ed-a40a0c6c199c"},"analytics_identifier":"OT673","parent_organisations":[],"child_organisations":[]},{"id":"https://www.gov.uk/api/organisations/east-manchester-education-action-zone","title":"East Manchester Education Action Zone","format":"Other","updated_at":"2014-10-15T15:37:15.000+01:00","web_url":"https://www.gov.uk/government/organisations/east-manchester-education-action-zone","details":{"slug":"east-manchester-education-action-zone","abbreviation":null,"logo_formatted_name":"East Manchester Education Action Zone","organisation_brand_colour_class_name":null,"organisation_logo_type_class_name":"single-identity","closed_at":null,"govuk_status":"closed","content_id":"aefc08ea-0c91-46b9-99ce-068985fcae43"},"analytics_identifier":"OT674","parent_organisations":[],"child_organisations":[]},{"id":"https://www.gov.uk/api/organisations/northern-ireland-social-security-agency","title":"Northern Ireland Social Security Agency","format":"Executive agency","updated_at":"2014-10-15T15:37:15.000+01:00","web_url":"https://www.gov.uk/government/organisations/northern-ireland-social-security-agency","details":{"slug":"northern-ireland-social-security-agency","abbreviation":"","logo_formatted_name":"Northern Ireland Social Security Agency","organisation_brand_colour_class_name":null,"organisation_logo_type_class_name":"single-identity","closed_at":null,"govuk_status":"closed","content_id":"2363aad4-77ba-44de-92b5-f7cc58c4dcd7"},"analytics_identifier":"EA675","parent_organisations":[],"child_organisations":[]},{"id":"https://www.gov.uk/api/organisations/commission-for-racial-equality","title":"Commission for Racial Equality","format":"Other","updated_at":"2014-10-15T15:37:15.000+01:00","web_url":"https://www.gov.uk/government/organisations/commission-for-racial-equality","details":{"slug":"commission-for-racial-equality","abbreviation":null,"logo_formatted_name":"Commission for Racial Equality","organisation_brand_colour_class_name":null,"organisation_logo_type_class_name":"single-identity","closed_at":null,"govuk_status":"closed","content_id":"9b19bc0a-bf27-48da-abaa-085c2d25447f"},"analytics_identifier":"OT676","parent_organisations":[],"child_organisations":[]},{"id":"https://www.gov.uk/api/organisations/clacton-and-harwich-education-action-zone","title":"Clacton and Harwich Education Action Zone","format":"Other","updated_at":"2014-10-15T15:37:15.000+01:00","web_url":"https://www.gov.uk/government/organisations/clacton-and-harwich-education-action-zone","details":{"slug":"clacton-and-harwich-education-action-zone","abbreviation":null,"logo_formatted_name":"Clacton and Harwich Education Action Zone","organisation_brand_colour_class_name":null,"organisation_logo_type_class_name":"single-identity","closed_at":null,"govuk_status":"closed","content_id":"a5a23248-887d-4ab1-acd2-c2cc62129212"},"analytics_identifier":"OT677","parent_organisations":[],"child_organisations":[]},{"id":"https://www.gov.uk/api/organisations/hackney-education-action-zone","title":"Hackney Education Action Zone","format":"Other","updated_at":"2014-10-15T15:37:15.000+01:00","web_url":"https://www.gov.uk/government/organisations/hackney-education-action-zone","details":{"slug":"hackney-education-action-zone","abbreviation":null,"logo_formatted_name":"Hackney Education Action Zone","organisation_brand_colour_class_name":null,"organisation_logo_type_class_name":"single-identity","closed_at":null,"govuk_status":"closed","content_id":"355e1321-96c5-4c56-8249-4a22dff4497a"},"analytics_identifier":"OT678","parent_organisations":[],"child_organisations":[]},{"id":"https://www.gov.uk/api/organisations/hastings-and-st-leonards-education-action-zone","title":"Hastings and St Leonards Education Action Zone","format":"Other","updated_at":"2014-10-15T15:37:16.000+01:00","web_url":"https://www.gov.uk/government/organisations/hastings-and-st-leonards-education-action-zone","details":{"slug":"hastings-and-st-leonards-education-action-zone","abbreviation":null,"logo_formatted_name":"Hastings and St Leonards Education Action Zone","organisation_brand_colour_class_name":null,"organisation_logo_type_class_name":"single-identity","closed_at":null,"govuk_status":"closed","content_id":"b9b9e74f-68e0-4ccf-9897-f74e5468dd29"},"analytics_identifier":"OT679","parent_organisations":[],"child_organisations":[]},{"id":"https://www.gov.uk/api/organisations/kent-and-somerset-education-action-zone","title":"Kent and Somerset Education Action Zone","format":"Other","updated_at":"2014-10-15T15:37:16.000+01:00","web_url":"https://www.gov.uk/government/organisations/kent-and-somerset-education-action-zone","details":{"slug":"kent-and-somerset-education-action-zone","abbreviation":null,"logo_formatted_name":"Kent and Somerset Education Action Zone","organisation_brand_colour_class_name":null,"organisation_logo_type_class_name":"single-identity","closed_at":null,"govuk_status":"closed","content_id":"e10895ce-fcef-4ff6-8558-174611c4c16c"},"analytics_identifier":"OT680","parent_organisations":[],"child_organisations":[]},{"id":"https://www.gov.uk/api/organisations/hybu-cig-cymru-meat-promotion-wales","title":"Hybu Cig Cymru - Meat Promotion Wales","format":"Other","updated_at":"2014-10-15T15:37:16.000+01:00","web_url":"https://www.gov.uk/government/organisations/hybu-cig-cymru-meat-promotion-wales","details":{"slug":"hybu-cig-cymru-meat-promotion-wales","abbreviation":"","logo_formatted_name":"Hybu Cig Cymru - Meat Promotion Wales","organisation_brand_colour_class_name":null,"organisation_logo_type_class_name":"single-identity","closed_at":null,"govuk_status":"closed","content_id":"83bc07ac-70eb-40b9-a7ce-cc06d45b27b1"},"analytics_identifier":"OT681","parent_organisations":[],"child_organisations":[]},{"id":"https://www.gov.uk/api/organisations/commission-for-health-improvement","title":"Commission for Health Improvement","format":"Other","updated_at":"2014-10-15T15:37:17.000+01:00","web_url":"https://www.gov.uk/government/organisations/commission-for-health-improvement","details":{"slug":"commission-for-health-improvement","abbreviation":null,"logo_formatted_name":"Commission for Health Improvement","organisation_brand_colour_class_name":null,"organisation_logo_type_class_name":"single-identity","closed_at":null,"govuk_status":"closed","content_id":"4ad0dcd6-db83-44d8-bc81-5fb6800e63f5"},"analytics_identifier":"OT683","parent_organisations":[],"child_organisations":[]},{"id":"https://www.gov.uk/api/organisations/bridgwater-education-action-zone","title":"Bridgwater Education Action Zone","format":"Other","updated_at":"2014-10-15T15:37:17.000+01:00","web_url":"https://www.gov.uk/government/organisations/bridgwater-education-action-zone","details":{"slug":"bridgwater-education-action-zone","abbreviation":null,"logo_formatted_name":"Bridgwater Education Action Zone","organisation_brand_colour_class_name":null,"organisation_logo_type_class_name":"single-identity","closed_at":null,"govuk_status":"closed","content_id":"bc637040-f8fd-4050-b738-2bfa38166ff8"},"analytics_identifier":"OT684","parent_organisations":[],"child_organisations":[]},{"id":"https://www.gov.uk/api/organisations/defence-analytical-services-agency","title":"Defence Analytical Services Agency","format":"Executive agency","updated_at":"2014-10-15T15:37:17.000+01:00","web_url":"https://www.gov.uk/government/organisations/defence-analytical-services-agency","details":{"slug":"defence-analytical-services-agency","abbreviation":"","logo_formatted_name":"Defence Analytical Services Agency","organisation_brand_colour_class_name":null,"organisation_logo_type_class_name":"single-identity","closed_at":null,"govuk_status":"closed","content_id":"f7da6759-1e84-4100-ae38-3692150275fc"},"analytics_identifier":"EA685","parent_organisations":[],"child_organisations":[]}],"previous_page_url":"https://www.gov.uk/api/organisations?page=25","next_page_url":"https://www.gov.uk/api/organisations?page=27","current_page":26,"total":1009,"pages":51,"page_size":20,"start_index":501,"_response_info":{"status":"ok","links":[{"href":"https://www.gov.uk/api/organisations?page=25","rel":"previous"},{"href":"https://www.gov.uk/api/organisations?page=27","rel":"next"},{"href":"https://www.gov.uk/api/organisations?page=26","rel":"self"}]}}
