{"results":[{"id":"https://www.gov.uk/api/organisations/hm-inspectorate-of-explosives-for-northern-ireland","title":"H.M. Inspectorate of Explosives for Northern Ireland","format":"Other","updated_at":"2014-10-15T15:37:17.000+01:00","web_url":"https://www.gov.uk/government/organisations/hm-inspectorate-of-explosives-for-northern-ireland","details":{"slug":"hm-inspectorate-of-explosives-for-northern-ireland","abbreviation":null,"logo_formatted_name":"H.M. Inspectorate of Explosives for Northern Ireland","organisation_brand_colour_class_name":null,"organisation_logo_type_class_name":"single-identity","closed_at":null,"govuk_status":"closed","content_id":"6e43fa29-d97b-404e-8a5b-ffbe22e130a4"},"analytics_identifier":"OT686","parent_organisations":[],"child_organisations":[]},{"id":"https://www.gov.uk/api/organisations/valuation-and-lands-agency","title":"Valuation and Lands Agency","format":"Executive agency","updated_at":"2014-10-15T15:37:17.000+01:00","web_url":"https://www.gov.uk/government/organisations/valuation-and-lands-agency","details":{"slug":"valuation-and-lands-agency","abbreviation":"","logo_formatted_name":"Valuation and Lands Agency","organisation_brand_colour_class_name":null,"organisation_logo_type_class_name":"single-identity","closed_at":null,"govuk_status":"closed","content_id":"6980ea0a-9dcd-4f4a-b4d5-7632115f5693"},"analytics_identifier":"EA687","parent_organisations":[],"child_organisations":[]},{"id":"https://www.gov.uk/api/organisations/sentence-review-commissioners","title":"Sentence Review Commissioners","format":"Other","updated_at":"2014-10-15T15:37:18.000+01:00","web_url":"https://www.gov.uk/government/organisations/sentence-review-commissioners","details":{"slug":"sentence-review-commissioners","abbreviation":null,"logo_formatted_name":"Sentence Review Commissioners","organisation_brand_colour_class_name":null,"organisation_logo_type_class_name":"single-identity","closed_at":null,"govuk_status":"closed","content_id":"586dc0f3-6c77-48d7-9f2f-d2a59ce5ac25"},"analytics_identifier":"OT688","parent_organisations":[],"child_organisations":[]},{"id":"https://www.gov.uk/api/organisations/water-service-northern-ireland","title":"Water Service (Northern Ireland)","format":"Executive agency","updated_at":"2014-10-15T15:37:18.000+01:00","web_url":"https://www.gov.uk/government/organisations/water-service-northern-ireland","details":{"slug":"water-service-northern-ireland","abbreviation":"","logo_formatted_name":"Water Service (Northern Ireland)","organisation_brand_colour_class_name":null,"organisation_logo_type_class_name":"single-identity","closed_at":null,"govuk_status":"closed","content_id":"fdf8e2b1-ad22-4c23-8b0a-74b47042a351"},"analytics_identifier":"EA689","parent_organisations":[],"child_organisations":[]},{"id":"https://www.gov.uk/api/organisations/counter-fraud-and-security-management-service","title":"Counter Fraud and Security Management Service","format":"Sub-organisation","updated_at":"2014-10-15T15:37:18.000+01:00","web_url":"https://www.gov.uk/government/organisations/counter-fraud-and-security-management-service","details":{"slug":"counter-fraud-and-security-management-service","abbreviation":"","logo_formatted_name":"Counter Fraud and Security Management Service","organisation_brand_colour_class_name":null,"organisation_logo_type_class_name":"single-identity","closed_at":null,"govuk_status":"live","content_id":"c325c3fe-1adb-41ba-af73-4f385e074362"},"analytics_identifier":"OT690","parent_organisations":[{"id":"https://www.gov.uk/api/organisations/nhs-business-services-authority","web_url":"https://www.gov.uk/government/organisations/nhs-business-services-authority"}],"child_organisations":[]},{"id":"https://www.gov.uk/api/organisations/family-health-services-appeal-authority","title":"Family Health Services Appeal Authority","format":"Other","updated_at":"2014-10-15T15:37:18.000+01:00","web_url":"https://www.gov.uk/government/organisations/family-health-services-appeal-authority","details":{"slug":"family-health-services-appeal-authority","abbreviation":null,"logo_formatted_name":"Family Health Services Appeal Authority","organisation_brand_colour_class_name":null,"organisation_logo_type_class_name":"single-identity","closed_at":null,"govuk_status":"closed","content_id":"d6d77d76-fc3b-428c-a043-6b1002fed4a4"},"analytics_identifier":"OT691","parent_organisations":[],"child_organisations":[]},{"id":"https://www.gov.uk/api/organisations/national-treatment-agency-for-substance-misuse","title":"National Treatment Agency for Substance Misuse","format":"Executive agency","updated_at":"2014-10-15T15:37:19.000+01:00","web_url":"https://www.gov.uk/government/organisations/national-treatment-agency-for-substance-misuse","details":{"slug":"national-treatment-agency-for-substance-misuse","abbreviation":null,"logo_formatted_name":"National Treatment Agency for Substance Misuse","organisation_brand_colour_class_name":null,"organisation_logo_type_class_name":"single-identity","closed_at":null,"govuk_status":"closed","content_id":"5bc73fec-5726-4354-bad4-13a6ba1ca4a3"},"analytics_identifier":"EA692","parent_organisations":[],"child_organisations":[]},{"id":"https://www.gov.uk/api/organisations/ministry-of-defence-police-and-guarding-agency","title":"Ministry of Defence Police and Guarding Agency","format":"Executive agency","updated_at":"2014-10-15T15:37:19.000+01:00","web_url":"https://www.gov.uk/government/organisations/ministry-of-defence-police-and-guarding-agency","details":{"slug":"ministry-of-defence-police-and-guarding-agency","abbreviation":null,"logo_formatted_name":"Ministry of Defence Police and Guarding Agency","organisation_brand_colour_class_name":null,"organisation_logo_type_class_name":"single-identity","closed_at":null,"govuk_status":"closed","content_id":"2f32c618-f818-4226-a832-cd4c4ccb65e9"},"analytics_identifier":"EA693","parent_organisations":[],"child_organisations":[]},{"id":"https://www.gov.uk/api/organisations/sports-council-for-northern-ireland","title":"Sports Council for Northern Ireland","format":"Other","updated_at":"2014-10-15T15:37:19.000+01:00","web_url":"https://www.gov.uk/government/organisations/sports-council-for-northern-ireland","details":{"slug":"sports-council-for-northern-ireland","abbreviation":"","logo_formatted_name":"Sports Council for Northern Ireland","organisation_brand_colour_class_name":null,"organisation_logo_type_class_name":"single-identity","closed_at":null,"govuk_status":"closed","content_id":"2c00fe8c-7602-41e9-a0d6-61738b4e672f"},"analytics_identifier":"OT694","parent_organisations":[],"child_organisations":[]},{"id":"https://www.gov.uk/api/organisations/ordnance-survey-of-northern-ireland","title":"Ordnance Survey of Northern Ireland","format":"Executive agency","updated_at":"2014-10-15T15:37:19.000+01:00","web_url":"https://www.gov.uk/government/organisations/ordnance-survey-of-northern-ireland","details":{"slug":"ordnance-survey-of-northern-ireland","abbreviation":"","logo_formatted_name":"Ordnance Survey of Northern Ireland","organisation_brand_colour_class_name":null,"organisation_logo_type_class_name":"single-identity","closed_at":null,"govuk_status":"closed","content_id":"7c963d08-3759-4d61-a329-5bd9b156e288"},"analytics_identifier":"EA695","parent_organisations":[],"child_organisations":[]},{"id":"https://www.gov.uk/api/organisations/forensic-science-northern-ireland","title":"Forensic Science Northern Ireland","format":"Executive agency","updated_at":"2014-10-15T15:37:20.000+01:00","web_url":"https://www.gov.uk/government/organisations/forensic-science-northern-ireland","details":{"slug":"forensic-science-northern-ireland","abbreviation":"","logo_formatted_name":"Forensic Science Northern Ireland","organisation_brand_colour_class_name":null,"organisation_logo_type_class_name":"single-identity","closed_at":null,"govuk_status":"closed","content_id":"d2abba6e-47e4-4625-aca1-c47ec5c753e6"},"analytics_identifier":"EA696","parent_organisations":[],"child_organisations":[]},{"id":"https://www.gov.uk/api/organisations/youth-justice-agency-of-northern-ireland","title":"Youth Justice Agency of Northern Ireland","format":"Executive agency","updated_at":"2014-10-15T15:37:20.000+01:00","web_url":"https://www.gov.uk/government/organisations/youth-justice-agency-of-northern-ireland","details":{"slug":"youth-justice-agency-of-northern-ireland","abbreviation":"","logo_formatted_name":"Youth Justice Agency of Northern Ireland","organisation_brand_colour_class_name":null,"organisation_logo_type_class_name":"single-identity","closed_at":null,"govuk_status":"closed","content_id":"a0540be1-ffa1-40a7-ae02-df05668c9d1f"},"analytics_identifier":"EA697","parent_organisations":[],"child_organisations":[]},{"id":"https://www.gov.uk/api/organisations/assets-recovery-agency","title":"Assets Recovery Agency","format":"Executive agency","updated_at":"2014-10-15T15:37:20.000+01:00","web_url":"https://www.gov.uk/government/organisations/assets-recovery-agency","details":{"slug":"assets-recovery-agency","abbreviation":null,"logo_formatted_name":"Assets Recovery Agency","organisation_brand_colour_class_name":null,"organisation_logo_type_class_name":"single-identity","closed_at":null,"govuk_status":"closed","content_id":"01046836-de95-43aa-9b36-941e705bcdf4"},"analytics_identifier":"EA698","parent_organisations":[],"child_organisations":[]},{"id":"https://www.gov.uk/api/organisations/land-registers-of-northern-ireland","title":"Land Registers of Northern Ireland","format":"Executive agency","updated_at":"2014-10-15T15:37:20.000+01:00","web_url":"https://www.gov.uk/government/organisations/land-registers-of-northern-ireland","details":{"slug":"land-registers-of-northern-ireland","abbreviation":"","logo_formatted_name":"Land Registers of Northern Ireland","organisation_brand_colour_class_name":null,"organisation_logo_type_class_name":"single-identity","closed_at":null,"govuk_status":"closed","content_id":"a4c7bc66-b96b-4a07-ba53-06837193f57c"},"analytics_identifier":"EA700","parent_organisations":[],"child_organisations":[]},{"id":"https://www.gov.uk/api/organisations/northern-ireland-statistics-and-research-agency","title":"Northern Ireland Statistics and Research Agency","format":"Executive agency","updated_at":"2015-07-01T15:08:14.000+01:00","web_url":"https://www.gov.uk/government/organisations/northern-ireland-statistics-and-research-agency","details":{"slug":"northern-ireland-statistics-and-research-agency","abbreviation":"NISRA","logo_formatted_name":"Northern Ireland Statistics and Research Agency","organisation_brand_colour_class_name":null,"organisation_logo_type_class_name":"single-identity","closed_at":null,"govuk_status":"live","content_id":"93a0b041-ecb9-45d2-9135-37aee4b79573"},"analytics_identifier":"EA701","parent_organisations":[],"child_organisations":[]},{"id":"https://www.gov.uk/api/organisations/dingle-granby-toxteth-education-action-zone","title":"Dingle Granby Toxteth Education Action Zone","format":"Other","updated_at":"2014-10-15T15:37:21.000+01:00","web_url":"https://www.gov.uk/government/organisations/dingle-granby-toxteth-education-action-zone","details":{"slug":"dingle-granby-toxteth-education-action-zone","abbreviation":null,"logo_formatted_name":"Dingle Granby Toxteth Education Action Zone","organisation_brand_colour_class_name":null,"organisation_logo_type_class_name":"single-identity","closed_at":null,"govuk_status":"closed","content_id":"852de5c7-b3ac-4d3d-90da-dbbed6a488a8"},"analytics_identifier":"OT702","parent_organisations":[],"child_organisations":[]},{"id":"https://www.gov.uk/api/organisations/national-crime-squad","title":"National Crime Squad","format":"Other","updated_at":"2014-10-15T15:37:21.000+01:00","web_url":"https://www.gov.uk/government/organisations/national-crime-squad","details":{"slug":"national-crime-squad","abbreviation":null,"logo_formatted_name":"National Crime Squad","organisation_brand_colour_class_name":null,"organisation_logo_type_class_name":"single-identity","closed_at":null,"govuk_status":"closed","content_id":"51ec3fba-90af-4098-889a-1d1384447aa5"},"analytics_identifier":"OT703","parent_organisations":[],"child_organisations":[]},{"id":"https://www.gov.uk/api/organisations/national-criminal-intelligence-service","title":"National Criminal Intelligence Service","format":"Executive agency","updated_at":"2014-10-15T15:37:21.000+01:00","web_url":"https://www.gov.uk/government/organisations/national-criminal-intelligence-service","details":{"slug":"national-criminal-intelligence-service","abbreviation":null,"logo_formatted_name":"National Criminal Intelligence Service","organisation_brand_colour_class_name":null,"organisation_logo_type_class_name":"single-identity","closed_at":null,"govuk_status":"closed","content_id":"5c630f25-4ecb-4643-b89e-1d57193ef076"},"analytics_identifier":"EA704","parent_organisations":[],"child_organisations":[]},{"id":"https://www.gov.uk/api/organisations/medical-supplies-agency","title":"Medical Supplies Agency","format":"Executive agency","updated_at":"2014-10-15T15:37:22.000+01:00","web_url":"https://www.gov.uk/government/organisations/medical-supplies-agency","details":{"slug":"medical-supplies-agency","abbreviation":null,"logo_formatted_name":"Medical Supplies Agency","organisation_brand_colour_class_name":null,"organisation_logo_type_class_name":"single-identity","closed_at":null,"govuk_status":"closed","content_id":"089cf76a-2f39-4bf9-b62e-dfee0595665d"},"analytics_identifier":"EA705","parent_organisations":[],"child_organisations":[]},{"id":"https://www.gov.uk/api/organisations/armed-forces-personnel-administration-agency","title":"Armed Forces Personnel Administration Agency","format":"Executive agency","updated_at":"2014-10-15T15:37:22.000+01:00","web_url":"https://www.gov.uk/government/organisations/armed-forces-personnel-administration-agency","details":{"slug":"armed-forces-personnel-administration-agency","abbreviation":null,"logo_formatted_name":"Armed Forces Personnel Administration Agency","organisation_brand_colour_class_name":null,"organisation_logo_type_class_name":"single-identity","closed_at":null,"govuk_status":"closed","content_id":"4c97e73a-c528-4862-86c1-1386f5746a64"},"analytics_identifier":"EA706","parent_organisations":[],"child_organisations":[]}],"previous_page_url":"https://www.gov.uk/api/organisations?page=26","next_page_url":"https://www.gov.uk/api/organisations?page=28","current_page":27,"total":1009,"pages":51,"page_size":20,"start_index":521,"_response_info":{"status":"ok","links":[{"href":"https://www.gov.uk/api/organisations?page=26","rel":"previous"},{"href":"https://www.gov.uk/api/organisations?page=28","rel":"next"},{"href":"https://www.gov.uk/api/organisations?page=27","rel":"self"}]}}
