{"results":[{"id":"https://www.gov.uk/api/organisations/compensation-agency","title":"Compensation Agency","format":"Executive agency","updated_at":"2014-10-15T15:37:22.000+01:00","web_url":"https://www.gov.uk/government/organisations/compensation-agency","details":{"slug":"compensation-agency","abbreviation":"","logo_formatted_name":"Compensation Agency","organisation_brand_colour_class_name":null,"organisation_logo_type_class_name":"single-identity","closed_at":null,"govuk_status":"closed","content_id":"a2e2cb66-35f0-4ee9-8f16-7da6ed086ff4"},"analytics_identifier":"EA707","parent_organisations":[],"child_organisations":[]},{"id":"https://www.gov.uk/api/organisations/wakefield-education-action-zone","title":"Wakefield Education Action Zone","format":"Other","updated_at":"2014-10-15T15:37:22.000+01:00","web_url":"https://www.gov.uk/government/organisations/wakefield-education-action-zone","details":{"slug":"wakefield-education-action-zone","abbreviation":null,"logo_formatted_name":"Wakefield Education Action Zone","organisation_brand_colour_class_name":null,"organisation_logo_type_class_name":"single-identity","closed_at":null,"govuk_status":"closed","content_id":"2fd2336c-cdcc-41b1-9aa0-f713b85a7893"},"analytics_identifier":"OT708","parent_organisations":[],"child_organisations":[]},{"id":"https://www.gov.uk/api/organisations/nhs-estates","title":"NHS Estates","format":"Other","updated_at":"2014-10-15T15:37:23.000+01:00","web_url":"https://www.gov.uk/government/organisations/nhs-estates","details":{"slug":"nhs-estates","abbreviation":null,"logo_formatted_name":"NHS Estates","organisation_brand_colour_class_name":null,"organisation_logo_type_class_name":"single-identity","closed_at":null,"govuk_status":"closed","content_id":"18f8c51f-8bad-4282-acc2-24e8508f2472"},"analytics_identifier":"OT709","parent_organisations":[],"child_organisations":[]},{"id":"https://www.gov.uk/api/organisations/equal-opportunities-commission","title":"Equal Opportunities Commission","format":"Other","updated_at":"2014-10-15T15:37:23.000+01:00","web_url":"https://www.gov.uk/government/organisations/equal-opportunities-commission","details":{"slug":"equal-opportunities-commission","abbreviation":null,"logo_formatted_name":"Equal Opportunities Commission","organisation_brand_colour_class_name":null,"organisation_logo_type_class_name":"single-identity","closed_at":null,"govuk_status":"closed","content_id":"0f6e1b66-06ac-44ec-a100-b55a5d859a52"},"analytics_identifier":"OT710","parent_organisations":[],"child_organisations":[]},{"id":"https://www.gov.uk/api/organisations/disability-rights-commission","title":"Disability Rights Commission","format":"Other","updated_at":"2014-10-15T15:37:23.000+01:00","web_url":"https://www.gov.uk/government/organisations/disability-rights-commission","details":{"slug":"disability-rights-commission","abbreviation":null,"logo_formatted_name":"Disability Rights Commission","organisation_brand_colour_class_name":null,"organisation_logo_type_class_name":"single-identity","closed_at":null,"govuk_status":"closed","content_id":"ee89d3f8-8fc0-4c4f-81de-d4ec792c171c"},"analytics_identifier":"OT711","parent_organisations":[],"child_organisations":[]},{"id":"https://www.gov.uk/api/organisations/national-weights-and-measures-laboratory","title":"National Weights and Measures Laboratory","format":"Other","updated_at":"2014-10-15T15:37:23.000+01:00","web_url":"https://www.gov.uk/government/organisations/national-weights-and-measures-laboratory","details":{"slug":"national-weights-and-measures-laboratory","abbreviation":null,"logo_formatted_name":"National Weights and Measures Laboratory","organisation_brand_colour_class_name":null,"organisation_logo_type_class_name":"single-identity","closed_at":null,"govuk_status":"closed","content_id":"e42e3a37-5eb7-45c7-8f89-5d7aa8b7da57"},"analytics_identifier":"OT712","parent_organisations":[],"child_organisations":[]},{"id":"https://www.gov.uk/api/organisations/defence-estates","title":"Defence Estates","format":"Other","updated_at":"2014-10-15T15:37:24.000+01:00","web_url":"https://www.gov.uk/government/organisations/defence-estates","details":{"slug":"defence-estates","abbreviation":"","logo_formatted_name":"Defence Estates","organisation_brand_colour_class_name":null,"organisation_logo_type_class_name":"single-identity","closed_at":null,"govuk_status":"closed","content_id":"d0b84cf6-8da8-46e4-9ab1-afe5bb8b85ce"},"analytics_identifier":"OT713","parent_organisations":[],"child_organisations":[]},{"id":"https://www.gov.uk/api/organisations/planning-service","title":"Planning Service","format":"Other","updated_at":"2014-10-15T15:37:24.000+01:00","web_url":"https://www.gov.uk/government/organisations/planning-service","details":{"slug":"planning-service","abbreviation":"","logo_formatted_name":"Planning Service","organisation_brand_colour_class_name":null,"organisation_logo_type_class_name":"single-identity","closed_at":null,"govuk_status":"closed","content_id":"05602b94-5720-474e-b889-4cb62151f7f9"},"analytics_identifier":"OT714","parent_organisations":[],"child_organisations":[]},{"id":"https://www.gov.uk/api/organisations/general-teaching-council-for-england","title":"General Teaching Council for England","format":"Executive agency","updated_at":"2014-10-15T15:37:24.000+01:00","web_url":"https://www.gov.uk/government/organisations/general-teaching-council-for-england","details":{"slug":"general-teaching-council-for-england","abbreviation":"GTCE","logo_formatted_name":"General Teaching Council for England","organisation_brand_colour_class_name":null,"organisation_logo_type_class_name":"single-identity","closed_at":"2012-03-31T00:00:00.000+01:00","govuk_status":"closed","content_id":"4c71fdca-6d89-4c9f-b942-11b1060187f4"},"analytics_identifier":"EA715","parent_organisations":[],"child_organisations":[]},{"id":"https://www.gov.uk/api/organisations/nhs-purchasing-and-supply-agency","title":"NHS Purchasing and Supply Agency","format":"Executive agency","updated_at":"2014-10-15T15:37:25.000+01:00","web_url":"https://www.gov.uk/government/organisations/nhs-purchasing-and-supply-agency","details":{"slug":"nhs-purchasing-and-supply-agency","abbreviation":null,"logo_formatted_name":"NHS Purchasing and Supply Agency","organisation_brand_colour_class_name":null,"organisation_logo_type_class_name":"single-identity","closed_at":null,"govuk_status":"closed","content_id":"240957b8-ee02-4e4a-b8dc-9f2ada4b0a13"},"analytics_identifier":"EA716","parent_organisations":[],"child_organisations":[]},{"id":"https://www.gov.uk/api/organisations/defence-aviation-repair-agency","title":"Defence Aviation Repair Agency","format":"Executive agency","updated_at":"2014-10-15T15:37:25.000+01:00","web_url":"https://www.gov.uk/government/organisations/defence-aviation-repair-agency","details":{"slug":"defence-aviation-repair-agency","abbreviation":"","logo_formatted_name":"Defence Aviation Repair Agency","organisation_brand_colour_class_name":null,"organisation_logo_type_class_name":"single-identity","closed_at":null,"govuk_status":"closed","content_id":"6e17b7c2-43a9-4e1e-abc4-51d9a935b399"},"analytics_identifier":"EA717","parent_organisations":[],"child_organisations":[]},{"id":"https://www.gov.uk/api/organisations/uk-passport-service","title":"UK Passport Service","format":"Other","updated_at":"2014-10-15T15:37:25.000+01:00","web_url":"https://www.gov.uk/government/organisations/uk-passport-service","details":{"slug":"uk-passport-service","abbreviation":"","logo_formatted_name":"UK Passport Service","organisation_brand_colour_class_name":null,"organisation_logo_type_class_name":"single-identity","closed_at":null,"govuk_status":"closed","content_id":"6ccd7811-868d-4a06-b9d5-2a2e87c3f521"},"analytics_identifier":"OT718","parent_organisations":[],"child_organisations":[]},{"id":"https://www.gov.uk/api/organisations/millennium-commission","title":"Millennium Commission","format":"Other","updated_at":"2014-10-15T15:37:25.000+01:00","web_url":"https://www.gov.uk/government/organisations/millennium-commission","details":{"slug":"millennium-commission","abbreviation":null,"logo_formatted_name":"Millennium Commission","organisation_brand_colour_class_name":null,"organisation_logo_type_class_name":"single-identity","closed_at":null,"govuk_status":"closed","content_id":"f2fc3c7f-d683-4821-af3f-8abca169dd4e"},"analytics_identifier":"OT719","parent_organisations":[],"child_organisations":[]},{"id":"https://www.gov.uk/api/organisations/defence-intelligence-and-security-centre","title":"Defence Intelligence and Security Centre","format":"Other","updated_at":"2014-10-15T15:37:25.000+01:00","web_url":"https://www.gov.uk/government/organisations/defence-intelligence-and-security-centre","details":{"slug":"defence-intelligence-and-security-centre","abbreviation":null,"logo_formatted_name":"Defence Intelligence and Security Centre","organisation_brand_colour_class_name":null,"organisation_logo_type_class_name":"single-identity","closed_at":null,"govuk_status":"closed","content_id":"c1ab34f5-a79b-4cea-a90a-932a105839c7"},"analytics_identifier":"OT720","parent_organisations":[],"child_organisations":[]},{"id":"https://www.gov.uk/api/organisations/alcohol-education-and-research-council","title":"Alcohol Education and Research Council","format":"Other","updated_at":"2014-10-15T15:37:26.000+01:00","web_url":"https://www.gov.uk/government/organisations/alcohol-education-and-research-council","details":{"slug":"alcohol-education-and-research-council","abbreviation":null,"logo_formatted_name":"Alcohol Education and Research Council","organisation_brand_colour_class_name":null,"organisation_logo_type_class_name":"single-identity","closed_at":null,"govuk_status":"closed","content_id":"7a1ffb4f-1311-43e1-a728-bf1a6be9eed9"},"analytics_identifier":"OT721","parent_organisations":[],"child_organisations":[]},{"id":"https://www.gov.uk/api/organisations/south-east-sheffield-education-action-zone","title":"South East Sheffield Education Action Zone","format":"Other","updated_at":"2014-10-15T15:37:26.000+01:00","web_url":"https://www.gov.uk/government/organisations/south-east-sheffield-education-action-zone","details":{"slug":"south-east-sheffield-education-action-zone","abbreviation":null,"logo_formatted_name":"South East Sheffield Education Action Zone","organisation_brand_colour_class_name":null,"organisation_logo_type_class_name":"single-identity","closed_at":null,"govuk_status":"closed","content_id":"f0c910cf-8d29-4ee0-baba-acab93746fad"},"analytics_identifier":"OT722","parent_organisations":[],"child_organisations":[]},{"id":"https://www.gov.uk/api/organisations/national-probation-service","title":"National Probation Service","format":"Other","updated_at":"2015-05-14T11:03:19.000+01:00","web_url":"https://www.gov.uk/government/organisations/national-probation-service","details":{"slug":"national-probation-service","abbreviation":"NPS","logo_formatted_name":"National Probation Service","organisation_brand_colour_class_name":"ministry-of-justice","organisation_logo_type_class_name":"custom","closed_at":null,"govuk_status":"live","content_id":"d64a0959-bedf-4c6d-8e94-d607cc56ab5b"},"analytics_identifier":"OT723","parent_organisations":[{"id":"https://www.gov.uk/api/organisations/national-offender-management-service","web_url":"https://www.gov.uk/government/organisations/national-offender-management-service"}],"child_organisations":[]},{"id":"https://www.gov.uk/api/organisations/hearing-aid-council","title":"Hearing Aid Council","format":"Other","updated_at":"2014-10-15T15:37:26.000+01:00","web_url":"https://www.gov.uk/government/organisations/hearing-aid-council","details":{"slug":"hearing-aid-council","abbreviation":null,"logo_formatted_name":"Hearing Aid Council","organisation_brand_colour_class_name":null,"organisation_logo_type_class_name":"single-identity","closed_at":null,"govuk_status":"closed","content_id":"56158471-a377-4cf3-b001-f26e31f5ad46"},"analytics_identifier":"OT724","parent_organisations":[],"child_organisations":[]},{"id":"https://www.gov.uk/api/organisations/northern-ireland-court-service","title":"Northern Ireland Court Service","format":"Other","updated_at":"2014-10-15T15:37:27.000+01:00","web_url":"https://www.gov.uk/government/organisations/northern-ireland-court-service","details":{"slug":"northern-ireland-court-service","abbreviation":"","logo_formatted_name":"Northern Ireland Court Service","organisation_brand_colour_class_name":null,"organisation_logo_type_class_name":"single-identity","closed_at":null,"govuk_status":"closed","content_id":"afaed224-8319-43c3-836a-0308b89081ca"},"analytics_identifier":"EA725","parent_organisations":[{"id":"https://www.gov.uk/api/organisations/department-of-justice-northern-ireland","web_url":"https://www.gov.uk/government/organisations/department-of-justice-northern-ireland"}],"child_organisations":[]},{"id":"https://www.gov.uk/api/organisations/criminal-records-bureau","title":"Criminal Records Bureau","format":"Other","updated_at":"2014-10-15T15:37:27.000+01:00","web_url":"https://www.gov.uk/government/organisations/criminal-records-bureau","details":{"slug":"criminal-records-bureau","abbreviation":null,"logo_formatted_name":"Criminal Records Bureau","organisation_brand_colour_class_name":null,"organisation_logo_type_class_name":"single-identity","closed_at":null,"govuk_status":"closed","content_id":"9fb83648-923f-4e3c-a7fa-21333176a23d"},"analytics_identifier":"OT726","parent_organisations":[],"child_organisations":[]}],"previous_page_url":"https://www.gov.uk/api/organisations?page=27","next_page_url":"https://www.gov.uk/api/organisations?page=29","current_page":28,"total":1009,"pages":51,"page_size":20,"start_index":541,"_response_info":{"status":"ok","links":[{"href":"https://www.gov.uk/api/organisations?page=27","rel":"previous"},{"href":"https://www.gov.uk/api/organisations?page=29","rel":"next"},{"href":"https://www.gov.uk/api/organisations?page=28","rel":"self"}]}}
