{"results":[{"id":"https://www.gov.uk/api/organisations/police-complaints-authority","title":"Police Complaints Authority","format":"Other","updated_at":"2014-10-15T15:37:27.000+01:00","web_url":"https://www.gov.uk/government/organisations/police-complaints-authority","details":{"slug":"police-complaints-authority","abbreviation":null,"logo_formatted_name":"Police Complaints Authority","organisation_brand_colour_class_name":null,"organisation_logo_type_class_name":"single-identity","closed_at":null,"govuk_status":"closed","content_id":"2a8dd651-85ee-4976-a6ed-2fc63d588276"},"analytics_identifier":"OT727","parent_organisations":[],"child_organisations":[]},{"id":"https://www.gov.uk/api/organisations/countryside-agency","title":"Countryside Agency","format":"Executive agency","updated_at":"2014-10-15T15:37:28.000+01:00","web_url":"https://www.gov.uk/government/organisations/countryside-agency","details":{"slug":"countryside-agency","abbreviation":null,"logo_formatted_name":"Countryside Agency","organisation_brand_colour_class_name":null,"organisation_logo_type_class_name":"single-identity","closed_at":null,"govuk_status":"closed","content_id":"9265bc80-2a66-4c8b-911e-345ed7c3374d"},"analytics_identifier":"EA729","parent_organisations":[],"child_organisations":[]},{"id":"https://www.gov.uk/api/organisations/national-radiological-protection-board","title":"National Radiological Protection Board","format":"Other","updated_at":"2014-10-15T15:37:28.000+01:00","web_url":"https://www.gov.uk/government/organisations/national-radiological-protection-board","details":{"slug":"national-radiological-protection-board","abbreviation":null,"logo_formatted_name":"National Radiological Protection Board","organisation_brand_colour_class_name":null,"organisation_logo_type_class_name":"single-identity","closed_at":null,"govuk_status":"closed","content_id":"b36cbdf2-78de-4a7c-9f18-c43c1a7d4b98"},"analytics_identifier":"OT730","parent_organisations":[],"child_organisations":[]},{"id":"https://www.gov.uk/api/organisations/arts-council-of-wales","title":"Arts Council of Wales","format":"Other","updated_at":"2015-02-26T14:25:31.000+00:00","web_url":"https://www.gov.uk/government/organisations/arts-council-of-wales","details":{"slug":"arts-council-of-wales","abbreviation":"","logo_formatted_name":"Arts Council of Wales","organisation_brand_colour_class_name":null,"organisation_logo_type_class_name":"single-identity","closed_at":null,"govuk_status":"exempt","content_id":"aee7b74e-9549-4d17-9158-de41faf63f91"},"analytics_identifier":"OT731","parent_organisations":[],"child_organisations":[]},{"id":"https://www.gov.uk/api/organisations/consumer-council-for-postal-services","title":"Consumer Council for Postal Services","format":"Other","updated_at":"2014-10-15T15:37:28.000+01:00","web_url":"https://www.gov.uk/government/organisations/consumer-council-for-postal-services","details":{"slug":"consumer-council-for-postal-services","abbreviation":null,"logo_formatted_name":"Consumer Council for Postal Services","organisation_brand_colour_class_name":null,"organisation_logo_type_class_name":"single-identity","closed_at":null,"govuk_status":"closed","content_id":"8682b57b-258a-407b-9739-a26c009e15f4"},"analytics_identifier":"OT732","parent_organisations":[],"child_organisations":[]},{"id":"https://www.gov.uk/api/organisations/gas-and-electricity-consumer-council-energywatch","title":"Gas and Electricity Consumer Council (Energywatch)","format":"Other","updated_at":"2014-10-15T15:37:29.000+01:00","web_url":"https://www.gov.uk/government/organisations/gas-and-electricity-consumer-council-energywatch","details":{"slug":"gas-and-electricity-consumer-council-energywatch","abbreviation":null,"logo_formatted_name":"Gas and Electricity Consumer Council (Energywatch)","organisation_brand_colour_class_name":null,"organisation_logo_type_class_name":"single-identity","closed_at":null,"govuk_status":"closed","content_id":"011237f2-fd9e-46e2-9b04-f662a6657e0b"},"analytics_identifier":"OT733","parent_organisations":[],"child_organisations":[]},{"id":"https://www.gov.uk/api/organisations/sports-council-for-wales","title":"Sports Council for Wales","format":"Other","updated_at":"2015-02-26T14:24:25.000+00:00","web_url":"https://www.gov.uk/government/organisations/sports-council-for-wales","details":{"slug":"sports-council-for-wales","abbreviation":"","logo_formatted_name":"Sports Council for Wales","organisation_brand_colour_class_name":null,"organisation_logo_type_class_name":"single-identity","closed_at":null,"govuk_status":"exempt","content_id":"617996e1-ae36-4d19-b86c-fd9bfd4d04db"},"analytics_identifier":"OT734","parent_organisations":[],"child_organisations":[]},{"id":"https://www.gov.uk/api/organisations/warship-support-agency","title":"Warship Support Agency","format":"Executive agency","updated_at":"2014-10-15T15:37:29.000+01:00","web_url":"https://www.gov.uk/government/organisations/warship-support-agency","details":{"slug":"warship-support-agency","abbreviation":null,"logo_formatted_name":"Warship Support Agency","organisation_brand_colour_class_name":null,"organisation_logo_type_class_name":"single-identity","closed_at":null,"govuk_status":"closed","content_id":"d41499ad-8e05-4f82-98ef-10974c26e23b"},"analytics_identifier":"EA735","parent_organisations":[],"child_organisations":[]},{"id":"https://www.gov.uk/api/organisations/great-yarmouth-education-action-zone","title":"Great Yarmouth Education Action Zone","format":"Other","updated_at":"2014-10-15T15:37:30.000+01:00","web_url":"https://www.gov.uk/government/organisations/great-yarmouth-education-action-zone","details":{"slug":"great-yarmouth-education-action-zone","abbreviation":null,"logo_formatted_name":"Great Yarmouth Education Action Zone","organisation_brand_colour_class_name":null,"organisation_logo_type_class_name":"single-identity","closed_at":null,"govuk_status":"closed","content_id":"55d8e65d-dd03-4074-a3b1-87112a1d5f0d"},"analytics_identifier":"OT736","parent_organisations":[],"child_organisations":[]},{"id":"https://www.gov.uk/api/organisations/south-east-england-virtual-education-action-zone","title":"South East England Virtual Education Action Zone","format":"Other","updated_at":"2014-10-15T15:37:30.000+01:00","web_url":"https://www.gov.uk/government/organisations/south-east-england-virtual-education-action-zone","details":{"slug":"south-east-england-virtual-education-action-zone","abbreviation":null,"logo_formatted_name":"South East England Virtual Education Action Zone","organisation_brand_colour_class_name":null,"organisation_logo_type_class_name":"single-identity","closed_at":null,"govuk_status":"closed","content_id":"dc753fcc-d1aa-4ab8-af3b-f3b949395076"},"analytics_identifier":"OT737","parent_organisations":[],"child_organisations":[]},{"id":"https://www.gov.uk/api/organisations/heart-of-slough-education-action-zone","title":"Heart of Slough Education Action Zone","format":"Other","updated_at":"2014-10-15T15:37:30.000+01:00","web_url":"https://www.gov.uk/government/organisations/heart-of-slough-education-action-zone","details":{"slug":"heart-of-slough-education-action-zone","abbreviation":null,"logo_formatted_name":"Heart of Slough Education Action Zone","organisation_brand_colour_class_name":null,"organisation_logo_type_class_name":"single-identity","closed_at":null,"govuk_status":"closed","content_id":"679e5414-b029-4efe-b331-51283c790996"},"analytics_identifier":"OT738","parent_organisations":[],"child_organisations":[]},{"id":"https://www.gov.uk/api/organisations/plymouth-education-action-zone","title":"Plymouth Education Action Zone","format":"Other","updated_at":"2014-10-15T15:37:30.000+01:00","web_url":"https://www.gov.uk/government/organisations/plymouth-education-action-zone","details":{"slug":"plymouth-education-action-zone","abbreviation":null,"logo_formatted_name":"Plymouth Education Action Zone","organisation_brand_colour_class_name":null,"organisation_logo_type_class_name":"single-identity","closed_at":null,"govuk_status":"closed","content_id":"0aa9d433-8738-4235-8810-8db5ff0a5449"},"analytics_identifier":"OT739","parent_organisations":[],"child_organisations":[]},{"id":"https://www.gov.uk/api/organisations/arts-council-of-northern-ireland","title":"Arts Council of Northern Ireland","format":"Executive agency","updated_at":"2014-10-15T15:37:31.000+01:00","web_url":"https://www.gov.uk/government/organisations/arts-council-of-northern-ireland","details":{"slug":"arts-council-of-northern-ireland","abbreviation":"","logo_formatted_name":"Arts Council of Northern Ireland","organisation_brand_colour_class_name":null,"organisation_logo_type_class_name":"single-identity","closed_at":null,"govuk_status":"closed","content_id":"b6849b69-fcd0-4ab0-83ea-dcb9d4e861ce"},"analytics_identifier":"EA740","parent_organisations":[],"child_organisations":[]},{"id":"https://www.gov.uk/api/organisations/general-social-care-council","title":"General Social Care Council","format":"Other","updated_at":"2014-10-15T15:37:31.000+01:00","web_url":"https://www.gov.uk/government/organisations/general-social-care-council","details":{"slug":"general-social-care-council","abbreviation":null,"logo_formatted_name":"General Social Care Council","organisation_brand_colour_class_name":null,"organisation_logo_type_class_name":"single-identity","closed_at":null,"govuk_status":"closed","content_id":"88cc903e-e91f-48ef-b331-b90bb9d9e077"},"analytics_identifier":"OT741","parent_organisations":[],"child_organisations":[]},{"id":"https://www.gov.uk/api/organisations/hm-customs-and-excise","title":"H.M. Customs and Excise","format":"Other","updated_at":"2014-10-15T15:37:31.000+01:00","web_url":"https://www.gov.uk/government/organisations/hm-customs-and-excise","details":{"slug":"hm-customs-and-excise","abbreviation":null,"logo_formatted_name":"H.M. Customs and Excise","organisation_brand_colour_class_name":null,"organisation_logo_type_class_name":"single-identity","closed_at":null,"govuk_status":"closed","content_id":"327b500d-68ef-402f-bd54-511566fca106"},"analytics_identifier":"OT742","parent_organisations":[],"child_organisations":[]},{"id":"https://www.gov.uk/api/organisations/community-fund","title":"Community Fund","format":"Other","updated_at":"2014-10-15T15:37:32.000+01:00","web_url":"https://www.gov.uk/government/organisations/community-fund","details":{"slug":"community-fund","abbreviation":null,"logo_formatted_name":"Community Fund","organisation_brand_colour_class_name":null,"organisation_logo_type_class_name":"single-identity","closed_at":null,"govuk_status":"closed","content_id":"9bead7b0-d390-42b1-89a3-10d351a598ba"},"analytics_identifier":"OT743","parent_organisations":[],"child_organisations":[]},{"id":"https://www.gov.uk/api/organisations/office-of-the-chief-electoral-officer-for-northern-ireland","title":"Office of the Chief Electoral Officer for Northern Ireland","format":"Other","updated_at":"2014-10-15T15:37:32.000+01:00","web_url":"https://www.gov.uk/government/organisations/office-of-the-chief-electoral-officer-for-northern-ireland","details":{"slug":"office-of-the-chief-electoral-officer-for-northern-ireland","abbreviation":"","logo_formatted_name":"Office of the Chief Electoral Officer for Northern Ireland","organisation_brand_colour_class_name":null,"organisation_logo_type_class_name":"single-identity","closed_at":null,"govuk_status":"closed","content_id":"bc99f386-187f-46a9-b00d-1932dea2cfaa"},"analytics_identifier":"OT744","parent_organisations":[],"child_organisations":[]},{"id":"https://www.gov.uk/api/organisations/office-of-the-oversight-commissioner","title":"Office of the Oversight Commissioner","format":"Other","updated_at":"2014-10-15T15:37:32.000+01:00","web_url":"https://www.gov.uk/government/organisations/office-of-the-oversight-commissioner","details":{"slug":"office-of-the-oversight-commissioner","abbreviation":null,"logo_formatted_name":"Office of the Oversight Commissioner","organisation_brand_colour_class_name":null,"organisation_logo_type_class_name":"single-identity","closed_at":null,"govuk_status":"closed","content_id":"6097d6d4-e487-4c94-854d-3442a70965ce"},"analytics_identifier":"OT745","parent_organisations":[],"child_organisations":[]},{"id":"https://www.gov.uk/api/organisations/department-of-health-social-services-and-public-safety","title":"Department of Health, Social Services and Public Safety","format":"Ministerial department","updated_at":"2014-10-15T15:37:33.000+01:00","web_url":"https://www.gov.uk/government/organisations/department-of-health-social-services-and-public-safety","details":{"slug":"department-of-health-social-services-and-public-safety","abbreviation":"","logo_formatted_name":"Department of Health, Social Services and Public Safety","organisation_brand_colour_class_name":null,"organisation_logo_type_class_name":"single-identity","closed_at":null,"govuk_status":"closed","content_id":"3638384a-ae3c-4849-990f-2da23df96833"},"analytics_identifier":"D746","parent_organisations":[],"child_organisations":[]},{"id":"https://www.gov.uk/api/organisations/department-for-regional-development","title":"Department for Regional Development","format":"Ministerial department","updated_at":"2014-10-15T15:37:33.000+01:00","web_url":"https://www.gov.uk/government/organisations/department-for-regional-development","details":{"slug":"department-for-regional-development","abbreviation":"","logo_formatted_name":"Department for Regional Development","organisation_brand_colour_class_name":null,"organisation_logo_type_class_name":"single-identity","closed_at":null,"govuk_status":"closed","content_id":"afe7708a-3e61-4561-b477-cec94ad4f22b"},"analytics_identifier":"D747","parent_organisations":[],"child_organisations":[]}],"previous_page_url":"https://www.gov.uk/api/organisations?page=28","next_page_url":"https://www.gov.uk/api/organisations?page=30","current_page":29,"total":1009,"pages":51,"page_size":20,"start_index":561,"_response_info":{"status":"ok","links":[{"href":"https://www.gov.uk/api/organisations?page=28","rel":"previous"},{"href":"https://www.gov.uk/api/organisations?page=30","rel":"next"},{"href":"https://www.gov.uk/api/organisations?page=29","rel":"self"}]}}
