{"results":[{"id":"https://www.gov.uk/api/organisations/met-office","title":"Met Office","format":"Executive agency","updated_at":"2016-07-25T14:54:38.000+01:00","web_url":"https://www.gov.uk/government/organisations/met-office","details":{"slug":"met-office","abbreviation":"","logo_formatted_name":"Met Office","organisation_brand_colour_class_name":"department-for-business-innovation-skills","organisation_logo_type_class_name":"no-identity","closed_at":null,"govuk_status":"exempt","content_id":"cb2b9743-d253-40c1-a037-c5770a7b90cd"},"analytics_identifier":"EA46","parent_organisations":[{"id":"https://www.gov.uk/api/organisations/department-for-business-energy-and-industrial-strategy","web_url":"https://www.gov.uk/government/organisations/department-for-business-energy-and-industrial-strategy"}],"child_organisations":[]},{"id":"https://www.gov.uk/api/organisations/service-children-s-education","title":"Service Children's Education","format":"Executive agency","updated_at":"2014-10-15T15:35:25.000+01:00","web_url":"https://www.gov.uk/government/organisations/service-children-s-education","details":{"slug":"service-children-s-education","abbreviation":"SCE","logo_formatted_name":"Service Children's Education","organisation_brand_colour_class_name":"ministry-of-defence","organisation_logo_type_class_name":"mod","closed_at":null,"govuk_status":"closed","content_id":"11d5e611-df1c-4b90-b4cf-d6d56058268c"},"analytics_identifier":"EA49","parent_organisations":[{"id":"https://www.gov.uk/api/organisations/ministry-of-defence","web_url":"https://www.gov.uk/government/organisations/ministry-of-defence"}],"child_organisations":[]},{"id":"https://www.gov.uk/api/organisations/service-personnel-and-veterans-agency","title":"Service Personnel and Veterans Agency","format":"Executive agency","updated_at":"2014-12-09T16:22:48.000+00:00","web_url":"https://www.gov.uk/government/organisations/service-personnel-and-veterans-agency","details":{"slug":"service-personnel-and-veterans-agency","abbreviation":"SPVA","logo_formatted_name":"Service Personnel \r\nand Veterans Agency","organisation_brand_colour_class_name":"ministry-of-defence","organisation_logo_type_class_name":"mod","closed_at":"2014-04-01T00:00:00.000+01:00","govuk_status":"closed","content_id":"d65a2eb9-10c8-462a-8627-dd97691caf9b"},"analytics_identifier":"EA50","parent_organisations":[{"id":"https://www.gov.uk/api/organisations/ministry-of-defence","web_url":"https://www.gov.uk/government/organisations/ministry-of-defence"}],"child_organisations":[]},{"id":"https://www.gov.uk/api/organisations/uk-hydrographic-office","title":"UK Hydrographic Office","format":"Executive agency","updated_at":"2014-12-02T14:44:44.000+00:00","web_url":"https://www.gov.uk/government/organisations/uk-hydrographic-office","details":{"slug":"uk-hydrographic-office","abbreviation":"UKHO","logo_formatted_name":"UK Hydrographic Office","organisation_brand_colour_class_name":"ministry-of-defence","organisation_logo_type_class_name":"custom","closed_at":null,"govuk_status":"live","content_id":"27ed5a13-e8e3-4dc1-9775-902d351e9ef4"},"analytics_identifier":"EA51","parent_organisations":[{"id":"https://www.gov.uk/api/organisations/ministry-of-defence","web_url":"https://www.gov.uk/government/organisations/ministry-of-defence"}],"child_organisations":[{"id":"https://www.gov.uk/api/organisations/hm-nautical-almanac-office","web_url":"https://www.gov.uk/government/organisations/hm-nautical-almanac-office"}]},{"id":"https://www.gov.uk/api/organisations/animal-health-and-veterinary-laboratories-agency","title":"Animal Health and Veterinary Laboratories Agency","format":"Executive agency","updated_at":"2014-10-15T15:35:26.000+01:00","web_url":"https://www.gov.uk/government/organisations/animal-health-and-veterinary-laboratories-agency","details":{"slug":"animal-health-and-veterinary-laboratories-agency","abbreviation":"AHVLA","logo_formatted_name":"Animal Health and \r\nVeterinary Laboratories \r\nAgency","organisation_brand_colour_class_name":"department-for-environment-food-rural-affairs","organisation_logo_type_class_name":"custom","closed_at":"2014-10-01T00:00:00.000+01:00","govuk_status":"closed","content_id":"e0a272d7-82da-495a-a8c5-cc3787817271"},"analytics_identifier":"EA52","parent_organisations":[{"id":"https://www.gov.uk/api/organisations/department-for-environment-food-rural-affairs","web_url":"https://www.gov.uk/government/organisations/department-for-environment-food-rural-affairs"}],"child_organisations":[]},{"id":"https://www.gov.uk/api/organisations/centre-for-environment-fisheries-and-aquaculture-science","title":"Centre for Environment, Fisheries and Aquaculture Science","format":"Executive agency","updated_at":"2014-10-15T15:35:26.000+01:00","web_url":"https://www.gov.uk/government/organisations/centre-for-environment-fisheries-and-aquaculture-science","details":{"slug":"centre-for-environment-fisheries-and-aquaculture-science","abbreviation":"Cefas","logo_formatted_name":"Centre for Environment\r\nFisheries and Aquaculture \r\nScience","organisation_brand_colour_class_name":"department-for-environment-food-rural-affairs","organisation_logo_type_class_name":"single-identity","closed_at":null,"govuk_status":"live","content_id":"fd6cee28-ac4c-4fb5-9f46-54d24a500818"},"analytics_identifier":"EA53","parent_organisations":[{"id":"https://www.gov.uk/api/organisations/department-for-environment-food-rural-affairs","web_url":"https://www.gov.uk/government/organisations/department-for-environment-food-rural-affairs"}],"child_organisations":[]},{"id":"https://www.gov.uk/api/organisations/forest-research","title":"Forest Research","format":"Executive agency","updated_at":"2014-10-15T15:35:26.000+01:00","web_url":"https://www.gov.uk/government/organisations/forest-research","details":{"slug":"forest-research","abbreviation":"","logo_formatted_name":"Forest Research","organisation_brand_colour_class_name":null,"organisation_logo_type_class_name":"no-identity","closed_at":null,"govuk_status":"exempt","content_id":"d740d375-ec0c-43fb-91c8-ca2bf5701093"},"analytics_identifier":"EA54","parent_organisations":[{"id":"https://www.gov.uk/api/organisations/forestry-commission","web_url":"https://www.gov.uk/government/organisations/forestry-commission"}],"child_organisations":[]},{"id":"https://www.gov.uk/api/organisations/forest-enterprise-england","title":"Forest Enterprise (England) ","format":"Executive agency","updated_at":"2016-08-15T15:07:03.000+01:00","web_url":"https://www.gov.uk/government/organisations/forest-enterprise-england","details":{"slug":"forest-enterprise-england","abbreviation":"FEE","logo_formatted_name":"Forest Enterprise (England) ","organisation_brand_colour_class_name":null,"organisation_logo_type_class_name":"no-identity","closed_at":null,"govuk_status":"exempt","content_id":"dbf69c86-d5f7-4785-8f8e-26d74240d7fb"},"analytics_identifier":"EA55","parent_organisations":[{"id":"https://www.gov.uk/api/organisations/forestry-commission","web_url":"https://www.gov.uk/government/organisations/forestry-commission"}],"child_organisations":[]},{"id":"https://www.gov.uk/api/organisations/the-food-and-environment-research-agency","title":"The Food and Environment Research Agency","format":"Executive agency","updated_at":"2015-05-15T16:52:45.000+01:00","web_url":"https://www.gov.uk/government/organisations/the-food-and-environment-research-agency","details":{"slug":"the-food-and-environment-research-agency","abbreviation":"Fera","logo_formatted_name":"The Food and Environment \r\nResearch Agency","organisation_brand_colour_class_name":"department-for-environment-food-rural-affairs","organisation_logo_type_class_name":"single-identity","closed_at":"2015-04-01T00:00:00.000+01:00","govuk_status":"closed","content_id":"e8391764-e67c-4de9-86e0-ff2adf160593"},"analytics_identifier":"EA56","parent_organisations":[{"id":"https://www.gov.uk/api/organisations/department-for-environment-food-rural-affairs","web_url":"https://www.gov.uk/government/organisations/department-for-environment-food-rural-affairs"}],"child_organisations":[{"id":"https://www.gov.uk/api/organisations/uk-government-decontamination-service","web_url":"https://www.gov.uk/government/organisations/uk-government-decontamination-service"}]},{"id":"https://www.gov.uk/api/organisations/marine-management-organisation","title":"Marine Management Organisation","format":"Executive non-departmental public body","updated_at":"2016-04-28T15:09:39.000+01:00","web_url":"https://www.gov.uk/government/organisations/marine-management-organisation","details":{"slug":"marine-management-organisation","abbreviation":"MMO","logo_formatted_name":"Marine \r\nManagement \r\nOrganisation","organisation_brand_colour_class_name":"department-for-environment-food-rural-affairs","organisation_logo_type_class_name":"single-identity","closed_at":null,"govuk_status":"live","content_id":"8d56bb52-2f79-4b6d-9fc6-6d7dcc4f7586"},"analytics_identifier":"PB57","parent_organisations":[{"id":"https://www.gov.uk/api/organisations/department-for-environment-food-rural-affairs","web_url":"https://www.gov.uk/government/organisations/department-for-environment-food-rural-affairs"}],"child_organisations":[]},{"id":"https://www.gov.uk/api/organisations/rural-payments-agency","title":"Rural Payments Agency","format":"Executive agency","updated_at":"2016-05-17T09:15:12.000+01:00","web_url":"https://www.gov.uk/government/organisations/rural-payments-agency","details":{"slug":"rural-payments-agency","abbreviation":"RPA","logo_formatted_name":"Rural Payments \r\nAgency","organisation_brand_colour_class_name":"department-for-environment-food-rural-affairs","organisation_logo_type_class_name":"single-identity","closed_at":null,"govuk_status":"live","content_id":"e8fae147-6232-4163-a3f1-1c15b755a8a4"},"analytics_identifier":"EA58","parent_organisations":[{"id":"https://www.gov.uk/api/organisations/department-for-environment-food-rural-affairs","web_url":"https://www.gov.uk/government/organisations/department-for-environment-food-rural-affairs"}],"child_organisations":[{"id":"https://www.gov.uk/api/organisations/british-cattle-movement-service","web_url":"https://www.gov.uk/government/organisations/british-cattle-movement-service"}]},{"id":"https://www.gov.uk/api/organisations/veterinary-medicines-directorate","title":"Veterinary Medicines Directorate","format":"Executive agency","updated_at":"2015-08-19T11:19:25.000+01:00","web_url":"https://www.gov.uk/government/organisations/veterinary-medicines-directorate","details":{"slug":"veterinary-medicines-directorate","abbreviation":"VMD","logo_formatted_name":"Veterinary \r\nMedicines \r\nDirectorate","organisation_brand_colour_class_name":"department-for-environment-food-rural-affairs","organisation_logo_type_class_name":"single-identity","closed_at":null,"govuk_status":"live","content_id":"da332ae4-d021-4800-aa53-826058a46923"},"analytics_identifier":"EA60","parent_organisations":[{"id":"https://www.gov.uk/api/organisations/department-for-environment-food-rural-affairs","web_url":"https://www.gov.uk/government/organisations/department-for-environment-food-rural-affairs"}],"child_organisations":[]},{"id":"https://www.gov.uk/api/organisations/fco-services","title":"FCO Services","format":"Executive agency","updated_at":"2015-03-27T14:44:51.000+00:00","web_url":"https://www.gov.uk/government/organisations/fco-services","details":{"slug":"fco-services","abbreviation":"FCOS","logo_formatted_name":"FCO Services","organisation_brand_colour_class_name":"foreign-commonwealth-office","organisation_logo_type_class_name":"single-identity","closed_at":null,"govuk_status":"exempt","content_id":"114b27e6-7305-45f1-b3fa-c546fa169634"},"analytics_identifier":"EA61","parent_organisations":[{"id":"https://www.gov.uk/api/organisations/foreign-commonwealth-office","web_url":"https://www.gov.uk/government/organisations/foreign-commonwealth-office"}],"child_organisations":[]},{"id":"https://www.gov.uk/api/organisations/wilton-park","title":"Wilton Park","format":"Executive agency","updated_at":"2014-10-15T15:35:28.000+01:00","web_url":"https://www.gov.uk/government/organisations/wilton-park","details":{"slug":"wilton-park","abbreviation":"Wilton Park","logo_formatted_name":"Wilton Park","organisation_brand_colour_class_name":"foreign-commonwealth-office","organisation_logo_type_class_name":"no-identity","closed_at":null,"govuk_status":"exempt","content_id":"a787a14d-3bdd-44fc-820a-f821efd74f81"},"analytics_identifier":"EA62","parent_organisations":[{"id":"https://www.gov.uk/api/organisations/foreign-commonwealth-office","web_url":"https://www.gov.uk/government/organisations/foreign-commonwealth-office"}],"child_organisations":[]},{"id":"https://www.gov.uk/api/organisations/medicines-and-healthcare-products-regulatory-agency","title":"Medicines and Healthcare products Regulatory Agency","format":"Executive agency","updated_at":"2015-06-29T15:33:29.000+01:00","web_url":"https://www.gov.uk/government/organisations/medicines-and-healthcare-products-regulatory-agency","details":{"slug":"medicines-and-healthcare-products-regulatory-agency","abbreviation":"MHRA","logo_formatted_name":"Medicines \u0026 Healthcare products\r\nRegulatory Agency","organisation_brand_colour_class_name":"department-of-health","organisation_logo_type_class_name":"single-identity","closed_at":null,"govuk_status":"live","content_id":"240f72bd-9a4d-4f39-94d9-77235cadde8e"},"analytics_identifier":"EA63","parent_organisations":[{"id":"https://www.gov.uk/api/organisations/department-of-health","web_url":"https://www.gov.uk/government/organisations/department-of-health"}],"child_organisations":[]},{"id":"https://www.gov.uk/api/organisations/hm-passport-office","title":"HM Passport Office","format":"Sub-organisation","updated_at":"2014-10-15T15:35:28.000+01:00","web_url":"https://www.gov.uk/government/organisations/hm-passport-office","details":{"slug":"hm-passport-office","abbreviation":"HM Passport Office","logo_formatted_name":"HM Passport\r\nOffice","organisation_brand_colour_class_name":"home-office","organisation_logo_type_class_name":"ho","closed_at":null,"govuk_status":"live","content_id":"3a96a1e0-21e3-4aae-8e84-f90860ed3dbf"},"analytics_identifier":"EA66","parent_organisations":[{"id":"https://www.gov.uk/api/organisations/home-office","web_url":"https://www.gov.uk/government/organisations/home-office"}],"child_organisations":[]},{"id":"https://www.gov.uk/api/organisations/uk-border-agency","title":"UK Border Agency","format":"Executive agency","updated_at":"2014-10-15T15:35:28.000+01:00","web_url":"https://www.gov.uk/government/organisations/uk-border-agency","details":{"slug":"uk-border-agency","abbreviation":"UKBA","logo_formatted_name":"UK Border Agency","organisation_brand_colour_class_name":"home-office","organisation_logo_type_class_name":"ho","closed_at":null,"govuk_status":"closed","content_id":"819510fa-f484-4a44-bb30-430c24797efe"},"analytics_identifier":"EA67","parent_organisations":[{"id":"https://www.gov.uk/api/organisations/home-office","web_url":"https://www.gov.uk/government/organisations/home-office"}],"child_organisations":[]},{"id":"https://www.gov.uk/api/organisations/land-registry","title":"Land Registry","format":"Non-ministerial department","updated_at":"2016-02-01T08:33:09.000+00:00","web_url":"https://www.gov.uk/government/organisations/land-registry","details":{"slug":"land-registry","abbreviation":"Land Registry","logo_formatted_name":"Land Registry","organisation_brand_colour_class_name":"department-for-business-innovation-skills","organisation_logo_type_class_name":"custom","closed_at":null,"govuk_status":"live","content_id":"5c54ae52-341b-499e-a6dd-67f04633b8cf"},"analytics_identifier":"D69","parent_organisations":[{"id":"https://www.gov.uk/api/organisations/department-for-business-energy-and-industrial-strategy","web_url":"https://www.gov.uk/government/organisations/department-for-business-energy-and-industrial-strategy"}],"child_organisations":[]},{"id":"https://www.gov.uk/api/organisations/national-offender-management-service","title":"National Offender Management Service","format":"Executive agency","updated_at":"2014-10-15T15:35:28.000+01:00","web_url":"https://www.gov.uk/government/organisations/national-offender-management-service","details":{"slug":"national-offender-management-service","abbreviation":"NOMS","logo_formatted_name":"National Offender \r\nManagement Service","organisation_brand_colour_class_name":"ministry-of-justice","organisation_logo_type_class_name":"single-identity","closed_at":null,"govuk_status":"live","content_id":"8ece113b-f63c-44e1-8673-768cc78bf919"},"analytics_identifier":"EA70","parent_organisations":[{"id":"https://www.gov.uk/api/organisations/ministry-of-justice","web_url":"https://www.gov.uk/government/organisations/ministry-of-justice"}],"child_organisations":[{"id":"https://www.gov.uk/api/organisations/national-probation-service","web_url":"https://www.gov.uk/government/organisations/national-probation-service"}]},{"id":"https://www.gov.uk/api/organisations/the-national-archives","title":"The National Archives","format":"Non-ministerial department","updated_at":"2016-04-29T15:22:46.000+01:00","web_url":"https://www.gov.uk/government/organisations/the-national-archives","details":{"slug":"the-national-archives","abbreviation":"","logo_formatted_name":"The National Archives","organisation_brand_colour_class_name":"department-for-culture-media-sport","organisation_logo_type_class_name":"no-identity","closed_at":null,"govuk_status":"exempt","content_id":"891aa2d1-7c17-4997-880c-939e0b0d4367"},"analytics_identifier":"EA71","parent_organisations":[{"id":"https://www.gov.uk/api/organisations/department-for-culture-media-sport","web_url":"https://www.gov.uk/government/organisations/department-for-culture-media-sport"}],"child_organisations":[]}],"previous_page_url":"https://www.gov.uk/api/organisations?page=2","next_page_url":"https://www.gov.uk/api/organisations?page=4","current_page":3,"total":1009,"pages":51,"page_size":20,"start_index":41,"_response_info":{"status":"ok","links":[{"href":"https://www.gov.uk/api/organisations?page=2","rel":"previous"},{"href":"https://www.gov.uk/api/organisations?page=4","rel":"next"},{"href":"https://www.gov.uk/api/organisations?page=3","rel":"self"}]}}
