{"results":[{"id":"https://www.gov.uk/api/organisations/department-for-social-development","title":"Department for Social Development","format":"Ministerial department","updated_at":"2014-10-15T15:37:33.000+01:00","web_url":"https://www.gov.uk/government/organisations/department-for-social-development","details":{"slug":"department-for-social-development","abbreviation":"","logo_formatted_name":"Department for Social Development","organisation_brand_colour_class_name":null,"organisation_logo_type_class_name":"single-identity","closed_at":null,"govuk_status":"closed","content_id":"1ac90743-ac7e-4fdf-ba46-8f5871dc487e"},"analytics_identifier":"D748","parent_organisations":[],"child_organisations":[]},{"id":"https://www.gov.uk/api/organisations/office-of-the-first-minister-and-deputy-first-minister","title":"Office of the First Minister and Deputy First Minister","format":"Other","updated_at":"2014-10-15T15:37:33.000+01:00","web_url":"https://www.gov.uk/government/organisations/office-of-the-first-minister-and-deputy-first-minister","details":{"slug":"office-of-the-first-minister-and-deputy-first-minister","abbreviation":"","logo_formatted_name":"Office of the First Minister and Deputy First Minister","organisation_brand_colour_class_name":null,"organisation_logo_type_class_name":"single-identity","closed_at":null,"govuk_status":"closed","content_id":"1ab57373-3fce-4362-a355-38bb656b4c57"},"analytics_identifier":"OT749","parent_organisations":[],"child_organisations":[]},{"id":"https://www.gov.uk/api/organisations/department-of-enterprise-trade-and-investment","title":"Department of Enterprise, Trade and Investment","format":"Ministerial department","updated_at":"2014-10-15T15:37:33.000+01:00","web_url":"https://www.gov.uk/government/organisations/department-of-enterprise-trade-and-investment","details":{"slug":"department-of-enterprise-trade-and-investment","abbreviation":"","logo_formatted_name":"Department of Enterprise, Trade and Investment","organisation_brand_colour_class_name":null,"organisation_logo_type_class_name":"single-identity","closed_at":null,"govuk_status":"closed","content_id":"aae41bb9-9af6-40cc-8cfe-eab6f62ad2c3"},"analytics_identifier":"D750","parent_organisations":[],"child_organisations":[]},{"id":"https://www.gov.uk/api/organisations/staff-commission-for-education-and-library-boards","title":"Staff Commission for Education and Library Boards","format":"Other","updated_at":"2014-10-15T15:37:34.000+01:00","web_url":"https://www.gov.uk/government/organisations/staff-commission-for-education-and-library-boards","details":{"slug":"staff-commission-for-education-and-library-boards","abbreviation":"","logo_formatted_name":"Staff Commission for Education and Library Boards","organisation_brand_colour_class_name":null,"organisation_logo_type_class_name":"single-identity","closed_at":null,"govuk_status":"closed","content_id":"837190b4-3740-47ee-86cf-0d5a4bdd0ad9"},"analytics_identifier":"OT751","parent_organisations":[],"child_organisations":[]},{"id":"https://www.gov.uk/api/organisations/labour-relations-agency","title":"Labour Relations Agency","format":"Executive agency","updated_at":"2014-10-15T15:37:34.000+01:00","web_url":"https://www.gov.uk/government/organisations/labour-relations-agency","details":{"slug":"labour-relations-agency","abbreviation":"","logo_formatted_name":"Labour Relations Agency","organisation_brand_colour_class_name":null,"organisation_logo_type_class_name":"single-identity","closed_at":null,"govuk_status":"closed","content_id":"41684df9-c665-4e39-9818-1aa3a4c1bc74"},"analytics_identifier":"EA752","parent_organisations":[],"child_organisations":[]},{"id":"https://www.gov.uk/api/organisations/department-of-agriculture-and-rural-development","title":"Department of Agriculture and Rural Development","format":"Ministerial department","updated_at":"2014-10-15T15:37:34.000+01:00","web_url":"https://www.gov.uk/government/organisations/department-of-agriculture-and-rural-development","details":{"slug":"department-of-agriculture-and-rural-development","abbreviation":"","logo_formatted_name":"Department of Agriculture and Rural Development","organisation_brand_colour_class_name":null,"organisation_logo_type_class_name":"single-identity","closed_at":null,"govuk_status":"closed","content_id":"11e064e0-5079-4216-b693-c10b8167c620"},"analytics_identifier":"D753","parent_organisations":[],"child_organisations":[]},{"id":"https://www.gov.uk/api/organisations/crown-agents-holding-and-realisation-board","title":"Crown Agents Holding and Realisation Board","format":"Other","updated_at":"2014-10-15T15:37:35.000+01:00","web_url":"https://www.gov.uk/government/organisations/crown-agents-holding-and-realisation-board","details":{"slug":"crown-agents-holding-and-realisation-board","abbreviation":null,"logo_formatted_name":"Crown Agents Holding and Realisation Board","organisation_brand_colour_class_name":null,"organisation_logo_type_class_name":"single-identity","closed_at":null,"govuk_status":"closed","content_id":"d93a1600-83ea-4c2e-9797-2f550562ab76"},"analytics_identifier":"OT754","parent_organisations":[],"child_organisations":[]},{"id":"https://www.gov.uk/api/organisations/social-security-agency","title":"Social Security Agency","format":"Executive agency","updated_at":"2014-10-15T15:37:35.000+01:00","web_url":"https://www.gov.uk/government/organisations/social-security-agency","details":{"slug":"social-security-agency","abbreviation":"","logo_formatted_name":"Social Security Agency","organisation_brand_colour_class_name":null,"organisation_logo_type_class_name":"single-identity","closed_at":null,"govuk_status":"closed","content_id":"eb2ebc56-f79a-4091-920b-79227ad69220"},"analytics_identifier":"EA756","parent_organisations":[{"id":"https://www.gov.uk/api/organisations/northern-ireland-executive","web_url":"https://www.gov.uk/government/organisations/northern-ireland-executive"}],"child_organisations":[]},{"id":"https://www.gov.uk/api/organisations/home-grown-cereals-authority","title":"Home-Grown Cereals Authority","format":"Other","updated_at":"2014-10-15T15:37:35.000+01:00","web_url":"https://www.gov.uk/government/organisations/home-grown-cereals-authority","details":{"slug":"home-grown-cereals-authority","abbreviation":null,"logo_formatted_name":"Home-Grown Cereals Authority","organisation_brand_colour_class_name":null,"organisation_logo_type_class_name":"single-identity","closed_at":null,"govuk_status":"closed","content_id":"cb45c9f9-ec76-4e18-bca2-14bec0652499"},"analytics_identifier":"OT757","parent_organisations":[],"child_organisations":[]},{"id":"https://www.gov.uk/api/organisations/northern-ireland-local-government-officers-superannuation-committee","title":"Northern Ireland Local Government Officers' Superannuation Committee","format":"Other","updated_at":"2014-10-15T15:37:35.000+01:00","web_url":"https://www.gov.uk/government/organisations/northern-ireland-local-government-officers-superannuation-committee","details":{"slug":"northern-ireland-local-government-officers-superannuation-committee","abbreviation":"","logo_formatted_name":"Northern Ireland Local Government Officers' Superannuation Committee","organisation_brand_colour_class_name":null,"organisation_logo_type_class_name":"single-identity","closed_at":null,"govuk_status":"closed","content_id":"e5b2ad1c-84bf-4bd2-a11b-eb91c8b0061e"},"analytics_identifier":"OT758","parent_organisations":[],"child_organisations":[]},{"id":"https://www.gov.uk/api/organisations/fire-authority-for-northern-ireland","title":"Fire Authority for Northern Ireland","format":"Other","updated_at":"2014-10-15T15:37:36.000+01:00","web_url":"https://www.gov.uk/government/organisations/fire-authority-for-northern-ireland","details":{"slug":"fire-authority-for-northern-ireland","abbreviation":"","logo_formatted_name":"Fire Authority for Northern Ireland","organisation_brand_colour_class_name":null,"organisation_logo_type_class_name":"single-identity","closed_at":null,"govuk_status":"closed","content_id":"3954fe6f-a217-4a19-ac99-a1140338ddf4"},"analytics_identifier":"OT759","parent_organisations":[],"child_organisations":[]},{"id":"https://www.gov.uk/api/organisations/community-development-foundation","title":"Community Development Foundation","format":"Other","updated_at":"2014-10-15T15:37:36.000+01:00","web_url":"https://www.gov.uk/government/organisations/community-development-foundation","details":{"slug":"community-development-foundation","abbreviation":null,"logo_formatted_name":"Community Development Foundation","organisation_brand_colour_class_name":null,"organisation_logo_type_class_name":"single-identity","closed_at":null,"govuk_status":"closed","content_id":"90666672-d019-481e-92bb-91ef77550fac"},"analytics_identifier":"OT760","parent_organisations":[],"child_organisations":[]},{"id":"https://www.gov.uk/api/organisations/northern-ireland-authority-for-energy-regulation","title":"Northern Ireland Authority for Energy Regulation","format":"Other","updated_at":"2014-10-15T15:37:36.000+01:00","web_url":"https://www.gov.uk/government/organisations/northern-ireland-authority-for-energy-regulation","details":{"slug":"northern-ireland-authority-for-energy-regulation","abbreviation":"","logo_formatted_name":"Northern Ireland Authority for Energy Regulation","organisation_brand_colour_class_name":null,"organisation_logo_type_class_name":"single-identity","closed_at":null,"govuk_status":"closed","content_id":"3226eb4b-d061-480f-a25c-3c05b3ecd606"},"analytics_identifier":"OT761","parent_organisations":[],"child_organisations":[]},{"id":"https://www.gov.uk/api/organisations/scottish-arts-council","title":"Scottish Arts Council","format":"Other","updated_at":"2014-10-15T15:37:36.000+01:00","web_url":"https://www.gov.uk/government/organisations/scottish-arts-council","details":{"slug":"scottish-arts-council","abbreviation":null,"logo_formatted_name":"Scottish Arts Council","organisation_brand_colour_class_name":null,"organisation_logo_type_class_name":"single-identity","closed_at":null,"govuk_status":"closed","content_id":"4a09cb12-18f8-4059-99a9-761c8abd2740"},"analytics_identifier":"OT762","parent_organisations":[],"child_organisations":[]},{"id":"https://www.gov.uk/api/organisations/scottish-sports-council","title":"Scottish Sports Council","format":"Executive agency","updated_at":"2014-10-15T15:37:37.000+01:00","web_url":"https://www.gov.uk/government/organisations/scottish-sports-council","details":{"slug":"scottish-sports-council","abbreviation":"","logo_formatted_name":"Scottish Sports Council","organisation_brand_colour_class_name":null,"organisation_logo_type_class_name":"single-identity","closed_at":null,"govuk_status":"closed","content_id":"4610eb31-1c47-472f-a007-d6ade4d29917"},"analytics_identifier":"EA764","parent_organisations":[],"child_organisations":[]},{"id":"https://www.gov.uk/api/organisations/learning-and-skills-council","title":"Learning and Skills Council","format":"Executive agency","updated_at":"2014-10-15T15:37:37.000+01:00","web_url":"https://www.gov.uk/government/organisations/learning-and-skills-council","details":{"slug":"learning-and-skills-council","abbreviation":null,"logo_formatted_name":"Learning and Skills Council","organisation_brand_colour_class_name":null,"organisation_logo_type_class_name":"single-identity","closed_at":null,"govuk_status":"closed","content_id":"a8ee6f64-6439-4143-a7b8-63572ae5efcd"},"analytics_identifier":"EA765","parent_organisations":[],"child_organisations":[]},{"id":"https://www.gov.uk/api/organisations/barrow-education-action-zone","title":"Barrow Education Action Zone","format":"Other","updated_at":"2014-10-15T15:37:37.000+01:00","web_url":"https://www.gov.uk/government/organisations/barrow-education-action-zone","details":{"slug":"barrow-education-action-zone","abbreviation":null,"logo_formatted_name":"Barrow Education Action Zone","organisation_brand_colour_class_name":null,"organisation_logo_type_class_name":"single-identity","closed_at":null,"govuk_status":"closed","content_id":"eae2b59a-8d99-4650-b24e-8d74d1f4ced5"},"analytics_identifier":"OT766","parent_organisations":[],"child_organisations":[]},{"id":"https://www.gov.uk/api/organisations/speke-garston-education-action-zone","title":"Speke Garston Education Action Zone","format":"Other","updated_at":"2014-10-15T15:37:37.000+01:00","web_url":"https://www.gov.uk/government/organisations/speke-garston-education-action-zone","details":{"slug":"speke-garston-education-action-zone","abbreviation":null,"logo_formatted_name":"Speke Garston Education Action Zone","organisation_brand_colour_class_name":null,"organisation_logo_type_class_name":"single-identity","closed_at":null,"govuk_status":"closed","content_id":"fa8e45e6-6409-49c7-b453-6dc724246b79"},"analytics_identifier":"OT767","parent_organisations":[],"child_organisations":[]},{"id":"https://www.gov.uk/api/organisations/east-cleveland-education-action-zone","title":"East Cleveland Education Action Zone","format":"Other","updated_at":"2014-10-15T15:37:38.000+01:00","web_url":"https://www.gov.uk/government/organisations/east-cleveland-education-action-zone","details":{"slug":"east-cleveland-education-action-zone","abbreviation":null,"logo_formatted_name":"East Cleveland Education Action Zone","organisation_brand_colour_class_name":null,"organisation_logo_type_class_name":"single-identity","closed_at":null,"govuk_status":"closed","content_id":"2be6656a-dee6-45c0-9ab5-a7de279ab6bb"},"analytics_identifier":"OT768","parent_organisations":[],"child_organisations":[]},{"id":"https://www.gov.uk/api/organisations/armagh-observatory-and-planetarium","title":"Armagh Observatory and Planetarium","format":"Other","updated_at":"2014-10-15T15:37:38.000+01:00","web_url":"https://www.gov.uk/government/organisations/armagh-observatory-and-planetarium","details":{"slug":"armagh-observatory-and-planetarium","abbreviation":"","logo_formatted_name":"Armagh Observatory and Planetarium","organisation_brand_colour_class_name":null,"organisation_logo_type_class_name":"single-identity","closed_at":null,"govuk_status":"closed","content_id":"6522b540-b409-440a-b223-605770721e4f"},"analytics_identifier":"OT769","parent_organisations":[],"child_organisations":[]}],"previous_page_url":"https://www.gov.uk/api/organisations?page=29","next_page_url":"https://www.gov.uk/api/organisations?page=31","current_page":30,"total":1009,"pages":51,"page_size":20,"start_index":581,"_response_info":{"status":"ok","links":[{"href":"https://www.gov.uk/api/organisations?page=29","rel":"previous"},{"href":"https://www.gov.uk/api/organisations?page=31","rel":"next"},{"href":"https://www.gov.uk/api/organisations?page=30","rel":"self"}]}}
