{"results":[{"id":"https://www.gov.uk/api/organisations/northern-ireland-social-care-council","title":"Northern Ireland Social Care Council","format":"Other","updated_at":"2014-10-15T15:37:38.000+01:00","web_url":"https://www.gov.uk/government/organisations/northern-ireland-social-care-council","details":{"slug":"northern-ireland-social-care-council","abbreviation":"","logo_formatted_name":"Northern Ireland Social Care Council","organisation_brand_colour_class_name":null,"organisation_logo_type_class_name":"single-identity","closed_at":null,"govuk_status":"closed","content_id":"70d514e3-b663-4990-a33d-84e4bc4b5f0d"},"analytics_identifier":"OT770","parent_organisations":[],"child_organisations":[]},{"id":"https://www.gov.uk/api/organisations/building-research-establishment","title":"Building Research Establishment","format":"Executive agency","updated_at":"2014-10-15T15:37:38.000+01:00","web_url":"https://www.gov.uk/government/organisations/building-research-establishment","details":{"slug":"building-research-establishment","abbreviation":null,"logo_formatted_name":"Building Research Establishment","organisation_brand_colour_class_name":null,"organisation_logo_type_class_name":"single-identity","closed_at":null,"govuk_status":"closed","content_id":"84f91d00-164b-4701-a583-3dd5cb5b020d"},"analytics_identifier":"EA771","parent_organisations":[],"child_organisations":[]},{"id":"https://www.gov.uk/api/organisations/criminal-justice-inspection-northern-ireland","title":"Criminal Justice Inspection Northern Ireland","format":"Other","updated_at":"2014-10-15T15:37:39.000+01:00","web_url":"https://www.gov.uk/government/organisations/criminal-justice-inspection-northern-ireland","details":{"slug":"criminal-justice-inspection-northern-ireland","abbreviation":null,"logo_formatted_name":"Criminal Justice Inspection Northern Ireland","organisation_brand_colour_class_name":null,"organisation_logo_type_class_name":"single-identity","closed_at":null,"govuk_status":"closed","content_id":"95e27489-49a5-4fe2-ac10-ad0d1a59ea84"},"analytics_identifier":"OT772","parent_organisations":[],"child_organisations":[]},{"id":"https://www.gov.uk/api/organisations/deepcut-review","title":"Deepcut Review","format":"Other","updated_at":"2014-10-15T15:37:39.000+01:00","web_url":"https://www.gov.uk/government/organisations/deepcut-review","details":{"slug":"deepcut-review","abbreviation":null,"logo_formatted_name":"Deepcut Review","organisation_brand_colour_class_name":null,"organisation_logo_type_class_name":"single-identity","closed_at":null,"govuk_status":"closed","content_id":"7b843c46-78a1-4b14-a45b-be59957ca5f5"},"analytics_identifier":"OT773","parent_organisations":[],"child_organisations":[]},{"id":"https://www.gov.uk/api/organisations/national-blood-authority","title":"National Blood Authority","format":"Other","updated_at":"2014-10-15T15:37:39.000+01:00","web_url":"https://www.gov.uk/government/organisations/national-blood-authority","details":{"slug":"national-blood-authority","abbreviation":null,"logo_formatted_name":"National Blood Authority","organisation_brand_colour_class_name":null,"organisation_logo_type_class_name":"single-identity","closed_at":null,"govuk_status":"closed","content_id":"9b81880a-bffa-4e87-928a-c8efefd67f85"},"analytics_identifier":"OT774","parent_organisations":[],"child_organisations":[]},{"id":"https://www.gov.uk/api/organisations/uk-transplant","title":"UK Transplant","format":"Other","updated_at":"2014-10-15T15:37:39.000+01:00","web_url":"https://www.gov.uk/government/organisations/uk-transplant","details":{"slug":"uk-transplant","abbreviation":null,"logo_formatted_name":"UK Transplant","organisation_brand_colour_class_name":null,"organisation_logo_type_class_name":"single-identity","closed_at":null,"govuk_status":"closed","content_id":"fe84149d-7ab5-4755-9833-713b6cfb6534"},"analytics_identifier":"OT775","parent_organisations":[],"child_organisations":[]},{"id":"https://www.gov.uk/api/organisations/south-bradford-education-action-zone","title":"South Bradford Education Action Zone","format":"Other","updated_at":"2014-10-15T15:37:39.000+01:00","web_url":"https://www.gov.uk/government/organisations/south-bradford-education-action-zone","details":{"slug":"south-bradford-education-action-zone","abbreviation":null,"logo_formatted_name":"South Bradford Education Action Zone","organisation_brand_colour_class_name":null,"organisation_logo_type_class_name":"single-identity","closed_at":null,"govuk_status":"closed","content_id":"e83a4924-721f-491a-b166-6c57e435ed5a"},"analytics_identifier":"OT776","parent_organisations":[],"child_organisations":[]},{"id":"https://www.gov.uk/api/organisations/north-stockton-education-action-zone","title":"North Stockton Education Action Zone","format":"Other","updated_at":"2014-10-15T15:37:40.000+01:00","web_url":"https://www.gov.uk/government/organisations/north-stockton-education-action-zone","details":{"slug":"north-stockton-education-action-zone","abbreviation":null,"logo_formatted_name":"North Stockton Education Action Zone","organisation_brand_colour_class_name":null,"organisation_logo_type_class_name":"single-identity","closed_at":null,"govuk_status":"closed","content_id":"4efb5379-6d41-4ebc-8480-810f790a19db"},"analytics_identifier":"OT777","parent_organisations":[],"child_organisations":[]},{"id":"https://www.gov.uk/api/organisations/council-for-catholic-maintained-schools","title":"Council for Catholic Maintained Schools","format":"Other","updated_at":"2014-10-15T15:37:40.000+01:00","web_url":"https://www.gov.uk/government/organisations/council-for-catholic-maintained-schools","details":{"slug":"council-for-catholic-maintained-schools","abbreviation":"","logo_formatted_name":"Council for Catholic Maintained Schools","organisation_brand_colour_class_name":null,"organisation_logo_type_class_name":"single-identity","closed_at":null,"govuk_status":"closed","content_id":"0f09fd10-efce-4e3f-acc8-ed271c5e7234"},"analytics_identifier":"OT778","parent_organisations":[],"child_organisations":[]},{"id":"https://www.gov.uk/api/organisations/equality-commission-for-northern-ireland","title":"Equality Commission for Northern Ireland","format":"Other","updated_at":"2014-10-15T15:37:40.000+01:00","web_url":"https://www.gov.uk/government/organisations/equality-commission-for-northern-ireland","details":{"slug":"equality-commission-for-northern-ireland","abbreviation":"","logo_formatted_name":"Equality Commission for Northern Ireland","organisation_brand_colour_class_name":null,"organisation_logo_type_class_name":"single-identity","closed_at":null,"govuk_status":"closed","content_id":"74c14487-ef9f-449f-ba8d-a3aad4f1f0b1"},"analytics_identifier":"OT779","parent_organisations":[],"child_organisations":[]},{"id":"https://www.gov.uk/api/organisations/court-of-judicature-of-northern-ireland","title":"Court of Judicature of Northern Ireland","format":"Other","updated_at":"2014-10-15T15:37:40.000+01:00","web_url":"https://www.gov.uk/government/organisations/court-of-judicature-of-northern-ireland","details":{"slug":"court-of-judicature-of-northern-ireland","abbreviation":"","logo_formatted_name":"Court of Judicature of Northern Ireland","organisation_brand_colour_class_name":null,"organisation_logo_type_class_name":"single-identity","closed_at":null,"govuk_status":"closed","content_id":"6612c691-27b5-433f-a866-c1d38d27b238"},"analytics_identifier":"OT780","parent_organisations":[],"child_organisations":[]},{"id":"https://www.gov.uk/api/organisations/north-east-education-and-library-board","title":"North East Education and Library Board","format":"Other","updated_at":"2014-10-15T15:37:41.000+01:00","web_url":"https://www.gov.uk/government/organisations/north-east-education-and-library-board","details":{"slug":"north-east-education-and-library-board","abbreviation":"","logo_formatted_name":"North East Education and Library Board","organisation_brand_colour_class_name":null,"organisation_logo_type_class_name":"single-identity","closed_at":null,"govuk_status":"closed","content_id":"8ed0e3f8-1be4-4d78-9fb6-5a3fb945b8c1"},"analytics_identifier":"OT781","parent_organisations":[],"child_organisations":[]},{"id":"https://www.gov.uk/api/organisations/zahid-mubarek-inquiry","title":"Zahid Mubarek Inquiry","format":"Other","updated_at":"2014-10-15T15:37:41.000+01:00","web_url":"https://www.gov.uk/government/organisations/zahid-mubarek-inquiry","details":{"slug":"zahid-mubarek-inquiry","abbreviation":null,"logo_formatted_name":"Zahid Mubarek Inquiry","organisation_brand_colour_class_name":null,"organisation_logo_type_class_name":"single-identity","closed_at":null,"govuk_status":"closed","content_id":"ac6b48dd-e681-4d86-9af6-1aebdc1e6b1c"},"analytics_identifier":"OT782","parent_organisations":[],"child_organisations":[]},{"id":"https://www.gov.uk/api/organisations/northern-ireland-legal-services-commission","title":"Northern Ireland Legal Services Commission","format":"Other","updated_at":"2014-10-15T15:37:41.000+01:00","web_url":"https://www.gov.uk/government/organisations/northern-ireland-legal-services-commission","details":{"slug":"northern-ireland-legal-services-commission","abbreviation":"","logo_formatted_name":"Northern Ireland Legal Services Commission","organisation_brand_colour_class_name":null,"organisation_logo_type_class_name":"single-identity","closed_at":null,"govuk_status":"closed","content_id":"f4a33b79-6f19-495a-8db9-f7e25f3ae788"},"analytics_identifier":"OT783","parent_organisations":[],"child_organisations":[]},{"id":"https://www.gov.uk/api/organisations/veterinary-laboratories-agency","title":"Veterinary Laboratories Agency","format":"Executive agency","updated_at":"2014-11-13T10:57:04.000+00:00","web_url":"https://www.gov.uk/government/organisations/veterinary-laboratories-agency","details":{"slug":"veterinary-laboratories-agency","abbreviation":"","logo_formatted_name":"Veterinary Laboratories Agency","organisation_brand_colour_class_name":null,"organisation_logo_type_class_name":"single-identity","closed_at":null,"govuk_status":"closed","content_id":"17820e1b-372f-4c66-acde-c867a74041cf"},"analytics_identifier":"EA784","parent_organisations":[],"child_organisations":[]},{"id":"https://www.gov.uk/api/organisations/defence-procurement-agency","title":"Defence Procurement Agency","format":"Executive agency","updated_at":"2014-10-15T15:37:42.000+01:00","web_url":"https://www.gov.uk/government/organisations/defence-procurement-agency","details":{"slug":"defence-procurement-agency","abbreviation":null,"logo_formatted_name":"Defence Procurement Agency","organisation_brand_colour_class_name":null,"organisation_logo_type_class_name":"single-identity","closed_at":null,"govuk_status":"closed","content_id":"39fc26ad-1ad6-48b8-86a2-bcb28607ee52"},"analytics_identifier":"EA785","parent_organisations":[],"child_organisations":[]},{"id":"https://www.gov.uk/api/organisations/adult-learning-inspectorate","title":"Adult Learning Inspectorate","format":"Other","updated_at":"2014-10-15T15:37:42.000+01:00","web_url":"https://www.gov.uk/government/organisations/adult-learning-inspectorate","details":{"slug":"adult-learning-inspectorate","abbreviation":null,"logo_formatted_name":"Adult Learning Inspectorate","organisation_brand_colour_class_name":null,"organisation_logo_type_class_name":"single-identity","closed_at":null,"govuk_status":"closed","content_id":"801c815e-bb05-4f49-88e8-2d3fa0c3a250"},"analytics_identifier":"OT786","parent_organisations":[],"child_organisations":[]},{"id":"https://www.gov.uk/api/organisations/football-licensing-authority","title":"Football Licensing Authority","format":"Other","updated_at":"2014-10-15T15:37:42.000+01:00","web_url":"https://www.gov.uk/government/organisations/football-licensing-authority","details":{"slug":"football-licensing-authority","abbreviation":null,"logo_formatted_name":"Football Licensing Authority","organisation_brand_colour_class_name":null,"organisation_logo_type_class_name":"single-identity","closed_at":null,"govuk_status":"closed","content_id":"e876e932-987b-43cf-8374-811c8b1cd93c"},"analytics_identifier":"OT787","parent_organisations":[],"child_organisations":[]},{"id":"https://www.gov.uk/api/organisations/environment-and-heritage-service","title":"Environment and Heritage Service","format":"Executive agency","updated_at":"2014-10-15T15:37:42.000+01:00","web_url":"https://www.gov.uk/government/organisations/environment-and-heritage-service","details":{"slug":"environment-and-heritage-service","abbreviation":"","logo_formatted_name":"Environment and Heritage Service","organisation_brand_colour_class_name":null,"organisation_logo_type_class_name":"single-identity","closed_at":null,"govuk_status":"closed","content_id":"7c58aa87-45fb-4e29-9639-3a203f20bc0c"},"analytics_identifier":"EA788","parent_organisations":[],"child_organisations":[]},{"id":"https://www.gov.uk/api/organisations/defence-storage-and-distribution-agency","title":"Defence Storage and Distribution Agency","format":"Executive agency","updated_at":"2014-10-15T15:37:43.000+01:00","web_url":"https://www.gov.uk/government/organisations/defence-storage-and-distribution-agency","details":{"slug":"defence-storage-and-distribution-agency","abbreviation":null,"logo_formatted_name":"Defence Storage and Distribution Agency","organisation_brand_colour_class_name":null,"organisation_logo_type_class_name":"single-identity","closed_at":null,"govuk_status":"closed","content_id":"e754ea27-78b5-41c0-bcc3-fb58e4d4c95a"},"analytics_identifier":"EA789","parent_organisations":[],"child_organisations":[]}],"previous_page_url":"https://www.gov.uk/api/organisations?page=30","next_page_url":"https://www.gov.uk/api/organisations?page=32","current_page":31,"total":1009,"pages":51,"page_size":20,"start_index":601,"_response_info":{"status":"ok","links":[{"href":"https://www.gov.uk/api/organisations?page=30","rel":"previous"},{"href":"https://www.gov.uk/api/organisations?page=32","rel":"next"},{"href":"https://www.gov.uk/api/organisations?page=31","rel":"self"}]}}
