{"results":[{"id":"https://www.gov.uk/api/organisations/training-and-development-agency-for-schools","title":"Training and Development Agency for Schools","format":"Executive agency","updated_at":"2014-10-15T15:37:43.000+01:00","web_url":"https://www.gov.uk/government/organisations/training-and-development-agency-for-schools","details":{"slug":"training-and-development-agency-for-schools","abbreviation":"TDA","logo_formatted_name":"Training and Development Agency for Schools","organisation_brand_colour_class_name":null,"organisation_logo_type_class_name":"single-identity","closed_at":"2012-04-01T00:00:00.000+01:00","govuk_status":"closed","content_id":"25a6f77f-cb29-4cb9-8623-69ee220b50a1"},"analytics_identifier":"EA790","parent_organisations":[],"child_organisations":[]},{"id":"https://www.gov.uk/api/organisations/northern-ireland-health-and-social-services-estates-agency","title":"Northern Ireland Health and Social Services Estates Agency","format":"Other","updated_at":"2014-10-15T15:37:43.000+01:00","web_url":"https://www.gov.uk/government/organisations/northern-ireland-health-and-social-services-estates-agency","details":{"slug":"northern-ireland-health-and-social-services-estates-agency","abbreviation":"","logo_formatted_name":"Northern Ireland Health and Social Services Estates Agency","organisation_brand_colour_class_name":null,"organisation_logo_type_class_name":"single-identity","closed_at":null,"govuk_status":"closed","content_id":"20eaee92-9c57-44dd-8c7c-8f19dd829e82"},"analytics_identifier":"EA791","parent_organisations":[],"child_organisations":[]},{"id":"https://www.gov.uk/api/organisations/health-protection-agency","title":"Health Protection Agency","format":"Executive agency","updated_at":"2014-10-15T15:37:43.000+01:00","web_url":"https://www.gov.uk/government/organisations/health-protection-agency","details":{"slug":"health-protection-agency","abbreviation":"","logo_formatted_name":"Health Protection Agency","organisation_brand_colour_class_name":null,"organisation_logo_type_class_name":"single-identity","closed_at":null,"govuk_status":"closed","content_id":"ec076665-ef99-4843-8ca0-bf7043fcb668"},"analytics_identifier":"EA792","parent_organisations":[],"child_organisations":[]},{"id":"https://www.gov.uk/api/organisations/food-from-britain","title":"Food from Britain","format":"Other","updated_at":"2014-10-15T15:37:44.000+01:00","web_url":"https://www.gov.uk/government/organisations/food-from-britain","details":{"slug":"food-from-britain","abbreviation":null,"logo_formatted_name":"Food from Britain","organisation_brand_colour_class_name":null,"organisation_logo_type_class_name":"single-identity","closed_at":null,"govuk_status":"closed","content_id":"5f4b60b7-7bec-4243-aa70-e2118366c819"},"analytics_identifier":"OT793","parent_organisations":[],"child_organisations":[]},{"id":"https://www.gov.uk/api/organisations/strategic-rail-authority","title":"Strategic Rail Authority","format":"Other","updated_at":"2014-10-15T15:37:44.000+01:00","web_url":"https://www.gov.uk/government/organisations/strategic-rail-authority","details":{"slug":"strategic-rail-authority","abbreviation":null,"logo_formatted_name":"Strategic Rail Authority","organisation_brand_colour_class_name":null,"organisation_logo_type_class_name":"single-identity","closed_at":null,"govuk_status":"closed","content_id":"807e455b-0ae4-421a-8f38-8393f6fec5e9"},"analytics_identifier":"OT794","parent_organisations":[],"child_organisations":[]},{"id":"https://www.gov.uk/api/organisations/special-eu-programmes-body","title":"Special EU Programmes Body","format":"Other","updated_at":"2014-10-15T15:37:44.000+01:00","web_url":"https://www.gov.uk/government/organisations/special-eu-programmes-body","details":{"slug":"special-eu-programmes-body","abbreviation":"","logo_formatted_name":"Special EU Programmes Body","organisation_brand_colour_class_name":null,"organisation_logo_type_class_name":"no-identity","closed_at":null,"govuk_status":"closed","content_id":"3e94999c-9099-4d53-b76a-ab5b6c7c9fba"},"analytics_identifier":"OT795","parent_organisations":[],"child_organisations":[]},{"id":"https://www.gov.uk/api/organisations/business-development-service","title":"Business Development Service","format":"Other","updated_at":"2014-10-15T15:37:44.000+01:00","web_url":"https://www.gov.uk/government/organisations/business-development-service","details":{"slug":"business-development-service","abbreviation":null,"logo_formatted_name":"Business Development Service","organisation_brand_colour_class_name":null,"organisation_logo_type_class_name":"single-identity","closed_at":null,"govuk_status":"closed","content_id":"c4bfb706-5d5a-40f7-ac16-7643159f4fd9"},"analytics_identifier":"OT796","parent_organisations":[],"child_organisations":[]},{"id":"https://www.gov.uk/api/organisations/northern-ireland-prison-service","title":"Northern Ireland Prison Service","format":"Executive agency","updated_at":"2014-10-15T15:37:45.000+01:00","web_url":"https://www.gov.uk/government/organisations/northern-ireland-prison-service","details":{"slug":"northern-ireland-prison-service","abbreviation":"","logo_formatted_name":"Northern Ireland Prison Service","organisation_brand_colour_class_name":null,"organisation_logo_type_class_name":"single-identity","closed_at":null,"govuk_status":"closed","content_id":"676ba870-134a-48a3-80fd-150fc824398e"},"analytics_identifier":"EA797","parent_organisations":[],"child_organisations":[]},{"id":"https://www.gov.uk/api/organisations/dental-practice-board","title":"Dental Practice Board","format":"Other","updated_at":"2014-10-15T15:37:45.000+01:00","web_url":"https://www.gov.uk/government/organisations/dental-practice-board","details":{"slug":"dental-practice-board","abbreviation":null,"logo_formatted_name":"Dental Practice Board","organisation_brand_colour_class_name":null,"organisation_logo_type_class_name":"single-identity","closed_at":null,"govuk_status":"closed","content_id":"e3b07496-d133-4a87-abcc-9e2f45d570e4"},"analytics_identifier":"OT798","parent_organisations":[],"child_organisations":[]},{"id":"https://www.gov.uk/api/organisations/dental-vocational-training-authority","title":"Dental Vocational Training Authority","format":"Other","updated_at":"2014-10-15T15:37:45.000+01:00","web_url":"https://www.gov.uk/government/organisations/dental-vocational-training-authority","details":{"slug":"dental-vocational-training-authority","abbreviation":null,"logo_formatted_name":"Dental Vocational Training Authority","organisation_brand_colour_class_name":null,"organisation_logo_type_class_name":"single-identity","closed_at":null,"govuk_status":"closed","content_id":"ccf63549-6a6c-4b2c-96c7-2be1ef3e2933"},"analytics_identifier":"OT799","parent_organisations":[],"child_organisations":[]},{"id":"https://www.gov.uk/api/organisations/mental-health-act-commission","title":"Mental Health Act Commission","format":"Other","updated_at":"2014-10-15T15:37:45.000+01:00","web_url":"https://www.gov.uk/government/organisations/mental-health-act-commission","details":{"slug":"mental-health-act-commission","abbreviation":null,"logo_formatted_name":"Mental Health Act Commission","organisation_brand_colour_class_name":null,"organisation_logo_type_class_name":"single-identity","closed_at":null,"govuk_status":"closed","content_id":"c4cb3de2-9a8b-48e3-96aa-02d5ab1ddfd5"},"analytics_identifier":"OT800","parent_organisations":[],"child_organisations":[]},{"id":"https://www.gov.uk/api/organisations/nhs-appointments-commission","title":"NHS Appointments Commission","format":"Other","updated_at":"2014-10-15T15:37:45.000+01:00","web_url":"https://www.gov.uk/government/organisations/nhs-appointments-commission","details":{"slug":"nhs-appointments-commission","abbreviation":null,"logo_formatted_name":"NHS Appointments Commission","organisation_brand_colour_class_name":null,"organisation_logo_type_class_name":"single-identity","closed_at":null,"govuk_status":"closed","content_id":"8c018708-5e4f-46b8-a3c4-46432690a081"},"analytics_identifier":"OT801","parent_organisations":[],"child_organisations":[]},{"id":"https://www.gov.uk/api/organisations/nhs-direct-national-health-service-trust","title":"NHS Direct National Health Service Trust","format":"Other","updated_at":"2014-10-15T15:37:46.000+01:00","web_url":"https://www.gov.uk/government/organisations/nhs-direct-national-health-service-trust","details":{"slug":"nhs-direct-national-health-service-trust","abbreviation":null,"logo_formatted_name":"NHS Direct National Health Service Trust","organisation_brand_colour_class_name":null,"organisation_logo_type_class_name":"single-identity","closed_at":null,"govuk_status":"closed","content_id":"a876dbc5-bb55-4ede-8992-4531b34e3f21"},"analytics_identifier":"OT802","parent_organisations":[],"child_organisations":[]},{"id":"https://www.gov.uk/api/organisations/nhs-institute-for-innovation-and-improvement","title":"NHS Institute for Innovation and Improvement","format":"Other","updated_at":"2014-10-15T15:37:46.000+01:00","web_url":"https://www.gov.uk/government/organisations/nhs-institute-for-innovation-and-improvement","details":{"slug":"nhs-institute-for-innovation-and-improvement","abbreviation":null,"logo_formatted_name":"NHS Institute for Innovation and Improvement","organisation_brand_colour_class_name":null,"organisation_logo_type_class_name":"single-identity","closed_at":null,"govuk_status":"closed","content_id":"ee36adac-5b8d-405d-b100-60140f8e5da3"},"analytics_identifier":"OT803","parent_organisations":[],"child_organisations":[]},{"id":"https://www.gov.uk/api/organisations/nhs-logistics-authority","title":"NHS Logistics Authority","format":"Other","updated_at":"2014-10-15T15:37:46.000+01:00","web_url":"https://www.gov.uk/government/organisations/nhs-logistics-authority","details":{"slug":"nhs-logistics-authority","abbreviation":null,"logo_formatted_name":"NHS Logistics Authority","organisation_brand_colour_class_name":null,"organisation_logo_type_class_name":"single-identity","closed_at":null,"govuk_status":"closed","content_id":"c676608c-6bdb-473d-ad6e-d5ae7d43317e"},"analytics_identifier":"OT804","parent_organisations":[],"child_organisations":[]},{"id":"https://www.gov.uk/api/organisations/nhs-professionals","title":"NHS Professionals","format":"Other","updated_at":"2014-10-15T15:37:46.000+01:00","web_url":"https://www.gov.uk/government/organisations/nhs-professionals","details":{"slug":"nhs-professionals","abbreviation":null,"logo_formatted_name":"NHS Professionals","organisation_brand_colour_class_name":null,"organisation_logo_type_class_name":"single-identity","closed_at":null,"govuk_status":"closed","content_id":"1457d850-d8b5-42ec-bad9-8f3df224e96a"},"analytics_identifier":"OT805","parent_organisations":[],"child_organisations":[]},{"id":"https://www.gov.uk/api/organisations/prescription-pricing-authority","title":"Prescription Pricing Authority","format":"Other","updated_at":"2014-10-15T15:37:47.000+01:00","web_url":"https://www.gov.uk/government/organisations/prescription-pricing-authority","details":{"slug":"prescription-pricing-authority","abbreviation":null,"logo_formatted_name":"Prescription Pricing Authority","organisation_brand_colour_class_name":null,"organisation_logo_type_class_name":"single-identity","closed_at":null,"govuk_status":"closed","content_id":"a6ebf3dc-743a-4194-8a6b-1df2a5c9c793"},"analytics_identifier":"OT806","parent_organisations":[],"child_organisations":[]},{"id":"https://www.gov.uk/api/organisations/fisheries-conservancy-board-for-northern-ireland","title":"Fisheries Conservancy Board for Northern Ireland","format":"Other","updated_at":"2014-10-15T15:37:47.000+01:00","web_url":"https://www.gov.uk/government/organisations/fisheries-conservancy-board-for-northern-ireland","details":{"slug":"fisheries-conservancy-board-for-northern-ireland","abbreviation":"","logo_formatted_name":"Fisheries Conservancy Board for Northern Ireland","organisation_brand_colour_class_name":null,"organisation_logo_type_class_name":"single-identity","closed_at":null,"govuk_status":"closed","content_id":"2ba2430a-ca4d-4064-b35c-d78cb02041dc"},"analytics_identifier":"OT807","parent_organisations":[],"child_organisations":[]},{"id":"https://www.gov.uk/api/organisations/driver-and-vehicle-testing-agency","title":"Driver and Vehicle Testing Agency","format":"Executive agency","updated_at":"2014-10-15T15:37:47.000+01:00","web_url":"https://www.gov.uk/government/organisations/driver-and-vehicle-testing-agency","details":{"slug":"driver-and-vehicle-testing-agency","abbreviation":null,"logo_formatted_name":"Driver and Vehicle Testing Agency","organisation_brand_colour_class_name":null,"organisation_logo_type_class_name":"single-identity","closed_at":null,"govuk_status":"closed","content_id":"e1248bcb-ed91-4672-a50b-b001c62027fc"},"analytics_identifier":"EA808","parent_organisations":[],"child_organisations":[]},{"id":"https://www.gov.uk/api/organisations/general-consumer-council-for-northern-ireland","title":"General Consumer Council for Northern Ireland","format":"Other","updated_at":"2014-10-15T15:37:47.000+01:00","web_url":"https://www.gov.uk/government/organisations/general-consumer-council-for-northern-ireland","details":{"slug":"general-consumer-council-for-northern-ireland","abbreviation":"","logo_formatted_name":"General Consumer Council for Northern Ireland","organisation_brand_colour_class_name":null,"organisation_logo_type_class_name":"single-identity","closed_at":null,"govuk_status":"closed","content_id":"a3ec3eba-80a8-4eda-89fa-9be41b50eca7"},"analytics_identifier":"OT809","parent_organisations":[],"child_organisations":[]}],"previous_page_url":"https://www.gov.uk/api/organisations?page=31","next_page_url":"https://www.gov.uk/api/organisations?page=33","current_page":32,"total":1009,"pages":51,"page_size":20,"start_index":621,"_response_info":{"status":"ok","links":[{"href":"https://www.gov.uk/api/organisations?page=31","rel":"previous"},{"href":"https://www.gov.uk/api/organisations?page=33","rel":"next"},{"href":"https://www.gov.uk/api/organisations?page=32","rel":"self"}]}}
