{"results":[{"id":"https://www.gov.uk/api/organisations/northern-ireland-child-support-agency","title":"Northern Ireland Child Support Agency","format":"Executive agency","updated_at":"2014-10-15T15:37:48.000+01:00","web_url":"https://www.gov.uk/government/organisations/northern-ireland-child-support-agency","details":{"slug":"northern-ireland-child-support-agency","abbreviation":"","logo_formatted_name":"Northern Ireland Child Support Agency","organisation_brand_colour_class_name":null,"organisation_logo_type_class_name":"single-identity","closed_at":null,"govuk_status":"closed","content_id":"83238085-05c4-456c-829e-d491b6a402ae"},"analytics_identifier":"EA810","parent_organisations":[],"child_organisations":[]},{"id":"https://www.gov.uk/api/organisations/hm-inspectorate-of-court-administration","title":"H.M. Inspectorate of Court Administration","format":"Other","updated_at":"2014-10-15T15:37:48.000+01:00","web_url":"https://www.gov.uk/government/organisations/hm-inspectorate-of-court-administration","details":{"slug":"hm-inspectorate-of-court-administration","abbreviation":null,"logo_formatted_name":"H.M. Inspectorate of Court Administration","organisation_brand_colour_class_name":null,"organisation_logo_type_class_name":"single-identity","closed_at":null,"govuk_status":"closed","content_id":"bc99b38b-fc87-4c9a-8b58-7344d95cb20e"},"analytics_identifier":"OT811","parent_organisations":[],"child_organisations":[]},{"id":"https://www.gov.uk/api/organisations/forensic-science-service","title":"Forensic Science Service","format":"Other","updated_at":"2014-10-15T15:37:48.000+01:00","web_url":"https://www.gov.uk/government/organisations/forensic-science-service","details":{"slug":"forensic-science-service","abbreviation":null,"logo_formatted_name":"Forensic Science Service","organisation_brand_colour_class_name":null,"organisation_logo_type_class_name":"single-identity","closed_at":null,"govuk_status":"closed","content_id":"4562eced-3c84-4798-a732-cf9acea6c6ad"},"analytics_identifier":"OT812","parent_organisations":[],"child_organisations":[]},{"id":"https://www.gov.uk/api/organisations/defence-communication-services-agency","title":"Defence Communication Services Agency","format":"Executive agency","updated_at":"2014-10-15T15:37:48.000+01:00","web_url":"https://www.gov.uk/government/organisations/defence-communication-services-agency","details":{"slug":"defence-communication-services-agency","abbreviation":null,"logo_formatted_name":"Defence Communication Services Agency","organisation_brand_colour_class_name":null,"organisation_logo_type_class_name":"single-identity","closed_at":null,"govuk_status":"closed","content_id":"a586cca4-1ece-4c06-9d57-9280143ae8d9"},"analytics_identifier":"EA813","parent_organisations":[],"child_organisations":[]},{"id":"https://www.gov.uk/api/organisations/council-for-healthcare-regulatory-excellence","title":"Council for Healthcare Regulatory Excellence","format":"Other","updated_at":"2014-10-15T15:37:49.000+01:00","web_url":"https://www.gov.uk/government/organisations/council-for-healthcare-regulatory-excellence","details":{"slug":"council-for-healthcare-regulatory-excellence","abbreviation":null,"logo_formatted_name":"Council for Healthcare Regulatory Excellence","organisation_brand_colour_class_name":null,"organisation_logo_type_class_name":"single-identity","closed_at":null,"govuk_status":"closed","content_id":"541bcf23-24c3-4474-9f45-6053867c798a"},"analytics_identifier":"OT814","parent_organisations":[],"child_organisations":[]},{"id":"https://www.gov.uk/api/organisations/army-base-repair-organisation","title":"Army Base Repair Organisation","format":"Executive agency","updated_at":"2014-10-15T15:37:49.000+01:00","web_url":"https://www.gov.uk/government/organisations/army-base-repair-organisation","details":{"slug":"army-base-repair-organisation","abbreviation":null,"logo_formatted_name":"Army Base Repair Organisation","organisation_brand_colour_class_name":null,"organisation_logo_type_class_name":"single-identity","closed_at":null,"govuk_status":"closed","content_id":"cfd3a2d7-7fd7-48ab-8f2f-aca4df165b99"},"analytics_identifier":"EA816","parent_organisations":[],"child_organisations":[]},{"id":"https://www.gov.uk/api/organisations/ogcbuyingsolutions","title":"OGCbuyingsolutions","format":"Other","updated_at":"2014-10-15T15:37:49.000+01:00","web_url":"https://www.gov.uk/government/organisations/ogcbuyingsolutions","details":{"slug":"ogcbuyingsolutions","abbreviation":null,"logo_formatted_name":"OGCbuyingsolutions","organisation_brand_colour_class_name":null,"organisation_logo_type_class_name":"single-identity","closed_at":null,"govuk_status":"closed","content_id":"1e55b3a6-fbc7-44d0-961d-384403d3e6da"},"analytics_identifier":"OT817","parent_organisations":[],"child_organisations":[]},{"id":"https://www.gov.uk/api/organisations/disability-and-carers-service","title":"Disability and Carers Service","format":"Executive agency","updated_at":"2014-10-15T15:37:50.000+01:00","web_url":"https://www.gov.uk/government/organisations/disability-and-carers-service","details":{"slug":"disability-and-carers-service","abbreviation":"","logo_formatted_name":"Disability and Carers Service","organisation_brand_colour_class_name":null,"organisation_logo_type_class_name":"no-identity","closed_at":null,"govuk_status":"closed","content_id":"65b0865a-ca9f-4b13-b47f-0b9ae2c22efb"},"analytics_identifier":"OT818","parent_organisations":[],"child_organisations":[]},{"id":"https://www.gov.uk/api/organisations/central-police-training-and-development-authority","title":"Central Police Training and Development Authority","format":"Other","updated_at":"2014-10-15T15:37:50.000+01:00","web_url":"https://www.gov.uk/government/organisations/central-police-training-and-development-authority","details":{"slug":"central-police-training-and-development-authority","abbreviation":null,"logo_formatted_name":"Central Police Training and Development Authority","organisation_brand_colour_class_name":null,"organisation_logo_type_class_name":"single-identity","closed_at":null,"govuk_status":"closed","content_id":"aea62ec3-9c64-4510-a555-c5646ef15545"},"analytics_identifier":"OT819","parent_organisations":[],"child_organisations":[]},{"id":"https://www.gov.uk/api/organisations/northern-ireland-tourist-board","title":"Northern Ireland Tourist Board","format":"Other","updated_at":"2014-10-15T15:37:50.000+01:00","web_url":"https://www.gov.uk/government/organisations/northern-ireland-tourist-board","details":{"slug":"northern-ireland-tourist-board","abbreviation":"","logo_formatted_name":"Northern Ireland Tourist Board","organisation_brand_colour_class_name":null,"organisation_logo_type_class_name":"single-identity","closed_at":null,"govuk_status":"closed","content_id":"abfd6aa9-a3cb-4d5b-a0ca-2ff7ab15e3fd"},"analytics_identifier":"OT820","parent_organisations":[],"child_organisations":[]},{"id":"https://www.gov.uk/api/organisations/central-science-laboratory","title":"Central Science Laboratory","format":"Executive agency","updated_at":"2014-10-15T15:37:51.000+01:00","web_url":"https://www.gov.uk/government/organisations/central-science-laboratory","details":{"slug":"central-science-laboratory","abbreviation":null,"logo_formatted_name":"Central Science Laboratory","organisation_brand_colour_class_name":null,"organisation_logo_type_class_name":"single-identity","closed_at":null,"govuk_status":"closed","content_id":"7efa928e-ab53-4a9e-9eee-afbf8188a9f4"},"analytics_identifier":"EA821","parent_organisations":[],"child_organisations":[]},{"id":"https://www.gov.uk/api/organisations/commission-for-patient-and-public-involvement-in-health","title":"Commission for Patient and Public Involvement in Health","format":"Other","updated_at":"2014-10-15T15:37:51.000+01:00","web_url":"https://www.gov.uk/government/organisations/commission-for-patient-and-public-involvement-in-health","details":{"slug":"commission-for-patient-and-public-involvement-in-health","abbreviation":null,"logo_formatted_name":"Commission for Patient and Public Involvement in Health","organisation_brand_colour_class_name":null,"organisation_logo_type_class_name":"single-identity","closed_at":null,"govuk_status":"closed","content_id":"5d8bf769-0cc6-443c-8daf-327fd0bd6f69"},"analytics_identifier":"OT822","parent_organisations":[],"child_organisations":[]},{"id":"https://www.gov.uk/api/organisations/disposal-services-agency","title":"Disposal Services Agency","format":"Executive agency","updated_at":"2014-10-15T15:37:51.000+01:00","web_url":"https://www.gov.uk/government/organisations/disposal-services-agency","details":{"slug":"disposal-services-agency","abbreviation":null,"logo_formatted_name":"Disposal Services Agency","organisation_brand_colour_class_name":null,"organisation_logo_type_class_name":"single-identity","closed_at":null,"govuk_status":"closed","content_id":"2927c807-87ee-4fc8-b36a-24fdab3c0c9f"},"analytics_identifier":"EA823","parent_organisations":[],"child_organisations":[]},{"id":"https://www.gov.uk/api/organisations/commission-for-social-care-inspection","title":"Commission for Social Care Inspection","format":"Other","updated_at":"2014-10-15T15:37:51.000+01:00","web_url":"https://www.gov.uk/government/organisations/commission-for-social-care-inspection","details":{"slug":"commission-for-social-care-inspection","abbreviation":null,"logo_formatted_name":"Commission for Social Care Inspection","organisation_brand_colour_class_name":null,"organisation_logo_type_class_name":"single-identity","closed_at":null,"govuk_status":"closed","content_id":"d7504d7f-1d2b-4c65-a7f6-f1fb4d219544"},"analytics_identifier":"OT824","parent_organisations":[],"child_organisations":[]},{"id":"https://www.gov.uk/api/organisations/forest-service","title":"Forest Service","format":"Other","updated_at":"2014-10-15T15:37:52.000+01:00","web_url":"https://www.gov.uk/government/organisations/forest-service","details":{"slug":"forest-service","abbreviation":"","logo_formatted_name":"Department of Agriculture and Rural Development","organisation_brand_colour_class_name":null,"organisation_logo_type_class_name":"single-identity","closed_at":null,"govuk_status":"closed","content_id":"83b49f2e-e06d-41ac-96ce-c6c193cb3a59"},"analytics_identifier":"OT825","parent_organisations":[],"child_organisations":[]},{"id":"https://www.gov.uk/api/organisations/public-lending-right-office","title":"Public Lending Right Office","format":"Other","updated_at":"2014-10-15T15:37:52.000+01:00","web_url":"https://www.gov.uk/government/organisations/public-lending-right-office","details":{"slug":"public-lending-right-office","abbreviation":null,"logo_formatted_name":"Public Lending Right Office","organisation_brand_colour_class_name":null,"organisation_logo_type_class_name":"single-identity","closed_at":null,"govuk_status":"closed","content_id":"ce0fc94f-bfed-49fa-bbd0-167f3ca2be07"},"analytics_identifier":"OT826","parent_organisations":[],"child_organisations":[]},{"id":"https://www.gov.uk/api/organisations/office-of-the-legal-services-ombudsman","title":"Office of the Legal Services Ombudsman","format":"Other","updated_at":"2014-10-15T15:37:52.000+01:00","web_url":"https://www.gov.uk/government/organisations/office-of-the-legal-services-ombudsman","details":{"slug":"office-of-the-legal-services-ombudsman","abbreviation":"","logo_formatted_name":"Office of the Legal Services Ombudsman","organisation_brand_colour_class_name":null,"organisation_logo_type_class_name":"single-identity","closed_at":null,"govuk_status":"closed","content_id":"b6ed42c6-fe6d-42c7-bdbc-b004c5e7aa5b"},"analytics_identifier":"OT827","parent_organisations":[],"child_organisations":[]},{"id":"https://www.gov.uk/api/organisations/northern-ireland-ombudsman","title":"Northern Ireland Ombudsman","format":"Other","updated_at":"2014-10-15T15:37:52.000+01:00","web_url":"https://www.gov.uk/government/organisations/northern-ireland-ombudsman","details":{"slug":"northern-ireland-ombudsman","abbreviation":"","logo_formatted_name":"Northern Ireland Ombudsman","organisation_brand_colour_class_name":null,"organisation_logo_type_class_name":"single-identity","closed_at":null,"govuk_status":"closed","content_id":"df373e59-363d-4ddf-b3c3-66d0f4c4dce7"},"analytics_identifier":"OT828","parent_organisations":[],"child_organisations":[]},{"id":"https://www.gov.uk/api/organisations/criminal-injuries-compensation-appeals-panel-for-northern-ireland","title":"Criminal Injuries Compensation Appeals Panel for Northern Ireland","format":"Executive agency","updated_at":"2014-10-15T15:37:53.000+01:00","web_url":"https://www.gov.uk/government/organisations/criminal-injuries-compensation-appeals-panel-for-northern-ireland","details":{"slug":"criminal-injuries-compensation-appeals-panel-for-northern-ireland","abbreviation":"","logo_formatted_name":"Criminal Injuries Compensation Appeals Panel for Northern Ireland","organisation_brand_colour_class_name":null,"organisation_logo_type_class_name":"single-identity","closed_at":null,"govuk_status":"closed","content_id":"5d27b5cf-495d-431a-9177-447600e56d39"},"analytics_identifier":"EA829","parent_organisations":[],"child_organisations":[]},{"id":"https://www.gov.uk/api/organisations/government-car-and-despatch-agency","title":"Government Car and Despatch Agency","format":"Executive agency","updated_at":"2014-10-15T15:37:53.000+01:00","web_url":"https://www.gov.uk/government/organisations/government-car-and-despatch-agency","details":{"slug":"government-car-and-despatch-agency","abbreviation":null,"logo_formatted_name":"Government Car and Despatch Agency","organisation_brand_colour_class_name":null,"organisation_logo_type_class_name":"single-identity","closed_at":null,"govuk_status":"closed","content_id":"e7aa48d8-a13d-4802-a2f5-e886dd1dc364"},"analytics_identifier":"EA830","parent_organisations":[],"child_organisations":[]}],"previous_page_url":"https://www.gov.uk/api/organisations?page=32","next_page_url":"https://www.gov.uk/api/organisations?page=34","current_page":33,"total":1009,"pages":51,"page_size":20,"start_index":641,"_response_info":{"status":"ok","links":[{"href":"https://www.gov.uk/api/organisations?page=32","rel":"previous"},{"href":"https://www.gov.uk/api/organisations?page=34","rel":"next"},{"href":"https://www.gov.uk/api/organisations?page=33","rel":"self"}]}}
