{"results":[{"id":"https://www.gov.uk/api/organisations/roads-service","title":"Roads Service","format":"Other","updated_at":"2014-10-15T15:37:53.000+01:00","web_url":"https://www.gov.uk/government/organisations/roads-service","details":{"slug":"roads-service","abbreviation":"","logo_formatted_name":"Roads Service","organisation_brand_colour_class_name":null,"organisation_logo_type_class_name":"single-identity","closed_at":null,"govuk_status":"closed","content_id":"98135dd3-e889-45a9-8490-7ba60b19d1bb"},"analytics_identifier":"OT831","parent_organisations":[],"child_organisations":[]},{"id":"https://www.gov.uk/api/organisations/police-information-technology-organisation","title":"Police Information Technology Organisation","format":"Executive agency","updated_at":"2014-10-15T15:37:53.000+01:00","web_url":"https://www.gov.uk/government/organisations/police-information-technology-organisation","details":{"slug":"police-information-technology-organisation","abbreviation":null,"logo_formatted_name":"Police Information Technology Organisation","organisation_brand_colour_class_name":null,"organisation_logo_type_class_name":"single-identity","closed_at":null,"govuk_status":"closed","content_id":"74620853-9cf9-4747-bd48-d2514c52d2c3"},"analytics_identifier":"EA832","parent_organisations":[],"child_organisations":[]},{"id":"https://www.gov.uk/api/organisations/english-nature","title":"English Nature","format":"Executive agency","updated_at":"2014-10-15T15:37:54.000+01:00","web_url":"https://www.gov.uk/government/organisations/english-nature","details":{"slug":"english-nature","abbreviation":null,"logo_formatted_name":"English Nature","organisation_brand_colour_class_name":null,"organisation_logo_type_class_name":"single-identity","closed_at":null,"govuk_status":"closed","content_id":"7f768653-eda0-406f-8182-1a775f063fa3"},"analytics_identifier":"EA833","parent_organisations":[],"child_organisations":[]},{"id":"https://www.gov.uk/api/organisations/postal-services-commission","title":"Postal Services Commission","format":"Other","updated_at":"2014-10-15T15:37:54.000+01:00","web_url":"https://www.gov.uk/government/organisations/postal-services-commission","details":{"slug":"postal-services-commission","abbreviation":null,"logo_formatted_name":"Postal Services Commission","organisation_brand_colour_class_name":null,"organisation_logo_type_class_name":"single-identity","closed_at":null,"govuk_status":"closed","content_id":"41da6a79-7294-4ca6-90ed-eb5418a46864"},"analytics_identifier":"OT834","parent_organisations":[],"child_organisations":[]},{"id":"https://www.gov.uk/api/organisations/housing-corporation","title":"Housing Corporation","format":"Executive agency","updated_at":"2015-03-09T20:00:52.000+00:00","web_url":"https://www.gov.uk/government/organisations/housing-corporation","details":{"slug":"housing-corporation","abbreviation":null,"logo_formatted_name":"Housing Corporation","organisation_brand_colour_class_name":null,"organisation_logo_type_class_name":"single-identity","closed_at":null,"govuk_status":"closed","content_id":"5208aede-165d-494e-b0fc-675bb2351d9b"},"analytics_identifier":"EA835","parent_organisations":[],"child_organisations":[]},{"id":"https://www.gov.uk/api/organisations/defence-medical-education-and-training-agency","title":"Defence Medical Education and Training Agency","format":"Executive agency","updated_at":"2014-10-15T15:37:55.000+01:00","web_url":"https://www.gov.uk/government/organisations/defence-medical-education-and-training-agency","details":{"slug":"defence-medical-education-and-training-agency","abbreviation":null,"logo_formatted_name":"Defence Medical Education and Training Agency","organisation_brand_colour_class_name":null,"organisation_logo_type_class_name":"single-identity","closed_at":null,"govuk_status":"closed","content_id":"ac0fbc89-92dc-43be-a077-557e8e3edaa4"},"analytics_identifier":"EA836","parent_organisations":[],"child_organisations":[]},{"id":"https://www.gov.uk/api/organisations/criminal-injuries-compensation-appeals-panel","title":"Criminal Injuries Compensation Appeals Panel","format":"Other","updated_at":"2014-10-15T15:37:55.000+01:00","web_url":"https://www.gov.uk/government/organisations/criminal-injuries-compensation-appeals-panel","details":{"slug":"criminal-injuries-compensation-appeals-panel","abbreviation":null,"logo_formatted_name":"Criminal Injuries Compensation Appeals Panel","organisation_brand_colour_class_name":null,"organisation_logo_type_class_name":"single-identity","closed_at":null,"govuk_status":"closed","content_id":"d91fccaa-fc62-473d-b61d-2ea14ad55eca"},"analytics_identifier":"OT837","parent_organisations":[],"child_organisations":[]},{"id":"https://www.gov.uk/api/organisations/northern-ireland-commissioner-for-children-and-young-people","title":"Northern Ireland Commissioner for Children and Young People","format":"Other","updated_at":"2014-10-15T15:37:55.000+01:00","web_url":"https://www.gov.uk/government/organisations/northern-ireland-commissioner-for-children-and-young-people","details":{"slug":"northern-ireland-commissioner-for-children-and-young-people","abbreviation":"","logo_formatted_name":"Northern Ireland Commissioner for Children and Young People","organisation_brand_colour_class_name":null,"organisation_logo_type_class_name":"single-identity","closed_at":null,"govuk_status":"closed","content_id":"a1f5f9ce-e54d-460c-8877-72c6e11f3333"},"analytics_identifier":"OT838","parent_organisations":[],"child_organisations":[]},{"id":"https://www.gov.uk/api/organisations/thurrock-thames-gateway-development-corporation","title":"Thurrock Thames Gateway Development Corporation","format":"Other","updated_at":"2014-10-15T15:37:55.000+01:00","web_url":"https://www.gov.uk/government/organisations/thurrock-thames-gateway-development-corporation","details":{"slug":"thurrock-thames-gateway-development-corporation","abbreviation":null,"logo_formatted_name":"Thurrock Thames Gateway Development Corporation","organisation_brand_colour_class_name":null,"organisation_logo_type_class_name":"single-identity","closed_at":null,"govuk_status":"closed","content_id":"ccd43855-5e9f-4091-947e-052265bb4b36"},"analytics_identifier":"OT840","parent_organisations":[],"child_organisations":[]},{"id":"https://www.gov.uk/api/organisations/council-for-the-central-laboratory-of-the-research-councils","title":"Council for the Central Laboratory of the Research Councils","format":"Other","updated_at":"2014-10-15T15:37:55.000+01:00","web_url":"https://www.gov.uk/government/organisations/council-for-the-central-laboratory-of-the-research-councils","details":{"slug":"council-for-the-central-laboratory-of-the-research-councils","abbreviation":null,"logo_formatted_name":"Council for the Central Laboratory of the Research Councils","organisation_brand_colour_class_name":null,"organisation_logo_type_class_name":"single-identity","closed_at":null,"govuk_status":"closed","content_id":"247510d7-ac6e-4b62-8009-230875a77fb8"},"analytics_identifier":"OT841","parent_organisations":[],"child_organisations":[]},{"id":"https://www.gov.uk/api/organisations/commission-for-architecture-and-the-built-environment-cabe","title":"Commission for Architecture and the Built Environment (CABE)","format":"Advisory non-departmental public body","updated_at":"2014-10-15T15:37:56.000+01:00","web_url":"https://www.gov.uk/government/organisations/commission-for-architecture-and-the-built-environment-cabe","details":{"slug":"commission-for-architecture-and-the-built-environment-cabe","abbreviation":null,"logo_formatted_name":"Commission for Architecture and the Built Environment (CABE)","organisation_brand_colour_class_name":null,"organisation_logo_type_class_name":"single-identity","closed_at":null,"govuk_status":"closed","content_id":"b0ced774-bb6d-4958-81bf-d0c37933440c"},"analytics_identifier":"PB842","parent_organisations":[],"child_organisations":[]},{"id":"https://www.gov.uk/api/organisations/marine-fisheries-agency","title":"Marine Fisheries Agency","format":"Executive agency","updated_at":"2014-10-15T15:37:56.000+01:00","web_url":"https://www.gov.uk/government/organisations/marine-fisheries-agency","details":{"slug":"marine-fisheries-agency","abbreviation":null,"logo_formatted_name":"Marine Fisheries Agency","organisation_brand_colour_class_name":null,"organisation_logo_type_class_name":"single-identity","closed_at":null,"govuk_status":"closed","content_id":"a75cb951-e078-4341-9d73-32371a981e18"},"analytics_identifier":"EA843","parent_organisations":[],"child_organisations":[]},{"id":"https://www.gov.uk/api/organisations/uk-government-decontamination-service","title":"UK Government Decontamination Service","format":"Sub-organisation","updated_at":"2014-10-15T15:37:56.000+01:00","web_url":"https://www.gov.uk/government/organisations/uk-government-decontamination-service","details":{"slug":"uk-government-decontamination-service","abbreviation":"","logo_formatted_name":"UK Government Decontamination Service","organisation_brand_colour_class_name":null,"organisation_logo_type_class_name":"single-identity","closed_at":"2009-04-01T00:00:00.000+01:00","govuk_status":"closed","content_id":"0f801280-dd7c-49ee-b668-607694782a6d"},"analytics_identifier":"EA844","parent_organisations":[{"id":"https://www.gov.uk/api/organisations/the-food-and-environment-research-agency","web_url":"https://www.gov.uk/government/organisations/the-food-and-environment-research-agency"}],"child_organisations":[]},{"id":"https://www.gov.uk/api/organisations/pension-service","title":"Pension Service","format":"Executive agency","updated_at":"2014-10-15T15:37:56.000+01:00","web_url":"https://www.gov.uk/government/organisations/pension-service","details":{"slug":"pension-service","abbreviation":"","logo_formatted_name":"Pension Service","organisation_brand_colour_class_name":null,"organisation_logo_type_class_name":"no-identity","closed_at":null,"govuk_status":"closed","content_id":"d7e497ac-f566-4a30-b0a2-29903311a1a6"},"analytics_identifier":"OT845","parent_organisations":[],"child_organisations":[]},{"id":"https://www.gov.uk/api/organisations/central-office-of-information","title":"Central Office of Information","format":"Other","updated_at":"2014-10-15T15:37:57.000+01:00","web_url":"https://www.gov.uk/government/organisations/central-office-of-information","details":{"slug":"central-office-of-information","abbreviation":null,"logo_formatted_name":"Central Office of Information","organisation_brand_colour_class_name":null,"organisation_logo_type_class_name":"single-identity","closed_at":null,"govuk_status":"closed","content_id":"a3ce371f-a916-47da-8dd8-e030ed7daceb"},"analytics_identifier":"OT846","parent_organisations":[],"child_organisations":[]},{"id":"https://www.gov.uk/api/organisations/appeals-service-agency","title":"Appeals Service Agency","format":"Executive agency","updated_at":"2014-10-15T15:37:57.000+01:00","web_url":"https://www.gov.uk/government/organisations/appeals-service-agency","details":{"slug":"appeals-service-agency","abbreviation":null,"logo_formatted_name":"Appeals Service Agency","organisation_brand_colour_class_name":null,"organisation_logo_type_class_name":"single-identity","closed_at":null,"govuk_status":"closed","content_id":"2e008fab-907c-4387-99c1-17bbfc8ab0d9"},"analytics_identifier":"EA847","parent_organisations":[],"child_organisations":[]},{"id":"https://www.gov.uk/api/organisations/defence-transport-and-movements-agency","title":"Defence Transport and Movements Agency","format":"Executive agency","updated_at":"2014-10-15T15:37:57.000+01:00","web_url":"https://www.gov.uk/government/organisations/defence-transport-and-movements-agency","details":{"slug":"defence-transport-and-movements-agency","abbreviation":null,"logo_formatted_name":"Defence Transport and Movements Agency","organisation_brand_colour_class_name":null,"organisation_logo_type_class_name":"single-identity","closed_at":null,"govuk_status":"closed","content_id":"653b1e3c-ad9d-4431-9f77-f74edf745ff3"},"analytics_identifier":"EA848","parent_organisations":[],"child_organisations":[]},{"id":"https://www.gov.uk/api/organisations/livestock-and-meat-commission-for-northern-ireland","title":"Livestock and Meat Commission for Northern Ireland","format":"Other","updated_at":"2014-10-15T15:37:57.000+01:00","web_url":"https://www.gov.uk/government/organisations/livestock-and-meat-commission-for-northern-ireland","details":{"slug":"livestock-and-meat-commission-for-northern-ireland","abbreviation":"","logo_formatted_name":"Livestock and Meat Commission for Northern Ireland","organisation_brand_colour_class_name":null,"organisation_logo_type_class_name":"single-identity","closed_at":null,"govuk_status":"closed","content_id":"31980c3b-1f83-4d18-9daa-deb12483e094"},"analytics_identifier":"OT849","parent_organisations":[],"child_organisations":[]},{"id":"https://www.gov.uk/api/organisations/uk-film-council","title":"UK Film Council","format":"Other","updated_at":"2014-10-15T15:37:58.000+01:00","web_url":"https://www.gov.uk/government/organisations/uk-film-council","details":{"slug":"uk-film-council","abbreviation":null,"logo_formatted_name":"UK Film Council","organisation_brand_colour_class_name":null,"organisation_logo_type_class_name":"single-identity","closed_at":null,"govuk_status":"closed","content_id":"e71732b9-0661-4e27-a2a5-cda85d43991d"},"analytics_identifier":"OT850","parent_organisations":[],"child_organisations":[]},{"id":"https://www.gov.uk/api/organisations/milk-development-council","title":"Milk Development Council","format":"Other","updated_at":"2014-10-15T15:37:58.000+01:00","web_url":"https://www.gov.uk/government/organisations/milk-development-council","details":{"slug":"milk-development-council","abbreviation":null,"logo_formatted_name":"Milk Development Council","organisation_brand_colour_class_name":null,"organisation_logo_type_class_name":"single-identity","closed_at":null,"govuk_status":"closed","content_id":"a02b964d-b97b-4077-b5af-cf40c7af86e0"},"analytics_identifier":"OT851","parent_organisations":[],"child_organisations":[]}],"previous_page_url":"https://www.gov.uk/api/organisations?page=33","next_page_url":"https://www.gov.uk/api/organisations?page=35","current_page":34,"total":1009,"pages":51,"page_size":20,"start_index":661,"_response_info":{"status":"ok","links":[{"href":"https://www.gov.uk/api/organisations?page=33","rel":"previous"},{"href":"https://www.gov.uk/api/organisations?page=35","rel":"next"},{"href":"https://www.gov.uk/api/organisations?page=34","rel":"self"}]}}
