{"results":[{"id":"https://www.gov.uk/api/organisations/new-opportunities-fund","title":"New Opportunities Fund","format":"Other","updated_at":"2014-10-15T15:37:58.000+01:00","web_url":"https://www.gov.uk/government/organisations/new-opportunities-fund","details":{"slug":"new-opportunities-fund","abbreviation":null,"logo_formatted_name":"New Opportunities Fund","organisation_brand_colour_class_name":null,"organisation_logo_type_class_name":"single-identity","closed_at":null,"govuk_status":"closed","content_id":"1d9954cb-fe3d-46ca-917e-9d5c92588aaa"},"analytics_identifier":"OT852","parent_organisations":[],"child_organisations":[]},{"id":"https://www.gov.uk/api/organisations/department-of-culture-arts-and-leisure","title":"Department of Culture, Arts and Leisure","format":"Ministerial department","updated_at":"2014-10-15T15:37:58.000+01:00","web_url":"https://www.gov.uk/government/organisations/department-of-culture-arts-and-leisure","details":{"slug":"department-of-culture-arts-and-leisure","abbreviation":"","logo_formatted_name":"Department of Culture, Arts and Leisure","organisation_brand_colour_class_name":null,"organisation_logo_type_class_name":"single-identity","closed_at":null,"govuk_status":"closed","content_id":"9f9294bb-b09b-43fa-8e36-9c54bf88e01a"},"analytics_identifier":"D853","parent_organisations":[],"child_organisations":[]},{"id":"https://www.gov.uk/api/organisations/department-for-employment-and-learning","title":"Department for Employment and Learning","format":"Ministerial department","updated_at":"2014-10-15T15:37:59.000+01:00","web_url":"https://www.gov.uk/government/organisations/department-for-employment-and-learning","details":{"slug":"department-for-employment-and-learning","abbreviation":"","logo_formatted_name":"Department for Employment and Learning","organisation_brand_colour_class_name":null,"organisation_logo_type_class_name":"single-identity","closed_at":null,"govuk_status":"closed","content_id":"f4de645e-17ed-4a91-930f-4b2c1f1d4ef6"},"analytics_identifier":"D854","parent_organisations":[],"child_organisations":[]},{"id":"https://www.gov.uk/api/organisations/northern-ireland-practice-and-education-council","title":"Northern Ireland Practice and Education Council","format":"Other","updated_at":"2014-10-15T15:37:59.000+01:00","web_url":"https://www.gov.uk/government/organisations/northern-ireland-practice-and-education-council","details":{"slug":"northern-ireland-practice-and-education-council","abbreviation":"","logo_formatted_name":"Northern Ireland Practice and Education Council","organisation_brand_colour_class_name":null,"organisation_logo_type_class_name":"single-identity","closed_at":null,"govuk_status":"closed","content_id":"db54238a-5c8f-441c-b742-339a65603df6"},"analytics_identifier":"OT856","parent_organisations":[],"child_organisations":[]},{"id":"https://www.gov.uk/api/organisations/south-eastern-education-and-library-board","title":"South Eastern Education and Library Board","format":"Other","updated_at":"2014-10-15T15:37:59.000+01:00","web_url":"https://www.gov.uk/government/organisations/south-eastern-education-and-library-board","details":{"slug":"south-eastern-education-and-library-board","abbreviation":"","logo_formatted_name":"South Eastern Education and Library Board","organisation_brand_colour_class_name":null,"organisation_logo_type_class_name":"single-identity","closed_at":null,"govuk_status":"closed","content_id":"ec748f6d-62d4-4667-a5b9-fe0f4b91d475"},"analytics_identifier":"OT857","parent_organisations":[],"child_organisations":[]},{"id":"https://www.gov.uk/api/organisations/western-education-and-library-board","title":"Western Education and Library Board","format":"Other","updated_at":"2014-10-15T15:37:59.000+01:00","web_url":"https://www.gov.uk/government/organisations/western-education-and-library-board","details":{"slug":"western-education-and-library-board","abbreviation":"","logo_formatted_name":"Western Education and Library Board","organisation_brand_colour_class_name":null,"organisation_logo_type_class_name":"single-identity","closed_at":null,"govuk_status":"closed","content_id":"38ae3d07-3756-497c-abd9-450128b14be9"},"analytics_identifier":"OT858","parent_organisations":[],"child_organisations":[]},{"id":"https://www.gov.uk/api/organisations/state-veterinary-service","title":"State Veterinary Service","format":"Other","updated_at":"2014-10-15T15:38:00.000+01:00","web_url":"https://www.gov.uk/government/organisations/state-veterinary-service","details":{"slug":"state-veterinary-service","abbreviation":null,"logo_formatted_name":"State Veterinary Service","organisation_brand_colour_class_name":null,"organisation_logo_type_class_name":"single-identity","closed_at":null,"govuk_status":"closed","content_id":"c726d3f1-c729-44a5-8909-2845df7eaf46"},"analytics_identifier":"OT859","parent_organisations":[],"child_organisations":[]},{"id":"https://www.gov.uk/api/organisations/national-patient-safety-agency","title":"National Patient Safety Agency","format":"Executive agency","updated_at":"2014-10-15T15:38:00.000+01:00","web_url":"https://www.gov.uk/government/organisations/national-patient-safety-agency","details":{"slug":"national-patient-safety-agency","abbreviation":null,"logo_formatted_name":"National Patient Safety Agency","organisation_brand_colour_class_name":null,"organisation_logo_type_class_name":"single-identity","closed_at":null,"govuk_status":"closed","content_id":"6698bbce-2928-44c3-9968-9542e6a26b28"},"analytics_identifier":"EA860","parent_organisations":[],"child_organisations":[]},{"id":"https://www.gov.uk/api/organisations/ashington-education-action-zone","title":"Ashington Education Action Zone","format":"Other","updated_at":"2014-10-15T15:38:00.000+01:00","web_url":"https://www.gov.uk/government/organisations/ashington-education-action-zone","details":{"slug":"ashington-education-action-zone","abbreviation":null,"logo_formatted_name":"Ashington Education Action Zone","organisation_brand_colour_class_name":null,"organisation_logo_type_class_name":"single-identity","closed_at":null,"govuk_status":"closed","content_id":"5bf80445-de9f-44c2-bdef-2a03dd19f3d0"},"analytics_identifier":"OT861","parent_organisations":[],"child_organisations":[]},{"id":"https://www.gov.uk/api/organisations/loughs-agency","title":"Loughs Agency","format":"Other","updated_at":"2014-10-15T15:38:01.000+01:00","web_url":"https://www.gov.uk/government/organisations/loughs-agency","details":{"slug":"loughs-agency","abbreviation":"","logo_formatted_name":"Loughs Agency","organisation_brand_colour_class_name":null,"organisation_logo_type_class_name":"single-identity","closed_at":null,"govuk_status":"closed","content_id":"2afd1cdf-b98c-49c4-bd54-8ad50f9ce9c5"},"analytics_identifier":"OT862","parent_organisations":[],"child_organisations":[]},{"id":"https://www.gov.uk/api/organisations/northern-health-and-social-services-board","title":"Northern Health and Social Services Board","format":"Other","updated_at":"2014-10-15T15:38:01.000+01:00","web_url":"https://www.gov.uk/government/organisations/northern-health-and-social-services-board","details":{"slug":"northern-health-and-social-services-board","abbreviation":null,"logo_formatted_name":"Northern Health and Social Services Board","organisation_brand_colour_class_name":null,"organisation_logo_type_class_name":"single-identity","closed_at":null,"govuk_status":"closed","content_id":"28c60001-e96d-428d-9904-224ca89cd25f"},"analytics_identifier":"OT863","parent_organisations":[],"child_organisations":[]},{"id":"https://www.gov.uk/api/organisations/southern-health-and-social-services-board","title":"Southern Health and Social Services Board","format":"Other","updated_at":"2014-10-15T15:38:01.000+01:00","web_url":"https://www.gov.uk/government/organisations/southern-health-and-social-services-board","details":{"slug":"southern-health-and-social-services-board","abbreviation":null,"logo_formatted_name":"Southern Health and Social Services Board","organisation_brand_colour_class_name":null,"organisation_logo_type_class_name":"single-identity","closed_at":null,"govuk_status":"closed","content_id":"31166f83-eac8-4a3d-a9f9-0a70ace42027"},"analytics_identifier":"OT864","parent_organisations":[],"child_organisations":[]},{"id":"https://www.gov.uk/api/organisations/eastern-health-and-social-services-board","title":"Eastern Health and Social Services Board","format":"Other","updated_at":"2014-10-15T15:38:01.000+01:00","web_url":"https://www.gov.uk/government/organisations/eastern-health-and-social-services-board","details":{"slug":"eastern-health-and-social-services-board","abbreviation":null,"logo_formatted_name":"Eastern Health and Social Services Board","organisation_brand_colour_class_name":null,"organisation_logo_type_class_name":"single-identity","closed_at":null,"govuk_status":"closed","content_id":"64e68d82-849d-4058-978f-48ccb786b5e2"},"analytics_identifier":"OT865","parent_organisations":[],"child_organisations":[]},{"id":"https://www.gov.uk/api/organisations/western-health-and-social-services-board","title":"Western Health and Social Services Board","format":"Other","updated_at":"2014-10-15T15:38:01.000+01:00","web_url":"https://www.gov.uk/government/organisations/western-health-and-social-services-board","details":{"slug":"western-health-and-social-services-board","abbreviation":"","logo_formatted_name":"Western Health and Social Services Board","organisation_brand_colour_class_name":null,"organisation_logo_type_class_name":"single-identity","closed_at":null,"govuk_status":"closed","content_id":"8d1effc1-3608-4611-8abe-ee8bdc7c5c29"},"analytics_identifier":"OT866","parent_organisations":[],"child_organisations":[]},{"id":"https://www.gov.uk/api/organisations/revenue-and-customs-prosecutions-office","title":"Revenue and Customs Prosecutions Office","format":"Other","updated_at":"2014-10-15T15:38:02.000+01:00","web_url":"https://www.gov.uk/government/organisations/revenue-and-customs-prosecutions-office","details":{"slug":"revenue-and-customs-prosecutions-office","abbreviation":null,"logo_formatted_name":"Revenue and Customs Prosecutions Office","organisation_brand_colour_class_name":null,"organisation_logo_type_class_name":"single-identity","closed_at":null,"govuk_status":"closed","content_id":"c0a1a56f-a396-4f08-8fc0-238169386f72"},"analytics_identifier":"OT867","parent_organisations":[],"child_organisations":[]},{"id":"https://www.gov.uk/api/organisations/national-museums-and-galleries-of-northern-ireland","title":"National Museums and Galleries of Northern Ireland","format":"Other","updated_at":"2014-10-15T15:38:02.000+01:00","web_url":"https://www.gov.uk/government/organisations/national-museums-and-galleries-of-northern-ireland","details":{"slug":"national-museums-and-galleries-of-northern-ireland","abbreviation":"","logo_formatted_name":"National Museums and Galleries of Northern Ireland","organisation_brand_colour_class_name":null,"organisation_logo_type_class_name":"single-identity","closed_at":null,"govuk_status":"closed","content_id":"ff6a33c0-4c47-4bb3-b9b8-5b05aab2da86"},"analytics_identifier":"OT868","parent_organisations":[],"child_organisations":[]},{"id":"https://www.gov.uk/api/organisations/waterways-ireland","title":"Waterways Ireland","format":"Other","updated_at":"2014-10-15T15:38:02.000+01:00","web_url":"https://www.gov.uk/government/organisations/waterways-ireland","details":{"slug":"waterways-ireland","abbreviation":"","logo_formatted_name":"Waterways Ireland","organisation_brand_colour_class_name":null,"organisation_logo_type_class_name":"single-identity","closed_at":null,"govuk_status":"closed","content_id":"8aa91887-0e8d-4869-a38a-3c36e5aa14e6"},"analytics_identifier":"OT869","parent_organisations":[],"child_organisations":[]},{"id":"https://www.gov.uk/api/organisations/food-safety-promotion-board","title":"Food Safety Promotion Board","format":"Other","updated_at":"2014-10-15T15:38:03.000+01:00","web_url":"https://www.gov.uk/government/organisations/food-safety-promotion-board","details":{"slug":"food-safety-promotion-board","abbreviation":"","logo_formatted_name":"Food Safety Promotion Board","organisation_brand_colour_class_name":null,"organisation_logo_type_class_name":"single-identity","closed_at":null,"govuk_status":"closed","content_id":"4671ed2d-30d1-4e92-b18a-79c283de7c1a"},"analytics_identifier":"PB870","parent_organisations":[],"child_organisations":[]},{"id":"https://www.gov.uk/api/organisations/enterprise-ulster","title":"Enterprise Ulster","format":"Other","updated_at":"2014-10-15T15:38:03.000+01:00","web_url":"https://www.gov.uk/government/organisations/enterprise-ulster","details":{"slug":"enterprise-ulster","abbreviation":null,"logo_formatted_name":"Enterprise Ulster","organisation_brand_colour_class_name":null,"organisation_logo_type_class_name":"single-identity","closed_at":null,"govuk_status":"closed","content_id":"0cd6c1a8-55af-4f92-9bb1-1b2fbdb80ae9"},"analytics_identifier":"OT871","parent_organisations":[],"child_organisations":[]},{"id":"https://www.gov.uk/api/organisations/pesticides-safety-directorate","title":"Pesticides Safety Directorate","format":"Other","updated_at":"2014-10-15T15:38:03.000+01:00","web_url":"https://www.gov.uk/government/organisations/pesticides-safety-directorate","details":{"slug":"pesticides-safety-directorate","abbreviation":null,"logo_formatted_name":"Pesticides Safety Directorate","organisation_brand_colour_class_name":null,"organisation_logo_type_class_name":"single-identity","closed_at":null,"govuk_status":"closed","content_id":"fb9ed1fd-c7aa-4964-91b5-d27522fd09da"},"analytics_identifier":"OT872","parent_organisations":[],"child_organisations":[]}],"previous_page_url":"https://www.gov.uk/api/organisations?page=34","next_page_url":"https://www.gov.uk/api/organisations?page=36","current_page":35,"total":1009,"pages":51,"page_size":20,"start_index":681,"_response_info":{"status":"ok","links":[{"href":"https://www.gov.uk/api/organisations?page=34","rel":"previous"},{"href":"https://www.gov.uk/api/organisations?page=36","rel":"next"},{"href":"https://www.gov.uk/api/organisations?page=35","rel":"self"}]}}
