{"results":[{"id":"https://www.gov.uk/api/organisations/meat-hygiene-service","title":"Meat Hygiene Service","format":"Executive agency","updated_at":"2014-10-15T15:38:04.000+01:00","web_url":"https://www.gov.uk/government/organisations/meat-hygiene-service","details":{"slug":"meat-hygiene-service","abbreviation":null,"logo_formatted_name":"Meat Hygiene Service","organisation_brand_colour_class_name":null,"organisation_logo_type_class_name":"single-identity","closed_at":null,"govuk_status":"closed","content_id":"e2d3a417-dc63-41df-a8d6-46f6534c2d3c"},"analytics_identifier":"EA873","parent_organisations":[],"child_organisations":[]},{"id":"https://www.gov.uk/api/organisations/english-partnerships","title":"English Partnerships","format":"Executive agency","updated_at":"2015-03-09T20:00:51.000+00:00","web_url":"https://www.gov.uk/government/organisations/english-partnerships","details":{"slug":"english-partnerships","abbreviation":null,"logo_formatted_name":"English Partnerships","organisation_brand_colour_class_name":null,"organisation_logo_type_class_name":"single-identity","closed_at":null,"govuk_status":"closed","content_id":"3f4622d2-15a1-4d57-b294-8a6d986e92fa"},"analytics_identifier":"EA874","parent_organisations":[],"child_organisations":[]},{"id":"https://www.gov.uk/api/organisations/particle-physics-and-astronomy-research-council","title":"Particle Physics and Astronomy Research Council","format":"Other","updated_at":"2014-10-15T15:38:04.000+01:00","web_url":"https://www.gov.uk/government/organisations/particle-physics-and-astronomy-research-council","details":{"slug":"particle-physics-and-astronomy-research-council","abbreviation":null,"logo_formatted_name":"Particle Physics and Astronomy Research Council","organisation_brand_colour_class_name":null,"organisation_logo_type_class_name":"single-identity","closed_at":null,"govuk_status":"closed","content_id":"74268fc7-b56b-4414-8be1-48e8c1ba9023"},"analytics_identifier":"OT875","parent_organisations":[],"child_organisations":[]},{"id":"https://www.gov.uk/api/organisations/meat-and-livestock-commission","title":"Meat and Livestock Commission","format":"Independent monitoring body","updated_at":"2014-10-15T15:38:04.000+01:00","web_url":"https://www.gov.uk/government/organisations/meat-and-livestock-commission","details":{"slug":"meat-and-livestock-commission","abbreviation":"","logo_formatted_name":"Meat and Livestock Commission","organisation_brand_colour_class_name":null,"organisation_logo_type_class_name":"no-identity","closed_at":null,"govuk_status":"closed","content_id":"c4b9bcd9-c3a7-4c3f-9314-e88b88b2c591"},"analytics_identifier":"OT876","parent_organisations":[],"child_organisations":[]},{"id":"https://www.gov.uk/api/organisations/life-sentence-review-commissioners","title":"Life Sentence Review Commissioners","format":"Other","updated_at":"2014-10-15T15:38:05.000+01:00","web_url":"https://www.gov.uk/government/organisations/life-sentence-review-commissioners","details":{"slug":"life-sentence-review-commissioners","abbreviation":"","logo_formatted_name":"Life Sentence Review Commissioners","organisation_brand_colour_class_name":null,"organisation_logo_type_class_name":"single-identity","closed_at":null,"govuk_status":"closed","content_id":"85d57316-5ddb-4e87-84a6-24d3b8558369"},"analytics_identifier":"OT877","parent_organisations":[],"child_organisations":[]},{"id":"https://www.gov.uk/api/organisations/british-forces-post-office","title":"British Forces Post Office","format":"Other","updated_at":"2014-10-15T15:38:05.000+01:00","web_url":"https://www.gov.uk/government/organisations/british-forces-post-office","details":{"slug":"british-forces-post-office","abbreviation":"","logo_formatted_name":"British Forces Post Office","organisation_brand_colour_class_name":null,"organisation_logo_type_class_name":"mod","closed_at":null,"govuk_status":"closed","content_id":"cd4dc45e-5a7a-42b3-8a8a-1f484828d2d6"},"analytics_identifier":"OT878","parent_organisations":[],"child_organisations":[]},{"id":"https://www.gov.uk/api/organisations/rent-service","title":"Rent Service","format":"Executive agency","updated_at":"2014-10-15T15:38:05.000+01:00","web_url":"https://www.gov.uk/government/organisations/rent-service","details":{"slug":"rent-service","abbreviation":null,"logo_formatted_name":"Rent Service","organisation_brand_colour_class_name":null,"organisation_logo_type_class_name":"single-identity","closed_at":null,"govuk_status":"closed","content_id":"0e60e3df-3559-432b-a1d9-945828237923"},"analytics_identifier":"EA879","parent_organisations":[],"child_organisations":[]},{"id":"https://www.gov.uk/api/organisations/northern-ireland-judicial-appointments-commission","title":"Northern Ireland Judicial Appointments Commission","format":"Other","updated_at":"2014-10-15T15:38:05.000+01:00","web_url":"https://www.gov.uk/government/organisations/northern-ireland-judicial-appointments-commission","details":{"slug":"northern-ireland-judicial-appointments-commission","abbreviation":"","logo_formatted_name":"Northern Ireland Judicial Appointments Commission","organisation_brand_colour_class_name":null,"organisation_logo_type_class_name":"single-identity","closed_at":null,"govuk_status":"closed","content_id":"0e3949bd-5aab-4991-89db-19f05d761015"},"analytics_identifier":"OT880","parent_organisations":[],"child_organisations":[]},{"id":"https://www.gov.uk/api/organisations/people-pay-and-pensions-agency","title":"People, Pay and Pensions Agency","format":"Executive agency","updated_at":"2014-10-15T15:38:06.000+01:00","web_url":"https://www.gov.uk/government/organisations/people-pay-and-pensions-agency","details":{"slug":"people-pay-and-pensions-agency","abbreviation":null,"logo_formatted_name":"People, Pay and Pensions Agency","organisation_brand_colour_class_name":null,"organisation_logo_type_class_name":"single-identity","closed_at":null,"govuk_status":"closed","content_id":"206a60c2-e483-416e-9ea1-4c63b1f9e9ab"},"analytics_identifier":"EA882","parent_organisations":[],"child_organisations":[]},{"id":"https://www.gov.uk/api/organisations/defence-bills-agency","title":"Defence Bills Agency","format":"Executive agency","updated_at":"2014-10-15T15:38:06.000+01:00","web_url":"https://www.gov.uk/government/organisations/defence-bills-agency","details":{"slug":"defence-bills-agency","abbreviation":null,"logo_formatted_name":"Defence Bills Agency","organisation_brand_colour_class_name":null,"organisation_logo_type_class_name":"single-identity","closed_at":null,"govuk_status":"closed","content_id":"36577bd0-e6a8-4c8b-a503-d4fae7cf6982"},"analytics_identifier":"EA883","parent_organisations":[],"child_organisations":[]},{"id":"https://www.gov.uk/api/organisations/defence-vetting-agency","title":"Defence Vetting Agency","format":"Executive agency","updated_at":"2014-10-15T15:38:06.000+01:00","web_url":"https://www.gov.uk/government/organisations/defence-vetting-agency","details":{"slug":"defence-vetting-agency","abbreviation":null,"logo_formatted_name":"Defence Vetting Agency","organisation_brand_colour_class_name":null,"organisation_logo_type_class_name":"single-identity","closed_at":null,"govuk_status":"closed","content_id":"f0b703f8-0a85-496d-94c1-5ef1af243d3e"},"analytics_identifier":"EA884","parent_organisations":[],"child_organisations":[]},{"id":"https://www.gov.uk/api/organisations/identity-and-passport-service","title":"Identity and Passport Service","format":"Other","updated_at":"2014-10-15T15:38:06.000+01:00","web_url":"https://www.gov.uk/government/organisations/identity-and-passport-service","details":{"slug":"identity-and-passport-service","abbreviation":"","logo_formatted_name":"Identity and Passport Service","organisation_brand_colour_class_name":null,"organisation_logo_type_class_name":"single-identity","closed_at":"2013-05-13T00:00:00.000+01:00","govuk_status":"closed","content_id":"067f99ed-0346-4593-9e2b-4d62198c7cde"},"analytics_identifier":"OT885","parent_organisations":[],"child_organisations":[]},{"id":"https://www.gov.uk/api/organisations/english-sports-council","title":"English Sports Council","format":"Other","updated_at":"2014-10-15T15:38:06.000+01:00","web_url":"https://www.gov.uk/government/organisations/english-sports-council","details":{"slug":"english-sports-council","abbreviation":null,"logo_formatted_name":"English Sports Council","organisation_brand_colour_class_name":null,"organisation_logo_type_class_name":"single-identity","closed_at":null,"govuk_status":"closed","content_id":"17021d0a-2a28-4be4-a86b-f73a91e14310"},"analytics_identifier":"OT886","parent_organisations":[],"child_organisations":[]},{"id":"https://www.gov.uk/api/organisations/british-potato-council","title":"British Potato Council","format":"Other","updated_at":"2014-10-15T15:38:07.000+01:00","web_url":"https://www.gov.uk/government/organisations/british-potato-council","details":{"slug":"british-potato-council","abbreviation":null,"logo_formatted_name":"British Potato Council","organisation_brand_colour_class_name":null,"organisation_logo_type_class_name":"single-identity","closed_at":null,"govuk_status":"closed","content_id":"536580c7-9450-4192-be08-09a20445cb59"},"analytics_identifier":"OT887","parent_organisations":[],"child_organisations":[]},{"id":"https://www.gov.uk/api/organisations/healthcare-commission","title":"Healthcare Commission","format":"Other","updated_at":"2014-10-15T15:38:07.000+01:00","web_url":"https://www.gov.uk/government/organisations/healthcare-commission","details":{"slug":"healthcare-commission","abbreviation":null,"logo_formatted_name":"Healthcare Commission","organisation_brand_colour_class_name":null,"organisation_logo_type_class_name":"single-identity","closed_at":null,"govuk_status":"closed","content_id":"fb4856f9-9652-454f-ab80-30728f3712d1"},"analytics_identifier":"OT889","parent_organisations":[],"child_organisations":[]},{"id":"https://www.gov.uk/api/organisations/commission-for-rural-communities","title":"Commission for Rural Communities","format":"Other","updated_at":"2014-10-15T15:38:07.000+01:00","web_url":"https://www.gov.uk/government/organisations/commission-for-rural-communities","details":{"slug":"commission-for-rural-communities","abbreviation":null,"logo_formatted_name":"Commission for Rural Communities","organisation_brand_colour_class_name":null,"organisation_logo_type_class_name":"single-identity","closed_at":null,"govuk_status":"closed","content_id":"831ae79e-d6dc-48cf-a1d0-f618f37bbc46"},"analytics_identifier":"OT890","parent_organisations":[],"child_organisations":[]},{"id":"https://www.gov.uk/api/organisations/national-school-of-government","title":"National School of Government","format":"Other","updated_at":"2014-10-15T15:38:07.000+01:00","web_url":"https://www.gov.uk/government/organisations/national-school-of-government","details":{"slug":"national-school-of-government","abbreviation":null,"logo_formatted_name":"National School of Government","organisation_brand_colour_class_name":null,"organisation_logo_type_class_name":"single-identity","closed_at":null,"govuk_status":"closed","content_id":"44365ea1-29fc-414a-9fea-3aaed1926cd7"},"analytics_identifier":"OT891","parent_organisations":[],"child_organisations":[]},{"id":"https://www.gov.uk/api/organisations/design-council","title":"Design Council","format":"Other","updated_at":"2014-10-15T15:38:08.000+01:00","web_url":"https://www.gov.uk/government/organisations/design-council","details":{"slug":"design-council","abbreviation":"","logo_formatted_name":"Design Council","organisation_brand_colour_class_name":null,"organisation_logo_type_class_name":"single-identity","closed_at":null,"govuk_status":"closed","content_id":"b46b40e6-55d3-4c4d-b67e-227066911f95"},"analytics_identifier":"OT893","parent_organisations":[],"child_organisations":[]},{"id":"https://www.gov.uk/api/organisations/standards-board-for-england","title":"Standards Board for England","format":"Other","updated_at":"2014-10-15T15:38:08.000+01:00","web_url":"https://www.gov.uk/government/organisations/standards-board-for-england","details":{"slug":"standards-board-for-england","abbreviation":null,"logo_formatted_name":"Standards Board for England","organisation_brand_colour_class_name":null,"organisation_logo_type_class_name":"single-identity","closed_at":null,"govuk_status":"closed","content_id":"09e98314-e833-4850-bf54-70f9a1a0e478"},"analytics_identifier":"OT895","parent_organisations":[],"child_organisations":[]},{"id":"https://www.gov.uk/api/organisations/investors-in-people-uk","title":"Investors in People UK","format":"Other","updated_at":"2014-10-15T15:38:09.000+01:00","web_url":"https://www.gov.uk/government/organisations/investors-in-people-uk","details":{"slug":"investors-in-people-uk","abbreviation":"","logo_formatted_name":"Investors in People UK","organisation_brand_colour_class_name":null,"organisation_logo_type_class_name":"single-identity","closed_at":null,"govuk_status":"closed","content_id":"8a1e3362-108f-446d-a7f6-c6a39e392a13"},"analytics_identifier":"OT896","parent_organisations":[],"child_organisations":[]}],"previous_page_url":"https://www.gov.uk/api/organisations?page=35","next_page_url":"https://www.gov.uk/api/organisations?page=37","current_page":36,"total":1009,"pages":51,"page_size":20,"start_index":701,"_response_info":{"status":"ok","links":[{"href":"https://www.gov.uk/api/organisations?page=35","rel":"previous"},{"href":"https://www.gov.uk/api/organisations?page=37","rel":"next"},{"href":"https://www.gov.uk/api/organisations?page=36","rel":"self"}]}}
