{"results":[{"id":"https://www.gov.uk/api/organisations/postgraduate-medical-education-and-training-board","title":"Postgraduate Medical Education and Training Board","format":"Other","updated_at":"2014-10-15T15:38:09.000+01:00","web_url":"https://www.gov.uk/government/organisations/postgraduate-medical-education-and-training-board","details":{"slug":"postgraduate-medical-education-and-training-board","abbreviation":null,"logo_formatted_name":"Postgraduate Medical Education and Training Board","organisation_brand_colour_class_name":null,"organisation_logo_type_class_name":"single-identity","closed_at":null,"govuk_status":"closed","content_id":"a835481c-20bf-430a-a76d-3568136142cd"},"analytics_identifier":"OT897","parent_organisations":[],"child_organisations":[]},{"id":"https://www.gov.uk/api/organisations/nhs-information-centre","title":"NHS Information Centre","format":"Other","updated_at":"2014-10-15T15:38:09.000+01:00","web_url":"https://www.gov.uk/government/organisations/nhs-information-centre","details":{"slug":"nhs-information-centre","abbreviation":null,"logo_formatted_name":"NHS Information Centre","organisation_brand_colour_class_name":null,"organisation_logo_type_class_name":"single-identity","closed_at":null,"govuk_status":"closed","content_id":"61f289e3-da7d-4ef0-b3e5-d474d88eb69b"},"analytics_identifier":"OT899","parent_organisations":[],"child_organisations":[]},{"id":"https://www.gov.uk/api/organisations/animal-health","title":"Animal Health","format":"Executive agency","updated_at":"2014-11-13T11:01:31.000+00:00","web_url":"https://www.gov.uk/government/organisations/animal-health","details":{"slug":"animal-health","abbreviation":"","logo_formatted_name":"Animal Health","organisation_brand_colour_class_name":null,"organisation_logo_type_class_name":"single-identity","closed_at":null,"govuk_status":"closed","content_id":"99ff113e-3307-42d4-bf49-b333d17e4267"},"analytics_identifier":"EA900","parent_organisations":[],"child_organisations":[]},{"id":"https://www.gov.uk/api/organisations/renewable-fuels-agency","title":"Renewable Fuels Agency","format":"Executive agency","updated_at":"2015-03-09T20:00:55.000+00:00","web_url":"https://www.gov.uk/government/organisations/renewable-fuels-agency","details":{"slug":"renewable-fuels-agency","abbreviation":null,"logo_formatted_name":"Renewable Fuels Agency","organisation_brand_colour_class_name":null,"organisation_logo_type_class_name":"single-identity","closed_at":null,"govuk_status":"closed","content_id":"ab7f7e57-b064-49fb-b499-3fbde6dd9ddb"},"analytics_identifier":"EA901","parent_organisations":[],"child_organisations":[]},{"id":"https://www.gov.uk/api/organisations/horticultural-development-council","title":"Horticultural Development Council","format":"Other","updated_at":"2014-10-15T15:38:10.000+01:00","web_url":"https://www.gov.uk/government/organisations/horticultural-development-council","details":{"slug":"horticultural-development-council","abbreviation":null,"logo_formatted_name":"Horticultural Development Council","organisation_brand_colour_class_name":null,"organisation_logo_type_class_name":"single-identity","closed_at":null,"govuk_status":"closed","content_id":"52ac6a61-8657-4093-928d-afe545ad5cbb"},"analytics_identifier":"OT902","parent_organisations":[],"child_organisations":[]},{"id":"https://www.gov.uk/api/organisations/personal-accounts-delivery-authority","title":"Personal Accounts Delivery Authority","format":"Other","updated_at":"2014-10-15T15:38:10.000+01:00","web_url":"https://www.gov.uk/government/organisations/personal-accounts-delivery-authority","details":{"slug":"personal-accounts-delivery-authority","abbreviation":null,"logo_formatted_name":"Personal Accounts Delivery Authority","organisation_brand_colour_class_name":null,"organisation_logo_type_class_name":"single-identity","closed_at":null,"govuk_status":"closed","content_id":"772330ce-cca9-41b1-94ba-6f7c2225fc6f"},"analytics_identifier":"OT903","parent_organisations":[],"child_organisations":[]},{"id":"https://www.gov.uk/api/organisations/national-policing-improvement-agency","title":"National Policing Improvement Agency","format":"Executive agency","updated_at":"2014-10-15T15:38:11.000+01:00","web_url":"https://www.gov.uk/government/organisations/national-policing-improvement-agency","details":{"slug":"national-policing-improvement-agency","abbreviation":null,"logo_formatted_name":"National Policing Improvement Agency","organisation_brand_colour_class_name":null,"organisation_logo_type_class_name":"single-identity","closed_at":null,"govuk_status":"closed","content_id":"2028703a-76ab-4214-b5b3-1b601e084cb8"},"analytics_identifier":"EA904","parent_organisations":[],"child_organisations":[]},{"id":"https://www.gov.uk/api/organisations/sutherland-inquiry","title":"Sutherland Inquiry","format":"Other","updated_at":"2014-10-15T15:38:11.000+01:00","web_url":"https://www.gov.uk/government/organisations/sutherland-inquiry","details":{"slug":"sutherland-inquiry","abbreviation":null,"logo_formatted_name":"Sutherland Inquiry","organisation_brand_colour_class_name":null,"organisation_logo_type_class_name":"single-identity","closed_at":null,"govuk_status":"closed","content_id":"a2f70375-d8b7-4a26-9740-67858393a136"},"analytics_identifier":"OT905","parent_organisations":[],"child_organisations":[]},{"id":"https://www.gov.uk/api/organisations/professional-oversight-board","title":"Professional Oversight Board","format":"Other","updated_at":"2014-10-15T15:38:11.000+01:00","web_url":"https://www.gov.uk/government/organisations/professional-oversight-board","details":{"slug":"professional-oversight-board","abbreviation":null,"logo_formatted_name":"Professional Oversight Board","organisation_brand_colour_class_name":null,"organisation_logo_type_class_name":"single-identity","closed_at":null,"govuk_status":"closed","content_id":"739e4f6a-7a2c-4e0b-b397-40d8134dd263"},"analytics_identifier":"OT906","parent_organisations":[],"child_organisations":[]},{"id":"https://www.gov.uk/api/organisations/wales-audit-office","title":"Wales Audit Office","format":"Other","updated_at":"2015-04-01T18:56:43.000+01:00","web_url":"https://www.gov.uk/government/organisations/wales-audit-office","details":{"slug":"wales-audit-office","abbreviation":"","logo_formatted_name":"Wales Audit Office","organisation_brand_colour_class_name":null,"organisation_logo_type_class_name":"single-identity","closed_at":null,"govuk_status":"exempt","content_id":"02eeab27-868c-4e3f-ad8f-4c8237571bf1"},"analytics_identifier":"OT908","parent_organisations":[],"child_organisations":[]},{"id":"https://www.gov.uk/api/organisations/commission-for-the-compact","title":"Commission for the Compact","format":"Other","updated_at":"2014-10-15T15:38:12.000+01:00","web_url":"https://www.gov.uk/government/organisations/commission-for-the-compact","details":{"slug":"commission-for-the-compact","abbreviation":null,"logo_formatted_name":"Commission for the Compact","organisation_brand_colour_class_name":null,"organisation_logo_type_class_name":"single-identity","closed_at":null,"govuk_status":"closed","content_id":"5786e05f-5517-4a47-a941-890909cd27b8"},"analytics_identifier":"OT909","parent_organisations":[],"child_organisations":[]},{"id":"https://www.gov.uk/api/organisations/phoenix-sports","title":"Phoenix Sports","format":"Other","updated_at":"2014-10-15T15:38:12.000+01:00","web_url":"https://www.gov.uk/government/organisations/phoenix-sports","details":{"slug":"phoenix-sports","abbreviation":null,"logo_formatted_name":"Phoenix Sports","organisation_brand_colour_class_name":null,"organisation_logo_type_class_name":"single-identity","closed_at":null,"govuk_status":"closed","content_id":"57a6cd8e-9a57-49d6-bfaf-13e049c1191b"},"analytics_identifier":"OT910","parent_organisations":[],"child_organisations":[]},{"id":"https://www.gov.uk/api/organisations/buying-solutions","title":"Buying Solutions","format":"Other","updated_at":"2014-10-15T15:38:12.000+01:00","web_url":"https://www.gov.uk/government/organisations/buying-solutions","details":{"slug":"buying-solutions","abbreviation":null,"logo_formatted_name":"Buying Solutions","organisation_brand_colour_class_name":null,"organisation_logo_type_class_name":"single-identity","closed_at":null,"govuk_status":"closed","content_id":"78d2fb32-adfe-4edb-bd01-5a914ff65357"},"analytics_identifier":"OT911","parent_organisations":[],"child_organisations":[]},{"id":"https://www.gov.uk/api/organisations/east-midlands-development-agency-emda","title":"East Midlands Development Agency (emda)","format":"Executive agency","updated_at":"2014-10-15T15:38:13.000+01:00","web_url":"https://www.gov.uk/government/organisations/east-midlands-development-agency-emda","details":{"slug":"east-midlands-development-agency-emda","abbreviation":null,"logo_formatted_name":"East Midlands Development Agency (emda)","organisation_brand_colour_class_name":null,"organisation_logo_type_class_name":"single-identity","closed_at":null,"govuk_status":"closed","content_id":"532c8374-f11e-41dc-9b0d-269290b62547"},"analytics_identifier":"EA912","parent_organisations":[],"child_organisations":[]},{"id":"https://www.gov.uk/api/organisations/parole-commissioners-for-northern-ireland","title":"Parole Commissioners for Northern Ireland","format":"Other","updated_at":"2014-10-15T15:38:13.000+01:00","web_url":"https://www.gov.uk/government/organisations/parole-commissioners-for-northern-ireland","details":{"slug":"parole-commissioners-for-northern-ireland","abbreviation":"","logo_formatted_name":"Parole Commissioners for Northern Ireland","organisation_brand_colour_class_name":null,"organisation_logo_type_class_name":"single-identity","closed_at":null,"govuk_status":"closed","content_id":"47fdb8e3-cf2e-4fb2-996d-801fffc3c1ec"},"analytics_identifier":"OT913","parent_organisations":[],"child_organisations":[]},{"id":"https://www.gov.uk/api/organisations/independent-safeguarding-authority","title":"Independent Safeguarding Authority","format":"Other","updated_at":"2014-10-15T15:38:13.000+01:00","web_url":"https://www.gov.uk/government/organisations/independent-safeguarding-authority","details":{"slug":"independent-safeguarding-authority","abbreviation":null,"logo_formatted_name":"Independent Safeguarding Authority","organisation_brand_colour_class_name":null,"organisation_logo_type_class_name":"single-identity","closed_at":null,"govuk_status":"closed","content_id":"59800d10-aa8c-4f89-a820-fe063a2b724d"},"analytics_identifier":"OT914","parent_organisations":[],"child_organisations":[]},{"id":"https://www.gov.uk/api/organisations/childrens-workforce-development-council","title":"Children's Workforce Development Council","format":"Other","updated_at":"2014-10-15T15:38:14.000+01:00","web_url":"https://www.gov.uk/government/organisations/childrens-workforce-development-council","details":{"slug":"childrens-workforce-development-council","abbreviation":"CWDC","logo_formatted_name":"Children's Workforce Development Council","organisation_brand_colour_class_name":null,"organisation_logo_type_class_name":"single-identity","closed_at":"2012-03-31T00:00:00.000+01:00","govuk_status":"closed","content_id":"1e27fae9-c5a5-4e90-b3a5-bb4ee83a4653"},"analytics_identifier":"OT915","parent_organisations":[],"child_organisations":[]},{"id":"https://www.gov.uk/api/organisations/local-better-regulation-office","title":"Local Better Regulation Office","format":"Other","updated_at":"2014-10-15T15:38:14.000+01:00","web_url":"https://www.gov.uk/government/organisations/local-better-regulation-office","details":{"slug":"local-better-regulation-office","abbreviation":null,"logo_formatted_name":"Local Better Regulation Office","organisation_brand_colour_class_name":null,"organisation_logo_type_class_name":"single-identity","closed_at":null,"govuk_status":"closed","content_id":"7d8daca1-9d59-4355-b338-58f435a4ff1c"},"analytics_identifier":"OT916","parent_organisations":[],"child_organisations":[]},{"id":"https://www.gov.uk/api/organisations/east-of-england-development-agency","title":"East of England Development Agency","format":"Executive agency","updated_at":"2014-10-15T15:38:14.000+01:00","web_url":"https://www.gov.uk/government/organisations/east-of-england-development-agency","details":{"slug":"east-of-england-development-agency","abbreviation":null,"logo_formatted_name":"East of England Development Agency","organisation_brand_colour_class_name":null,"organisation_logo_type_class_name":"single-identity","closed_at":null,"govuk_status":"closed","content_id":"8990c250-5a5a-4102-ad0b-7f221fadc4d0"},"analytics_identifier":"EA917","parent_organisations":[],"child_organisations":[]},{"id":"https://www.gov.uk/api/organisations/south-west-of-england-regional-development-agency","title":"South West of England Regional Development Agency","format":"Executive agency","updated_at":"2014-10-15T15:38:14.000+01:00","web_url":"https://www.gov.uk/government/organisations/south-west-of-england-regional-development-agency","details":{"slug":"south-west-of-england-regional-development-agency","abbreviation":null,"logo_formatted_name":"South West of England Regional Development Agency","organisation_brand_colour_class_name":null,"organisation_logo_type_class_name":"single-identity","closed_at":null,"govuk_status":"closed","content_id":"1224b1d3-29db-452c-b5ff-9ad7a6f29fde"},"analytics_identifier":"EA918","parent_organisations":[],"child_organisations":[]}],"previous_page_url":"https://www.gov.uk/api/organisations?page=36","next_page_url":"https://www.gov.uk/api/organisations?page=38","current_page":37,"total":1009,"pages":51,"page_size":20,"start_index":721,"_response_info":{"status":"ok","links":[{"href":"https://www.gov.uk/api/organisations?page=36","rel":"previous"},{"href":"https://www.gov.uk/api/organisations?page=38","rel":"next"},{"href":"https://www.gov.uk/api/organisations?page=37","rel":"self"}]}}
