{"results":[{"id":"https://www.gov.uk/api/organisations/south-east-england-development-agency","title":"South East England Development Agency","format":"Executive agency","updated_at":"2014-10-15T15:38:15.000+01:00","web_url":"https://www.gov.uk/government/organisations/south-east-england-development-agency","details":{"slug":"south-east-england-development-agency","abbreviation":null,"logo_formatted_name":"South East England Development Agency","organisation_brand_colour_class_name":null,"organisation_logo_type_class_name":"single-identity","closed_at":null,"govuk_status":"closed","content_id":"ff63567b-0258-480e-b489-14a060504ac3"},"analytics_identifier":"EA919","parent_organisations":[],"child_organisations":[]},{"id":"https://www.gov.uk/api/organisations/northwest-regional-development-agency","title":"Northwest Regional Development Agency","format":"Executive agency","updated_at":"2014-10-15T15:38:15.000+01:00","web_url":"https://www.gov.uk/government/organisations/northwest-regional-development-agency","details":{"slug":"northwest-regional-development-agency","abbreviation":null,"logo_formatted_name":"Northwest Regional Development Agency","organisation_brand_colour_class_name":null,"organisation_logo_type_class_name":"single-identity","closed_at":null,"govuk_status":"closed","content_id":"eb546a9e-5a4c-4d0e-94db-42d4ba98fc82"},"analytics_identifier":"EA920","parent_organisations":[],"child_organisations":[]},{"id":"https://www.gov.uk/api/organisations/one-north-east","title":"One North East","format":"Executive agency","updated_at":"2014-10-15T15:38:15.000+01:00","web_url":"https://www.gov.uk/government/organisations/one-north-east","details":{"slug":"one-north-east","abbreviation":null,"logo_formatted_name":"One North East","organisation_brand_colour_class_name":null,"organisation_logo_type_class_name":"single-identity","closed_at":null,"govuk_status":"closed","content_id":"897a2ba9-f5a3-4464-bbf1-6041acc93f9d"},"analytics_identifier":"EA921","parent_organisations":[],"child_organisations":[]},{"id":"https://www.gov.uk/api/organisations/northwest-business-link","title":"Northwest Business Link","format":"Executive agency","updated_at":"2014-10-15T15:38:16.000+01:00","web_url":"https://www.gov.uk/government/organisations/northwest-business-link","details":{"slug":"northwest-business-link","abbreviation":null,"logo_formatted_name":"Northwest Business Link","organisation_brand_colour_class_name":null,"organisation_logo_type_class_name":"single-identity","closed_at":null,"govuk_status":"closed","content_id":"8ab18569-f3c4-462b-a798-edca5db7c83c"},"analytics_identifier":"EA922","parent_organisations":[],"child_organisations":[]},{"id":"https://www.gov.uk/api/organisations/yorkshire-forward","title":"Yorkshire Forward","format":"Executive agency","updated_at":"2014-10-15T15:38:16.000+01:00","web_url":"https://www.gov.uk/government/organisations/yorkshire-forward","details":{"slug":"yorkshire-forward","abbreviation":null,"logo_formatted_name":"Yorkshire Forward","organisation_brand_colour_class_name":null,"organisation_logo_type_class_name":"single-identity","closed_at":null,"govuk_status":"closed","content_id":"2205b6b2-885f-42ee-8bbb-321a85fd806d"},"analytics_identifier":"EA923","parent_organisations":[],"child_organisations":[]},{"id":"https://www.gov.uk/api/organisations/pension-disability-and-carers-service","title":"Pension, Disability and Carers Service","format":"Executive agency","updated_at":"2014-10-15T15:38:16.000+01:00","web_url":"https://www.gov.uk/government/organisations/pension-disability-and-carers-service","details":{"slug":"pension-disability-and-carers-service","abbreviation":"","logo_formatted_name":"Pension, Disability and Carers Service","organisation_brand_colour_class_name":null,"organisation_logo_type_class_name":"single-identity","closed_at":null,"govuk_status":"closed","content_id":"b1d1c203-f21f-4b77-b932-8764a048e755"},"analytics_identifier":"EA924","parent_organisations":[],"child_organisations":[]},{"id":"https://www.gov.uk/api/organisations/icl-inquiry","title":"ICL Inquiry","format":"Other","updated_at":"2014-10-15T15:38:16.000+01:00","web_url":"https://www.gov.uk/government/organisations/icl-inquiry","details":{"slug":"icl-inquiry","abbreviation":null,"logo_formatted_name":"ICL Inquiry","organisation_brand_colour_class_name":null,"organisation_logo_type_class_name":"single-identity","closed_at":null,"govuk_status":"closed","content_id":"4c51bdf9-1807-41b4-b684-f08193810fb1"},"analytics_identifier":"OT925","parent_organisations":[],"child_organisations":[]},{"id":"https://www.gov.uk/api/organisations/child-maintenance-and-enforcement-commission","title":"Child Maintenance and Enforcement Commission","format":"Other","updated_at":"2014-10-15T15:38:17.000+01:00","web_url":"https://www.gov.uk/government/organisations/child-maintenance-and-enforcement-commission","details":{"slug":"child-maintenance-and-enforcement-commission","abbreviation":"","logo_formatted_name":"Child Maintenance and Enforcement Commission","organisation_brand_colour_class_name":null,"organisation_logo_type_class_name":"single-identity","closed_at":null,"govuk_status":"closed","content_id":"1bf91d43-3e91-439a-99f8-35db7d5057e7"},"analytics_identifier":"OT926","parent_organisations":[],"child_organisations":[]},{"id":"https://www.gov.uk/api/organisations/advantage-west-midlands","title":"Advantage West Midlands","format":"Executive agency","updated_at":"2014-10-15T15:38:17.000+01:00","web_url":"https://www.gov.uk/government/organisations/advantage-west-midlands","details":{"slug":"advantage-west-midlands","abbreviation":"","logo_formatted_name":"Advantage West Midlands","organisation_brand_colour_class_name":null,"organisation_logo_type_class_name":"single-identity","closed_at":null,"govuk_status":"closed","content_id":"f66dd076-cee8-4d43-a122-fe087848b10d"},"analytics_identifier":"EA927","parent_organisations":[],"child_organisations":[]},{"id":"https://www.gov.uk/api/organisations/capacitybuilders","title":"Capacitybuilders","format":"Other","updated_at":"2014-10-15T15:38:17.000+01:00","web_url":"https://www.gov.uk/government/organisations/capacitybuilders","details":{"slug":"capacitybuilders","abbreviation":null,"logo_formatted_name":"Capacitybuilders","organisation_brand_colour_class_name":null,"organisation_logo_type_class_name":"single-identity","closed_at":null,"govuk_status":"closed","content_id":"b355061a-401c-471c-b970-542c114b10aa"},"analytics_identifier":"OT928","parent_organisations":[],"child_organisations":[]},{"id":"https://www.gov.uk/api/organisations/national-college-for-school-leadership","title":"National College for School Leadership","format":"Executive agency","updated_at":"2014-10-15T15:38:18.000+01:00","web_url":"https://www.gov.uk/government/organisations/national-college-for-school-leadership","details":{"slug":"national-college-for-school-leadership","abbreviation":"NCSL","logo_formatted_name":"National College for School Leadership","organisation_brand_colour_class_name":null,"organisation_logo_type_class_name":"single-identity","closed_at":"2013-04-01T00:00:00.000+01:00","govuk_status":"closed","content_id":"d6b3a921-2d47-4ef0-8248-ac3c2fb50ba6"},"analytics_identifier":"EA929","parent_organisations":[{"id":"https://www.gov.uk/api/organisations/department-for-education","web_url":"https://www.gov.uk/government/organisations/department-for-education"}],"child_organisations":[]},{"id":"https://www.gov.uk/api/organisations/working-ventures-uk","title":"Working Ventures UK","format":"Other","updated_at":"2014-10-15T15:38:18.000+01:00","web_url":"https://www.gov.uk/government/organisations/working-ventures-uk","details":{"slug":"working-ventures-uk","abbreviation":null,"logo_formatted_name":"Working Ventures UK","organisation_brand_colour_class_name":null,"organisation_logo_type_class_name":"single-identity","closed_at":null,"govuk_status":"closed","content_id":"4667c61c-ed16-4bb0-9e4f-279b30a2d3b6"},"analytics_identifier":"OT930","parent_organisations":[],"child_organisations":[]},{"id":"https://www.gov.uk/api/organisations/british-educational-communications-and-technology-agency","title":"British Educational Communications and Technology Agency","format":"Executive agency","updated_at":"2014-10-15T15:38:18.000+01:00","web_url":"https://www.gov.uk/government/organisations/british-educational-communications-and-technology-agency","details":{"slug":"british-educational-communications-and-technology-agency","abbreviation":"Becta","logo_formatted_name":"British Educational Communications and Technology Agency","organisation_brand_colour_class_name":null,"organisation_logo_type_class_name":"single-identity","closed_at":"2011-03-31T00:00:00.000+01:00","govuk_status":"closed","content_id":"55c768af-57b5-43e0-ba95-9ce002b4ee77"},"analytics_identifier":"EA932","parent_organisations":[],"child_organisations":[]},{"id":"https://www.gov.uk/api/organisations/nimrod-review","title":"Nimrod Review","format":"Other","updated_at":"2014-10-15T15:38:18.000+01:00","web_url":"https://www.gov.uk/government/organisations/nimrod-review","details":{"slug":"nimrod-review","abbreviation":null,"logo_formatted_name":"Nimrod Review","organisation_brand_colour_class_name":null,"organisation_logo_type_class_name":"single-identity","closed_at":null,"govuk_status":"closed","content_id":"752dbddc-8ab9-43bb-a0b2-219cbc6e6728"},"analytics_identifier":"OT933","parent_organisations":[],"child_organisations":[]},{"id":"https://www.gov.uk/api/organisations/tenant-services-authority","title":"Tenant Services Authority","format":"Executive agency","updated_at":"2014-10-15T15:38:19.000+01:00","web_url":"https://www.gov.uk/government/organisations/tenant-services-authority","details":{"slug":"tenant-services-authority","abbreviation":null,"logo_formatted_name":"Tenant Services Authority","organisation_brand_colour_class_name":null,"organisation_logo_type_class_name":"single-identity","closed_at":null,"govuk_status":"closed","content_id":"f36eeb19-1c7a-4b62-9ad4-d2eb9e7a4617"},"analytics_identifier":"EA934","parent_organisations":[],"child_organisations":[]},{"id":"https://www.gov.uk/api/organisations/northern-ireland-police-fund","title":"Northern Ireland Police Fund","format":"Other","updated_at":"2014-10-15T15:38:19.000+01:00","web_url":"https://www.gov.uk/government/organisations/northern-ireland-police-fund","details":{"slug":"northern-ireland-police-fund","abbreviation":null,"logo_formatted_name":"Northern Ireland Police Fund","organisation_brand_colour_class_name":null,"organisation_logo_type_class_name":"single-identity","closed_at":null,"govuk_status":"closed","content_id":"defa56f3-405e-44f8-af2a-2a4f7e902673"},"analytics_identifier":"OT935","parent_organisations":[],"child_organisations":[]},{"id":"https://www.gov.uk/api/organisations/museums-libraries-and-archives-council","title":"Museums, Libraries and Archives Council","format":"Other","updated_at":"2014-10-15T15:38:19.000+01:00","web_url":"https://www.gov.uk/government/organisations/museums-libraries-and-archives-council","details":{"slug":"museums-libraries-and-archives-council","abbreviation":null,"logo_formatted_name":"Museums, Libraries and Archives Council","organisation_brand_colour_class_name":null,"organisation_logo_type_class_name":"single-identity","closed_at":null,"govuk_status":"closed","content_id":"3da440b3-0cac-4b2e-8eb8-e01734f6d2f5"},"analytics_identifier":"OT936","parent_organisations":[],"child_organisations":[]},{"id":"https://www.gov.uk/api/organisations/northern-ireland-law-commission","title":"Northern Ireland Law Commission","format":"Other","updated_at":"2014-10-15T15:38:19.000+01:00","web_url":"https://www.gov.uk/government/organisations/northern-ireland-law-commission","details":{"slug":"northern-ireland-law-commission","abbreviation":"","logo_formatted_name":"Northern Ireland Law Commission","organisation_brand_colour_class_name":null,"organisation_logo_type_class_name":"single-identity","closed_at":null,"govuk_status":"closed","content_id":"14d2bfad-fb01-4fc4-a2a4-e4b563ec6189"},"analytics_identifier":"OT937","parent_organisations":[],"child_organisations":[]},{"id":"https://www.gov.uk/api/organisations/school-food-trust","title":"School Food Trust","format":"Other","updated_at":"2014-10-15T15:38:20.000+01:00","web_url":"https://www.gov.uk/government/organisations/school-food-trust","details":{"slug":"school-food-trust","abbreviation":"SFT","logo_formatted_name":"School Food Trust","organisation_brand_colour_class_name":null,"organisation_logo_type_class_name":"single-identity","closed_at":null,"govuk_status":"closed","content_id":"11c2d121-b7c3-4baf-a1c3-72d7fe5f2cc4"},"analytics_identifier":"OT938","parent_organisations":[],"child_organisations":[]},{"id":"https://www.gov.uk/api/organisations/office-of-the-commissioner-for-the-rights-of-trade-union-members","title":"Office of the Commissioner for the Rights of Trade Union Members","format":"Other","updated_at":"2014-10-15T15:38:20.000+01:00","web_url":"https://www.gov.uk/government/organisations/office-of-the-commissioner-for-the-rights-of-trade-union-members","details":{"slug":"office-of-the-commissioner-for-the-rights-of-trade-union-members","abbreviation":null,"logo_formatted_name":"Office of the Commissioner for the Rights of Trade Union Members","organisation_brand_colour_class_name":null,"organisation_logo_type_class_name":"single-identity","closed_at":null,"govuk_status":"closed","content_id":"b405898f-655f-4b63-a27a-b652f94f8e41"},"analytics_identifier":"OT940","parent_organisations":[],"child_organisations":[]}],"previous_page_url":"https://www.gov.uk/api/organisations?page=37","next_page_url":"https://www.gov.uk/api/organisations?page=39","current_page":38,"total":1009,"pages":51,"page_size":20,"start_index":741,"_response_info":{"status":"ok","links":[{"href":"https://www.gov.uk/api/organisations?page=37","rel":"previous"},{"href":"https://www.gov.uk/api/organisations?page=39","rel":"next"},{"href":"https://www.gov.uk/api/organisations?page=38","rel":"self"}]}}
