{"results":[{"id":"https://www.gov.uk/api/organisations/office-of-the-commissioner-for-protection-against-unlawful-industrial-action","title":"Office of the Commissioner for Protection Against Unlawful Industrial Action","format":"Other","updated_at":"2014-10-15T15:38:20.000+01:00","web_url":"https://www.gov.uk/government/organisations/office-of-the-commissioner-for-protection-against-unlawful-industrial-action","details":{"slug":"office-of-the-commissioner-for-protection-against-unlawful-industrial-action","abbreviation":null,"logo_formatted_name":"Office of the Commissioner for Protection Against Unlawful Industrial Action","organisation_brand_colour_class_name":null,"organisation_logo_type_class_name":"single-identity","closed_at":null,"govuk_status":"closed","content_id":"4b766ea5-c2a1-4200-b84f-a6f1844f8cf2"},"analytics_identifier":"OT941","parent_organisations":[],"child_organisations":[]},{"id":"https://www.gov.uk/api/organisations/bloody-sunday-inquiry","title":"Bloody Sunday Inquiry","format":"Other","updated_at":"2014-10-15T15:38:21.000+01:00","web_url":"https://www.gov.uk/government/organisations/bloody-sunday-inquiry","details":{"slug":"bloody-sunday-inquiry","abbreviation":null,"logo_formatted_name":"Bloody Sunday Inquiry","organisation_brand_colour_class_name":null,"organisation_logo_type_class_name":"single-identity","closed_at":null,"govuk_status":"closed","content_id":"2e8ba368-20ea-4082-8de5-cd748a6c9fea"},"analytics_identifier":"OT944","parent_organisations":[],"child_organisations":[]},{"id":"https://www.gov.uk/api/organisations/office-of-the-health-professions-adjudicator","title":"Office of the Health Professions Adjudicator","format":"Other","updated_at":"2014-10-15T15:38:21.000+01:00","web_url":"https://www.gov.uk/government/organisations/office-of-the-health-professions-adjudicator","details":{"slug":"office-of-the-health-professions-adjudicator","abbreviation":null,"logo_formatted_name":"Office of the Health Professions Adjudicator","organisation_brand_colour_class_name":null,"organisation_logo_type_class_name":"single-identity","closed_at":null,"govuk_status":"closed","content_id":"9e53617b-2604-4758-ab40-4facbebfa748"},"analytics_identifier":"OT945","parent_organisations":[],"child_organisations":[]},{"id":"https://www.gov.uk/api/organisations/royal-trustees-office","title":"Royal Trustees' Office","format":"Other","updated_at":"2014-10-15T15:38:21.000+01:00","web_url":"https://www.gov.uk/government/organisations/royal-trustees-office","details":{"slug":"royal-trustees-office","abbreviation":null,"logo_formatted_name":"Royal Trustees' Office","organisation_brand_colour_class_name":null,"organisation_logo_type_class_name":"single-identity","closed_at":null,"govuk_status":"closed","content_id":"2670e0e5-0fd1-4f74-b59e-4a98dc931a03"},"analytics_identifier":"OT946","parent_organisations":[],"child_organisations":[]},{"id":"https://www.gov.uk/api/organisations/infrastructure-planning-commission","title":"Infrastructure Planning Commission","format":"Other","updated_at":"2014-10-15T15:38:22.000+01:00","web_url":"https://www.gov.uk/government/organisations/infrastructure-planning-commission","details":{"slug":"infrastructure-planning-commission","abbreviation":null,"logo_formatted_name":"Infrastructure Planning Commission","organisation_brand_colour_class_name":null,"organisation_logo_type_class_name":"single-identity","closed_at":null,"govuk_status":"closed","content_id":"a3c61f5e-2669-424e-b76a-29da6421eaca"},"analytics_identifier":"OT947","parent_organisations":[],"child_organisations":[]},{"id":"https://www.gov.uk/api/organisations/asset-protection-agency","title":"Asset Protection Agency","format":"Executive agency","updated_at":"2014-10-15T15:38:22.000+01:00","web_url":"https://www.gov.uk/government/organisations/asset-protection-agency","details":{"slug":"asset-protection-agency","abbreviation":null,"logo_formatted_name":"Asset Protection Agency","organisation_brand_colour_class_name":null,"organisation_logo_type_class_name":"single-identity","closed_at":null,"govuk_status":"closed","content_id":"59f9d668-bc97-4bf1-85ad-739dce2c16b6"},"analytics_identifier":"EA949","parent_organisations":[],"child_organisations":[]},{"id":"https://www.gov.uk/api/organisations/co2sense","title":"CO2Sense","format":"Other","updated_at":"2015-02-17T15:02:32.000+00:00","web_url":"https://www.gov.uk/government/organisations/co2sense","details":{"slug":"co2sense","abbreviation":"","logo_formatted_name":"CO2Sense","organisation_brand_colour_class_name":null,"organisation_logo_type_class_name":"single-identity","closed_at":null,"govuk_status":"closed","content_id":"172c5def-3a14-487a-a1e9-b38295bdaf30"},"analytics_identifier":"OT950","parent_organisations":[],"child_organisations":[]},{"id":"https://www.gov.uk/api/organisations/billy-wright-inquiry","title":"Billy Wright Inquiry","format":"Other","updated_at":"2014-10-15T15:38:22.000+01:00","web_url":"https://www.gov.uk/government/organisations/billy-wright-inquiry","details":{"slug":"billy-wright-inquiry","abbreviation":null,"logo_formatted_name":"Billy Wright Inquiry","organisation_brand_colour_class_name":null,"organisation_logo_type_class_name":"single-identity","closed_at":null,"govuk_status":"closed","content_id":"cf472f7b-253e-4a95-9b08-1fa3c29f8cbf"},"analytics_identifier":"OT951","parent_organisations":[],"child_organisations":[]},{"id":"https://www.gov.uk/api/organisations/redfern-inquiry","title":"Redfern Inquiry","format":"Other","updated_at":"2014-10-15T15:38:23.000+01:00","web_url":"https://www.gov.uk/government/organisations/redfern-inquiry","details":{"slug":"redfern-inquiry","abbreviation":null,"logo_formatted_name":"Redfern Inquiry","organisation_brand_colour_class_name":null,"organisation_logo_type_class_name":"single-identity","closed_at":null,"govuk_status":"closed","content_id":"7eb03ed8-866a-41c1-8979-1de726a8a143"},"analytics_identifier":"OT952","parent_organisations":[],"child_organisations":[]},{"id":"https://www.gov.uk/api/organisations/sitpro","title":"SITPRO","format":"Other","updated_at":"2014-10-15T15:38:23.000+01:00","web_url":"https://www.gov.uk/government/organisations/sitpro","details":{"slug":"sitpro","abbreviation":null,"logo_formatted_name":"SITPRO","organisation_brand_colour_class_name":null,"organisation_logo_type_class_name":"single-identity","closed_at":null,"govuk_status":"closed","content_id":"818a3bea-2efd-4da1-a7b7-7e3266d5a083"},"analytics_identifier":"OT953","parent_organisations":[],"child_organisations":[]},{"id":"https://www.gov.uk/api/organisations/rosemary-nelson-inquiry","title":"Rosemary Nelson Inquiry","format":"Other","updated_at":"2014-10-15T15:38:23.000+01:00","web_url":"https://www.gov.uk/government/organisations/rosemary-nelson-inquiry","details":{"slug":"rosemary-nelson-inquiry","abbreviation":null,"logo_formatted_name":"Rosemary Nelson Inquiry","organisation_brand_colour_class_name":null,"organisation_logo_type_class_name":"single-identity","closed_at":null,"govuk_status":"closed","content_id":"b9f21b20-cb0b-4795-a439-d9165cf38e68"},"analytics_identifier":"OT954","parent_organisations":[],"child_organisations":[]},{"id":"https://www.gov.uk/api/organisations/office-for-tenants-and-social-landlords","title":"Office for Tenants and Social Landlords","format":"Executive agency","updated_at":"2014-10-15T15:38:23.000+01:00","web_url":"https://www.gov.uk/government/organisations/office-for-tenants-and-social-landlords","details":{"slug":"office-for-tenants-and-social-landlords","abbreviation":null,"logo_formatted_name":"Office for Tenants and Social Landlords","organisation_brand_colour_class_name":null,"organisation_logo_type_class_name":"single-identity","closed_at":null,"govuk_status":"closed","content_id":"a71064b2-6ad1-418a-bedf-c80038ec911e"},"analytics_identifier":"EA955","parent_organisations":[],"child_organisations":[]},{"id":"https://www.gov.uk/api/organisations/qualifications-and-curriculum-development-agency","title":"Qualifications and Curriculum Development Agency","format":"Executive agency","updated_at":"2014-10-15T15:38:24.000+01:00","web_url":"https://www.gov.uk/government/organisations/qualifications-and-curriculum-development-agency","details":{"slug":"qualifications-and-curriculum-development-agency","abbreviation":"QCDA","logo_formatted_name":"Qualifications and Curriculum Development Agency","organisation_brand_colour_class_name":null,"organisation_logo_type_class_name":"single-identity","closed_at":"2012-04-01T00:00:00.000+01:00","govuk_status":"closed","content_id":"2c7f26fc-b5db-42ef-9bfd-d2b4bac3d625"},"analytics_identifier":"EA956","parent_organisations":[],"child_organisations":[]},{"id":"https://www.gov.uk/api/organisations/english-institute-of-sport","title":"English Institute of Sport","format":"Other","updated_at":"2014-10-15T15:38:24.000+01:00","web_url":"https://www.gov.uk/government/organisations/english-institute-of-sport","details":{"slug":"english-institute-of-sport","abbreviation":"","logo_formatted_name":"English Institute of Sport","organisation_brand_colour_class_name":null,"organisation_logo_type_class_name":"no-identity","closed_at":null,"govuk_status":"exempt","content_id":"8d7b0ba5-867c-4c5f-8e99-720c6b017fa0"},"analytics_identifier":"OT957","parent_organisations":[{"id":"https://www.gov.uk/api/organisations/department-for-culture-media-sport","web_url":"https://www.gov.uk/government/organisations/department-for-culture-media-sport"}],"child_organisations":[]},{"id":"https://www.gov.uk/api/organisations/mull-of-kintyre-review","title":"Mull of Kintyre Review","format":"Other","updated_at":"2014-10-15T15:38:24.000+01:00","web_url":"https://www.gov.uk/government/organisations/mull-of-kintyre-review","details":{"slug":"mull-of-kintyre-review","abbreviation":null,"logo_formatted_name":"Mull of Kintyre Review","organisation_brand_colour_class_name":null,"organisation_logo_type_class_name":"single-identity","closed_at":null,"govuk_status":"closed","content_id":"10be712d-dc35-4124-81b3-1f9464434a20"},"analytics_identifier":"OT958","parent_organisations":[],"child_organisations":[]},{"id":"https://www.gov.uk/api/organisations/north-west-development-agency","title":"North West Development Agency","format":"Executive agency","updated_at":"2014-10-15T15:38:24.000+01:00","web_url":"https://www.gov.uk/government/organisations/north-west-development-agency","details":{"slug":"north-west-development-agency","abbreviation":null,"logo_formatted_name":"North West Development Agency","organisation_brand_colour_class_name":null,"organisation_logo_type_class_name":"single-identity","closed_at":null,"govuk_status":"closed","content_id":"f54d0655-8e53-4336-9418-09c7e3341c3f"},"analytics_identifier":"EA959","parent_organisations":[],"child_organisations":[]},{"id":"https://www.gov.uk/api/organisations/young-peoples-learning-agency","title":"Young People's Learning Agency","format":"Executive agency","updated_at":"2014-10-15T15:38:25.000+01:00","web_url":"https://www.gov.uk/government/organisations/young-peoples-learning-agency","details":{"slug":"young-peoples-learning-agency","abbreviation":"YPLA","logo_formatted_name":"Young People's Learning Agency","organisation_brand_colour_class_name":null,"organisation_logo_type_class_name":"single-identity","closed_at":"2012-04-01T00:00:00.000+01:00","govuk_status":"closed","content_id":"0bc1de67-3c11-4094-a18e-7dd7d617ff90"},"analytics_identifier":"EA960","parent_organisations":[],"child_organisations":[]},{"id":"https://www.gov.uk/api/organisations/firebuy","title":"Firebuy","format":"Other","updated_at":"2014-10-15T15:38:25.000+01:00","web_url":"https://www.gov.uk/government/organisations/firebuy","details":{"slug":"firebuy","abbreviation":null,"logo_formatted_name":"Firebuy","organisation_brand_colour_class_name":null,"organisation_logo_type_class_name":"single-identity","closed_at":null,"govuk_status":"closed","content_id":"2a162d12-9417-4c4d-aadc-3d2b88b77a07"},"analytics_identifier":"OT961","parent_organisations":[],"child_organisations":[]},{"id":"https://www.gov.uk/api/organisations/public-prosecution-service-for-northern-ireland","title":"Public Prosecution Service for Northern Ireland","format":"Other","updated_at":"2016-04-28T10:29:20.000+01:00","web_url":"https://www.gov.uk/government/organisations/public-prosecution-service-for-northern-ireland","details":{"slug":"public-prosecution-service-for-northern-ireland","abbreviation":"","logo_formatted_name":"Public Prosecution Service for Northern Ireland","organisation_brand_colour_class_name":null,"organisation_logo_type_class_name":"single-identity","closed_at":null,"govuk_status":"exempt","content_id":"0f94fafd-f61e-47ae-8c11-d376a677d0a2"},"analytics_identifier":"OT962","parent_organisations":[],"child_organisations":[]},{"id":"https://www.gov.uk/api/organisations/baha-mousa-inquiry","title":"Baha Mousa Inquiry","format":"Other","updated_at":"2014-10-15T15:38:25.000+01:00","web_url":"https://www.gov.uk/government/organisations/baha-mousa-inquiry","details":{"slug":"baha-mousa-inquiry","abbreviation":null,"logo_formatted_name":"Baha Mousa Inquiry","organisation_brand_colour_class_name":null,"organisation_logo_type_class_name":"single-identity","closed_at":null,"govuk_status":"closed","content_id":"5f9ba1ca-e4da-4c94-91af-9507beb9dbe7"},"analytics_identifier":"OT963","parent_organisations":[],"child_organisations":[]}],"previous_page_url":"https://www.gov.uk/api/organisations?page=38","next_page_url":"https://www.gov.uk/api/organisations?page=40","current_page":39,"total":1009,"pages":51,"page_size":20,"start_index":761,"_response_info":{"status":"ok","links":[{"href":"https://www.gov.uk/api/organisations?page=38","rel":"previous"},{"href":"https://www.gov.uk/api/organisations?page=40","rel":"next"},{"href":"https://www.gov.uk/api/organisations?page=39","rel":"self"}]}}
