{"results":[{"id":"https://www.gov.uk/api/organisations/office-of-the-public-guardian","title":"Office of the Public Guardian","format":"Executive agency","updated_at":"2014-10-15T15:35:29.000+01:00","web_url":"https://www.gov.uk/government/organisations/office-of-the-public-guardian","details":{"slug":"office-of-the-public-guardian","abbreviation":"OPG","logo_formatted_name":"Office of the \r\nPublic Guardian","organisation_brand_colour_class_name":"ministry-of-justice","organisation_logo_type_class_name":"single-identity","closed_at":null,"govuk_status":"live","content_id":"8d40ed48-ef2a-42af-a02b-bd4cc84cabc1"},"analytics_identifier":"EA72","parent_organisations":[{"id":"https://www.gov.uk/api/organisations/ministry-of-justice","web_url":"https://www.gov.uk/government/organisations/ministry-of-justice"}],"child_organisations":[]},{"id":"https://www.gov.uk/api/organisations/hm-courts-and-tribunals-service","title":"HM Courts \u0026 Tribunals Service","format":"Executive agency","updated_at":"2016-12-12T15:37:10.000+00:00","web_url":"https://www.gov.uk/government/organisations/hm-courts-and-tribunals-service","details":{"slug":"hm-courts-and-tribunals-service","abbreviation":"HMCTS","logo_formatted_name":"HM Courts \u0026 \r\nTribunals Service","organisation_brand_colour_class_name":"ministry-of-justice","organisation_logo_type_class_name":"single-identity","closed_at":null,"govuk_status":"live","content_id":"6f757605-ab8f-4b62-84e4-99f79cf085c2"},"analytics_identifier":"EA73","parent_organisations":[{"id":"https://www.gov.uk/api/organisations/ministry-of-justice","web_url":"https://www.gov.uk/government/organisations/ministry-of-justice"}],"child_organisations":[{"id":"https://www.gov.uk/api/organisations/court-of-protection","web_url":"https://www.gov.uk/courts-tribunals/court-of-protection"},{"id":"https://www.gov.uk/api/organisations/bankruptcy-court","web_url":"https://www.gov.uk/courts-tribunals/bankruptcy-court"},{"id":"https://www.gov.uk/api/organisations/first-tier-tribunal-mental-health","web_url":"https://www.gov.uk/courts-tribunals/first-tier-tribunal-mental-health"},{"id":"https://www.gov.uk/api/organisations/first-tier-tribunal-general-regulatory-chamber","web_url":"https://www.gov.uk/courts-tribunals/first-tier-tribunal-general-regulatory-chamber"},{"id":"https://www.gov.uk/api/organisations/first-tier-tribunal-war-pensions-and-armed-forces-compensation","web_url":"https://www.gov.uk/courts-tribunals/first-tier-tribunal-war-pensions-and-armed-forces-compensation"},{"id":"https://www.gov.uk/api/organisations/first-tier-tribunal-asylum-support","web_url":"https://www.gov.uk/courts-tribunals/first-tier-tribunal-asylum-support"},{"id":"https://www.gov.uk/api/organisations/first-tier-tribunal-tax","web_url":"https://www.gov.uk/courts-tribunals/first-tier-tribunal-tax"},{"id":"https://www.gov.uk/api/organisations/gangmasters-licensing-appeals","web_url":"https://www.gov.uk/courts-tribunals/gangmasters-licensing-appeals"},{"id":"https://www.gov.uk/api/organisations/first-tier-tribunal-criminal-injuries-compensation","web_url":"https://www.gov.uk/courts-tribunals/first-tier-tribunal-criminal-injuries-compensation"},{"id":"https://www.gov.uk/api/organisations/first-tier-tribunal-care-standards","web_url":"https://www.gov.uk/courts-tribunals/first-tier-tribunal-care-standards"},{"id":"https://www.gov.uk/api/organisations/employment-tribunal","web_url":"https://www.gov.uk/courts-tribunals/employment-tribunal"},{"id":"https://www.gov.uk/api/organisations/employment-appeal-tribunal","web_url":"https://www.gov.uk/courts-tribunals/employment-appeal-tribunal"},{"id":"https://www.gov.uk/api/organisations/senior-courts-costs-office","web_url":"https://www.gov.uk/courts-tribunals/senior-courts-costs-office"},{"id":"https://www.gov.uk/api/organisations/first-tier-tribunal-social-security-and-child-support","web_url":"https://www.gov.uk/courts-tribunals/first-tier-tribunal-social-security-and-child-support"},{"id":"https://www.gov.uk/api/organisations/reserve-forces-appeal-tribunal","web_url":"https://www.gov.uk/courts-tribunals/reserve-forces-appeal-tribunal"},{"id":"https://www.gov.uk/api/organisations/first-tier-tribunal-property-chamber","web_url":"https://www.gov.uk/courts-tribunals/first-tier-tribunal-property-chamber"},{"id":"https://www.gov.uk/api/organisations/upper-tribunal-tax-and-chancery-chamber","web_url":"https://www.gov.uk/courts-tribunals/upper-tribunal-tax-and-chancery-chamber"},{"id":"https://www.gov.uk/api/organisations/upper-tribunal-lands-chamber","web_url":"https://www.gov.uk/courts-tribunals/upper-tribunal-lands-chamber"},{"id":"https://www.gov.uk/api/organisations/upper-tribunal-administrative-appeals-chamber","web_url":"https://www.gov.uk/courts-tribunals/upper-tribunal-administrative-appeals-chamber"},{"id":"https://www.gov.uk/api/organisations/first-tier-tribunal-immigration-and-asylum","web_url":"https://www.gov.uk/courts-tribunals/first-tier-tribunal-immigration-and-asylum"},{"id":"https://www.gov.uk/api/organisations/upper-tribunal-immigration-and-asylum-chamber","web_url":"https://www.gov.uk/courts-tribunals/upper-tribunal-immigration-and-asylum-chamber"},{"id":"https://www.gov.uk/api/organisations/first-tier-tribunal-special-educational-needs-and-disability","web_url":"https://www.gov.uk/courts-tribunals/first-tier-tribunal-special-educational-needs-and-disability"},{"id":"https://www.gov.uk/api/organisations/admiralty-court","web_url":"https://www.gov.uk/courts-tribunals/admiralty-court"},{"id":"https://www.gov.uk/api/organisations/family-division-of-the-high-court","web_url":"https://www.gov.uk/courts-tribunals/family-division-of-the-high-court"},{"id":"https://www.gov.uk/api/organisations/planning-court","web_url":"https://www.gov.uk/courts-tribunals/planning-court"},{"id":"https://www.gov.uk/api/organisations/technology-and-construction-court","web_url":"https://www.gov.uk/courts-tribunals/technology-and-construction-court"},{"id":"https://www.gov.uk/api/organisations/mercantile-court","web_url":"https://www.gov.uk/courts-tribunals/mercantile-court"},{"id":"https://www.gov.uk/api/organisations/commercial-court","web_url":"https://www.gov.uk/courts-tribunals/commercial-court"},{"id":"https://www.gov.uk/api/organisations/companies-court","web_url":"https://www.gov.uk/courts-tribunals/companies-court"},{"id":"https://www.gov.uk/api/organisations/intellectual-property-enterprise-court","web_url":"https://www.gov.uk/courts-tribunals/intellectual-property-enterprise-court"},{"id":"https://www.gov.uk/api/organisations/court-of-appeal-civil-division","web_url":"https://www.gov.uk/courts-tribunals/court-of-appeal-civil-division"},{"id":"https://www.gov.uk/api/organisations/northampton-county-court-business-centre","web_url":"https://www.gov.uk/courts-tribunals/northampton-county-court-business-centre"},{"id":"https://www.gov.uk/api/organisations/patents-court","web_url":"https://www.gov.uk/courts-tribunals/patents-court"},{"id":"https://www.gov.uk/api/organisations/court-of-appeal-criminal-division","web_url":"https://www.gov.uk/courts-tribunals/court-of-appeal-criminal-division"},{"id":"https://www.gov.uk/api/organisations/queens-bench-division-of-the-high-court","web_url":"https://www.gov.uk/courts-tribunals/queens-bench-division-of-the-high-court"},{"id":"https://www.gov.uk/api/organisations/administrative-court","web_url":"https://www.gov.uk/courts-tribunals/administrative-court"},{"id":"https://www.gov.uk/api/organisations/chancery-division-of-the-high-court","web_url":"https://www.gov.uk/courts-tribunals/chancery-division-of-the-high-court"}]},{"id":"https://www.gov.uk/api/organisations/driver-and-vehicle-licensing-agency","title":"Driver and Vehicle Licensing Agency","format":"Executive agency","updated_at":"2016-12-28T14:18:40.000+00:00","web_url":"https://www.gov.uk/government/organisations/driver-and-vehicle-licensing-agency","details":{"slug":"driver-and-vehicle-licensing-agency","abbreviation":"DVLA","logo_formatted_name":"Driver \u0026 Vehicle\r\nLicensing\r\nAgency","organisation_brand_colour_class_name":"department-for-transport","organisation_logo_type_class_name":"single-identity","closed_at":null,"govuk_status":"live","content_id":"70580624-93b5-4aed-823b-76042486c769"},"analytics_identifier":"EA74","parent_organisations":[{"id":"https://www.gov.uk/api/organisations/department-for-transport","web_url":"https://www.gov.uk/government/organisations/department-for-transport"}],"child_organisations":[]},{"id":"https://www.gov.uk/api/organisations/driving-standards-agency","title":"Driving Standards Agency","format":"Executive agency","updated_at":"2014-10-15T15:35:29.000+01:00","web_url":"https://www.gov.uk/government/organisations/driving-standards-agency","details":{"slug":"driving-standards-agency","abbreviation":"DSA","logo_formatted_name":"Driving\r\nStandards\r\nAgency","organisation_brand_colour_class_name":"department-for-transport","organisation_logo_type_class_name":"single-identity","closed_at":"2014-04-01T00:00:00.000+01:00","govuk_status":"closed","content_id":"304d93a6-dd72-4a52-8858-387d8d83a309"},"analytics_identifier":"EA75","parent_organisations":[{"id":"https://www.gov.uk/api/organisations/department-for-transport","web_url":"https://www.gov.uk/government/organisations/department-for-transport"}],"child_organisations":[]},{"id":"https://www.gov.uk/api/organisations/highways-agency","title":"Highways Agency","format":"Executive agency","updated_at":"2015-04-01T12:19:13.000+01:00","web_url":"https://www.gov.uk/government/organisations/highways-agency","details":{"slug":"highways-agency","abbreviation":"HA","logo_formatted_name":"Highways\r\nAgency","organisation_brand_colour_class_name":"department-for-transport","organisation_logo_type_class_name":"custom","closed_at":"2015-04-01T00:00:00.000+01:00","govuk_status":"closed","content_id":"14e2f2c2-6606-4f3f-92ed-24dedce86e3b"},"analytics_identifier":"EA77","parent_organisations":[{"id":"https://www.gov.uk/api/organisations/department-for-transport","web_url":"https://www.gov.uk/government/organisations/department-for-transport"}],"child_organisations":[]},{"id":"https://www.gov.uk/api/organisations/maritime-and-coastguard-agency","title":"Maritime and Coastguard Agency","format":"Executive agency","updated_at":"2014-11-06T12:29:00.000+00:00","web_url":"https://www.gov.uk/government/organisations/maritime-and-coastguard-agency","details":{"slug":"maritime-and-coastguard-agency","abbreviation":"MCA","logo_formatted_name":"Maritime \u0026\r\nCoastguard \r\nAgency","organisation_brand_colour_class_name":"department-for-transport","organisation_logo_type_class_name":"single-identity","closed_at":null,"govuk_status":"live","content_id":"23a24aa8-1711-42b6-bf6b-47af0f230295"},"analytics_identifier":"EA78","parent_organisations":[{"id":"https://www.gov.uk/api/organisations/department-for-transport","web_url":"https://www.gov.uk/government/organisations/department-for-transport"}],"child_organisations":[]},{"id":"https://www.gov.uk/api/organisations/vehicle-and-operator-services-agency","title":"Vehicle and Operator Services Agency","format":"Executive agency","updated_at":"2014-10-15T15:35:30.000+01:00","web_url":"https://www.gov.uk/government/organisations/vehicle-and-operator-services-agency","details":{"slug":"vehicle-and-operator-services-agency","abbreviation":"VOSA","logo_formatted_name":"Vehicle \u0026 Operator \r\nServices Agency","organisation_brand_colour_class_name":"department-for-transport","organisation_logo_type_class_name":"single-identity","closed_at":"2014-04-01T00:00:00.000+01:00","govuk_status":"closed","content_id":"f3dc9b48-1119-4130-9bc4-98f5e3fd7fab"},"analytics_identifier":"EA79","parent_organisations":[{"id":"https://www.gov.uk/api/organisations/department-for-transport","web_url":"https://www.gov.uk/government/organisations/department-for-transport"}],"child_organisations":[]},{"id":"https://www.gov.uk/api/organisations/vehicle-certification-agency","title":"Vehicle Certification Agency","format":"Executive agency","updated_at":"2014-12-19T14:52:31.000+00:00","web_url":"https://www.gov.uk/government/organisations/vehicle-certification-agency","details":{"slug":"vehicle-certification-agency","abbreviation":"VCA","logo_formatted_name":"Vehicle\r\nCertification\r\nAgency","organisation_brand_colour_class_name":"department-for-transport","organisation_logo_type_class_name":"single-identity","closed_at":null,"govuk_status":"exempt","content_id":"685a3312-e096-4fde-b6c7-c8cf324d4784"},"analytics_identifier":"EA80","parent_organisations":[{"id":"https://www.gov.uk/api/organisations/department-for-transport","web_url":"https://www.gov.uk/government/organisations/department-for-transport"}],"child_organisations":[]},{"id":"https://www.gov.uk/api/organisations/uk-debt-management-office","title":"UK Debt Management Office","format":"Executive agency","updated_at":"2014-10-30T10:26:04.000+00:00","web_url":"https://www.gov.uk/government/organisations/uk-debt-management-office","details":{"slug":"uk-debt-management-office","abbreviation":"DMO","logo_formatted_name":"United Kingdom\r\nDebt Management\r\nOffice","organisation_brand_colour_class_name":"hm-treasury","organisation_logo_type_class_name":"single-identity","closed_at":null,"govuk_status":"live","content_id":"f72a155e-a9d9-46a4-b195-d6fa90a23de0"},"analytics_identifier":"EA82","parent_organisations":[{"id":"https://www.gov.uk/api/organisations/hm-treasury","web_url":"https://www.gov.uk/government/organisations/hm-treasury"}],"child_organisations":[]},{"id":"https://www.gov.uk/api/organisations/forestry-commission","title":"Forestry Commission","format":"Non-ministerial department","updated_at":"2014-10-15T15:35:30.000+01:00","web_url":"https://www.gov.uk/government/organisations/forestry-commission","details":{"slug":"forestry-commission","abbreviation":"Forestry","logo_formatted_name":"Forestry Commission","organisation_brand_colour_class_name":null,"organisation_logo_type_class_name":"no-identity","closed_at":null,"govuk_status":"exempt","content_id":"8bf5624b-dec2-44fa-9b6c-daed166333a5"},"analytics_identifier":"D85","parent_organisations":[{"id":"https://www.gov.uk/api/organisations/department-for-environment-food-rural-affairs","web_url":"https://www.gov.uk/government/organisations/department-for-environment-food-rural-affairs"}],"child_organisations":[{"id":"https://www.gov.uk/api/organisations/forest-research","web_url":"https://www.gov.uk/government/organisations/forest-research"},{"id":"https://www.gov.uk/api/organisations/forest-enterprise-england","web_url":"https://www.gov.uk/government/organisations/forest-enterprise-england"}]},{"id":"https://www.gov.uk/api/organisations/skills-funding-agency","title":"Skills Funding Agency","format":"Executive agency","updated_at":"2016-07-20T11:45:23.000+01:00","web_url":"https://www.gov.uk/government/organisations/skills-funding-agency","details":{"slug":"skills-funding-agency","abbreviation":"SFA","logo_formatted_name":"Skills Funding \r\nAgency","organisation_brand_colour_class_name":"department-for-education","organisation_logo_type_class_name":"single-identity","closed_at":null,"govuk_status":"live","content_id":"3e5a6924-b369-4eb3-8b06-3c0814701de4"},"analytics_identifier":"EA86","parent_organisations":[{"id":"https://www.gov.uk/api/organisations/department-for-education","web_url":"https://www.gov.uk/government/organisations/department-for-education"}],"child_organisations":[]},{"id":"https://www.gov.uk/api/organisations/valuation-office-agency","title":"Valuation Office Agency","format":"Executive agency","updated_at":"2014-12-01T10:49:55.000+00:00","web_url":"https://www.gov.uk/government/organisations/valuation-office-agency","details":{"slug":"valuation-office-agency","abbreviation":"VOA","logo_formatted_name":"Valuation Office Agency","organisation_brand_colour_class_name":"hm-revenue-customs","organisation_logo_type_class_name":"single-identity","closed_at":null,"govuk_status":"live","content_id":"ae98edb5-87b4-4a69-a31a-e0e5298f949d"},"analytics_identifier":"EA87","parent_organisations":[{"id":"https://www.gov.uk/api/organisations/hm-revenue-customs","web_url":"https://www.gov.uk/government/organisations/hm-revenue-customs"}],"child_organisations":[{"id":"https://www.gov.uk/api/organisations/district-valuer-services-dvs","web_url":"https://www.gov.uk/government/organisations/district-valuer-services-dvs"}]},{"id":"https://www.gov.uk/api/organisations/charity-commission","title":"The Charity Commission","format":"Non-ministerial department","updated_at":"2016-07-06T08:11:26.000+01:00","web_url":"https://www.gov.uk/government/organisations/charity-commission","details":{"slug":"charity-commission","abbreviation":"Charity Commission","logo_formatted_name":"Charity Commission \r\n","organisation_brand_colour_class_name":"department-for-business-innovation-skills","organisation_logo_type_class_name":"custom","closed_at":null,"govuk_status":"live","content_id":"489e651f-34c8-4b34-bdd7-e13c2324cde3"},"analytics_identifier":"D98","parent_organisations":[],"child_organisations":[]},{"id":"https://www.gov.uk/api/organisations/the-crown-estate","title":"The Crown Estate","format":"Other","updated_at":"2014-10-15T15:35:31.000+01:00","web_url":"https://www.gov.uk/government/organisations/the-crown-estate","details":{"slug":"the-crown-estate","abbreviation":"","logo_formatted_name":"The Crown Estate","organisation_brand_colour_class_name":"hm-treasury","organisation_logo_type_class_name":"no-identity","closed_at":null,"govuk_status":"exempt","content_id":"ffa569b0-8f28-4145-a489-8d3749d78d8e"},"analytics_identifier":"OT100","parent_organisations":[{"id":"https://www.gov.uk/api/organisations/hm-treasury","web_url":"https://www.gov.uk/government/organisations/hm-treasury"}],"child_organisations":[]},{"id":"https://www.gov.uk/api/organisations/crown-prosecution-service","title":"Crown Prosecution Service","format":"Non-ministerial department","updated_at":"2014-10-15T15:35:31.000+01:00","web_url":"https://www.gov.uk/government/organisations/crown-prosecution-service","details":{"slug":"crown-prosecution-service","abbreviation":"CPS","logo_formatted_name":"Crown Prosecution Service","organisation_brand_colour_class_name":"attorney-generals-office","organisation_logo_type_class_name":"no-identity","closed_at":null,"govuk_status":"exempt","content_id":"6c97de66-80ac-4eca-9a19-92d16442e72f"},"analytics_identifier":"D101","parent_organisations":[{"id":"https://www.gov.uk/api/organisations/attorney-generals-office","web_url":"https://www.gov.uk/government/organisations/attorney-generals-office"}],"child_organisations":[]},{"id":"https://www.gov.uk/api/organisations/food-standards-agency","title":"Food Standards Agency","format":"Non-ministerial department","updated_at":"2014-10-15T15:35:32.000+01:00","web_url":"https://www.gov.uk/government/organisations/food-standards-agency","details":{"slug":"food-standards-agency","abbreviation":"FSA","logo_formatted_name":"Food Standards Agency","organisation_brand_colour_class_name":"department-of-health","organisation_logo_type_class_name":"no-identity","closed_at":null,"govuk_status":"exempt","content_id":"447f8075-1c8c-40d3-8119-3e45ea9e6496"},"analytics_identifier":"D102","parent_organisations":[],"child_organisations":[{"id":"https://www.gov.uk/api/organisations/committee-on-mutagenicity-of-chemicals-in-food-consumer-products-and-the-environment","web_url":"https://www.gov.uk/government/organisations/committee-on-mutagenicity-of-chemicals-in-food-consumer-products-and-the-environment"},{"id":"https://www.gov.uk/api/organisations/advisory-committee-on-animal-feedingstuffs","web_url":"https://www.gov.uk/government/organisations/advisory-committee-on-animal-feedingstuffs"},{"id":"https://www.gov.uk/api/organisations/advisory-committee-on-novel-foods-and-processes","web_url":"https://www.gov.uk/government/organisations/advisory-committee-on-novel-foods-and-processes"},{"id":"https://www.gov.uk/api/organisations/advisory-committee-on-the-microbiological-safety-of-food","web_url":"https://www.gov.uk/government/organisations/advisory-committee-on-the-microbiological-safety-of-food"},{"id":"https://www.gov.uk/api/organisations/committee-on-toxicity-of-chemicals-in-food-consumer-products-and-the-environment","web_url":"https://www.gov.uk/government/organisations/committee-on-toxicity-of-chemicals-in-food-consumer-products-and-the-environment"},{"id":"https://www.gov.uk/api/organisations/general-advisory-committee-on-science","web_url":"https://www.gov.uk/government/organisations/general-advisory-committee-on-science"},{"id":"https://www.gov.uk/api/organisations/social-science-research-committee","web_url":"https://www.gov.uk/government/organisations/social-science-research-committee"}]},{"id":"https://www.gov.uk/api/organisations/government-actuarys-department","title":"Government Actuary's Department","format":"Non-ministerial department","updated_at":"2015-06-25T14:29:21.000+01:00","web_url":"https://www.gov.uk/government/organisations/government-actuarys-department","details":{"slug":"government-actuarys-department","abbreviation":"GAD","logo_formatted_name":"Government \r\nActuary's \r\nDepartment","organisation_brand_colour_class_name":"hm-treasury","organisation_logo_type_class_name":"single-identity","closed_at":null,"govuk_status":"live","content_id":"02e01dc9-a4c4-46d9-b496-a618c89afe62"},"analytics_identifier":"D103","parent_organisations":[],"child_organisations":[]},{"id":"https://www.gov.uk/api/organisations/ns-i","title":"NS\u0026I","format":"Non-ministerial department","updated_at":"2014-10-15T15:35:32.000+01:00","web_url":"https://www.gov.uk/government/organisations/ns-i","details":{"slug":"ns-i","abbreviation":"NS\u0026I","logo_formatted_name":"NS\u0026I","organisation_brand_colour_class_name":"hm-treasury","organisation_logo_type_class_name":"no-identity","closed_at":null,"govuk_status":"exempt","content_id":"590039e7-1976-48fa-b84d-d688d4661269"},"analytics_identifier":"EA104","parent_organisations":[{"id":"https://www.gov.uk/api/organisations/hm-treasury","web_url":"https://www.gov.uk/government/organisations/hm-treasury"}],"child_organisations":[]},{"id":"https://www.gov.uk/api/organisations/ofsted","title":"Ofsted","format":"Non-ministerial department","updated_at":"2014-11-03T17:05:55.000+00:00","web_url":"https://www.gov.uk/government/organisations/ofsted","details":{"slug":"ofsted","abbreviation":"Ofsted","logo_formatted_name":"Ofsted","organisation_brand_colour_class_name":"department-for-education","organisation_logo_type_class_name":"custom","closed_at":null,"govuk_status":"live","content_id":"ad5f6169-ac7b-4382-9eb6-e58af71a2f00"},"analytics_identifier":"D106","parent_organisations":[{"id":"https://www.gov.uk/api/organisations/department-for-education","web_url":"https://www.gov.uk/government/organisations/department-for-education"}],"child_organisations":[]},{"id":"https://www.gov.uk/api/organisations/ofgem","title":"Ofgem","format":"Non-ministerial department","updated_at":"2014-10-15T15:35:32.000+01:00","web_url":"https://www.gov.uk/government/organisations/ofgem","details":{"slug":"ofgem","abbreviation":"","logo_formatted_name":"Ofgem","organisation_brand_colour_class_name":"department-of-energy-climate-change","organisation_logo_type_class_name":"no-identity","closed_at":null,"govuk_status":"exempt","content_id":"844d0880-14b1-4de1-bfb6-f233f3d5ae1d"},"analytics_identifier":"D108","parent_organisations":[{"id":"https://www.gov.uk/api/organisations/department-of-energy-climate-change","web_url":"https://www.gov.uk/government/organisations/department-of-energy-climate-change"}],"child_organisations":[]}],"previous_page_url":"https://www.gov.uk/api/organisations?page=3","next_page_url":"https://www.gov.uk/api/organisations?page=5","current_page":4,"total":1009,"pages":51,"page_size":20,"start_index":61,"_response_info":{"status":"ok","links":[{"href":"https://www.gov.uk/api/organisations?page=3","rel":"previous"},{"href":"https://www.gov.uk/api/organisations?page=5","rel":"next"},{"href":"https://www.gov.uk/api/organisations?page=4","rel":"self"}]}}
