{"results":[{"id":"https://www.gov.uk/api/organisations/creative-scotland","title":"Creative Scotland","format":"Other","updated_at":"2014-10-15T15:38:26.000+01:00","web_url":"https://www.gov.uk/government/organisations/creative-scotland","details":{"slug":"creative-scotland","abbreviation":"","logo_formatted_name":"Creative Scotland","organisation_brand_colour_class_name":null,"organisation_logo_type_class_name":"single-identity","closed_at":null,"govuk_status":"closed","content_id":"078b2824-81d7-4f5e-9d0e-ae39a0b8174f"},"analytics_identifier":"OT964","parent_organisations":[],"child_organisations":[]},{"id":"https://www.gov.uk/api/organisations/hillsborough-independent-panel","title":"Hillsborough Independent Panel","format":"Other","updated_at":"2014-10-15T15:38:26.000+01:00","web_url":"https://www.gov.uk/government/organisations/hillsborough-independent-panel","details":{"slug":"hillsborough-independent-panel","abbreviation":null,"logo_formatted_name":"Hillsborough Independent Panel","organisation_brand_colour_class_name":null,"organisation_logo_type_class_name":"single-identity","closed_at":null,"govuk_status":"closed","content_id":"3d408056-3956-450f-b2fb-367bea521c19"},"analytics_identifier":"OT966","parent_organisations":[],"child_organisations":[]},{"id":"https://www.gov.uk/api/organisations/leveson-inquiry","title":"Leveson Inquiry","format":"Other","updated_at":"2014-10-15T15:38:26.000+01:00","web_url":"https://www.gov.uk/government/organisations/leveson-inquiry","details":{"slug":"leveson-inquiry","abbreviation":null,"logo_formatted_name":"Leveson Inquiry","organisation_brand_colour_class_name":null,"organisation_logo_type_class_name":"single-identity","closed_at":null,"govuk_status":"closed","content_id":"5b839aab-4da2-43a4-8408-d79d2f151ec9"},"analytics_identifier":"OT967","parent_organisations":[],"child_organisations":[]},{"id":"https://www.gov.uk/api/organisations/patrick-finucane-review","title":"Patrick Finucane Review","format":"Other","updated_at":"2014-10-15T15:38:27.000+01:00","web_url":"https://www.gov.uk/government/organisations/patrick-finucane-review","details":{"slug":"patrick-finucane-review","abbreviation":null,"logo_formatted_name":"Patrick Finucane Review","organisation_brand_colour_class_name":null,"organisation_logo_type_class_name":"single-identity","closed_at":null,"govuk_status":"closed","content_id":"127a870f-fa7e-4bd5-bcb2-6c89d0c41fab"},"analytics_identifier":"OT968","parent_organisations":[],"child_organisations":[]},{"id":"https://www.gov.uk/api/organisations/mid-staffordshire-nhs-foundation-trust-public-inquiry","title":"Mid Staffordshire NHS Foundation Trust Public Inquiry 2013","format":"Other","updated_at":"2014-10-15T15:38:27.000+01:00","web_url":"https://www.gov.uk/government/organisations/mid-staffordshire-nhs-foundation-trust-public-inquiry","details":{"slug":"mid-staffordshire-nhs-foundation-trust-public-inquiry","abbreviation":"","logo_formatted_name":"Mid Staffordshire NHS Foundation Trust Public Inquiry 2013","organisation_brand_colour_class_name":null,"organisation_logo_type_class_name":"no-identity","closed_at":null,"govuk_status":"closed","content_id":"a1e032af-26f3-4d15-8557-06aa981254c0"},"analytics_identifier":"OT969","parent_organisations":[],"child_organisations":[]},{"id":"https://www.gov.uk/api/organisations/royal-mail","title":"Royal Mail","format":"Public corporation","updated_at":"2014-10-15T15:38:27.000+01:00","web_url":"https://www.gov.uk/government/organisations/royal-mail","details":{"slug":"royal-mail","abbreviation":null,"logo_formatted_name":"Royal Mail","organisation_brand_colour_class_name":null,"organisation_logo_type_class_name":"single-identity","closed_at":null,"govuk_status":"closed","content_id":"ea21a030-0274-412b-a768-deaa5acf2abe"},"analytics_identifier":"PC970","parent_organisations":[],"child_organisations":[]},{"id":"https://www.gov.uk/api/organisations/professional-standards-authority-for-health-and-social-care","title":"Professional Standards Authority for Health and Social Care","format":"Other","updated_at":"2015-06-29T13:45:04.000+01:00","web_url":"https://www.gov.uk/government/organisations/professional-standards-authority-for-health-and-social-care","details":{"slug":"professional-standards-authority-for-health-and-social-care","abbreviation":"","logo_formatted_name":"Professional Standards Authority for Health and Social Care","organisation_brand_colour_class_name":null,"organisation_logo_type_class_name":"single-identity","closed_at":null,"govuk_status":"exempt","content_id":"c50c586a-2aea-4f32-8072-641c9d9227ec"},"analytics_identifier":"OT971","parent_organisations":[],"child_organisations":[]},{"id":"https://www.gov.uk/api/organisations/azelle-rodney-inquiry","title":"Azelle Rodney Inquiry","format":"Other","updated_at":"2014-10-15T15:38:28.000+01:00","web_url":"https://www.gov.uk/government/organisations/azelle-rodney-inquiry","details":{"slug":"azelle-rodney-inquiry","abbreviation":"","logo_formatted_name":"Azelle Rodney Inquiry","organisation_brand_colour_class_name":null,"organisation_logo_type_class_name":"single-identity","closed_at":null,"govuk_status":"closed","content_id":"e565ba1d-e163-4d2a-9c73-458313e03045"},"analytics_identifier":"OT972","parent_organisations":[],"child_organisations":[]},{"id":"https://www.gov.uk/api/organisations/council-on-tribunals","title":"Council on Tribunals","format":"Tribunal non-departmental public body","updated_at":"2014-10-15T15:38:28.000+01:00","web_url":"https://www.gov.uk/government/organisations/council-on-tribunals","details":{"slug":"council-on-tribunals","abbreviation":null,"logo_formatted_name":"Council on Tribunals","organisation_brand_colour_class_name":null,"organisation_logo_type_class_name":"single-identity","closed_at":null,"govuk_status":"closed","content_id":"1436a264-9b63-4249-954a-3bd29ecc52e0"},"analytics_identifier":"PB973","parent_organisations":[],"child_organisations":[]},{"id":"https://www.gov.uk/api/organisations/exchequer-and-audit-department","title":"Exchequer and Audit Department","format":"Ministerial department","updated_at":"2014-10-15T15:38:28.000+01:00","web_url":"https://www.gov.uk/government/organisations/exchequer-and-audit-department","details":{"slug":"exchequer-and-audit-department","abbreviation":null,"logo_formatted_name":"Exchequer and Audit Department","organisation_brand_colour_class_name":null,"organisation_logo_type_class_name":"single-identity","closed_at":null,"govuk_status":"closed","content_id":"c73fa7ab-6a62-4fb1-890b-d1b1469ad69b"},"analytics_identifier":"D974","parent_organisations":[],"child_organisations":[]},{"id":"https://www.gov.uk/api/organisations/nature-conservancy-council","title":"Nature Conservancy Council","format":"Other","updated_at":"2014-10-15T15:38:29.000+01:00","web_url":"https://www.gov.uk/government/organisations/nature-conservancy-council","details":{"slug":"nature-conservancy-council","abbreviation":null,"logo_formatted_name":"Nature Conservancy Council","organisation_brand_colour_class_name":null,"organisation_logo_type_class_name":"single-identity","closed_at":null,"govuk_status":"closed","content_id":"1931848c-976e-4336-aae0-493d16945626"},"analytics_identifier":"OT975","parent_organisations":[],"child_organisations":[]},{"id":"https://www.gov.uk/api/organisations/office-of-the-lay-observer","title":"Office of the Lay Observer","format":"Other","updated_at":"2014-10-15T15:38:29.000+01:00","web_url":"https://www.gov.uk/government/organisations/office-of-the-lay-observer","details":{"slug":"office-of-the-lay-observer","abbreviation":null,"logo_formatted_name":"Office of the Lay Observer","organisation_brand_colour_class_name":null,"organisation_logo_type_class_name":"single-identity","closed_at":null,"govuk_status":"closed","content_id":"1614a3bd-75fb-4148-be98-485a274807bc"},"analytics_identifier":"OT976","parent_organisations":[],"child_organisations":[]},{"id":"https://www.gov.uk/api/organisations/office-of-telecommunications","title":"Office of Telecommunications","format":"Other","updated_at":"2014-10-15T15:38:29.000+01:00","web_url":"https://www.gov.uk/government/organisations/office-of-telecommunications","details":{"slug":"office-of-telecommunications","abbreviation":null,"logo_formatted_name":"Office of Telecommunications","organisation_brand_colour_class_name":null,"organisation_logo_type_class_name":"single-identity","closed_at":null,"govuk_status":"closed","content_id":"f8af3592-128c-44d6-9986-e15554f2f6fd"},"analytics_identifier":"OT977","parent_organisations":[],"child_organisations":[]},{"id":"https://www.gov.uk/api/organisations/oftel","title":"Oftel","format":"Other","updated_at":"2014-10-15T15:38:29.000+01:00","web_url":"https://www.gov.uk/government/organisations/oftel","details":{"slug":"oftel","abbreviation":null,"logo_formatted_name":"Oftel","organisation_brand_colour_class_name":null,"organisation_logo_type_class_name":"single-identity","closed_at":null,"govuk_status":"closed","content_id":"5b2ccfca-d9ab-42d3-9fe3-9b525b807d78"},"analytics_identifier":"OT978","parent_organisations":[],"child_organisations":[]},{"id":"https://www.gov.uk/api/organisations/office-of-the-data-protection-registrar","title":"Office of the Data Protection Registrar","format":"Other","updated_at":"2014-10-15T15:38:29.000+01:00","web_url":"https://www.gov.uk/government/organisations/office-of-the-data-protection-registrar","details":{"slug":"office-of-the-data-protection-registrar","abbreviation":null,"logo_formatted_name":"Office of the Data Protection Registrar","organisation_brand_colour_class_name":null,"organisation_logo_type_class_name":"single-identity","closed_at":null,"govuk_status":"closed","content_id":"648124a4-a97a-44bd-8aec-5353b8692c34"},"analytics_identifier":"OT979","parent_organisations":[],"child_organisations":[]},{"id":"https://www.gov.uk/api/organisations/polytechnics-and-colleges-funding-council","title":"Polytechnics and Colleges Funding Council","format":"Other","updated_at":"2014-10-15T15:38:30.000+01:00","web_url":"https://www.gov.uk/government/organisations/polytechnics-and-colleges-funding-council","details":{"slug":"polytechnics-and-colleges-funding-council","abbreviation":null,"logo_formatted_name":"Polytechnics and Colleges Funding Council","organisation_brand_colour_class_name":null,"organisation_logo_type_class_name":"single-identity","closed_at":null,"govuk_status":"closed","content_id":"2f061ea2-fa78-4244-8460-410bfc7b71d8"},"analytics_identifier":"OT980","parent_organisations":[],"child_organisations":[]},{"id":"https://www.gov.uk/api/organisations/inquiry-into-the-supervision-of-the-bank-of-credit-and-commerce-international","title":"Inquiry into the supervision of the Bank of Credit and Commerce International","format":"Other","updated_at":"2014-10-15T15:38:30.000+01:00","web_url":"https://www.gov.uk/government/organisations/inquiry-into-the-supervision-of-the-bank-of-credit-and-commerce-international","details":{"slug":"inquiry-into-the-supervision-of-the-bank-of-credit-and-commerce-international","abbreviation":null,"logo_formatted_name":"Inquiry into the supervision of the Bank of Credit and Commerce International","organisation_brand_colour_class_name":null,"organisation_logo_type_class_name":"single-identity","closed_at":null,"govuk_status":"closed","content_id":"0398096c-6742-4cf3-934a-09fa70309beb"},"analytics_identifier":"OT984","parent_organisations":[],"child_organisations":[]},{"id":"https://www.gov.uk/api/organisations/national-museums-of-scotland","title":"National Museums of Scotland","format":"Other","updated_at":"2014-10-15T15:38:30.000+01:00","web_url":"https://www.gov.uk/government/organisations/national-museums-of-scotland","details":{"slug":"national-museums-of-scotland","abbreviation":"","logo_formatted_name":"National Museums of Scotland","organisation_brand_colour_class_name":null,"organisation_logo_type_class_name":"single-identity","closed_at":null,"govuk_status":"closed","content_id":"f55dfd8e-169c-4d71-880c-49ced68db645"},"analytics_identifier":"OT987","parent_organisations":[],"child_organisations":[]},{"id":"https://www.gov.uk/api/organisations/ancient-monuments-board-for-scotland","title":"Ancient Monuments Board for Scotland","format":"Other","updated_at":"2014-10-15T15:38:31.000+01:00","web_url":"https://www.gov.uk/government/organisations/ancient-monuments-board-for-scotland","details":{"slug":"ancient-monuments-board-for-scotland","abbreviation":null,"logo_formatted_name":"Ancient Monuments Board for Scotland","organisation_brand_colour_class_name":null,"organisation_logo_type_class_name":"single-identity","closed_at":null,"govuk_status":"closed","content_id":"587c86e7-cda5-45d6-9bab-9f331ac451ba"},"analytics_identifier":"OT988","parent_organisations":[],"child_organisations":[]},{"id":"https://www.gov.uk/api/organisations/scottish-hospital-trust","title":"Scottish Hospital Trust","format":"Other","updated_at":"2014-10-15T15:38:31.000+01:00","web_url":"https://www.gov.uk/government/organisations/scottish-hospital-trust","details":{"slug":"scottish-hospital-trust","abbreviation":null,"logo_formatted_name":"Scottish Hospital Trust","organisation_brand_colour_class_name":null,"organisation_logo_type_class_name":"single-identity","closed_at":null,"govuk_status":"closed","content_id":"80f55380-0cb7-48dc-8306-c2c614f8e49e"},"analytics_identifier":"OT989","parent_organisations":[],"child_organisations":[]}],"previous_page_url":"https://www.gov.uk/api/organisations?page=39","next_page_url":"https://www.gov.uk/api/organisations?page=41","current_page":40,"total":1009,"pages":51,"page_size":20,"start_index":781,"_response_info":{"status":"ok","links":[{"href":"https://www.gov.uk/api/organisations?page=39","rel":"previous"},{"href":"https://www.gov.uk/api/organisations?page=41","rel":"next"},{"href":"https://www.gov.uk/api/organisations?page=40","rel":"self"}]}}
