{"results":[{"id":"https://www.gov.uk/api/organisations/welsh-development-agency","title":"Welsh Development Agency","format":"Other","updated_at":"2014-10-15T15:38:31.000+01:00","web_url":"https://www.gov.uk/government/organisations/welsh-development-agency","details":{"slug":"welsh-development-agency","abbreviation":null,"logo_formatted_name":"Welsh Development Agency","organisation_brand_colour_class_name":null,"organisation_logo_type_class_name":"single-identity","closed_at":null,"govuk_status":"closed","content_id":"db2b1579-2719-4135-9e6f-b440458d5bdf"},"analytics_identifier":"OT991","parent_organisations":[],"child_organisations":[]},{"id":"https://www.gov.uk/api/organisations/chemical-and-biological-defence-establishment","title":"Chemical and Biological Defence Establishment","format":"Other","updated_at":"2014-10-15T15:38:31.000+01:00","web_url":"https://www.gov.uk/government/organisations/chemical-and-biological-defence-establishment","details":{"slug":"chemical-and-biological-defence-establishment","abbreviation":null,"logo_formatted_name":"Chemical and Biological Defence Establishment","organisation_brand_colour_class_name":null,"organisation_logo_type_class_name":"single-identity","closed_at":null,"govuk_status":"closed","content_id":"20efcd47-548b-467a-81d6-40c39f75eb98"},"analytics_identifier":"OT992","parent_organisations":[],"child_organisations":[]},{"id":"https://www.gov.uk/api/organisations/department-of-national-heritage","title":"Department of National Heritage","format":"Other","updated_at":"2015-03-09T20:00:50.000+00:00","web_url":"https://www.gov.uk/government/organisations/department-of-national-heritage","details":{"slug":"department-of-national-heritage","abbreviation":"","logo_formatted_name":"Department of National Heritage","organisation_brand_colour_class_name":null,"organisation_logo_type_class_name":"single-identity","closed_at":null,"govuk_status":"closed","content_id":"364a9362-9244-476c-8a9b-c124a4e96bc6"},"analytics_identifier":"OT993","parent_organisations":[],"child_organisations":[]},{"id":"https://www.gov.uk/api/organisations/legal-aid-board","title":"Legal Aid Board","format":"Other","updated_at":"2014-10-15T15:38:32.000+01:00","web_url":"https://www.gov.uk/government/organisations/legal-aid-board","details":{"slug":"legal-aid-board","abbreviation":null,"logo_formatted_name":"Legal Aid Board","organisation_brand_colour_class_name":null,"organisation_logo_type_class_name":"single-identity","closed_at":null,"govuk_status":"closed","content_id":"de981232-d406-4d7f-adc7-046c3f908815"},"analytics_identifier":"OT994","parent_organisations":[],"child_organisations":[]},{"id":"https://www.gov.uk/api/organisations/independent-television-commission","title":"Independent Television Commission","format":"Other","updated_at":"2014-10-15T15:38:32.000+01:00","web_url":"https://www.gov.uk/government/organisations/independent-television-commission","details":{"slug":"independent-television-commission","abbreviation":null,"logo_formatted_name":"Independent Television Commission","organisation_brand_colour_class_name":null,"organisation_logo_type_class_name":"single-identity","closed_at":null,"govuk_status":"closed","content_id":"ddfa93be-6593-4dd8-bcf1-dd5fe5654b0d"},"analytics_identifier":"OT995","parent_organisations":[],"child_organisations":[]},{"id":"https://www.gov.uk/api/organisations/board-of-banking-supervision","title":"Board of Banking Supervision","format":"Other","updated_at":"2014-10-15T15:38:32.000+01:00","web_url":"https://www.gov.uk/government/organisations/board-of-banking-supervision","details":{"slug":"board-of-banking-supervision","abbreviation":null,"logo_formatted_name":"Board of Banking Supervision","organisation_brand_colour_class_name":null,"organisation_logo_type_class_name":"single-identity","closed_at":null,"govuk_status":"closed","content_id":"087b327e-143f-44a0-8f39-53ca88b3685e"},"analytics_identifier":"OT996","parent_organisations":[],"child_organisations":[]},{"id":"https://www.gov.uk/api/organisations/her-majestys-magistrates-courts-servuce-inspectorate","title":"Her Majesty's Magistrates Courts Service Inspectorate","format":"Other","updated_at":"2014-10-15T15:38:33.000+01:00","web_url":"https://www.gov.uk/government/organisations/her-majestys-magistrates-courts-servuce-inspectorate","details":{"slug":"her-majestys-magistrates-courts-servuce-inspectorate","abbreviation":"","logo_formatted_name":"Her Majesty's Magistrates Courts Service Inspectorate","organisation_brand_colour_class_name":null,"organisation_logo_type_class_name":"single-identity","closed_at":null,"govuk_status":"closed","content_id":"08affd57-9f22-45f5-b416-a66d8232498d"},"analytics_identifier":"OT997","parent_organisations":[{"id":"https://www.gov.uk/api/organisations/ministry-of-justice","web_url":"https://www.gov.uk/government/organisations/ministry-of-justice"}],"child_organisations":[]},{"id":"https://www.gov.uk/api/organisations/examination-team-on-child-care-procedures-and-practice-in-north-wales","title":"Examination team on child care procedures and practice in North Wales","format":"Other","updated_at":"2014-10-15T15:38:33.000+01:00","web_url":"https://www.gov.uk/government/organisations/examination-team-on-child-care-procedures-and-practice-in-north-wales","details":{"slug":"examination-team-on-child-care-procedures-and-practice-in-north-wales","abbreviation":null,"logo_formatted_name":"Examination team on child care procedures and practice in North Wales","organisation_brand_colour_class_name":null,"organisation_logo_type_class_name":"single-identity","closed_at":null,"govuk_status":"closed","content_id":"32d0dfd9-68ba-4bf6-8373-7eebaf5f9c7e"},"analytics_identifier":"OT998","parent_organisations":[],"child_organisations":[]},{"id":"https://www.gov.uk/api/organisations/natural-resources-institute","title":"Natural Resources Institute","format":"Other","updated_at":"2015-09-09T15:44:25.000+01:00","web_url":"https://www.gov.uk/government/organisations/natural-resources-institute","details":{"slug":"natural-resources-institute","abbreviation":"","logo_formatted_name":"Natural Resources Institute","organisation_brand_colour_class_name":null,"organisation_logo_type_class_name":"single-identity","closed_at":null,"govuk_status":"closed","content_id":"e7a4a731-61bd-487d-8114-ecfa2f3bfad9"},"analytics_identifier":"OT999","parent_organisations":[],"child_organisations":[]},{"id":"https://www.gov.uk/api/organisations/further-and-higher-education-funding-councils-for-wales","title":"Further and Higher Education Funding Councils for Wales","format":"Other","updated_at":"2014-10-15T15:38:33.000+01:00","web_url":"https://www.gov.uk/government/organisations/further-and-higher-education-funding-councils-for-wales","details":{"slug":"further-and-higher-education-funding-councils-for-wales","abbreviation":"","logo_formatted_name":"Further and Higher Education Funding Councils for Wales","organisation_brand_colour_class_name":null,"organisation_logo_type_class_name":"single-identity","closed_at":null,"govuk_status":"closed","content_id":"8ee59143-039e-4c20-b02e-46281cee3302"},"analytics_identifier":"OT1000","parent_organisations":[],"child_organisations":[]},{"id":"https://www.gov.uk/api/organisations/broadcasting-standards-commission","title":"Broadcasting Standards Commission","format":"Other","updated_at":"2014-10-15T15:38:34.000+01:00","web_url":"https://www.gov.uk/government/organisations/broadcasting-standards-commission","details":{"slug":"broadcasting-standards-commission","abbreviation":null,"logo_formatted_name":"Broadcasting Standards Commission","organisation_brand_colour_class_name":null,"organisation_logo_type_class_name":"single-identity","closed_at":null,"govuk_status":"closed","content_id":"a9a22756-c149-4495-85d3-7d94213bf4fd"},"analytics_identifier":"OT1001","parent_organisations":[],"child_organisations":[]},{"id":"https://www.gov.uk/api/organisations/department-of-the-environment-transport-and-the-regions","title":"Department of the Environment, Transport and the Regions","format":"Other","updated_at":"2015-03-09T20:00:50.000+00:00","web_url":"https://www.gov.uk/government/organisations/department-of-the-environment-transport-and-the-regions","details":{"slug":"department-of-the-environment-transport-and-the-regions","abbreviation":"","logo_formatted_name":"Department of the Environment, Transport and the Regions","organisation_brand_colour_class_name":null,"organisation_logo_type_class_name":"single-identity","closed_at":null,"govuk_status":"closed","content_id":"971eb79c-9236-47ff-9af1-b32c835a88fc"},"analytics_identifier":"OT1002","parent_organisations":[],"child_organisations":[]},{"id":"https://www.gov.uk/api/organisations/northern-ireland-judicial-appointments-ombudsman","title":"Northern Ireland Judicial Appointments Ombudsman","format":"Other","updated_at":"2014-10-15T15:38:34.000+01:00","web_url":"https://www.gov.uk/government/organisations/northern-ireland-judicial-appointments-ombudsman","details":{"slug":"northern-ireland-judicial-appointments-ombudsman","abbreviation":"","logo_formatted_name":"Northern Ireland Judicial Appointments Ombudsman","organisation_brand_colour_class_name":null,"organisation_logo_type_class_name":"single-identity","closed_at":null,"govuk_status":"closed","content_id":"0124ff6b-5aec-4263-9760-6b199fea71b7"},"analytics_identifier":"OT1003","parent_organisations":[],"child_organisations":[]},{"id":"https://www.gov.uk/api/organisations/united-kingdom-blood-transfusion-services","title":"United Kingdom Blood Transfusion Services","format":"Other","updated_at":"2014-10-15T15:38:34.000+01:00","web_url":"https://www.gov.uk/government/organisations/united-kingdom-blood-transfusion-services","details":{"slug":"united-kingdom-blood-transfusion-services","abbreviation":null,"logo_formatted_name":"United Kingdom Blood Transfusion Services","organisation_brand_colour_class_name":null,"organisation_logo_type_class_name":"single-identity","closed_at":null,"govuk_status":"closed","content_id":"2f7af2ff-fde9-425b-9dfd-3b5e1e50fe3b"},"analytics_identifier":"OT1004","parent_organisations":[],"child_organisations":[]},{"id":"https://www.gov.uk/api/organisations/gowers-review-of-intellectual-property","title":"Gowers Review of Intellectual Property","format":"Other","updated_at":"2014-10-15T15:38:35.000+01:00","web_url":"https://www.gov.uk/government/organisations/gowers-review-of-intellectual-property","details":{"slug":"gowers-review-of-intellectual-property","abbreviation":null,"logo_formatted_name":"Gowers Review of Intellectual Property","organisation_brand_colour_class_name":null,"organisation_logo_type_class_name":"single-identity","closed_at":null,"govuk_status":"closed","content_id":"8e01a076-3a77-4272-a812-708177719de1"},"analytics_identifier":"OT1005","parent_organisations":[],"child_organisations":[]},{"id":"https://www.gov.uk/api/organisations/barker-review-of-land-use-planning","title":"Barker Review of Land Use Planning","format":"Other","updated_at":"2014-10-15T15:38:35.000+01:00","web_url":"https://www.gov.uk/government/organisations/barker-review-of-land-use-planning","details":{"slug":"barker-review-of-land-use-planning","abbreviation":null,"logo_formatted_name":"Barker Review of Land Use Planning","organisation_brand_colour_class_name":null,"organisation_logo_type_class_name":"single-identity","closed_at":null,"govuk_status":"closed","content_id":"ece8df9c-9ca9-4e72-95d3-75526ad51dc6"},"analytics_identifier":"OT1006","parent_organisations":[],"child_organisations":[]},{"id":"https://www.gov.uk/api/organisations/leitch-review-of-skills","title":"Leitch Review of Skills","format":"Other","updated_at":"2014-10-15T15:38:35.000+01:00","web_url":"https://www.gov.uk/government/organisations/leitch-review-of-skills","details":{"slug":"leitch-review-of-skills","abbreviation":null,"logo_formatted_name":"Leitch Review of Skills","organisation_brand_colour_class_name":null,"organisation_logo_type_class_name":"single-identity","closed_at":null,"govuk_status":"closed","content_id":"a3b51c30-7f49-4250-86f7-7249eb08d5e7"},"analytics_identifier":"OT1007","parent_organisations":[],"child_organisations":[]},{"id":"https://www.gov.uk/api/organisations/cooksey-review","title":"Cooksey Review","format":"Other","updated_at":"2014-10-15T15:38:36.000+01:00","web_url":"https://www.gov.uk/government/organisations/cooksey-review","details":{"slug":"cooksey-review","abbreviation":null,"logo_formatted_name":"Cooksey Review","organisation_brand_colour_class_name":null,"organisation_logo_type_class_name":"single-identity","closed_at":null,"govuk_status":"closed","content_id":"b32dc857-095d-4a57-83d2-bd3f792a6d9b"},"analytics_identifier":"OT1008","parent_organisations":[],"child_organisations":[]},{"id":"https://www.gov.uk/api/organisations/varney-review","title":"Varney Review","format":"Other","updated_at":"2014-10-15T15:38:36.000+01:00","web_url":"https://www.gov.uk/government/organisations/varney-review","details":{"slug":"varney-review","abbreviation":null,"logo_formatted_name":"Varney Review","organisation_brand_colour_class_name":null,"organisation_logo_type_class_name":"single-identity","closed_at":null,"govuk_status":"closed","content_id":"6679c561-6bcf-45b4-9b90-1e7ad62aa12e"},"analytics_identifier":"OT1009","parent_organisations":[],"child_organisations":[]},{"id":"https://www.gov.uk/api/organisations/eliasch-review","title":"Eliasch Review","format":"Other","updated_at":"2014-10-15T15:38:36.000+01:00","web_url":"https://www.gov.uk/government/organisations/eliasch-review","details":{"slug":"eliasch-review","abbreviation":null,"logo_formatted_name":"Eliasch Review","organisation_brand_colour_class_name":null,"organisation_logo_type_class_name":"single-identity","closed_at":null,"govuk_status":"closed","content_id":"d5ea213f-706b-4980-afd7-5e3d2bfbf60b"},"analytics_identifier":"OT1010","parent_organisations":[],"child_organisations":[]}],"previous_page_url":"https://www.gov.uk/api/organisations?page=40","next_page_url":"https://www.gov.uk/api/organisations?page=42","current_page":41,"total":1009,"pages":51,"page_size":20,"start_index":801,"_response_info":{"status":"ok","links":[{"href":"https://www.gov.uk/api/organisations?page=40","rel":"previous"},{"href":"https://www.gov.uk/api/organisations?page=42","rel":"next"},{"href":"https://www.gov.uk/api/organisations?page=41","rel":"self"}]}}
