{"results":[{"id":"https://www.gov.uk/api/organisations/veterinary-residues-committee","title":"Veterinary Residues Committee","format":"Other","updated_at":"2015-08-24T11:56:56.000+01:00","web_url":"https://www.gov.uk/government/organisations/veterinary-residues-committee","details":{"slug":"veterinary-residues-committee","abbreviation":"VRC","logo_formatted_name":"Veterinary Residues Committee","organisation_brand_colour_class_name":"department-for-environment-food-rural-affairs","organisation_logo_type_class_name":"single-identity","closed_at":null,"govuk_status":"closed","content_id":"b6e97f48-b9f1-49da-b3ab-b752d3b38d89"},"analytics_identifier":"OT1011","parent_organisations":[{"id":"https://www.gov.uk/api/organisations/department-for-environment-food-rural-affairs","web_url":"https://www.gov.uk/government/organisations/department-for-environment-food-rural-affairs"}],"child_organisations":[]},{"id":"https://www.gov.uk/api/organisations/administrative-justice-and-tribunals-council-welsh-committee","title":"Administrative Justice and Tribunals Council Welsh Committee","format":"Other","updated_at":"2014-10-15T15:38:37.000+01:00","web_url":"https://www.gov.uk/government/organisations/administrative-justice-and-tribunals-council-welsh-committee","details":{"slug":"administrative-justice-and-tribunals-council-welsh-committee","abbreviation":null,"logo_formatted_name":"Administrative Justice and Tribunals Council Welsh Committee","organisation_brand_colour_class_name":null,"organisation_logo_type_class_name":"single-identity","closed_at":null,"govuk_status":"closed","content_id":"d2244c73-ad80-4d70-a992-1ae2d0a1d288"},"analytics_identifier":"OT1012","parent_organisations":[],"child_organisations":[]},{"id":"https://www.gov.uk/api/organisations/lyons-inquiry-into-local-government","title":"Lyons Inquiry into Local Government","format":"Other","updated_at":"2014-10-15T15:38:37.000+01:00","web_url":"https://www.gov.uk/government/organisations/lyons-inquiry-into-local-government","details":{"slug":"lyons-inquiry-into-local-government","abbreviation":null,"logo_formatted_name":"Lyons Inquiry into Local Government","organisation_brand_colour_class_name":null,"organisation_logo_type_class_name":"single-identity","closed_at":null,"govuk_status":"closed","content_id":"4004d8b5-7af8-4257-b431-ee93170d753b"},"analytics_identifier":"OT1013","parent_organisations":[],"child_organisations":[]},{"id":"https://www.gov.uk/api/organisations/office-of-the-identity-commissioner","title":"Office of the Identity Commissioner","format":"Other","updated_at":"2014-10-15T15:38:37.000+01:00","web_url":"https://www.gov.uk/government/organisations/office-of-the-identity-commissioner","details":{"slug":"office-of-the-identity-commissioner","abbreviation":null,"logo_formatted_name":"Office of the Identity Commissioner","organisation_brand_colour_class_name":null,"organisation_logo_type_class_name":"single-identity","closed_at":null,"govuk_status":"closed","content_id":"be223e92-2c4f-428a-9a5d-6bf2a6bcf2f6"},"analytics_identifier":"OT1014","parent_organisations":[],"child_organisations":[]},{"id":"https://www.gov.uk/api/organisations/crown-commercial-service","title":"Crown Commercial Service","format":"Executive agency","updated_at":"2015-12-02T15:05:08.000+00:00","web_url":"https://www.gov.uk/government/organisations/crown-commercial-service","details":{"slug":"crown-commercial-service","abbreviation":"CCS","logo_formatted_name":"Crown\r\nCommercial \r\nService","organisation_brand_colour_class_name":"cabinet-office","organisation_logo_type_class_name":"single-identity","closed_at":null,"govuk_status":"live","content_id":"8437e374-dfa7-4b52-bd88-ebc29032a9e4"},"analytics_identifier":"EA1015","parent_organisations":[{"id":"https://www.gov.uk/api/organisations/cabinet-office","web_url":"https://www.gov.uk/government/organisations/cabinet-office"}],"child_organisations":[]},{"id":"https://www.gov.uk/api/organisations/bank-of-england","title":"Bank of England","format":"Other","updated_at":"2014-10-15T15:38:38.000+01:00","web_url":"https://www.gov.uk/government/organisations/bank-of-england","details":{"slug":"bank-of-england","abbreviation":"","logo_formatted_name":"Bank of\r\nEngland","organisation_brand_colour_class_name":null,"organisation_logo_type_class_name":"single-identity","closed_at":null,"govuk_status":"exempt","content_id":"b8a83a88-3a0f-4c41-8c68-95fc71a0d477"},"analytics_identifier":"OT1016","parent_organisations":[{"id":"https://www.gov.uk/api/organisations/treasury-solicitor-s-department","web_url":"https://www.gov.uk/government/organisations/treasury-solicitor-s-department"}],"child_organisations":[]},{"id":"https://www.gov.uk/api/organisations/independent-medical-expert-group","title":"Independent Medical Expert Group","format":"Advisory non-departmental public body","updated_at":"2014-10-15T15:38:38.000+01:00","web_url":"https://www.gov.uk/government/organisations/independent-medical-expert-group","details":{"slug":"independent-medical-expert-group","abbreviation":"IMEG","logo_formatted_name":"Independent Medical Expert Group","organisation_brand_colour_class_name":"ministry-of-defence","organisation_logo_type_class_name":"mod","closed_at":null,"govuk_status":"live","content_id":"b87c5464-1fe2-4385-8990-790cd585b931"},"analytics_identifier":"PB1017","parent_organisations":[{"id":"https://www.gov.uk/api/organisations/ministry-of-defence","web_url":"https://www.gov.uk/government/organisations/ministry-of-defence"}],"child_organisations":[]},{"id":"https://www.gov.uk/api/organisations/mid-staffordshire-nhs-foundation-trust-public-inquiry-2010","title":"Mid Staffordshire NHS Foundation Trust Public Inquiry 2010","format":"Other","updated_at":"2014-10-15T15:38:38.000+01:00","web_url":"https://www.gov.uk/government/organisations/mid-staffordshire-nhs-foundation-trust-public-inquiry-2010","details":{"slug":"mid-staffordshire-nhs-foundation-trust-public-inquiry-2010","abbreviation":"","logo_formatted_name":"Mid Staffordshire NHS Foundation Trust Public Inquiry 2010","organisation_brand_colour_class_name":null,"organisation_logo_type_class_name":"no-identity","closed_at":null,"govuk_status":"closed","content_id":"4d24733b-7b00-481f-b16c-6cd80e4ac632"},"analytics_identifier":"OT1018","parent_organisations":[],"child_organisations":[]},{"id":"https://www.gov.uk/api/organisations/welsh-government","title":"Welsh Government","format":"Devolved administration","updated_at":"2014-10-15T15:38:39.000+01:00","web_url":"https://www.gov.uk/government/organisations/welsh-government","details":{"slug":"welsh-government","abbreviation":"","logo_formatted_name":"Welsh\r\nGovernment","organisation_brand_colour_class_name":null,"organisation_logo_type_class_name":"no-identity","closed_at":null,"govuk_status":"exempt","content_id":"cb0a039c-a89d-4143-8277-67e18c16c6bf"},"analytics_identifier":"DA1019","parent_organisations":[],"child_organisations":[{"id":"https://www.gov.uk/api/organisations/planning-inspectorate","web_url":"https://www.gov.uk/government/organisations/planning-inspectorate"},{"id":"https://www.gov.uk/api/organisations/uk-co-ordinating-body","web_url":"https://www.gov.uk/government/organisations/uk-co-ordinating-body"},{"id":"https://www.gov.uk/api/organisations/animal-and-plant-health-agency","web_url":"https://www.gov.uk/government/organisations/animal-and-plant-health-agency"},{"id":"https://www.gov.uk/api/organisations/careers-wales","web_url":"https://www.gov.uk/government/organisations/careers-wales"},{"id":"https://www.gov.uk/api/organisations/natural-resources-wales","web_url":"https://www.gov.uk/government/organisations/natural-resources-wales"}]},{"id":"https://www.gov.uk/api/organisations/the-scottish-government","title":"The Scottish Government","format":"Devolved administration","updated_at":"2015-02-20T15:03:30.000+00:00","web_url":"https://www.gov.uk/government/organisations/the-scottish-government","details":{"slug":"the-scottish-government","abbreviation":"The Scottish Government","logo_formatted_name":"The Scottish \r\nGovernment","organisation_brand_colour_class_name":null,"organisation_logo_type_class_name":"no-identity","closed_at":null,"govuk_status":"exempt","content_id":"f4eaf4ab-3bf0-4c6e-b35c-852eaaa695d9"},"analytics_identifier":"DA1020","parent_organisations":[],"child_organisations":[{"id":"https://www.gov.uk/api/organisations/uk-co-ordinating-body","web_url":"https://www.gov.uk/government/organisations/uk-co-ordinating-body"},{"id":"https://www.gov.uk/api/organisations/animal-and-plant-health-agency","web_url":"https://www.gov.uk/government/organisations/animal-and-plant-health-agency"}]},{"id":"https://www.gov.uk/api/organisations/northern-ireland-executive","title":"Northern Ireland Executive ","format":"Devolved administration","updated_at":"2014-10-15T15:38:39.000+01:00","web_url":"https://www.gov.uk/government/organisations/northern-ireland-executive","details":{"slug":"northern-ireland-executive","abbreviation":"","logo_formatted_name":"Northern Ireland Executive ","organisation_brand_colour_class_name":null,"organisation_logo_type_class_name":"no-identity","closed_at":null,"govuk_status":"exempt","content_id":"2aecc4c9-6ef3-43fb-9a82-987e3321db25"},"analytics_identifier":"DA1021","parent_organisations":[],"child_organisations":[{"id":"https://www.gov.uk/api/organisations/northern-ireland-audit-office","web_url":"https://www.gov.uk/government/organisations/northern-ireland-audit-office"},{"id":"https://www.gov.uk/api/organisations/social-security-agency","web_url":"https://www.gov.uk/government/organisations/social-security-agency"},{"id":"https://www.gov.uk/api/organisations/uk-co-ordinating-body","web_url":"https://www.gov.uk/government/organisations/uk-co-ordinating-body"}]},{"id":"https://www.gov.uk/api/organisations/uk-co-ordinating-body","title":"UK Co-ordinating Body","format":"Other","updated_at":"2015-07-31T12:11:19.000+01:00","web_url":"https://www.gov.uk/government/organisations/uk-co-ordinating-body","details":{"slug":"uk-co-ordinating-body","abbreviation":"UKCB","logo_formatted_name":"UK Co-ordinating Body","organisation_brand_colour_class_name":"department-for-environment-food-rural-affairs","organisation_logo_type_class_name":"custom","closed_at":null,"govuk_status":"live","content_id":"4d2b3868-3512-41ce-94a9-f724ebc3c7c4"},"analytics_identifier":"OT1022","parent_organisations":[{"id":"https://www.gov.uk/api/organisations/department-for-environment-food-rural-affairs","web_url":"https://www.gov.uk/government/organisations/department-for-environment-food-rural-affairs"},{"id":"https://www.gov.uk/api/organisations/welsh-government","web_url":"https://www.gov.uk/government/organisations/welsh-government"},{"id":"https://www.gov.uk/api/organisations/the-scottish-government","web_url":"https://www.gov.uk/government/organisations/the-scottish-government"},{"id":"https://www.gov.uk/api/organisations/northern-ireland-executive","web_url":"https://www.gov.uk/government/organisations/northern-ireland-executive"}],"child_organisations":[]},{"id":"https://www.gov.uk/api/organisations/hm-nautical-almanac-office","title":"HM Nautical Almanac Office","format":"Sub-organisation","updated_at":"2014-10-15T15:38:40.000+01:00","web_url":"https://www.gov.uk/government/organisations/hm-nautical-almanac-office","details":{"slug":"hm-nautical-almanac-office","abbreviation":"HMNAO","logo_formatted_name":"HM Nautical Almanac Office","organisation_brand_colour_class_name":"ministry-of-defence","organisation_logo_type_class_name":"custom","closed_at":null,"govuk_status":"live","content_id":"205c4066-fcf3-4a9b-95b2-e068744a8757"},"analytics_identifier":"OT1023","parent_organisations":[{"id":"https://www.gov.uk/api/organisations/uk-hydrographic-office","web_url":"https://www.gov.uk/government/organisations/uk-hydrographic-office"}],"child_organisations":[]},{"id":"https://www.gov.uk/api/organisations/academy-for-justice-commissioning","title":"Academy for Justice Commissioning","format":"Other","updated_at":"2017-01-09T11:45:43.000+00:00","web_url":"https://www.gov.uk/government/organisations/academy-for-justice-commissioning","details":{"slug":"academy-for-justice-commissioning","abbreviation":"","logo_formatted_name":"Academy for Justice Commissioning","organisation_brand_colour_class_name":"ministry-of-justice","organisation_logo_type_class_name":"single-identity","closed_at":null,"govuk_status":"closed","content_id":"4dfe21ee-acfa-4fc1-9513-cc764e814205"},"analytics_identifier":"OT1025","parent_organisations":[{"id":"https://www.gov.uk/api/organisations/ministry-of-justice","web_url":"https://www.gov.uk/government/organisations/ministry-of-justice"}],"child_organisations":[]},{"id":"https://www.gov.uk/api/organisations/uk-trade-and-investment-defence-and-security-organisation","title":"Department for International Trade Defence \u0026 Security Organisation","format":"Sub-organisation","updated_at":"2016-10-26T09:45:49.000+01:00","web_url":"https://www.gov.uk/government/organisations/uk-trade-and-investment-defence-and-security-organisation","details":{"slug":"uk-trade-and-investment-defence-and-security-organisation","abbreviation":"DIT DSO","logo_formatted_name":"Department for International Trade\r\nDefence \u0026 Security\r\nOrganisation","organisation_brand_colour_class_name":"department-for-international-trade","organisation_logo_type_class_name":"custom","closed_at":null,"govuk_status":"live","content_id":"ed5279b6-6d8d-4031-8867-52a909d62870"},"analytics_identifier":"OT1026","parent_organisations":[{"id":"https://www.gov.uk/api/organisations/department-for-international-trade","web_url":"https://www.gov.uk/government/organisations/department-for-international-trade"}],"child_organisations":[]},{"id":"https://www.gov.uk/api/organisations/office-of-the-schools-adjudicator","title":"Office of the Schools Adjudicator","format":"Other","updated_at":"2014-10-15T15:38:41.000+01:00","web_url":"https://www.gov.uk/government/organisations/office-of-the-schools-adjudicator","details":{"slug":"office-of-the-schools-adjudicator","abbreviation":"OSA","logo_formatted_name":"Office of the \r\nSchools Adjudicator","organisation_brand_colour_class_name":null,"organisation_logo_type_class_name":"single-identity","closed_at":null,"govuk_status":"live","content_id":"e7f33769-a539-4fb4-b24f-f6c1cabc3f59"},"analytics_identifier":"OT1027","parent_organisations":[{"id":"https://www.gov.uk/api/organisations/department-for-education","web_url":"https://www.gov.uk/government/organisations/department-for-education"}],"child_organisations":[]},{"id":"https://www.gov.uk/api/organisations/civil-service","title":"Civil Service","format":"Civil Service","updated_at":"2016-09-19T17:13:50.000+01:00","web_url":"https://www.gov.uk/government/organisations/civil-service","details":{"slug":"civil-service","abbreviation":"the Civil Service","logo_formatted_name":"Civil Service","organisation_brand_colour_class_name":"civil-service","organisation_logo_type_class_name":"single-identity","closed_at":null,"govuk_status":"live","content_id":"73d2631c-a5ee-443b-940b-af67f42735eb"},"analytics_identifier":"CS1028","parent_organisations":[{"id":"https://www.gov.uk/api/organisations/cabinet-office","web_url":"https://www.gov.uk/government/organisations/cabinet-office"}],"child_organisations":[{"id":"https://www.gov.uk/api/organisations/civil-service-operational-delivery-profession","web_url":"https://www.gov.uk/government/organisations/civil-service-operational-delivery-profession"},{"id":"https://www.gov.uk/api/organisations/civil-service-policy-profession","web_url":"https://www.gov.uk/government/organisations/civil-service-policy-profession"},{"id":"https://www.gov.uk/api/organisations/civil-service-project-delivery-profession","web_url":"https://www.gov.uk/government/organisations/civil-service-project-delivery-profession"},{"id":"https://www.gov.uk/api/organisations/civil-service-procurement-profession","web_url":"https://www.gov.uk/government/organisations/civil-service-procurement-profession"},{"id":"https://www.gov.uk/api/organisations/civil-service-government-legal-service","web_url":"https://www.gov.uk/government/organisations/civil-service-government-legal-service"},{"id":"https://www.gov.uk/api/organisations/civil-service-government-communication-service","web_url":"https://www.gov.uk/government/organisations/civil-service-government-communication-service"},{"id":"https://www.gov.uk/api/organisations/civil-service-government-finance-profession","web_url":"https://www.gov.uk/government/organisations/civil-service-government-finance-profession"},{"id":"https://www.gov.uk/api/organisations/civil-service-human-resources-profession","web_url":"https://www.gov.uk/government/organisations/civil-service-human-resources-profession"},{"id":"https://www.gov.uk/api/organisations/civil-service-government-economic-service","web_url":"https://www.gov.uk/government/organisations/civil-service-government-economic-service"},{"id":"https://www.gov.uk/api/organisations/civil-service-internal-audit-profession","web_url":"https://www.gov.uk/government/organisations/civil-service-internal-audit-profession"},{"id":"https://www.gov.uk/api/organisations/civil-service-government-property-profession","web_url":"https://www.gov.uk/government/organisations/civil-service-government-property-profession"},{"id":"https://www.gov.uk/api/organisations/civil-service-government-science-engineering","web_url":"https://www.gov.uk/government/organisations/civil-service-government-science-engineering"},{"id":"https://www.gov.uk/api/organisations/civil-service-government-statistical-service","web_url":"https://www.gov.uk/government/organisations/civil-service-government-statistical-service"},{"id":"https://www.gov.uk/api/organisations/civil-service-government-operational-research-service","web_url":"https://www.gov.uk/government/organisations/civil-service-government-operational-research-service"},{"id":"https://www.gov.uk/api/organisations/civil-service-government-social-research-profession","web_url":"https://www.gov.uk/government/organisations/civil-service-government-social-research-profession"},{"id":"https://www.gov.uk/api/organisations/civil-service-the-government-planning-profession","web_url":"https://www.gov.uk/government/organisations/civil-service-the-government-planning-profession"},{"id":"https://www.gov.uk/api/organisations/civil-service-government-planning-inspectors","web_url":"https://www.gov.uk/government/organisations/civil-service-government-planning-inspectors"},{"id":"https://www.gov.uk/api/organisations/civil-service-government-tax-profession","web_url":"https://www.gov.uk/government/organisations/civil-service-government-tax-profession"},{"id":"https://www.gov.uk/api/organisations/civil-service-government-veterinary-surgeons","web_url":"https://www.gov.uk/government/organisations/civil-service-government-veterinary-surgeons"},{"id":"https://www.gov.uk/api/organisations/civil-service-government-knowledge-information-management-profession","web_url":"https://www.gov.uk/government/organisations/civil-service-government-knowledge-information-management-profession"},{"id":"https://www.gov.uk/api/organisations/civil-service-government-occupational-psychology-profession","web_url":"https://www.gov.uk/government/organisations/civil-service-government-occupational-psychology-profession"},{"id":"https://www.gov.uk/api/organisations/civil-service-intelligence-analysis-profession","web_url":"https://www.gov.uk/government/organisations/civil-service-intelligence-analysis-profession"},{"id":"https://www.gov.uk/api/organisations/civil-service-government-it-profession","web_url":"https://www.gov.uk/government/organisations/civil-service-government-it-profession"},{"id":"https://www.gov.uk/api/organisations/civil-service-medical-profession","web_url":"https://www.gov.uk/government/organisations/civil-service-medical-profession"},{"id":"https://www.gov.uk/api/organisations/civil-service-reform","web_url":"https://www.gov.uk/government/organisations/civil-service-reform"},{"id":"https://www.gov.uk/api/organisations/government-security-profession","web_url":"https://www.gov.uk/government/organisations/government-security-profession"},{"id":"https://www.gov.uk/api/organisations/civil-service-resourcing","web_url":"https://www.gov.uk/government/organisations/civil-service-resourcing"},{"id":"https://www.gov.uk/api/organisations/government-commercial-function","web_url":"https://www.gov.uk/government/organisations/government-commercial-function"},{"id":"https://www.gov.uk/api/organisations/digital-data-and-technology-professions","web_url":"https://www.gov.uk/government/organisations/digital-data-and-technology-professions"},{"id":"https://www.gov.uk/api/organisations/civil-service-board","web_url":"https://www.gov.uk/government/organisations/civil-service-board"}]},{"id":"https://www.gov.uk/api/organisations/civil-service-operational-delivery-profession","title":"Operational Delivery Profession","format":"Sub-organisation","updated_at":"2014-10-15T15:38:41.000+01:00","web_url":"https://www.gov.uk/government/organisations/civil-service-operational-delivery-profession","details":{"slug":"civil-service-operational-delivery-profession","abbreviation":"","logo_formatted_name":"Operational Delivery Profession","organisation_brand_colour_class_name":"cabinet-office","organisation_logo_type_class_name":"single-identity","closed_at":null,"govuk_status":"live","content_id":"751013b2-30cb-4154-a943-7117ef92aa99"},"analytics_identifier":"OT1029","parent_organisations":[{"id":"https://www.gov.uk/api/organisations/civil-service","web_url":"https://www.gov.uk/government/organisations/civil-service"}],"child_organisations":[]},{"id":"https://www.gov.uk/api/organisations/civil-service-policy-profession","title":"Policy Profession","format":"Sub-organisation","updated_at":"2014-10-15T15:38:42.000+01:00","web_url":"https://www.gov.uk/government/organisations/civil-service-policy-profession","details":{"slug":"civil-service-policy-profession","abbreviation":"","logo_formatted_name":"Policy Profession","organisation_brand_colour_class_name":"cabinet-office","organisation_logo_type_class_name":"single-identity","closed_at":null,"govuk_status":"live","content_id":"86599a68-fd10-474c-8603-5ddb703ecfae"},"analytics_identifier":"OT1030","parent_organisations":[{"id":"https://www.gov.uk/api/organisations/civil-service","web_url":"https://www.gov.uk/government/organisations/civil-service"}],"child_organisations":[]},{"id":"https://www.gov.uk/api/organisations/civil-service-project-delivery-profession","title":"Project Delivery Profession","format":"Sub-organisation","updated_at":"2014-10-15T15:38:42.000+01:00","web_url":"https://www.gov.uk/government/organisations/civil-service-project-delivery-profession","details":{"slug":"civil-service-project-delivery-profession","abbreviation":"","logo_formatted_name":"Project Delivery Profession","organisation_brand_colour_class_name":"cabinet-office","organisation_logo_type_class_name":"single-identity","closed_at":null,"govuk_status":"live","content_id":"8bd7cd69-6d65-4036-8ae9-096b9f1e5bb9"},"analytics_identifier":"OT1031","parent_organisations":[{"id":"https://www.gov.uk/api/organisations/civil-service","web_url":"https://www.gov.uk/government/organisations/civil-service"}],"child_organisations":[]}],"previous_page_url":"https://www.gov.uk/api/organisations?page=41","next_page_url":"https://www.gov.uk/api/organisations?page=43","current_page":42,"total":1009,"pages":51,"page_size":20,"start_index":821,"_response_info":{"status":"ok","links":[{"href":"https://www.gov.uk/api/organisations?page=41","rel":"previous"},{"href":"https://www.gov.uk/api/organisations?page=43","rel":"next"},{"href":"https://www.gov.uk/api/organisations?page=42","rel":"self"}]}}
