{"results":[{"id":"https://www.gov.uk/api/organisations/civil-service-procurement-profession","title":"Procurement profession","format":"Sub-organisation","updated_at":"2014-10-15T15:38:42.000+01:00","web_url":"https://www.gov.uk/government/organisations/civil-service-procurement-profession","details":{"slug":"civil-service-procurement-profession","abbreviation":"","logo_formatted_name":"Procurement profession","organisation_brand_colour_class_name":"cabinet-office","organisation_logo_type_class_name":"single-identity","closed_at":null,"govuk_status":"live","content_id":"1c6b20f6-b4f5-457d-a268-73f6f5ff50b4"},"analytics_identifier":"OT1032","parent_organisations":[{"id":"https://www.gov.uk/api/organisations/civil-service","web_url":"https://www.gov.uk/government/organisations/civil-service"}],"child_organisations":[]},{"id":"https://www.gov.uk/api/organisations/civil-service-government-legal-service","title":"Government Legal Service","format":"Sub-organisation","updated_at":"2014-10-15T15:38:42.000+01:00","web_url":"https://www.gov.uk/government/organisations/civil-service-government-legal-service","details":{"slug":"civil-service-government-legal-service","abbreviation":"GLS","logo_formatted_name":"Government Legal Service","organisation_brand_colour_class_name":"cabinet-office","organisation_logo_type_class_name":"custom","closed_at":null,"govuk_status":"live","content_id":"261d485c-9ef5-4665-94fb-d728fb3af0d6"},"analytics_identifier":"OT1033","parent_organisations":[{"id":"https://www.gov.uk/api/organisations/civil-service","web_url":"https://www.gov.uk/government/organisations/civil-service"}],"child_organisations":[]},{"id":"https://www.gov.uk/api/organisations/civil-service-government-communication-service","title":"Government Communication Service","format":"Sub-organisation","updated_at":"2016-02-18T22:52:12.000+00:00","web_url":"https://www.gov.uk/government/organisations/civil-service-government-communication-service","details":{"slug":"civil-service-government-communication-service","abbreviation":"GCS","logo_formatted_name":"Government\r\nCommunication \r\nService","organisation_brand_colour_class_name":"cabinet-office","organisation_logo_type_class_name":"single-identity","closed_at":null,"govuk_status":"live","content_id":"39d7f79d-7470-46bf-8a27-425a9693b984"},"analytics_identifier":"OT1034","parent_organisations":[{"id":"https://www.gov.uk/api/organisations/civil-service","web_url":"https://www.gov.uk/government/organisations/civil-service"}],"child_organisations":[]},{"id":"https://www.gov.uk/api/organisations/civil-service-government-finance-profession","title":"Government Finance Profession","format":"Sub-organisation","updated_at":"2014-10-15T15:38:43.000+01:00","web_url":"https://www.gov.uk/government/organisations/civil-service-government-finance-profession","details":{"slug":"civil-service-government-finance-profession","abbreviation":"","logo_formatted_name":"Government Finance Profession","organisation_brand_colour_class_name":"cabinet-office","organisation_logo_type_class_name":"single-identity","closed_at":null,"govuk_status":"live","content_id":"c0aaecd9-3134-41d1-a4ce-0b7b2b083186"},"analytics_identifier":"OT1035","parent_organisations":[{"id":"https://www.gov.uk/api/organisations/civil-service","web_url":"https://www.gov.uk/government/organisations/civil-service"}],"child_organisations":[]},{"id":"https://www.gov.uk/api/organisations/civil-service-human-resources-profession","title":"Human Resources Profession","format":"Sub-organisation","updated_at":"2016-01-18T14:17:20.000+00:00","web_url":"https://www.gov.uk/government/organisations/civil-service-human-resources-profession","details":{"slug":"civil-service-human-resources-profession","abbreviation":"","logo_formatted_name":"HR Profession","organisation_brand_colour_class_name":"cabinet-office","organisation_logo_type_class_name":"single-identity","closed_at":null,"govuk_status":"live","content_id":"72a4d3ba-f55b-4cbd-9cd2-fbed71166875"},"analytics_identifier":"OT1036","parent_organisations":[{"id":"https://www.gov.uk/api/organisations/civil-service","web_url":"https://www.gov.uk/government/organisations/civil-service"}],"child_organisations":[]},{"id":"https://www.gov.uk/api/organisations/civil-service-government-economic-service","title":"Government Economic Service","format":"Sub-organisation","updated_at":"2016-02-03T18:07:40.000+00:00","web_url":"https://www.gov.uk/government/organisations/civil-service-government-economic-service","details":{"slug":"civil-service-government-economic-service","abbreviation":"","logo_formatted_name":"Government Economic Service","organisation_brand_colour_class_name":"cabinet-office","organisation_logo_type_class_name":"single-identity","closed_at":null,"govuk_status":"live","content_id":"4e34a225-1264-4af4-961a-22784b510232"},"analytics_identifier":"OT1037","parent_organisations":[{"id":"https://www.gov.uk/api/organisations/civil-service","web_url":"https://www.gov.uk/government/organisations/civil-service"}],"child_organisations":[]},{"id":"https://www.gov.uk/api/organisations/civil-service-internal-audit-profession","title":"Internal Audit Profession","format":"Sub-organisation","updated_at":"2014-10-15T15:38:44.000+01:00","web_url":"https://www.gov.uk/government/organisations/civil-service-internal-audit-profession","details":{"slug":"civil-service-internal-audit-profession","abbreviation":"","logo_formatted_name":"Internal Audit Profession","organisation_brand_colour_class_name":"cabinet-office","organisation_logo_type_class_name":"single-identity","closed_at":null,"govuk_status":"live","content_id":"ec79610b-788e-46b8-b468-087e5cac3be8"},"analytics_identifier":"OT1038","parent_organisations":[{"id":"https://www.gov.uk/api/organisations/civil-service","web_url":"https://www.gov.uk/government/organisations/civil-service"}],"child_organisations":[]},{"id":"https://www.gov.uk/api/organisations/civil-service-government-property-profession","title":"Government Property Profession","format":"Sub-organisation","updated_at":"2014-10-15T15:38:44.000+01:00","web_url":"https://www.gov.uk/government/organisations/civil-service-government-property-profession","details":{"slug":"civil-service-government-property-profession","abbreviation":"","logo_formatted_name":"Government Property Profession","organisation_brand_colour_class_name":"cabinet-office","organisation_logo_type_class_name":"single-identity","closed_at":null,"govuk_status":"live","content_id":"f8766ca5-5420-44f8-83f4-214b21842c68"},"analytics_identifier":"OT1039","parent_organisations":[{"id":"https://www.gov.uk/api/organisations/civil-service","web_url":"https://www.gov.uk/government/organisations/civil-service"}],"child_organisations":[]},{"id":"https://www.gov.uk/api/organisations/civil-service-government-science-engineering","title":"Government Science \u0026 Engineering Profession","format":"Sub-organisation","updated_at":"2014-10-15T15:38:44.000+01:00","web_url":"https://www.gov.uk/government/organisations/civil-service-government-science-engineering","details":{"slug":"civil-service-government-science-engineering","abbreviation":"","logo_formatted_name":"Government Science \u0026 Engineering ","organisation_brand_colour_class_name":"cabinet-office","organisation_logo_type_class_name":"single-identity","closed_at":null,"govuk_status":"live","content_id":"a8f22644-e810-4ce6-b38d-4692d29b3145"},"analytics_identifier":"OT1040","parent_organisations":[{"id":"https://www.gov.uk/api/organisations/civil-service","web_url":"https://www.gov.uk/government/organisations/civil-service"}],"child_organisations":[]},{"id":"https://www.gov.uk/api/organisations/civil-service-government-statistical-service","title":"Government Statistical Service","format":"Sub-organisation","updated_at":"2014-10-15T15:38:45.000+01:00","web_url":"https://www.gov.uk/government/organisations/civil-service-government-statistical-service","details":{"slug":"civil-service-government-statistical-service","abbreviation":"","logo_formatted_name":"Government Statistical Service","organisation_brand_colour_class_name":"cabinet-office","organisation_logo_type_class_name":"single-identity","closed_at":null,"govuk_status":"live","content_id":"c665dfa6-0a82-4aaf-b84e-0ea78ccd0e8e"},"analytics_identifier":"OT1041","parent_organisations":[{"id":"https://www.gov.uk/api/organisations/civil-service","web_url":"https://www.gov.uk/government/organisations/civil-service"}],"child_organisations":[]},{"id":"https://www.gov.uk/api/organisations/civil-service-government-operational-research-service","title":"Government Operational Research Service","format":"Sub-organisation","updated_at":"2014-10-15T15:38:45.000+01:00","web_url":"https://www.gov.uk/government/organisations/civil-service-government-operational-research-service","details":{"slug":"civil-service-government-operational-research-service","abbreviation":"","logo_formatted_name":"Government operational research service","organisation_brand_colour_class_name":"cabinet-office","organisation_logo_type_class_name":"single-identity","closed_at":null,"govuk_status":"live","content_id":"0a884634-3590-44f1-bdb1-46eeac2f8211"},"analytics_identifier":"OT1042","parent_organisations":[{"id":"https://www.gov.uk/api/organisations/civil-service","web_url":"https://www.gov.uk/government/organisations/civil-service"}],"child_organisations":[]},{"id":"https://www.gov.uk/api/organisations/civil-service-government-social-research-profession","title":"Government Social Research Profession","format":"Sub-organisation","updated_at":"2015-11-17T17:22:44.000+00:00","web_url":"https://www.gov.uk/government/organisations/civil-service-government-social-research-profession","details":{"slug":"civil-service-government-social-research-profession","abbreviation":"","logo_formatted_name":"Government social research profession","organisation_brand_colour_class_name":"cabinet-office","organisation_logo_type_class_name":"single-identity","closed_at":null,"govuk_status":"live","content_id":"77d5e16e-1b32-4051-a8e6-c2230d762cfe"},"analytics_identifier":"OT1043","parent_organisations":[{"id":"https://www.gov.uk/api/organisations/civil-service","web_url":"https://www.gov.uk/government/organisations/civil-service"}],"child_organisations":[]},{"id":"https://www.gov.uk/api/organisations/civil-service-the-government-planning-profession","title":"Government Planning Profession","format":"Sub-organisation","updated_at":"2014-10-15T15:38:46.000+01:00","web_url":"https://www.gov.uk/government/organisations/civil-service-the-government-planning-profession","details":{"slug":"civil-service-the-government-planning-profession","abbreviation":"","logo_formatted_name":"Government Planning Profession","organisation_brand_colour_class_name":"cabinet-office","organisation_logo_type_class_name":"single-identity","closed_at":null,"govuk_status":"live","content_id":"f46c9756-7bd6-4dd0-95b6-52d4c937003e"},"analytics_identifier":"OT1044","parent_organisations":[{"id":"https://www.gov.uk/api/organisations/civil-service","web_url":"https://www.gov.uk/government/organisations/civil-service"}],"child_organisations":[]},{"id":"https://www.gov.uk/api/organisations/civil-service-government-planning-inspectors","title":"Government Planning Inspectors","format":"Sub-organisation","updated_at":"2014-10-15T15:38:46.000+01:00","web_url":"https://www.gov.uk/government/organisations/civil-service-government-planning-inspectors","details":{"slug":"civil-service-government-planning-inspectors","abbreviation":"","logo_formatted_name":"Government planning inspectors","organisation_brand_colour_class_name":"cabinet-office","organisation_logo_type_class_name":"single-identity","closed_at":null,"govuk_status":"live","content_id":"96755831-b0bc-4b58-a7ed-5acd9351a4c2"},"analytics_identifier":"OT1045","parent_organisations":[{"id":"https://www.gov.uk/api/organisations/civil-service","web_url":"https://www.gov.uk/government/organisations/civil-service"}],"child_organisations":[]},{"id":"https://www.gov.uk/api/organisations/civil-service-government-tax-profession","title":"Government Tax Profession","format":"Sub-organisation","updated_at":"2014-10-15T15:38:46.000+01:00","web_url":"https://www.gov.uk/government/organisations/civil-service-government-tax-profession","details":{"slug":"civil-service-government-tax-profession","abbreviation":"","logo_formatted_name":"Government Tax Profession","organisation_brand_colour_class_name":"cabinet-office","organisation_logo_type_class_name":"single-identity","closed_at":null,"govuk_status":"live","content_id":"bdc52eda-e370-47c2-afc6-8454e9fa2a79"},"analytics_identifier":"OT1046","parent_organisations":[{"id":"https://www.gov.uk/api/organisations/civil-service","web_url":"https://www.gov.uk/government/organisations/civil-service"}],"child_organisations":[]},{"id":"https://www.gov.uk/api/organisations/civil-service-government-veterinary-surgeons","title":"Government Veterinary Services ","format":"Sub-organisation","updated_at":"2016-11-08T15:54:25.000+00:00","web_url":"https://www.gov.uk/government/organisations/civil-service-government-veterinary-surgeons","details":{"slug":"civil-service-government-veterinary-surgeons","abbreviation":"","logo_formatted_name":"Government Veterinary Services ","organisation_brand_colour_class_name":"hm-government","organisation_logo_type_class_name":"single-identity","closed_at":null,"govuk_status":"live","content_id":"5aa41748-a66e-4886-b47a-08a7d846370e"},"analytics_identifier":"OT1047","parent_organisations":[{"id":"https://www.gov.uk/api/organisations/civil-service","web_url":"https://www.gov.uk/government/organisations/civil-service"}],"child_organisations":[]},{"id":"https://www.gov.uk/api/organisations/civil-service-government-knowledge-information-management-profession","title":"Government Knowledge \u0026 Information Management Profession","format":"Sub-organisation","updated_at":"2014-10-15T15:38:47.000+01:00","web_url":"https://www.gov.uk/government/organisations/civil-service-government-knowledge-information-management-profession","details":{"slug":"civil-service-government-knowledge-information-management-profession","abbreviation":"","logo_formatted_name":"Government knowledge \u0026 information management profession","organisation_brand_colour_class_name":"cabinet-office","organisation_logo_type_class_name":"single-identity","closed_at":null,"govuk_status":"live","content_id":"6edf0b89-3bde-453c-9505-82928f94cfe3"},"analytics_identifier":"OT1048","parent_organisations":[{"id":"https://www.gov.uk/api/organisations/civil-service","web_url":"https://www.gov.uk/government/organisations/civil-service"}],"child_organisations":[]},{"id":"https://www.gov.uk/api/organisations/civil-service-government-occupational-psychology-profession","title":"Government Occupational Psychology Profession ","format":"Sub-organisation","updated_at":"2014-10-15T15:38:47.000+01:00","web_url":"https://www.gov.uk/government/organisations/civil-service-government-occupational-psychology-profession","details":{"slug":"civil-service-government-occupational-psychology-profession","abbreviation":"","logo_formatted_name":"Government occupational psychology profession ","organisation_brand_colour_class_name":"cabinet-office","organisation_logo_type_class_name":"single-identity","closed_at":null,"govuk_status":"live","content_id":"41c5a6b1-5106-4086-b478-94655f392483"},"analytics_identifier":"OT1049","parent_organisations":[{"id":"https://www.gov.uk/api/organisations/civil-service","web_url":"https://www.gov.uk/government/organisations/civil-service"}],"child_organisations":[]},{"id":"https://www.gov.uk/api/organisations/civil-service-corporate-finance-profession-cfp","title":"Government Corporate Finance Profession","format":"Sub-organisation","updated_at":"2016-11-18T10:17:53.000+00:00","web_url":"https://www.gov.uk/government/organisations/civil-service-corporate-finance-profession-cfp","details":{"slug":"civil-service-corporate-finance-profession-cfp","abbreviation":"GCFP","logo_formatted_name":"Government Corporate Finance Profession","organisation_brand_colour_class_name":"hm-treasury","organisation_logo_type_class_name":"single-identity","closed_at":null,"govuk_status":"live","content_id":"3afaba92-b9ee-43b2-82d1-0c3ef4808af2"},"analytics_identifier":"OT1050","parent_organisations":[{"id":"https://www.gov.uk/api/organisations/uk-government-investments","web_url":"https://www.gov.uk/government/organisations/uk-government-investments"}],"child_organisations":[]},{"id":"https://www.gov.uk/api/organisations/british-cattle-movement-service","title":"British Cattle Movement Service","format":"Sub-organisation","updated_at":"2014-10-15T16:40:36.000+01:00","web_url":"https://www.gov.uk/government/organisations/british-cattle-movement-service","details":{"slug":"british-cattle-movement-service","abbreviation":"BCMS","logo_formatted_name":"British Cattle Movement Service","organisation_brand_colour_class_name":null,"organisation_logo_type_class_name":"no-identity","closed_at":null,"govuk_status":"live","content_id":"49e09fa7-f65b-49d6-b4ab-0ca82a548e93"},"analytics_identifier":"OT1051","parent_organisations":[{"id":"https://www.gov.uk/api/organisations/rural-payments-agency","web_url":"https://www.gov.uk/government/organisations/rural-payments-agency"}],"child_organisations":[]}],"previous_page_url":"https://www.gov.uk/api/organisations?page=42","next_page_url":"https://www.gov.uk/api/organisations?page=44","current_page":43,"total":1009,"pages":51,"page_size":20,"start_index":841,"_response_info":{"status":"ok","links":[{"href":"https://www.gov.uk/api/organisations?page=42","rel":"previous"},{"href":"https://www.gov.uk/api/organisations?page=44","rel":"next"},{"href":"https://www.gov.uk/api/organisations?page=43","rel":"self"}]}}
