{"results":[{"id":"https://www.gov.uk/api/organisations/civil-service-intelligence-analysis-profession","title":"Intelligence Analysis ","format":"Sub-organisation","updated_at":"2014-10-15T15:38:48.000+01:00","web_url":"https://www.gov.uk/government/organisations/civil-service-intelligence-analysis-profession","details":{"slug":"civil-service-intelligence-analysis-profession","abbreviation":"","logo_formatted_name":"Intelligence Analysis ","organisation_brand_colour_class_name":"cabinet-office","organisation_logo_type_class_name":"single-identity","closed_at":null,"govuk_status":"live","content_id":"f4440936-40b2-4ca8-94e5-eb922c6c665c"},"analytics_identifier":"OT1052","parent_organisations":[{"id":"https://www.gov.uk/api/organisations/civil-service","web_url":"https://www.gov.uk/government/organisations/civil-service"}],"child_organisations":[]},{"id":"https://www.gov.uk/api/organisations/civil-service-government-it-profession","title":"Government IT Profession","format":"Sub-organisation","updated_at":"2014-10-15T15:38:49.000+01:00","web_url":"https://www.gov.uk/government/organisations/civil-service-government-it-profession","details":{"slug":"civil-service-government-it-profession","abbreviation":"","logo_formatted_name":"Government IT profession","organisation_brand_colour_class_name":"cabinet-office","organisation_logo_type_class_name":"single-identity","closed_at":null,"govuk_status":"live","content_id":"a9d2010d-9afa-4e89-845b-be99e3555396"},"analytics_identifier":"OT1053","parent_organisations":[{"id":"https://www.gov.uk/api/organisations/civil-service","web_url":"https://www.gov.uk/government/organisations/civil-service"}],"child_organisations":[]},{"id":"https://www.gov.uk/api/organisations/civil-service-medical-profession","title":"Medical Profession","format":"Sub-organisation","updated_at":"2014-10-15T15:38:49.000+01:00","web_url":"https://www.gov.uk/government/organisations/civil-service-medical-profession","details":{"slug":"civil-service-medical-profession","abbreviation":"","logo_formatted_name":"Medical Profession","organisation_brand_colour_class_name":"cabinet-office","organisation_logo_type_class_name":"single-identity","closed_at":null,"govuk_status":"live","content_id":"660c6a4d-6d84-43b4-9f4a-72bcc9710b33"},"analytics_identifier":"OT1054","parent_organisations":[{"id":"https://www.gov.uk/api/organisations/civil-service","web_url":"https://www.gov.uk/government/organisations/civil-service"}],"child_organisations":[]},{"id":"https://www.gov.uk/api/organisations/civil-service-reform","title":"Civil Service Reform","format":"Sub-organisation","updated_at":"2014-10-15T15:38:49.000+01:00","web_url":"https://www.gov.uk/government/organisations/civil-service-reform","details":{"slug":"civil-service-reform","abbreviation":"CSR","logo_formatted_name":"Civil Service reform","organisation_brand_colour_class_name":"cabinet-office","organisation_logo_type_class_name":"single-identity","closed_at":null,"govuk_status":"live","content_id":"a72d3503-b6b1-4134-bdcf-ad5026a54e48"},"analytics_identifier":"OT1055","parent_organisations":[{"id":"https://www.gov.uk/api/organisations/civil-service","web_url":"https://www.gov.uk/government/organisations/civil-service"}],"child_organisations":[]},{"id":"https://www.gov.uk/api/organisations/government-digital-service","title":"Government Digital Service","format":"Sub-organisation","updated_at":"2016-02-07T20:08:15.000+00:00","web_url":"https://www.gov.uk/government/organisations/government-digital-service","details":{"slug":"government-digital-service","abbreviation":"GDS","logo_formatted_name":"Government Digital Service","organisation_brand_colour_class_name":"cabinet-office","organisation_logo_type_class_name":"single-identity","closed_at":null,"govuk_status":"live","content_id":"af07d5a5-df63-4ddc-9383-6a666845ebe9"},"analytics_identifier":"OT1056","parent_organisations":[{"id":"https://www.gov.uk/api/organisations/cabinet-office","web_url":"https://www.gov.uk/government/organisations/cabinet-office"},{"id":"https://www.gov.uk/api/organisations/efficiency-and-reform-group","web_url":"https://www.gov.uk/government/organisations/efficiency-and-reform-group"}],"child_organisations":[]},{"id":"https://www.gov.uk/api/organisations/macur-review","title":"Macur Review","format":"Other","updated_at":"2014-11-26T14:18:39.000+00:00","web_url":"https://www.gov.uk/government/organisations/macur-review","details":{"slug":"macur-review","abbreviation":"","logo_formatted_name":"Macur Review","organisation_brand_colour_class_name":"ministry-of-justice","organisation_logo_type_class_name":"single-identity","closed_at":null,"govuk_status":"live","content_id":"fc40d53a-f77d-4460-8dce-fe9f747e545e"},"analytics_identifier":"OT1057","parent_organisations":[],"child_organisations":[]},{"id":"https://www.gov.uk/api/organisations/jeffrey-review","title":"The Jeffrey Review","format":"Other","updated_at":"2016-04-18T08:31:42.000+01:00","web_url":"https://www.gov.uk/government/organisations/jeffrey-review","details":{"slug":"jeffrey-review","abbreviation":"","logo_formatted_name":"The Jeffrey \r\nReview","organisation_brand_colour_class_name":null,"organisation_logo_type_class_name":"single-identity","closed_at":"2014-05-08T00:00:00.000+01:00","govuk_status":"closed","content_id":"d95e8bf4-7219-4024-95cf-d7e3ebe8bd3e"},"analytics_identifier":"OT1058","parent_organisations":[{"id":"https://www.gov.uk/api/organisations/ministry-of-justice","web_url":"https://www.gov.uk/government/organisations/ministry-of-justice"}],"child_organisations":[]},{"id":"https://www.gov.uk/api/organisations/office-for-nuclear-regulation","title":"Office for Nuclear Regulation","format":"Public corporation","updated_at":"2014-10-15T15:38:50.000+01:00","web_url":"https://www.gov.uk/government/organisations/office-for-nuclear-regulation","details":{"slug":"office-for-nuclear-regulation","abbreviation":"ONR","logo_formatted_name":"Office for \r\nNuclear Regulation","organisation_brand_colour_class_name":null,"organisation_logo_type_class_name":"single-identity","closed_at":null,"govuk_status":"exempt","content_id":"8ac3d81f-fb44-4b17-ba8d-0a8bb547fb14"},"analytics_identifier":"PC1059","parent_organisations":[{"id":"https://www.gov.uk/api/organisations/department-for-work-pensions","web_url":"https://www.gov.uk/government/organisations/department-for-work-pensions"}],"child_organisations":[]},{"id":"https://www.gov.uk/api/organisations/rural-development-programme-for-england-network","title":"Rural Development Programme for England Network","format":"Sub-organisation","updated_at":"2015-02-17T16:41:29.000+00:00","web_url":"https://www.gov.uk/government/organisations/rural-development-programme-for-england-network","details":{"slug":"rural-development-programme-for-england-network","abbreviation":"RDPE Network","logo_formatted_name":"RDPE Network","organisation_brand_colour_class_name":"department-for-environment-food-rural-affairs","organisation_logo_type_class_name":"single-identity","closed_at":null,"govuk_status":"live","content_id":"4d269929-de06-4597-a25e-811969d0e797"},"analytics_identifier":"OT1060","parent_organisations":[{"id":"https://www.gov.uk/api/organisations/department-for-environment-food-rural-affairs","web_url":"https://www.gov.uk/government/organisations/department-for-environment-food-rural-affairs"}],"child_organisations":[]},{"id":"https://www.gov.uk/api/organisations/government-chemist","title":"Government Chemist","format":"Sub-organisation","updated_at":"2014-10-15T15:38:51.000+01:00","web_url":"https://www.gov.uk/government/organisations/government-chemist","details":{"slug":"government-chemist","abbreviation":"Government Chemist","logo_formatted_name":"Government Chemist","organisation_brand_colour_class_name":"department-for-business-innovation-skills","organisation_logo_type_class_name":"custom","closed_at":null,"govuk_status":"live","content_id":"9748e764-3ea4-4f58-bf1c-656970401a22"},"analytics_identifier":"OT1061","parent_organisations":[{"id":"https://www.gov.uk/api/organisations/department-for-business-energy-and-industrial-strategy","web_url":"https://www.gov.uk/government/organisations/department-for-business-energy-and-industrial-strategy"}],"child_organisations":[]},{"id":"https://www.gov.uk/api/organisations/company-names-tribunal","title":"Company Names Tribunal","format":"Other","updated_at":"2015-08-17T10:42:25.000+01:00","web_url":"https://www.gov.uk/government/organisations/company-names-tribunal","details":{"slug":"company-names-tribunal","abbreviation":"","logo_formatted_name":"Company Names Tribunal","organisation_brand_colour_class_name":"department-for-business-innovation-skills","organisation_logo_type_class_name":"single-identity","closed_at":null,"govuk_status":"live","content_id":"6a0be9bd-ba4a-4774-ae3e-966a48f39fc5"},"analytics_identifier":"PB1062","parent_organisations":[{"id":"https://www.gov.uk/api/organisations/intellectual-property-office","web_url":"https://www.gov.uk/government/organisations/intellectual-property-office"}],"child_organisations":[]},{"id":"https://www.gov.uk/api/organisations/civil-nuclear-constabulary","title":"Civil Nuclear Constabulary","format":"Sub-organisation","updated_at":"2015-07-24T15:52:30.000+01:00","web_url":"https://www.gov.uk/government/organisations/civil-nuclear-constabulary","details":{"slug":"civil-nuclear-constabulary","abbreviation":"CNC","logo_formatted_name":"Civil Nuclear Constabulary","organisation_brand_colour_class_name":"department-of-energy-climate-change","organisation_logo_type_class_name":"single-identity","closed_at":null,"govuk_status":"live","content_id":"c507c878-87d8-4e4b-bd3a-35eff619f99b"},"analytics_identifier":"OT1063","parent_organisations":[{"id":"https://www.gov.uk/api/organisations/civil-nuclear-police-authority","web_url":"https://www.gov.uk/government/organisations/civil-nuclear-police-authority"}],"child_organisations":[]},{"id":"https://www.gov.uk/api/organisations/centre-for-defence-enterprise","title":"Centre for Defence Enterprise","format":"Sub-organisation","updated_at":"2016-12-08T06:57:48.000+00:00","web_url":"https://www.gov.uk/government/organisations/centre-for-defence-enterprise","details":{"slug":"centre-for-defence-enterprise","abbreviation":"CDE","logo_formatted_name":"Centre for Defence Enterprise","organisation_brand_colour_class_name":"ministry-of-defence","organisation_logo_type_class_name":"single-identity","closed_at":null,"govuk_status":"closed","content_id":"1ec706bb-34b5-4abd-99c2-f111aa1b46e5"},"analytics_identifier":"OT1064","parent_organisations":[{"id":"https://www.gov.uk/api/organisations/defence-science-and-technology-laboratory","web_url":"https://www.gov.uk/government/organisations/defence-science-and-technology-laboratory"}],"child_organisations":[]},{"id":"https://www.gov.uk/api/organisations/reserve-forces-and-cadets-associations","title":"Reserve Forces' and Cadets' Associations","format":"Other","updated_at":"2014-10-15T15:38:52.000+01:00","web_url":"https://www.gov.uk/government/organisations/reserve-forces-and-cadets-associations","details":{"slug":"reserve-forces-and-cadets-associations","abbreviation":"RFCA","logo_formatted_name":"Reserve Forces' and Cadets' Associations","organisation_brand_colour_class_name":"ministry-of-defence","organisation_logo_type_class_name":"no-identity","closed_at":null,"govuk_status":"live","content_id":"88df8ced-89b1-4d95-9b6a-72d1d4f324a8"},"analytics_identifier":"OT1065","parent_organisations":[{"id":"https://www.gov.uk/api/organisations/ministry-of-defence","web_url":"https://www.gov.uk/government/organisations/ministry-of-defence"}],"child_organisations":[]},{"id":"https://www.gov.uk/api/organisations/office-for-disability-issues","title":"Office for Disability Issues","format":"Sub-organisation","updated_at":"2015-03-31T15:05:31.000+01:00","web_url":"https://www.gov.uk/government/organisations/office-for-disability-issues","details":{"slug":"office-for-disability-issues","abbreviation":"ODI","logo_formatted_name":"Office for \r\nDisability Issues","organisation_brand_colour_class_name":"department-for-work-pensions","organisation_logo_type_class_name":"single-identity","closed_at":null,"govuk_status":"live","content_id":"889c12d3-4120-46a2-b6c9-d2c64a03adb3"},"analytics_identifier":"OT1066","parent_organisations":[{"id":"https://www.gov.uk/api/organisations/department-for-work-pensions","web_url":"https://www.gov.uk/government/organisations/department-for-work-pensions"}],"child_organisations":[]},{"id":"https://www.gov.uk/api/organisations/ukti-education","title":"UKTI Education","format":"Sub-organisation","updated_at":"2014-10-27T14:26:11.000+00:00","web_url":"https://www.gov.uk/government/organisations/ukti-education","details":{"slug":"ukti-education","abbreviation":"UKTI Education","logo_formatted_name":"UKTI Education","organisation_brand_colour_class_name":"uk-trade-investment","organisation_logo_type_class_name":"custom","closed_at":null,"govuk_status":"live","content_id":"dc0563a8-689c-49b9-be86-eb89adde5499"},"analytics_identifier":"OT1067","parent_organisations":[{"id":"https://www.gov.uk/api/organisations/department-for-business-innovation-skills","web_url":"https://www.gov.uk/government/organisations/department-for-business-innovation-skills"},{"id":"https://www.gov.uk/api/organisations/uk-trade-investment","web_url":"https://www.gov.uk/government/organisations/uk-trade-investment"}],"child_organisations":[]},{"id":"https://www.gov.uk/api/organisations/ukti-life-sciences-organisation","title":"UKTI Life Sciences Organisation","format":"Sub-organisation","updated_at":"2014-11-24T16:25:05.000+00:00","web_url":"https://www.gov.uk/government/organisations/ukti-life-sciences-organisation","details":{"slug":"ukti-life-sciences-organisation","abbreviation":"UKTI LSO","logo_formatted_name":"Life Sciences Organisation","organisation_brand_colour_class_name":null,"organisation_logo_type_class_name":"single-identity","closed_at":null,"govuk_status":"live","content_id":"9f14321d-8686-4cc0-a2f9-16c4869790f8"},"analytics_identifier":"OT1068","parent_organisations":[{"id":"https://www.gov.uk/api/organisations/uk-trade-investment","web_url":"https://www.gov.uk/government/organisations/uk-trade-investment"}],"child_organisations":[]},{"id":"https://www.gov.uk/api/organisations/immigration-enforcement","title":"Immigration Enforcement","format":"Sub-organisation","updated_at":"2015-03-09T20:00:52.000+00:00","web_url":"https://www.gov.uk/government/organisations/immigration-enforcement","details":{"slug":"immigration-enforcement","abbreviation":"IE","logo_formatted_name":"Immigration Enforcement","organisation_brand_colour_class_name":"home-office","organisation_logo_type_class_name":"ho","closed_at":null,"govuk_status":"live","content_id":"9981b813-468f-414a-a468-28f5438811f4"},"analytics_identifier":"OT1069","parent_organisations":[{"id":"https://www.gov.uk/api/organisations/home-office","web_url":"https://www.gov.uk/government/organisations/home-office"}],"child_organisations":[]},{"id":"https://www.gov.uk/api/organisations/government-security-profession","title":"Government Security Profession","format":"Sub-organisation","updated_at":"2014-10-15T15:38:53.000+01:00","web_url":"https://www.gov.uk/government/organisations/government-security-profession","details":{"slug":"government-security-profession","abbreviation":"","logo_formatted_name":"Government Security Profession","organisation_brand_colour_class_name":"cabinet-office","organisation_logo_type_class_name":"single-identity","closed_at":null,"govuk_status":"live","content_id":"c24a31d8-cf2a-4a41-87de-2f7de25098f4"},"analytics_identifier":"OT1070","parent_organisations":[{"id":"https://www.gov.uk/api/organisations/civil-service","web_url":"https://www.gov.uk/government/organisations/civil-service"}],"child_organisations":[]},{"id":"https://www.gov.uk/api/organisations/military-aviation-authority","title":"Military Aviation Authority","format":"Sub-organisation","updated_at":"2015-03-18T16:01:40.000+00:00","web_url":"https://www.gov.uk/government/organisations/military-aviation-authority","details":{"slug":"military-aviation-authority","abbreviation":"MAA","logo_formatted_name":"Military\r\nAviation\r\nAuthority","organisation_brand_colour_class_name":"ministry-of-defence","organisation_logo_type_class_name":"custom","closed_at":null,"govuk_status":"live","content_id":"b9f31e72-291a-4cfd-927e-667a46279465"},"analytics_identifier":"OT1071","parent_organisations":[{"id":"https://www.gov.uk/api/organisations/ministry-of-defence","web_url":"https://www.gov.uk/government/organisations/ministry-of-defence"}],"child_organisations":[]}],"previous_page_url":"https://www.gov.uk/api/organisations?page=43","next_page_url":"https://www.gov.uk/api/organisations?page=45","current_page":44,"total":1009,"pages":51,"page_size":20,"start_index":861,"_response_info":{"status":"ok","links":[{"href":"https://www.gov.uk/api/organisations?page=43","rel":"previous"},{"href":"https://www.gov.uk/api/organisations?page=45","rel":"next"},{"href":"https://www.gov.uk/api/organisations?page=44","rel":"self"}]}}
