{"results":[{"id":"https://www.gov.uk/api/organisations/agri-food-and-biosciences-institute","title":"Agri-Food and Biosciences Institute (Northern Ireland)","format":"Executive non-departmental public body","updated_at":"2014-10-15T15:38:54.000+01:00","web_url":"https://www.gov.uk/government/organisations/agri-food-and-biosciences-institute","details":{"slug":"agri-food-and-biosciences-institute","abbreviation":"","logo_formatted_name":"Agri-Food and \r\nBiosciences Institute","organisation_brand_colour_class_name":null,"organisation_logo_type_class_name":"single-identity","closed_at":null,"govuk_status":"closed","content_id":"ffcd90a5-5112-454b-b8a0-2819f46bede8"},"analytics_identifier":"PB1072","parent_organisations":[],"child_organisations":[]},{"id":"https://www.gov.uk/api/organisations/department-of-justice-northern-ireland","title":"Department of Justice (Northern Ireland)","format":"Other","updated_at":"2016-01-25T15:20:03.000+00:00","web_url":"https://www.gov.uk/government/organisations/department-of-justice-northern-ireland","details":{"slug":"department-of-justice-northern-ireland","abbreviation":"","logo_formatted_name":"Department of Justice \r\n(Northern Ireland)","organisation_brand_colour_class_name":null,"organisation_logo_type_class_name":"single-identity","closed_at":null,"govuk_status":"joining","content_id":"1649c095-3b5e-48c0-bf6b-f2966e590a57"},"analytics_identifier":"D1073","parent_organisations":[],"child_organisations":[{"id":"https://www.gov.uk/api/organisations/northern-ireland-court-service","web_url":"https://www.gov.uk/government/organisations/northern-ireland-court-service"}]},{"id":"https://www.gov.uk/api/organisations/information-services-division-scotland","title":"Information Services Division (Scotland)","format":"Other","updated_at":"2014-10-15T15:38:55.000+01:00","web_url":"https://www.gov.uk/government/organisations/information-services-division-scotland","details":{"slug":"information-services-division-scotland","abbreviation":"ISD Scotland","logo_formatted_name":"Information Services Division Scotland","organisation_brand_colour_class_name":null,"organisation_logo_type_class_name":"single-identity","closed_at":null,"govuk_status":"closed","content_id":"9783d098-3218-4570-84c2-58ed66e919dc"},"analytics_identifier":"OT1074","parent_organisations":[],"child_organisations":[]},{"id":"https://www.gov.uk/api/organisations/national-records-of-scotland","title":"National Records of Scotland","format":"Other","updated_at":"2014-10-15T15:38:55.000+01:00","web_url":"https://www.gov.uk/government/organisations/national-records-of-scotland","details":{"slug":"national-records-of-scotland","abbreviation":"National Records of Scotland","logo_formatted_name":"National Records of Scotland","organisation_brand_colour_class_name":null,"organisation_logo_type_class_name":"single-identity","closed_at":null,"govuk_status":"closed","content_id":"f48ee4f8-913f-46af-ba73-e36d5cf0aa75"},"analytics_identifier":"OT1075","parent_organisations":[],"child_organisations":[]},{"id":"https://www.gov.uk/api/organisations/civil-service-resourcing","title":"Civil Service Resourcing","format":"Sub-organisation","updated_at":"2016-05-09T13:11:14.000+01:00","web_url":"https://www.gov.uk/government/organisations/civil-service-resourcing","details":{"slug":"civil-service-resourcing","abbreviation":"","logo_formatted_name":"Civil Service Resourcing","organisation_brand_colour_class_name":"cabinet-office","organisation_logo_type_class_name":"single-identity","closed_at":null,"govuk_status":"live","content_id":"2c9232a2-04c0-4694-95e5-73004da6dc51"},"analytics_identifier":"OT1076","parent_organisations":[{"id":"https://www.gov.uk/api/organisations/civil-service","web_url":"https://www.gov.uk/government/organisations/civil-service"}],"child_organisations":[{"id":"https://www.gov.uk/api/organisations/civil-service-fast-stream","web_url":"https://www.gov.uk/government/organisations/civil-service-fast-stream"},{"id":"https://www.gov.uk/api/organisations/civil-service-fast-track-apprenticeship","web_url":"https://www.gov.uk/government/organisations/civil-service-fast-track-apprenticeship"}]},{"id":"https://www.gov.uk/api/organisations/public-health-wales","title":"Public Health Wales","format":"Other","updated_at":"2015-02-26T14:23:18.000+00:00","web_url":"https://www.gov.uk/government/organisations/public-health-wales","details":{"slug":"public-health-wales","abbreviation":"PHW","logo_formatted_name":"Public Health\r\nWales","organisation_brand_colour_class_name":null,"organisation_logo_type_class_name":"no-identity","closed_at":null,"govuk_status":"exempt","content_id":"b35e41ea-1975-465c-8369-21505ff823ce"},"analytics_identifier":"OT1077","parent_organisations":[],"child_organisations":[]},{"id":"https://www.gov.uk/api/organisations/innovate-uk","title":"Innovate UK","format":"Executive non-departmental public body","updated_at":"2016-04-18T10:54:51.000+01:00","web_url":"https://www.gov.uk/government/organisations/innovate-uk","details":{"slug":"innovate-uk","abbreviation":"Innovate UK","logo_formatted_name":"Innovate UK","organisation_brand_colour_class_name":"department-for-business-innovation-skills","organisation_logo_type_class_name":"custom","closed_at":null,"govuk_status":"live","content_id":"ac27c5b8-bf8e-482d-8425-01918a7fd5c4"},"analytics_identifier":"PB1078","parent_organisations":[{"id":"https://www.gov.uk/api/organisations/department-for-business-energy-and-industrial-strategy","web_url":"https://www.gov.uk/government/organisations/department-for-business-energy-and-industrial-strategy"}],"child_organisations":[]},{"id":"https://www.gov.uk/api/organisations/animal-and-plant-health-agency","title":"Animal and Plant Health Agency","format":"Executive agency","updated_at":"2016-02-25T11:24:55.000+00:00","web_url":"https://www.gov.uk/government/organisations/animal-and-plant-health-agency","details":{"slug":"animal-and-plant-health-agency","abbreviation":"APHA","logo_formatted_name":"Animal \u0026\r\nPlant Health\r\nAgency","organisation_brand_colour_class_name":"department-for-environment-food-rural-affairs","organisation_logo_type_class_name":"single-identity","closed_at":null,"govuk_status":"live","content_id":"4ad67f14-6f9c-4fa4-80ab-687b6d81ea6f"},"analytics_identifier":"EA1079","parent_organisations":[{"id":"https://www.gov.uk/api/organisations/department-for-environment-food-rural-affairs","web_url":"https://www.gov.uk/government/organisations/department-for-environment-food-rural-affairs"},{"id":"https://www.gov.uk/api/organisations/welsh-government","web_url":"https://www.gov.uk/government/organisations/welsh-government"},{"id":"https://www.gov.uk/api/organisations/the-scottish-government","web_url":"https://www.gov.uk/government/organisations/the-scottish-government"}],"child_organisations":[]},{"id":"https://www.gov.uk/api/organisations/district-valuer-services-dvs","title":"District Valuer Services (DVS)","format":"Sub-organisation","updated_at":"2016-07-22T15:20:44.000+01:00","web_url":"https://www.gov.uk/government/organisations/district-valuer-services-dvs","details":{"slug":"district-valuer-services-dvs","abbreviation":"DVS","logo_formatted_name":"District Valuer Services (DVS)","organisation_brand_colour_class_name":"hm-revenue-customs","organisation_logo_type_class_name":"single-identity","closed_at":null,"govuk_status":"live","content_id":"32cc780c-3902-4ad6-b13d-17b445f11693"},"analytics_identifier":"OT1080","parent_organisations":[{"id":"https://www.gov.uk/api/organisations/valuation-office-agency","web_url":"https://www.gov.uk/government/organisations/valuation-office-agency"}],"child_organisations":[]},{"id":"https://www.gov.uk/api/organisations/regeneration-investment-organisation","title":"Regeneration Investment Organisation","format":"Sub-organisation","updated_at":"2014-10-15T15:38:57.000+01:00","web_url":"https://www.gov.uk/government/organisations/regeneration-investment-organisation","details":{"slug":"regeneration-investment-organisation","abbreviation":"","logo_formatted_name":"Regeneration Investment Organisation","organisation_brand_colour_class_name":null,"organisation_logo_type_class_name":"single-identity","closed_at":null,"govuk_status":"live","content_id":"b0d5608e-d7f5-4152-beac-b3cf40c045fa"},"analytics_identifier":"OT1081","parent_organisations":[{"id":"https://www.gov.uk/api/organisations/uk-trade-investment","web_url":"https://www.gov.uk/government/organisations/uk-trade-investment"}],"child_organisations":[]},{"id":"https://www.gov.uk/api/organisations/financial-services-organisation","title":"Financial Services Organisation","format":"Sub-organisation","updated_at":"2014-10-15T15:38:57.000+01:00","web_url":"https://www.gov.uk/government/organisations/financial-services-organisation","details":{"slug":"financial-services-organisation","abbreviation":"","logo_formatted_name":"Financial Services Organisation","organisation_brand_colour_class_name":null,"organisation_logo_type_class_name":"single-identity","closed_at":null,"govuk_status":"live","content_id":"5aa9b98d-8a50-4d40-8c12-f0d2974da297"},"analytics_identifier":"OT1082","parent_organisations":[{"id":"https://www.gov.uk/api/organisations/uk-trade-investment","web_url":"https://www.gov.uk/government/organisations/uk-trade-investment"}],"child_organisations":[]},{"id":"https://www.gov.uk/api/organisations/police-remuneration-review-body","title":"Police Remuneration Review Body","format":"Advisory non-departmental public body","updated_at":"2015-05-07T17:16:30.000+01:00","web_url":"https://www.gov.uk/government/organisations/police-remuneration-review-body","details":{"slug":"police-remuneration-review-body","abbreviation":"PRRB","logo_formatted_name":"Police Remuneration Review Body","organisation_brand_colour_class_name":"home-office","organisation_logo_type_class_name":"single-identity","closed_at":null,"govuk_status":"live","content_id":"1956ab4a-7cb3-438d-b3ba-8c087cc1eba7"},"analytics_identifier":"PB1083","parent_organisations":[{"id":"https://www.gov.uk/api/organisations/home-office","web_url":"https://www.gov.uk/government/organisations/home-office"}],"child_organisations":[]},{"id":"https://www.gov.uk/api/organisations/government-internal-audit-agency","title":"Government Internal Audit Agency","format":"Executive agency","updated_at":"2016-05-09T09:58:24.000+01:00","web_url":"https://www.gov.uk/government/organisations/government-internal-audit-agency","details":{"slug":"government-internal-audit-agency","abbreviation":"GIAA","logo_formatted_name":"Government \r\nInternal Audit \r\nAgency","organisation_brand_colour_class_name":"hm-government","organisation_logo_type_class_name":"no-identity","closed_at":null,"govuk_status":"live","content_id":"bad7475f-f594-4c59-8e69-e1865d778678"},"analytics_identifier":"EA1084","parent_organisations":[{"id":"https://www.gov.uk/api/organisations/hm-treasury","web_url":"https://www.gov.uk/government/organisations/hm-treasury"}],"child_organisations":[]},{"id":"https://www.gov.uk/api/organisations/financial-conduct-authority","title":"Financial Conduct Authority","format":"Other","updated_at":"2016-06-20T12:22:05.000+01:00","web_url":"https://www.gov.uk/government/organisations/financial-conduct-authority","details":{"slug":"financial-conduct-authority","abbreviation":"FCA","logo_formatted_name":"Financial Conduct Authority","organisation_brand_colour_class_name":"hm-treasury","organisation_logo_type_class_name":"no-identity","closed_at":null,"govuk_status":"exempt","content_id":"ae164d28-d506-404b-86df-cebd41a884eb"},"analytics_identifier":"OT1085","parent_organisations":[{"id":"https://www.gov.uk/api/organisations/hm-treasury","web_url":"https://www.gov.uk/government/organisations/hm-treasury"}],"child_organisations":[]},{"id":"https://www.gov.uk/api/organisations/stabilisation-unit","title":"Stabilisation Unit","format":"Other","updated_at":"2015-05-26T14:57:45.000+01:00","web_url":"https://www.gov.uk/government/organisations/stabilisation-unit","details":{"slug":"stabilisation-unit","abbreviation":"SU","logo_formatted_name":"Stabilisation Unit","organisation_brand_colour_class_name":"department-of-health","organisation_logo_type_class_name":"single-identity","closed_at":null,"govuk_status":"live","content_id":"b6bb0230-0cb0-4bd3-9465-a0f69b70f405"},"analytics_identifier":"OT1086","parent_organisations":[],"child_organisations":[]},{"id":"https://www.gov.uk/api/organisations/veterans-uk","title":"Veterans UK","format":"Sub-organisation","updated_at":"2014-12-01T10:38:13.000+00:00","web_url":"https://www.gov.uk/government/organisations/veterans-uk","details":{"slug":"veterans-uk","abbreviation":"Veterans UK","logo_formatted_name":"Veterans UK","organisation_brand_colour_class_name":"ministry-of-defence","organisation_logo_type_class_name":"custom","closed_at":null,"govuk_status":"live","content_id":"33cf4faf-f09b-457d-b516-0704547e1f89"},"analytics_identifier":"OT1087","parent_organisations":[{"id":"https://www.gov.uk/api/organisations/ministry-of-defence","web_url":"https://www.gov.uk/government/organisations/ministry-of-defence"}],"child_organisations":[]},{"id":"https://www.gov.uk/api/organisations/higher-education-statistical-agency","title":"Higher Education Statistics Agency","format":"Other","updated_at":"2015-09-29T17:01:52.000+01:00","web_url":"https://www.gov.uk/government/organisations/higher-education-statistical-agency","details":{"slug":"higher-education-statistical-agency","abbreviation":"HESA","logo_formatted_name":"Higher Education\r\nStatistics Agency","organisation_brand_colour_class_name":null,"organisation_logo_type_class_name":"single-identity","closed_at":null,"govuk_status":"closed","content_id":"60de9b00-a982-4449-a995-f2353e86fb95"},"analytics_identifier":"OT1088","parent_organisations":[{"id":"https://www.gov.uk/api/organisations/department-for-business-innovation-skills","web_url":"https://www.gov.uk/government/organisations/department-for-business-innovation-skills"}],"child_organisations":[]},{"id":"https://www.gov.uk/api/organisations/national-counter-terrorism-security-office","title":"National Counter Terrorism Security Office","format":"Other","updated_at":"2015-11-18T15:22:44.000+00:00","web_url":"https://www.gov.uk/government/organisations/national-counter-terrorism-security-office","details":{"slug":"national-counter-terrorism-security-office","abbreviation":"NaCTSO","logo_formatted_name":"National Counter Terrorism Security Office","organisation_brand_colour_class_name":"home-office","organisation_logo_type_class_name":"no-identity","closed_at":null,"govuk_status":"live","content_id":"d965471b-56e2-4995-8790-ab47924f6071"},"analytics_identifier":"OT1089","parent_organisations":[{"id":"https://www.gov.uk/api/organisations/home-office","web_url":"https://www.gov.uk/government/organisations/home-office"}],"child_organisations":[]},{"id":"https://www.gov.uk/api/organisations/national-information-board","title":"National Information Board","format":"Other","updated_at":"2014-11-13T07:49:16.000+00:00","web_url":"https://www.gov.uk/government/organisations/national-information-board","details":{"slug":"national-information-board","abbreviation":"NIB","logo_formatted_name":"National Information Board","organisation_brand_colour_class_name":null,"organisation_logo_type_class_name":"single-identity","closed_at":null,"govuk_status":"live","content_id":"3b1a557b-c411-4169-970d-cb40e2eb2bcd"},"analytics_identifier":"OT1090","parent_organisations":[{"id":"https://www.gov.uk/api/organisations/department-of-health","web_url":"https://www.gov.uk/government/organisations/department-of-health"}],"child_organisations":[]},{"id":"https://www.gov.uk/api/organisations/office-of-the-registrar-of-consultant-lobbyists","title":"Office of the Registrar of Consultant Lobbyists","format":"Other","updated_at":"2015-12-14T17:15:16.000+00:00","web_url":"https://www.gov.uk/government/organisations/office-of-the-registrar-of-consultant-lobbyists","details":{"slug":"office-of-the-registrar-of-consultant-lobbyists","abbreviation":"ORCL","logo_formatted_name":"Office of the Registrar of Consultant Lobbyists","organisation_brand_colour_class_name":"cabinet-office","organisation_logo_type_class_name":"single-identity","closed_at":null,"govuk_status":"exempt","content_id":"a5967c4e-7b38-4a9a-8862-f3840ac11052"},"analytics_identifier":"OT1091","parent_organisations":[{"id":"https://www.gov.uk/api/organisations/cabinet-office","web_url":"https://www.gov.uk/government/organisations/cabinet-office"}],"child_organisations":[]}],"previous_page_url":"https://www.gov.uk/api/organisations?page=44","next_page_url":"https://www.gov.uk/api/organisations?page=46","current_page":45,"total":1009,"pages":51,"page_size":20,"start_index":881,"_response_info":{"status":"ok","links":[{"href":"https://www.gov.uk/api/organisations?page=44","rel":"previous"},{"href":"https://www.gov.uk/api/organisations?page=46","rel":"next"},{"href":"https://www.gov.uk/api/organisations?page=45","rel":"self"}]}}
