{"results":[{"id":"https://www.gov.uk/api/organisations/single-source-regulations-office","title":"Single Source Regulations Office","format":"Executive non-departmental public body","updated_at":"2017-01-20T09:19:48.000+00:00","web_url":"https://www.gov.uk/government/organisations/single-source-regulations-office","details":{"slug":"single-source-regulations-office","abbreviation":"SSRO","logo_formatted_name":"Single Source Regulations Office","organisation_brand_colour_class_name":"ministry-of-defence","organisation_logo_type_class_name":"custom","closed_at":null,"govuk_status":"live","content_id":"29fe29c8-e6d3-4c61-abb1-bdd13e23b48d"},"analytics_identifier":"PB1093","parent_organisations":[{"id":"https://www.gov.uk/api/organisations/ministry-of-defence","web_url":"https://www.gov.uk/government/organisations/ministry-of-defence"}],"child_organisations":[]},{"id":"https://www.gov.uk/api/organisations/independent-complaints-reviewer","title":"Independent Complaints Reviewer","format":"Other","updated_at":"2014-12-12T15:54:39.000+00:00","web_url":"https://www.gov.uk/government/organisations/independent-complaints-reviewer","details":{"slug":"independent-complaints-reviewer","abbreviation":"ICR","logo_formatted_name":"Independent Complaints Reviewer","organisation_brand_colour_class_name":"department-for-business-innovation-skills","organisation_logo_type_class_name":"bis","closed_at":null,"govuk_status":"exempt","content_id":"94560f1b-2612-4fd8-9495-d040a9f1b00b"},"analytics_identifier":"OT1099","parent_organisations":[{"id":"https://www.gov.uk/api/organisations/department-for-business-energy-and-industrial-strategy","web_url":"https://www.gov.uk/government/organisations/department-for-business-energy-and-industrial-strategy"}],"child_organisations":[]},{"id":"https://www.gov.uk/api/organisations/court-of-protection","title":"Court of Protection","format":"Court","updated_at":"2015-06-04T11:04:03.000+01:00","web_url":"https://www.gov.uk/courts-tribunals/court-of-protection","details":{"slug":"court-of-protection","abbreviation":"COP","logo_formatted_name":"Court of Protection","organisation_brand_colour_class_name":"ministry-of-justice","organisation_logo_type_class_name":"no-identity","closed_at":null,"govuk_status":"live","content_id":"f6a27bc0-a55b-47da-a132-c3e0c062b4ee"},"analytics_identifier":"OT1100","parent_organisations":[{"id":"https://www.gov.uk/api/organisations/hm-courts-and-tribunals-service","web_url":"https://www.gov.uk/government/organisations/hm-courts-and-tribunals-service"}],"child_organisations":[]},{"id":"https://www.gov.uk/api/organisations/welsh-language-commissioner","title":"Welsh Language Commissioner","format":"Other","updated_at":"2015-02-26T14:26:21.000+00:00","web_url":"https://www.gov.uk/government/organisations/welsh-language-commissioner","details":{"slug":"welsh-language-commissioner","abbreviation":"","logo_formatted_name":"Welsh Language \r\nCommissioner","organisation_brand_colour_class_name":"wales-office","organisation_logo_type_class_name":"no-identity","closed_at":null,"govuk_status":"exempt","content_id":"9ef5055d-9ab4-4a6e-afb5-7cdb2f5f2d6c"},"analytics_identifier":"OT1101","parent_organisations":[],"child_organisations":[]},{"id":"https://www.gov.uk/api/organisations/careers-wales","title":"Careers Wales","format":"Other","updated_at":"2015-02-17T12:16:35.000+00:00","web_url":"https://www.gov.uk/government/organisations/careers-wales","details":{"slug":"careers-wales","abbreviation":"","logo_formatted_name":"Careers Wales","organisation_brand_colour_class_name":"wales-office","organisation_logo_type_class_name":"single-identity","closed_at":null,"govuk_status":"exempt","content_id":"3fa65136-9467-48e9-af39-f6031bcdae28"},"analytics_identifier":"OT1102","parent_organisations":[{"id":"https://www.gov.uk/api/organisations/welsh-government","web_url":"https://www.gov.uk/government/organisations/welsh-government"}],"child_organisations":[]},{"id":"https://www.gov.uk/api/organisations/natural-resources-wales","title":"Natural Resources Wales","format":"Other","updated_at":"2015-02-26T14:25:03.000+00:00","web_url":"https://www.gov.uk/government/organisations/natural-resources-wales","details":{"slug":"natural-resources-wales","abbreviation":"","logo_formatted_name":"Natural \r\nResources \r\nWales","organisation_brand_colour_class_name":"wales-office","organisation_logo_type_class_name":"no-identity","closed_at":null,"govuk_status":"exempt","content_id":"83926803-2033-4cf6-8b8b-53a82d3aaa74"},"analytics_identifier":"OT1103","parent_organisations":[{"id":"https://www.gov.uk/api/organisations/welsh-government","web_url":"https://www.gov.uk/government/organisations/welsh-government"}],"child_organisations":[]},{"id":"https://www.gov.uk/api/organisations/nhs-wales-informatics-service","title":"NHS Wales Informatics Service","format":"Other","updated_at":"2015-02-26T14:23:51.000+00:00","web_url":"https://www.gov.uk/government/organisations/nhs-wales-informatics-service","details":{"slug":"nhs-wales-informatics-service","abbreviation":"","logo_formatted_name":"NHS Wales \r\nInformatics Service","organisation_brand_colour_class_name":"wales-office","organisation_logo_type_class_name":"single-identity","closed_at":null,"govuk_status":"exempt","content_id":"5708dd26-4c45-4e1a-8996-522ecdab3ed7"},"analytics_identifier":"OT1104","parent_organisations":[],"child_organisations":[]},{"id":"https://www.gov.uk/api/organisations/estyn","title":"Estyn","format":"Other","updated_at":"2015-02-26T14:25:56.000+00:00","web_url":"https://www.gov.uk/government/organisations/estyn","details":{"slug":"estyn","abbreviation":"","logo_formatted_name":"Estyn","organisation_brand_colour_class_name":"wales-office","organisation_logo_type_class_name":"no-identity","closed_at":null,"govuk_status":"exempt","content_id":"6bbb5031-a3a2-4c67-92f9-69a7d699171e"},"analytics_identifier":"DA1105","parent_organisations":[],"child_organisations":[]},{"id":"https://www.gov.uk/api/organisations/schools-commissioners-group","title":"Schools Commissioners Group","format":"Sub-organisation","updated_at":"2016-03-08T14:51:16.000+00:00","web_url":"https://www.gov.uk/government/organisations/schools-commissioners-group","details":{"slug":"schools-commissioners-group","abbreviation":"","logo_formatted_name":"Schools Commissioners Group","organisation_brand_colour_class_name":"department-for-education","organisation_logo_type_class_name":"single-identity","closed_at":null,"govuk_status":"live","content_id":"30637a3a-bd24-4db6-b172-c49500bf50a5"},"analytics_identifier":"OT1107","parent_organisations":[{"id":"https://www.gov.uk/api/organisations/department-for-education","web_url":"https://www.gov.uk/government/organisations/department-for-education"}],"child_organisations":[]},{"id":"https://www.gov.uk/api/organisations/government-legal-department","title":"Government Legal Department","format":"Non-ministerial department","updated_at":"2016-08-02T18:49:16.000+01:00","web_url":"https://www.gov.uk/government/organisations/government-legal-department","details":{"slug":"government-legal-department","abbreviation":"GLD","logo_formatted_name":"Government \r\nLegal Department ","organisation_brand_colour_class_name":"attorney-generals-office","organisation_logo_type_class_name":"single-identity","closed_at":null,"govuk_status":"live","content_id":"bac52ec5-df89-42b3-a034-2de01107f1d3"},"analytics_identifier":"D1108","parent_organisations":[{"id":"https://www.gov.uk/api/organisations/attorney-generals-office","web_url":"https://www.gov.uk/government/organisations/attorney-generals-office"}],"child_organisations":[{"id":"https://www.gov.uk/api/organisations/bona-vacantia","web_url":"https://www.gov.uk/government/organisations/bona-vacantia"}]},{"id":"https://www.gov.uk/api/organisations/national-measurement-and-regulation-office","title":"National Measurement and Regulation Office","format":"Executive agency","updated_at":"2016-03-31T16:08:50.000+01:00","web_url":"https://www.gov.uk/government/organisations/national-measurement-and-regulation-office","details":{"slug":"national-measurement-and-regulation-office","abbreviation":"NMRO","logo_formatted_name":"National Measurement and Regulation Office","organisation_brand_colour_class_name":"department-for-business-innovation-skills","organisation_logo_type_class_name":"custom","closed_at":"2016-03-31T00:00:00.000+01:00","govuk_status":"closed","content_id":"9c0cb3f3-8cea-4597-b719-ec168c36063f"},"analytics_identifier":"EA1109","parent_organisations":[{"id":"https://www.gov.uk/api/organisations/department-for-business-innovation-skills","web_url":"https://www.gov.uk/government/organisations/department-for-business-innovation-skills"},{"id":"https://www.gov.uk/api/organisations/better-regulation-delivery-office","web_url":"https://www.gov.uk/government/organisations/better-regulation-delivery-office"}],"child_organisations":[]},{"id":"https://www.gov.uk/api/organisations/third-party-campaigning-review","title":"Third Party Campaigning Review","format":"Other","updated_at":"2016-04-29T12:48:34.000+01:00","web_url":"https://www.gov.uk/government/organisations/third-party-campaigning-review","details":{"slug":"third-party-campaigning-review","abbreviation":"Third Party Campaigning Review","logo_formatted_name":"Third Party Campaigning Review","organisation_brand_colour_class_name":"cabinet-office","organisation_logo_type_class_name":"single-identity","closed_at":null,"govuk_status":"closed","content_id":"5ff655fe-3069-4a83-b6f1-1e7ec481eff7"},"analytics_identifier":"OT1111","parent_organisations":[{"id":"https://www.gov.uk/api/organisations/cabinet-office","web_url":"https://www.gov.uk/government/organisations/cabinet-office"}],"child_organisations":[]},{"id":"https://www.gov.uk/api/organisations/united-kingdom-reserve-forces-association","title":"United Kingdom Reserve Forces Association","format":"Other","updated_at":"2015-03-16T12:05:12.000+00:00","web_url":"https://www.gov.uk/government/organisations/united-kingdom-reserve-forces-association","details":{"slug":"united-kingdom-reserve-forces-association","abbreviation":"UKRFA","logo_formatted_name":"United Kingdom Reserve Forces Association","organisation_brand_colour_class_name":"ministry-of-defence","organisation_logo_type_class_name":"single-identity","closed_at":null,"govuk_status":"live","content_id":"839afa5e-cd59-4f59-8018-7a935e4b4ef1"},"analytics_identifier":"OT1112","parent_organisations":[{"id":"https://www.gov.uk/api/organisations/ministry-of-defence","web_url":"https://www.gov.uk/government/organisations/ministry-of-defence"}],"child_organisations":[]},{"id":"https://www.gov.uk/api/organisations/defence-electronics-and-components-agency","title":"Defence Electronics and Components Agency","format":"Executive agency","updated_at":"2016-01-15T12:58:17.000+00:00","web_url":"https://www.gov.uk/government/organisations/defence-electronics-and-components-agency","details":{"slug":"defence-electronics-and-components-agency","abbreviation":"DECA","logo_formatted_name":"Defence Electronics \u0026\r\n Components Agency","organisation_brand_colour_class_name":"ministry-of-defence","organisation_logo_type_class_name":"mod","closed_at":null,"govuk_status":"live","content_id":"8fd6a11f-338c-4928-9a17-4f408223c8f6"},"analytics_identifier":"EA1113","parent_organisations":[{"id":"https://www.gov.uk/api/organisations/ministry-of-defence","web_url":"https://www.gov.uk/government/organisations/ministry-of-defence"}],"child_organisations":[]},{"id":"https://www.gov.uk/api/organisations/highways-england","title":"Highways England","format":"Other","updated_at":"2016-03-02T11:09:12.000+00:00","web_url":"https://www.gov.uk/government/organisations/highways-england","details":{"slug":"highways-england","abbreviation":"Highways England","logo_formatted_name":"Highways England","organisation_brand_colour_class_name":null,"organisation_logo_type_class_name":"custom","closed_at":null,"govuk_status":"live","content_id":"ddad017a-eb20-41d9-8386-56293be68aab"},"analytics_identifier":"EA1114","parent_organisations":[{"id":"https://www.gov.uk/api/organisations/department-for-transport","web_url":"https://www.gov.uk/government/organisations/department-for-transport"}],"child_organisations":[]},{"id":"https://www.gov.uk/api/organisations/government-commercial-function","title":"Government Commercial Function","format":"Sub-organisation","updated_at":"2015-03-23T17:11:26.000+00:00","web_url":"https://www.gov.uk/government/organisations/government-commercial-function","details":{"slug":"government-commercial-function","abbreviation":"GCF","logo_formatted_name":"Government Commercial Function","organisation_brand_colour_class_name":"cabinet-office","organisation_logo_type_class_name":"single-identity","closed_at":null,"govuk_status":"live","content_id":"ddbddda2-2460-4ed5-a274-d6731376bef8"},"analytics_identifier":"OT1116","parent_organisations":[{"id":"https://www.gov.uk/api/organisations/cabinet-office","web_url":"https://www.gov.uk/government/organisations/cabinet-office"},{"id":"https://www.gov.uk/api/organisations/civil-service","web_url":"https://www.gov.uk/government/organisations/civil-service"}],"child_organisations":[]},{"id":"https://www.gov.uk/api/organisations/office-of-rail-and-road","title":"Office of Rail and Road","format":"Non-ministerial department","updated_at":"2015-03-30T18:10:07.000+01:00","web_url":"https://www.gov.uk/government/organisations/office-of-rail-and-road","details":{"slug":"office-of-rail-and-road","abbreviation":"ORR","logo_formatted_name":"Office of\r\nRail and Road","organisation_brand_colour_class_name":null,"organisation_logo_type_class_name":"no-identity","closed_at":null,"govuk_status":"exempt","content_id":"a183f1ed-c0ab-45bb-af9a-77e531520ef7"},"analytics_identifier":"D1117","parent_organisations":[{"id":"https://www.gov.uk/api/organisations/department-for-transport","web_url":"https://www.gov.uk/government/organisations/department-for-transport"}],"child_organisations":[]},{"id":"https://www.gov.uk/api/organisations/transport-focus","title":"Transport Focus","format":"Executive non-departmental public body","updated_at":"2015-03-30T18:39:09.000+01:00","web_url":"https://www.gov.uk/government/organisations/transport-focus","details":{"slug":"transport-focus","abbreviation":"","logo_formatted_name":"Transport Focus","organisation_brand_colour_class_name":null,"organisation_logo_type_class_name":"no-identity","closed_at":null,"govuk_status":"exempt","content_id":"0efd6cb8-0a8d-4e7f-b546-50dec25cc155"},"analytics_identifier":"PB1118","parent_organisations":[{"id":"https://www.gov.uk/api/organisations/department-for-transport","web_url":"https://www.gov.uk/government/organisations/department-for-transport"}],"child_organisations":[]},{"id":"https://www.gov.uk/api/organisations/oil-and-gas-authority","title":"Oil and Gas Authority","format":"Other","updated_at":"2016-10-12T15:38:54.000+01:00","web_url":"https://www.gov.uk/government/organisations/oil-and-gas-authority","details":{"slug":"oil-and-gas-authority","abbreviation":"OGA","logo_formatted_name":"Oil \u0026 Gas\r\nAuthority","organisation_brand_colour_class_name":null,"organisation_logo_type_class_name":"single-identity","closed_at":null,"govuk_status":"exempt","content_id":"3f7d012c-fd86-41f9-aa53-2397370e85be"},"analytics_identifier":"EA1119","parent_organisations":[{"id":"https://www.gov.uk/api/organisations/department-for-business-energy-and-industrial-strategy","web_url":"https://www.gov.uk/government/organisations/department-for-business-energy-and-industrial-strategy"}],"child_organisations":[]},{"id":"https://www.gov.uk/api/organisations/bankruptcy-court","title":"Bankruptcy Court","format":"Court","updated_at":"2015-11-02T12:51:31.000+00:00","web_url":"https://www.gov.uk/courts-tribunals/bankruptcy-court","details":{"slug":"bankruptcy-court","abbreviation":"","logo_formatted_name":"Bankruptcy Court","organisation_brand_colour_class_name":null,"organisation_logo_type_class_name":"no-identity","closed_at":null,"govuk_status":"live","content_id":"3709a046-c121-47b5-881a-115580f5ee2d"},"analytics_identifier":"CO1120","parent_organisations":[{"id":"https://www.gov.uk/api/organisations/hm-courts-and-tribunals-service","web_url":"https://www.gov.uk/government/organisations/hm-courts-and-tribunals-service"}],"child_organisations":[]}],"previous_page_url":"https://www.gov.uk/api/organisations?page=45","next_page_url":"https://www.gov.uk/api/organisations?page=47","current_page":46,"total":1009,"pages":51,"page_size":20,"start_index":901,"_response_info":{"status":"ok","links":[{"href":"https://www.gov.uk/api/organisations?page=45","rel":"previous"},{"href":"https://www.gov.uk/api/organisations?page=47","rel":"next"},{"href":"https://www.gov.uk/api/organisations?page=46","rel":"self"}]}}
