{"results":[{"id":"https://www.gov.uk/api/organisations/civil-service-fast-stream","title":"Civil Service Fast Stream","format":"Sub-organisation","updated_at":"2016-09-27T17:15:25.000+01:00","web_url":"https://www.gov.uk/government/organisations/civil-service-fast-stream","details":{"slug":"civil-service-fast-stream","abbreviation":"","logo_formatted_name":"Civil Service Fast Stream","organisation_brand_colour_class_name":null,"organisation_logo_type_class_name":"single-identity","closed_at":null,"govuk_status":"live","content_id":"e1dfcc51-9bda-444c-94f2-d5e4c4b3cd0b"},"analytics_identifier":"OT1121","parent_organisations":[{"id":"https://www.gov.uk/api/organisations/civil-service-resourcing","web_url":"https://www.gov.uk/government/organisations/civil-service-resourcing"}],"child_organisations":[]},{"id":"https://www.gov.uk/api/organisations/independent-family-returns-panel","title":"Independent Family Returns Panel","format":"Other","updated_at":"2015-05-18T11:07:19.000+01:00","web_url":"https://www.gov.uk/government/organisations/independent-family-returns-panel","details":{"slug":"independent-family-returns-panel","abbreviation":"IFRP","logo_formatted_name":"Independent Family Returns Panel","organisation_brand_colour_class_name":"home-office","organisation_logo_type_class_name":"single-identity","closed_at":null,"govuk_status":"live","content_id":"bd11e70f-ad2d-458d-a9cf-b54dc096a541"},"analytics_identifier":"OT1122","parent_organisations":[{"id":"https://www.gov.uk/api/organisations/home-office","web_url":"https://www.gov.uk/government/organisations/home-office"}],"child_organisations":[]},{"id":"https://www.gov.uk/api/organisations/independent-anti-slavery-commissioner","title":"Independent Anti-slavery Commissioner","format":"Independent monitoring body","updated_at":"2015-05-18T11:13:46.000+01:00","web_url":"https://www.gov.uk/government/organisations/independent-anti-slavery-commissioner","details":{"slug":"independent-anti-slavery-commissioner","abbreviation":"IASC","logo_formatted_name":"Independent Anti-slavery Commissioner","organisation_brand_colour_class_name":"home-office","organisation_logo_type_class_name":"single-identity","closed_at":null,"govuk_status":"live","content_id":"cc338777-40c1-4b8c-9167-0e90739dfa3c"},"analytics_identifier":"IM1123","parent_organisations":[{"id":"https://www.gov.uk/api/organisations/home-office","web_url":"https://www.gov.uk/government/organisations/home-office"}],"child_organisations":[]},{"id":"https://www.gov.uk/api/organisations/first-tier-tribunal-mental-health","title":"First-tier Tribunal (Mental Health)","format":"Tribunal non-departmental public body","updated_at":"2015-06-24T11:35:27.000+01:00","web_url":"https://www.gov.uk/courts-tribunals/first-tier-tribunal-mental-health","details":{"slug":"first-tier-tribunal-mental-health","abbreviation":"","logo_formatted_name":"First-tier Tribunal (Mental Health)\r\n","organisation_brand_colour_class_name":null,"organisation_logo_type_class_name":"no-identity","closed_at":null,"govuk_status":"live","content_id":"9b41f151-cd80-4ecb-8176-a23731ef9a4c"},"analytics_identifier":"CO1124","parent_organisations":[{"id":"https://www.gov.uk/api/organisations/hm-courts-and-tribunals-service","web_url":"https://www.gov.uk/government/organisations/hm-courts-and-tribunals-service"}],"child_organisations":[]},{"id":"https://www.gov.uk/api/organisations/first-tier-tribunal-general-regulatory-chamber","title":"First-tier Tribunal (General Regulatory Chamber)","format":"Tribunal non-departmental public body","updated_at":"2015-07-02T11:55:23.000+01:00","web_url":"https://www.gov.uk/courts-tribunals/first-tier-tribunal-general-regulatory-chamber","details":{"slug":"first-tier-tribunal-general-regulatory-chamber","abbreviation":"","logo_formatted_name":"First-tier Tribunal (General Regulatory Chamber)","organisation_brand_colour_class_name":null,"organisation_logo_type_class_name":"no-identity","closed_at":null,"govuk_status":"live","content_id":"6dc74e3b-8ee4-4310-8685-a84fc2602961"},"analytics_identifier":"CO1125","parent_organisations":[{"id":"https://www.gov.uk/api/organisations/hm-courts-and-tribunals-service","web_url":"https://www.gov.uk/government/organisations/hm-courts-and-tribunals-service"}],"child_organisations":[]},{"id":"https://www.gov.uk/api/organisations/first-tier-tribunal-war-pensions-and-armed-forces-compensation","title":"First-tier Tribunal (War Pensions and Armed Forces Compensation)","format":"Tribunal non-departmental public body","updated_at":"2015-06-11T10:09:30.000+01:00","web_url":"https://www.gov.uk/courts-tribunals/first-tier-tribunal-war-pensions-and-armed-forces-compensation","details":{"slug":"first-tier-tribunal-war-pensions-and-armed-forces-compensation","abbreviation":"","logo_formatted_name":"First-tier Tribunal (War Pensions and Armed Forces Compensation)","organisation_brand_colour_class_name":null,"organisation_logo_type_class_name":"no-identity","closed_at":null,"govuk_status":"live","content_id":"7cc471e5-365a-4b90-8c47-d5c87c29347a"},"analytics_identifier":"CO1126","parent_organisations":[{"id":"https://www.gov.uk/api/organisations/hm-courts-and-tribunals-service","web_url":"https://www.gov.uk/government/organisations/hm-courts-and-tribunals-service"}],"child_organisations":[]},{"id":"https://www.gov.uk/api/organisations/first-tier-tribunal-asylum-support","title":"First-tier Tribunal (Asylum Support)","format":"Tribunal non-departmental public body","updated_at":"2015-06-04T11:20:27.000+01:00","web_url":"https://www.gov.uk/courts-tribunals/first-tier-tribunal-asylum-support","details":{"slug":"first-tier-tribunal-asylum-support","abbreviation":"","logo_formatted_name":"First-tier Tribunal (Asylum Support)","organisation_brand_colour_class_name":null,"organisation_logo_type_class_name":"no-identity","closed_at":null,"govuk_status":"live","content_id":"7141e343-e7bb-483b-920a-c6a5cf8f758c"},"analytics_identifier":"CO1127","parent_organisations":[{"id":"https://www.gov.uk/api/organisations/hm-courts-and-tribunals-service","web_url":"https://www.gov.uk/government/organisations/hm-courts-and-tribunals-service"}],"child_organisations":[]},{"id":"https://www.gov.uk/api/organisations/first-tier-tribunal-tax","title":"First-tier Tribunal (Tax)","format":"Tribunal non-departmental public body","updated_at":"2015-06-22T15:16:41.000+01:00","web_url":"https://www.gov.uk/courts-tribunals/first-tier-tribunal-tax","details":{"slug":"first-tier-tribunal-tax","abbreviation":"","logo_formatted_name":"First-tier Tribunal (Tax)","organisation_brand_colour_class_name":null,"organisation_logo_type_class_name":"no-identity","closed_at":null,"govuk_status":"live","content_id":"11cd9334-7bad-4f67-a8ee-1680e64c6be1"},"analytics_identifier":"CO1128","parent_organisations":[{"id":"https://www.gov.uk/api/organisations/hm-courts-and-tribunals-service","web_url":"https://www.gov.uk/government/organisations/hm-courts-and-tribunals-service"}],"child_organisations":[]},{"id":"https://www.gov.uk/api/organisations/gangmasters-licensing-appeals","title":"Gangmasters Licensing Appeals","format":"Tribunal non-departmental public body","updated_at":"2015-06-30T11:21:15.000+01:00","web_url":"https://www.gov.uk/courts-tribunals/gangmasters-licensing-appeals","details":{"slug":"gangmasters-licensing-appeals","abbreviation":"","logo_formatted_name":"Gangmasters Licensing Appeals","organisation_brand_colour_class_name":null,"organisation_logo_type_class_name":"no-identity","closed_at":null,"govuk_status":"live","content_id":"006fd813-9717-449b-9594-3a609ce36ea9"},"analytics_identifier":"CO1129","parent_organisations":[{"id":"https://www.gov.uk/api/organisations/hm-courts-and-tribunals-service","web_url":"https://www.gov.uk/government/organisations/hm-courts-and-tribunals-service"}],"child_organisations":[]},{"id":"https://www.gov.uk/api/organisations/first-tier-tribunal-criminal-injuries-compensation","title":"First-tier Tribunal (Criminal Injuries Compensation)","format":"Tribunal non-departmental public body","updated_at":"2015-06-24T11:54:55.000+01:00","web_url":"https://www.gov.uk/courts-tribunals/first-tier-tribunal-criminal-injuries-compensation","details":{"slug":"first-tier-tribunal-criminal-injuries-compensation","abbreviation":"","logo_formatted_name":"First-tier Tribunal (Criminal Injuries Compensation)","organisation_brand_colour_class_name":null,"organisation_logo_type_class_name":"no-identity","closed_at":null,"govuk_status":"live","content_id":"c0dd3391-5198-40b4-845d-26e0873e0763"},"analytics_identifier":"CO1130","parent_organisations":[{"id":"https://www.gov.uk/api/organisations/hm-courts-and-tribunals-service","web_url":"https://www.gov.uk/government/organisations/hm-courts-and-tribunals-service"}],"child_organisations":[]},{"id":"https://www.gov.uk/api/organisations/first-tier-tribunal-care-standards","title":"First-tier Tribunal (Care Standards)","format":"Tribunal non-departmental public body","updated_at":"2015-06-04T11:20:49.000+01:00","web_url":"https://www.gov.uk/courts-tribunals/first-tier-tribunal-care-standards","details":{"slug":"first-tier-tribunal-care-standards","abbreviation":"","logo_formatted_name":"First-tier Tribunal (Care Standards)","organisation_brand_colour_class_name":null,"organisation_logo_type_class_name":"no-identity","closed_at":null,"govuk_status":"live","content_id":"4f12bb0a-439b-4198-8c6b-afcccde3782a"},"analytics_identifier":"CO1131","parent_organisations":[{"id":"https://www.gov.uk/api/organisations/hm-courts-and-tribunals-service","web_url":"https://www.gov.uk/government/organisations/hm-courts-and-tribunals-service"}],"child_organisations":[]},{"id":"https://www.gov.uk/api/organisations/employment-tribunal","title":"Employment Tribunal","format":"Tribunal non-departmental public body","updated_at":"2015-06-30T11:19:41.000+01:00","web_url":"https://www.gov.uk/courts-tribunals/employment-tribunal","details":{"slug":"employment-tribunal","abbreviation":"","logo_formatted_name":"Employment Tribunal","organisation_brand_colour_class_name":null,"organisation_logo_type_class_name":"no-identity","closed_at":null,"govuk_status":"live","content_id":"8bb37087-a5a7-4493-8afe-900b36ebc927"},"analytics_identifier":"CO1133","parent_organisations":[{"id":"https://www.gov.uk/api/organisations/hm-courts-and-tribunals-service","web_url":"https://www.gov.uk/government/organisations/hm-courts-and-tribunals-service"}],"child_organisations":[]},{"id":"https://www.gov.uk/api/organisations/employment-appeal-tribunal","title":"Employment Appeal Tribunal","format":"Tribunal non-departmental public body","updated_at":"2015-06-22T14:28:06.000+01:00","web_url":"https://www.gov.uk/courts-tribunals/employment-appeal-tribunal","details":{"slug":"employment-appeal-tribunal","abbreviation":"","logo_formatted_name":"Employment Appeal Tribunal","organisation_brand_colour_class_name":null,"organisation_logo_type_class_name":"no-identity","closed_at":null,"govuk_status":"live","content_id":"caeb418c-d11c-4352-92e9-47b21289f696"},"analytics_identifier":"CO1134","parent_organisations":[{"id":"https://www.gov.uk/api/organisations/hm-courts-and-tribunals-service","web_url":"https://www.gov.uk/government/organisations/hm-courts-and-tribunals-service"}],"child_organisations":[]},{"id":"https://www.gov.uk/api/organisations/senior-courts-costs-office","title":"Senior Courts Costs Office","format":"Court","updated_at":"2015-06-12T10:56:07.000+01:00","web_url":"https://www.gov.uk/courts-tribunals/senior-courts-costs-office","details":{"slug":"senior-courts-costs-office","abbreviation":"","logo_formatted_name":"Senior Courts Costs Office","organisation_brand_colour_class_name":null,"organisation_logo_type_class_name":"no-identity","closed_at":null,"govuk_status":"live","content_id":"cda9f3ce-3f24-40dd-b9a0-02d4cb30211d"},"analytics_identifier":"CO1135","parent_organisations":[{"id":"https://www.gov.uk/api/organisations/hm-courts-and-tribunals-service","web_url":"https://www.gov.uk/government/organisations/hm-courts-and-tribunals-service"}],"child_organisations":[]},{"id":"https://www.gov.uk/api/organisations/first-tier-tribunal-social-security-and-child-support","title":"First-tier Tribunal (Social Security and Child Support)","format":"Tribunal non-departmental public body","updated_at":"2015-06-05T10:39:47.000+01:00","web_url":"https://www.gov.uk/courts-tribunals/first-tier-tribunal-social-security-and-child-support","details":{"slug":"first-tier-tribunal-social-security-and-child-support","abbreviation":"","logo_formatted_name":"First-tier Tribunal (Social Security and Child Support)","organisation_brand_colour_class_name":null,"organisation_logo_type_class_name":"no-identity","closed_at":null,"govuk_status":"live","content_id":"2dc6e3cf-c181-4a2c-8ff7-1d8f8f268b57"},"analytics_identifier":"CO1136","parent_organisations":[{"id":"https://www.gov.uk/api/organisations/hm-courts-and-tribunals-service","web_url":"https://www.gov.uk/government/organisations/hm-courts-and-tribunals-service"}],"child_organisations":[]},{"id":"https://www.gov.uk/api/organisations/accelerated-access-review","title":"Accelerated Access Review","format":"Other","updated_at":"2015-07-15T11:27:05.000+01:00","web_url":"https://www.gov.uk/government/organisations/accelerated-access-review","details":{"slug":"accelerated-access-review","abbreviation":"AAR","logo_formatted_name":"Accelerated \r\nAccess \r\nReview","organisation_brand_colour_class_name":"department-of-health","organisation_logo_type_class_name":"single-identity","closed_at":null,"govuk_status":"live","content_id":"a0f338c5-e94c-42f8-9c26-b9c2eb6850d3"},"analytics_identifier":"OT1137","parent_organisations":[{"id":"https://www.gov.uk/api/organisations/department-of-health","web_url":"https://www.gov.uk/government/organisations/department-of-health"}],"child_organisations":[]},{"id":"https://www.gov.uk/api/organisations/reserve-forces-appeal-tribunal","title":"Reserve Forces Appeal Tribunal","format":"Tribunal non-departmental public body","updated_at":"2015-06-16T10:14:58.000+01:00","web_url":"https://www.gov.uk/courts-tribunals/reserve-forces-appeal-tribunal","details":{"slug":"reserve-forces-appeal-tribunal","abbreviation":"","logo_formatted_name":"Reserve Forces Appeal Tribunal","organisation_brand_colour_class_name":null,"organisation_logo_type_class_name":"no-identity","closed_at":null,"govuk_status":"live","content_id":"d80c7242-5b66-4b47-9965-1d768a2d89b8"},"analytics_identifier":"PB1138","parent_organisations":[{"id":"https://www.gov.uk/api/organisations/hm-courts-and-tribunals-service","web_url":"https://www.gov.uk/government/organisations/hm-courts-and-tribunals-service"}],"child_organisations":[]},{"id":"https://www.gov.uk/api/organisations/first-tier-tribunal-property-chamber","title":"First-tier Tribunal (Property Chamber)","format":"Tribunal non-departmental public body","updated_at":"2015-08-25T10:59:16.000+01:00","web_url":"https://www.gov.uk/courts-tribunals/first-tier-tribunal-property-chamber","details":{"slug":"first-tier-tribunal-property-chamber","abbreviation":"","logo_formatted_name":"First-tier Tribunal (Property Chamber)","organisation_brand_colour_class_name":null,"organisation_logo_type_class_name":"no-identity","closed_at":null,"govuk_status":"live","content_id":"bb2b028f-efaa-44fd-b3f8-971b25cb51a2"},"analytics_identifier":"PB1139","parent_organisations":[{"id":"https://www.gov.uk/api/organisations/hm-courts-and-tribunals-service","web_url":"https://www.gov.uk/government/organisations/hm-courts-and-tribunals-service"}],"child_organisations":[]},{"id":"https://www.gov.uk/api/organisations/upper-tribunal-tax-and-chancery-chamber","title":"Upper Tribunal (Tax and Chancery Chamber)","format":"Tribunal non-departmental public body","updated_at":"2015-07-06T14:21:23.000+01:00","web_url":"https://www.gov.uk/courts-tribunals/upper-tribunal-tax-and-chancery-chamber","details":{"slug":"upper-tribunal-tax-and-chancery-chamber","abbreviation":"","logo_formatted_name":"Upper Tribunal (Tax and Chancery Chamber)","organisation_brand_colour_class_name":null,"organisation_logo_type_class_name":"no-identity","closed_at":null,"govuk_status":"live","content_id":"1a68b2cc-eb52-4528-8989-429f710da00f"},"analytics_identifier":"PB1140","parent_organisations":[{"id":"https://www.gov.uk/api/organisations/hm-courts-and-tribunals-service","web_url":"https://www.gov.uk/government/organisations/hm-courts-and-tribunals-service"}],"child_organisations":[]},{"id":"https://www.gov.uk/api/organisations/upper-tribunal-lands-chamber","title":"Upper Tribunal (Lands Chamber)","format":"Tribunal non-departmental public body","updated_at":"2015-06-24T11:35:08.000+01:00","web_url":"https://www.gov.uk/courts-tribunals/upper-tribunal-lands-chamber","details":{"slug":"upper-tribunal-lands-chamber","abbreviation":"","logo_formatted_name":"Upper Tribunal (Lands Chamber)","organisation_brand_colour_class_name":null,"organisation_logo_type_class_name":"no-identity","closed_at":null,"govuk_status":"live","content_id":"dded0912-517d-4186-bd3b-a14acfb7d780"},"analytics_identifier":"PB1141","parent_organisations":[{"id":"https://www.gov.uk/api/organisations/hm-courts-and-tribunals-service","web_url":"https://www.gov.uk/government/organisations/hm-courts-and-tribunals-service"}],"child_organisations":[]}],"previous_page_url":"https://www.gov.uk/api/organisations?page=46","next_page_url":"https://www.gov.uk/api/organisations?page=48","current_page":47,"total":1009,"pages":51,"page_size":20,"start_index":921,"_response_info":{"status":"ok","links":[{"href":"https://www.gov.uk/api/organisations?page=46","rel":"previous"},{"href":"https://www.gov.uk/api/organisations?page=48","rel":"next"},{"href":"https://www.gov.uk/api/organisations?page=47","rel":"self"}]}}
