{"results":[{"id":"https://www.gov.uk/api/organisations/upper-tribunal-administrative-appeals-chamber","title":"Upper Tribunal (Administrative Appeals Chamber)","format":"Tribunal non-departmental public body","updated_at":"2015-06-18T17:08:53.000+01:00","web_url":"https://www.gov.uk/courts-tribunals/upper-tribunal-administrative-appeals-chamber","details":{"slug":"upper-tribunal-administrative-appeals-chamber","abbreviation":"","logo_formatted_name":"Upper Tribunal (Administrative Appeals Chamber)","organisation_brand_colour_class_name":null,"organisation_logo_type_class_name":"no-identity","closed_at":null,"govuk_status":"live","content_id":"4c2e325a-2d95-442b-856a-e7fb9f9e3cf8"},"analytics_identifier":"PB1142","parent_organisations":[{"id":"https://www.gov.uk/api/organisations/hm-courts-and-tribunals-service","web_url":"https://www.gov.uk/government/organisations/hm-courts-and-tribunals-service"}],"child_organisations":[]},{"id":"https://www.gov.uk/api/organisations/first-tier-tribunal-immigration-and-asylum","title":"First-tier Tribunal (Immigration and Asylum)","format":"Tribunal non-departmental public body","updated_at":"2015-06-30T16:35:27.000+01:00","web_url":"https://www.gov.uk/courts-tribunals/first-tier-tribunal-immigration-and-asylum","details":{"slug":"first-tier-tribunal-immigration-and-asylum","abbreviation":"","logo_formatted_name":"First-tier Tribunal (Immigration and Asylum)","organisation_brand_colour_class_name":null,"organisation_logo_type_class_name":"no-identity","closed_at":null,"govuk_status":"live","content_id":"7a71bfc2-d67d-4db9-baef-95b38c41f336"},"analytics_identifier":"PB1143","parent_organisations":[{"id":"https://www.gov.uk/api/organisations/hm-courts-and-tribunals-service","web_url":"https://www.gov.uk/government/organisations/hm-courts-and-tribunals-service"}],"child_organisations":[]},{"id":"https://www.gov.uk/api/organisations/upper-tribunal-immigration-and-asylum-chamber","title":"Upper Tribunal (Immigration and Asylum Chamber)","format":"Tribunal non-departmental public body","updated_at":"2015-06-30T16:37:48.000+01:00","web_url":"https://www.gov.uk/courts-tribunals/upper-tribunal-immigration-and-asylum-chamber","details":{"slug":"upper-tribunal-immigration-and-asylum-chamber","abbreviation":"","logo_formatted_name":"Upper Tribunal (Immigration and Asylum Chamber)","organisation_brand_colour_class_name":null,"organisation_logo_type_class_name":"no-identity","closed_at":null,"govuk_status":"live","content_id":"db2c5331-e960-4807-9ac7-89f1fceda883"},"analytics_identifier":"PB1144","parent_organisations":[{"id":"https://www.gov.uk/api/organisations/hm-courts-and-tribunals-service","web_url":"https://www.gov.uk/government/organisations/hm-courts-and-tribunals-service"}],"child_organisations":[]},{"id":"https://www.gov.uk/api/organisations/first-tier-tribunal-special-educational-needs-and-disability","title":"First-tier Tribunal (Special Educational Needs and Disability)","format":"Tribunal non-departmental public body","updated_at":"2015-07-20T10:27:41.000+01:00","web_url":"https://www.gov.uk/courts-tribunals/first-tier-tribunal-special-educational-needs-and-disability","details":{"slug":"first-tier-tribunal-special-educational-needs-and-disability","abbreviation":"","logo_formatted_name":"First-tier Tribunal (Special Educational Needs and Disability)","organisation_brand_colour_class_name":null,"organisation_logo_type_class_name":"no-identity","closed_at":null,"govuk_status":"live","content_id":"d3cd3a1b-ba40-4b8a-9534-be6783235178"},"analytics_identifier":"CO1145","parent_organisations":[{"id":"https://www.gov.uk/api/organisations/hm-courts-and-tribunals-service","web_url":"https://www.gov.uk/government/organisations/hm-courts-and-tribunals-service"}],"child_organisations":[]},{"id":"https://www.gov.uk/api/organisations/department-of-culture-arts-and-leisure-northern-ireland","title":"Department of Culture, Arts and Leisure Northern Ireland","format":"Executive agency","updated_at":"2015-06-26T14:20:14.000+01:00","web_url":"https://www.gov.uk/government/organisations/department-of-culture-arts-and-leisure-northern-ireland","details":{"slug":"department-of-culture-arts-and-leisure-northern-ireland","abbreviation":"DCAL","logo_formatted_name":"Department of Culture, Arts and Leisure Northern Ireland","organisation_brand_colour_class_name":null,"organisation_logo_type_class_name":"single-identity","closed_at":null,"govuk_status":"exempt","content_id":"47f467e5-1913-4b00-9ea7-c26e89054125"},"analytics_identifier":"DA1146","parent_organisations":[],"child_organisations":[]},{"id":"https://www.gov.uk/api/organisations/admiralty-court","title":"Admiralty Court","format":"Court","updated_at":"2015-06-29T15:58:45.000+01:00","web_url":"https://www.gov.uk/courts-tribunals/admiralty-court","details":{"slug":"admiralty-court","abbreviation":"","logo_formatted_name":"Admiralty Court","organisation_brand_colour_class_name":null,"organisation_logo_type_class_name":"no-identity","closed_at":null,"govuk_status":"live","content_id":"2585bb7b-6134-4176-8309-db184573a4c1"},"analytics_identifier":"CO1147","parent_organisations":[{"id":"https://www.gov.uk/api/organisations/hm-courts-and-tribunals-service","web_url":"https://www.gov.uk/government/organisations/hm-courts-and-tribunals-service"}],"child_organisations":[]},{"id":"https://www.gov.uk/api/organisations/british-business-bank","title":"British Business Bank","format":"Other","updated_at":"2015-07-10T12:17:50.000+01:00","web_url":"https://www.gov.uk/government/organisations/british-business-bank","details":{"slug":"british-business-bank","abbreviation":"BBB","logo_formatted_name":"British\r\nBusiness\r\nBank","organisation_brand_colour_class_name":"department-for-business-innovation-skills","organisation_logo_type_class_name":"no-identity","closed_at":null,"govuk_status":"exempt","content_id":"1e93b589-7840-4f12-abcd-57e90b083166"},"analytics_identifier":"OT1148","parent_organisations":[{"id":"https://www.gov.uk/api/organisations/department-for-business-energy-and-industrial-strategy","web_url":"https://www.gov.uk/government/organisations/department-for-business-energy-and-industrial-strategy"}],"child_organisations":[]},{"id":"https://www.gov.uk/api/organisations/independent-commission-on-freedom-of-information","title":"Independent Commission on Freedom of Information","format":"Advisory non-departmental public body","updated_at":"2015-07-17T14:12:42.000+01:00","web_url":"https://www.gov.uk/government/organisations/independent-commission-on-freedom-of-information","details":{"slug":"independent-commission-on-freedom-of-information","abbreviation":"","logo_formatted_name":"Independent Commission on   \r\nFreedom of Information  ","organisation_brand_colour_class_name":"cabinet-office","organisation_logo_type_class_name":"single-identity","closed_at":null,"govuk_status":"live","content_id":"e73baa65-73ec-4809-8762-11af3e1629f4"},"analytics_identifier":"PB1149","parent_organisations":[],"child_organisations":[]},{"id":"https://www.gov.uk/api/organisations/radioactive-waste-management","title":"Radioactive Waste Management","format":"Other","updated_at":"2016-09-26T11:27:06.000+01:00","web_url":"https://www.gov.uk/government/organisations/radioactive-waste-management","details":{"slug":"radioactive-waste-management","abbreviation":"RWM","logo_formatted_name":"Radioactive\r\nWaste\r\nManagement","organisation_brand_colour_class_name":null,"organisation_logo_type_class_name":"custom","closed_at":null,"govuk_status":"live","content_id":"ff1d1b43-ee2b-4529-a227-68f83ca5e266"},"analytics_identifier":"OT1150","parent_organisations":[{"id":"https://www.gov.uk/api/organisations/nuclear-decommissioning-authority","web_url":"https://www.gov.uk/government/organisations/nuclear-decommissioning-authority"}],"child_organisations":[]},{"id":"https://www.gov.uk/api/organisations/payment-systems-regulator","title":"Payment Systems Regulator","format":"Other","updated_at":"2015-07-29T16:45:34.000+01:00","web_url":"https://www.gov.uk/government/organisations/payment-systems-regulator","details":{"slug":"payment-systems-regulator","abbreviation":"PSR","logo_formatted_name":"Payment Systems Regulator","organisation_brand_colour_class_name":"hm-treasury","organisation_logo_type_class_name":"single-identity","closed_at":null,"govuk_status":"exempt","content_id":"7b4d7435-d1cc-48fb-8d0d-faa1f42d6d64"},"analytics_identifier":"OT1151","parent_organisations":[{"id":"https://www.gov.uk/api/organisations/hm-treasury","web_url":"https://www.gov.uk/government/organisations/hm-treasury"}],"child_organisations":[]},{"id":"https://www.gov.uk/api/organisations/disabled-peoples-employment-corporation","title":"Disabled People’s Employment Corporation","format":"Executive non-departmental public body","updated_at":"2015-07-30T17:10:54.000+01:00","web_url":"https://www.gov.uk/government/organisations/disabled-peoples-employment-corporation","details":{"slug":"disabled-peoples-employment-corporation","abbreviation":"DPEC","logo_formatted_name":"Disabled People’s Employment Corporation","organisation_brand_colour_class_name":"department-for-work-pensions","organisation_logo_type_class_name":"single-identity","closed_at":null,"govuk_status":"exempt","content_id":"4d82bb31-00d0-431d-82b7-707869f06cc7"},"analytics_identifier":"PB1152","parent_organisations":[{"id":"https://www.gov.uk/api/organisations/department-for-work-pensions","web_url":"https://www.gov.uk/government/organisations/department-for-work-pensions"}],"child_organisations":[]},{"id":"https://www.gov.uk/api/organisations/defence-and-security-media-advisory-committee","title":"Defence and Security Media Advisory Committee","format":"Other","updated_at":"2015-07-31T09:50:24.000+01:00","web_url":"https://www.gov.uk/government/organisations/defence-and-security-media-advisory-committee","details":{"slug":"defence-and-security-media-advisory-committee","abbreviation":"DSMA","logo_formatted_name":"Defence and \r\nSecurity Media\r\nAdvisory Committee","organisation_brand_colour_class_name":null,"organisation_logo_type_class_name":"single-identity","closed_at":null,"govuk_status":"exempt","content_id":"3161a1a9-f759-4acf-962f-3ce3f373693b"},"analytics_identifier":"OT1153","parent_organisations":[{"id":"https://www.gov.uk/api/organisations/ministry-of-defence","web_url":"https://www.gov.uk/government/organisations/ministry-of-defence"}],"child_organisations":[]},{"id":"https://www.gov.uk/api/organisations/ebbsfleet-development-corporation","title":"Ebbsfleet Development Corporation","format":"Executive non-departmental public body","updated_at":"2016-11-25T17:07:34.000+00:00","web_url":"https://www.gov.uk/government/organisations/ebbsfleet-development-corporation","details":{"slug":"ebbsfleet-development-corporation","abbreviation":"","logo_formatted_name":"Ebbsfleet\r\nDevelopment\r\nCorporation","organisation_brand_colour_class_name":null,"organisation_logo_type_class_name":"single-identity","closed_at":null,"govuk_status":"exempt","content_id":"a0c87b97-7eff-498f-a918-16f1492f7d3e"},"analytics_identifier":"PB1154","parent_organisations":[{"id":"https://www.gov.uk/api/organisations/department-for-communities-and-local-government","web_url":"https://www.gov.uk/government/organisations/department-for-communities-and-local-government"}],"child_organisations":[]},{"id":"https://www.gov.uk/api/organisations/family-division-of-the-high-court","title":"Family Division of the High Court","format":"Court","updated_at":"2015-08-03T13:44:04.000+01:00","web_url":"https://www.gov.uk/courts-tribunals/family-division-of-the-high-court","details":{"slug":"family-division-of-the-high-court","abbreviation":"","logo_formatted_name":"Family Division of the High Court","organisation_brand_colour_class_name":null,"organisation_logo_type_class_name":"no-identity","closed_at":null,"govuk_status":"live","content_id":"e549f426-3c3e-4830-9271-313013823931"},"analytics_identifier":"CO1155","parent_organisations":[{"id":"https://www.gov.uk/api/organisations/hm-courts-and-tribunals-service","web_url":"https://www.gov.uk/government/organisations/hm-courts-and-tribunals-service"}],"child_organisations":[]},{"id":"https://www.gov.uk/api/organisations/planning-court","title":"Planning Court","format":"Court","updated_at":"2015-08-04T14:42:50.000+01:00","web_url":"https://www.gov.uk/courts-tribunals/planning-court","details":{"slug":"planning-court","abbreviation":"","logo_formatted_name":"Planning Court","organisation_brand_colour_class_name":null,"organisation_logo_type_class_name":"no-identity","closed_at":null,"govuk_status":"live","content_id":"43eb2384-527c-40f8-aa0c-c0669fb6a65d"},"analytics_identifier":"CO1156","parent_organisations":[{"id":"https://www.gov.uk/api/organisations/hm-courts-and-tribunals-service","web_url":"https://www.gov.uk/government/organisations/hm-courts-and-tribunals-service"}],"child_organisations":[]},{"id":"https://www.gov.uk/api/organisations/technology-and-construction-court","title":"Technology and Construction Court","format":"Court","updated_at":"2016-02-01T10:36:01.000+00:00","web_url":"https://www.gov.uk/courts-tribunals/technology-and-construction-court","details":{"slug":"technology-and-construction-court","abbreviation":"","logo_formatted_name":"Technology and Construction Court","organisation_brand_colour_class_name":null,"organisation_logo_type_class_name":"no-identity","closed_at":null,"govuk_status":"live","content_id":"d698caa2-9ee6-4a59-9831-8dd90aff0ce5"},"analytics_identifier":"CO1157","parent_organisations":[{"id":"https://www.gov.uk/api/organisations/hm-courts-and-tribunals-service","web_url":"https://www.gov.uk/government/organisations/hm-courts-and-tribunals-service"}],"child_organisations":[]},{"id":"https://www.gov.uk/api/organisations/mercantile-court","title":"Mercantile Court","format":"Court","updated_at":"2016-01-14T11:22:42.000+00:00","web_url":"https://www.gov.uk/courts-tribunals/mercantile-court","details":{"slug":"mercantile-court","abbreviation":"","logo_formatted_name":"Mercantile Court","organisation_brand_colour_class_name":null,"organisation_logo_type_class_name":"no-identity","closed_at":null,"govuk_status":"live","content_id":"deb54ca3-1425-408a-8e92-a4d74ad497fa"},"analytics_identifier":"CO1158","parent_organisations":[{"id":"https://www.gov.uk/api/organisations/hm-courts-and-tribunals-service","web_url":"https://www.gov.uk/government/organisations/hm-courts-and-tribunals-service"}],"child_organisations":[]},{"id":"https://www.gov.uk/api/organisations/commercial-court","title":"Commercial Court","format":"Court","updated_at":"2015-11-12T14:31:19.000+00:00","web_url":"https://www.gov.uk/courts-tribunals/commercial-court","details":{"slug":"commercial-court","abbreviation":"","logo_formatted_name":"Commercial Court","organisation_brand_colour_class_name":null,"organisation_logo_type_class_name":"no-identity","closed_at":null,"govuk_status":"live","content_id":"60ccfe7d-6222-48ad-89ce-df9a74333a74"},"analytics_identifier":"CO1159","parent_organisations":[{"id":"https://www.gov.uk/api/organisations/hm-courts-and-tribunals-service","web_url":"https://www.gov.uk/government/organisations/hm-courts-and-tribunals-service"}],"child_organisations":[]},{"id":"https://www.gov.uk/api/organisations/companies-court","title":"Companies Court","format":"Court","updated_at":"2015-11-23T10:37:35.000+00:00","web_url":"https://www.gov.uk/courts-tribunals/companies-court","details":{"slug":"companies-court","abbreviation":"","logo_formatted_name":"Companies Court","organisation_brand_colour_class_name":null,"organisation_logo_type_class_name":"no-identity","closed_at":null,"govuk_status":"live","content_id":"979f6709-6dda-4b96-b30c-b4b7694cf7d0"},"analytics_identifier":"CO1160","parent_organisations":[{"id":"https://www.gov.uk/api/organisations/hm-courts-and-tribunals-service","web_url":"https://www.gov.uk/government/organisations/hm-courts-and-tribunals-service"}],"child_organisations":[]},{"id":"https://www.gov.uk/api/organisations/national-infrastructure-commission","title":"National Infrastructure Commission","format":"Other","updated_at":"2015-10-05T13:56:23.000+01:00","web_url":"https://www.gov.uk/government/organisations/national-infrastructure-commission","details":{"slug":"national-infrastructure-commission","abbreviation":"","logo_formatted_name":"National Infrastructure\r\nCommission","organisation_brand_colour_class_name":"hm-treasury","organisation_logo_type_class_name":"single-identity","closed_at":null,"govuk_status":"live","content_id":"2ca05037-b1c6-44f3-a9ef-a35cb6c6a47a"},"analytics_identifier":"OT1161","parent_organisations":[{"id":"https://www.gov.uk/api/organisations/hm-treasury","web_url":"https://www.gov.uk/government/organisations/hm-treasury"}],"child_organisations":[]}],"previous_page_url":"https://www.gov.uk/api/organisations?page=47","next_page_url":"https://www.gov.uk/api/organisations?page=49","current_page":48,"total":1009,"pages":51,"page_size":20,"start_index":941,"_response_info":{"status":"ok","links":[{"href":"https://www.gov.uk/api/organisations?page=47","rel":"previous"},{"href":"https://www.gov.uk/api/organisations?page=49","rel":"next"},{"href":"https://www.gov.uk/api/organisations?page=48","rel":"self"}]}}
