{"results":[{"id":"https://www.gov.uk/api/organisations/intellectual-property-enterprise-court","title":"Intellectual Property Enterprise Court","format":"Court","updated_at":"2015-11-11T11:44:15.000+00:00","web_url":"https://www.gov.uk/courts-tribunals/intellectual-property-enterprise-court","details":{"slug":"intellectual-property-enterprise-court","abbreviation":"","logo_formatted_name":"Intellectual Property Enterprise Court","organisation_brand_colour_class_name":null,"organisation_logo_type_class_name":"no-identity","closed_at":null,"govuk_status":"live","content_id":"4297e87f-4d1d-43f5-8850-26fba1818e08"},"analytics_identifier":"CO1162","parent_organisations":[{"id":"https://www.gov.uk/api/organisations/hm-courts-and-tribunals-service","web_url":"https://www.gov.uk/government/organisations/hm-courts-and-tribunals-service"}],"child_organisations":[]},{"id":"https://www.gov.uk/api/organisations/court-of-appeal-civil-division","title":"Court of Appeal Civil Division","format":"Court","updated_at":"2016-11-16T11:59:23.000+00:00","web_url":"https://www.gov.uk/courts-tribunals/court-of-appeal-civil-division","details":{"slug":"court-of-appeal-civil-division","abbreviation":"","logo_formatted_name":"Court of Appeal \r\nCivil Division","organisation_brand_colour_class_name":null,"organisation_logo_type_class_name":"no-identity","closed_at":null,"govuk_status":"live","content_id":"e6c3bb29-e8ae-4a62-8ec6-c8b8d78c29ee"},"analytics_identifier":"CO1163","parent_organisations":[{"id":"https://www.gov.uk/api/organisations/hm-courts-and-tribunals-service","web_url":"https://www.gov.uk/government/organisations/hm-courts-and-tribunals-service"}],"child_organisations":[]},{"id":"https://www.gov.uk/api/organisations/historic-england","title":"Historic England","format":"Executive non-departmental public body","updated_at":"2015-12-15T11:59:40.000+00:00","web_url":"https://www.gov.uk/government/organisations/historic-england","details":{"slug":"historic-england","abbreviation":"HE","logo_formatted_name":"Historic England","organisation_brand_colour_class_name":null,"organisation_logo_type_class_name":"single-identity","closed_at":null,"govuk_status":"exempt","content_id":"4dc9c134-62e4-40ab-aaa0-45ca55f0a1e3"},"analytics_identifier":"PB1164","parent_organisations":[{"id":"https://www.gov.uk/api/organisations/department-for-culture-media-sport","web_url":"https://www.gov.uk/government/organisations/department-for-culture-media-sport"}],"child_organisations":[]},{"id":"https://www.gov.uk/api/organisations/northampton-county-court-business-centre","title":"Northampton County Court Business Centre","format":"Court","updated_at":"2016-06-02T11:42:53.000+01:00","web_url":"https://www.gov.uk/courts-tribunals/northampton-county-court-business-centre","details":{"slug":"northampton-county-court-business-centre","abbreviation":"","logo_formatted_name":"Northampton County Court Business Centre","organisation_brand_colour_class_name":null,"organisation_logo_type_class_name":"no-identity","closed_at":null,"govuk_status":"live","content_id":"eb295743-22f3-411a-9b26-e67f1b146a33"},"analytics_identifier":"CO1165","parent_organisations":[{"id":"https://www.gov.uk/api/organisations/hm-courts-and-tribunals-service","web_url":"https://www.gov.uk/government/organisations/hm-courts-and-tribunals-service"}],"child_organisations":[]},{"id":"https://www.gov.uk/api/organisations/infrastructure-and-projects-authority","title":"Infrastructure and Projects Authority","format":"Sub-organisation","updated_at":"2016-01-04T17:32:25.000+00:00","web_url":"https://www.gov.uk/government/organisations/infrastructure-and-projects-authority","details":{"slug":"infrastructure-and-projects-authority","abbreviation":"IPA","logo_formatted_name":"Infrastructure \r\nand Projects  \r\nAuthority","organisation_brand_colour_class_name":"cabinet-office","organisation_logo_type_class_name":"single-identity","closed_at":null,"govuk_status":"live","content_id":"28fbe4cf-7848-4e77-9ed2-e71935fb5bf1"},"analytics_identifier":"OT1166","parent_organisations":[{"id":"https://www.gov.uk/api/organisations/cabinet-office","web_url":"https://www.gov.uk/government/organisations/cabinet-office"},{"id":"https://www.gov.uk/api/organisations/hm-treasury","web_url":"https://www.gov.uk/government/organisations/hm-treasury"}],"child_organisations":[]},{"id":"https://www.gov.uk/api/organisations/civil-service-fast-track-apprenticeship","title":"Civil Service Fast Track Apprenticeship","format":"Sub-organisation","updated_at":"2017-01-09T10:43:01.000+00:00","web_url":"https://www.gov.uk/government/organisations/civil-service-fast-track-apprenticeship","details":{"slug":"civil-service-fast-track-apprenticeship","abbreviation":"","logo_formatted_name":"Civil Service Fast Track Apprenticeship","organisation_brand_colour_class_name":"civil-service","organisation_logo_type_class_name":"single-identity","closed_at":null,"govuk_status":"live","content_id":"1b30277d-fc8c-466c-840d-506b5928db59"},"analytics_identifier":"OT1167","parent_organisations":[{"id":"https://www.gov.uk/api/organisations/civil-service-resourcing","web_url":"https://www.gov.uk/government/organisations/civil-service-resourcing"}],"child_organisations":[]},{"id":"https://www.gov.uk/api/organisations/service-complaints-ombudsman","title":"Service Complaints Ombudsman ","format":"Other","updated_at":"2016-01-07T13:32:33.000+00:00","web_url":"https://www.gov.uk/government/organisations/service-complaints-ombudsman","details":{"slug":"service-complaints-ombudsman","abbreviation":"","logo_formatted_name":"Service Complaints Ombudsman","organisation_brand_colour_class_name":null,"organisation_logo_type_class_name":"no-identity","closed_at":null,"govuk_status":"exempt","content_id":"5b71dd34-5508-4fdb-a095-132b7c74b3ec"},"analytics_identifier":"OT1168","parent_organisations":[{"id":"https://www.gov.uk/api/organisations/ministry-of-defence","web_url":"https://www.gov.uk/government/organisations/ministry-of-defence"}],"child_organisations":[]},{"id":"https://www.gov.uk/api/organisations/financial-services-trade-and-investment-board","title":"Financial Services Trade and Investment Board","format":"Sub-organisation","updated_at":"2016-01-07T16:02:57.000+00:00","web_url":"https://www.gov.uk/government/organisations/financial-services-trade-and-investment-board","details":{"slug":"financial-services-trade-and-investment-board","abbreviation":"FSTIB","logo_formatted_name":"Financial Services Trade and Investment Board","organisation_brand_colour_class_name":"hm-treasury","organisation_logo_type_class_name":"single-identity","closed_at":null,"govuk_status":"live","content_id":"d8262754-af6a-4206-b393-057ad65f856c"},"analytics_identifier":"OT1169","parent_organisations":[{"id":"https://www.gov.uk/api/organisations/hm-treasury","web_url":"https://www.gov.uk/government/organisations/hm-treasury"}],"child_organisations":[]},{"id":"https://www.gov.uk/api/organisations/patents-court","title":"Patents Court","format":"Court","updated_at":"2016-01-12T16:51:03.000+00:00","web_url":"https://www.gov.uk/courts-tribunals/patents-court","details":{"slug":"patents-court","abbreviation":"","logo_formatted_name":"Patents Court","organisation_brand_colour_class_name":null,"organisation_logo_type_class_name":"no-identity","closed_at":null,"govuk_status":"live","content_id":"1949760d-6441-4f4e-add9-6ff2ce8e134b"},"analytics_identifier":"CO1170","parent_organisations":[{"id":"https://www.gov.uk/api/organisations/hm-courts-and-tribunals-service","web_url":"https://www.gov.uk/government/organisations/hm-courts-and-tribunals-service"}],"child_organisations":[]},{"id":"https://www.gov.uk/api/organisations/uk-holocaust-memorial-foundation","title":"UK Holocaust Memorial Foundation","format":"Advisory non-departmental public body","updated_at":"2016-01-27T09:52:55.000+00:00","web_url":"https://www.gov.uk/government/organisations/uk-holocaust-memorial-foundation","details":{"slug":"uk-holocaust-memorial-foundation","abbreviation":"UKHMF","logo_formatted_name":"UK Holocaust \r\nMemorial \r\nFoundation","organisation_brand_colour_class_name":null,"organisation_logo_type_class_name":"single-identity","closed_at":null,"govuk_status":"live","content_id":"0183a2d3-ce7b-47cf-966d-1323b74865bc"},"analytics_identifier":"PB1171","parent_organisations":[{"id":"https://www.gov.uk/api/organisations/prime-ministers-office-10-downing-street","web_url":"https://www.gov.uk/government/organisations/prime-ministers-office-10-downing-street"}],"child_organisations":[]},{"id":"https://www.gov.uk/api/organisations/committee-on-fuel-poverty","title":"Committee on Fuel Poverty","format":"Advisory non-departmental public body","updated_at":"2016-01-26T14:11:49.000+00:00","web_url":"https://www.gov.uk/government/organisations/committee-on-fuel-poverty","details":{"slug":"committee-on-fuel-poverty","abbreviation":"CFP","logo_formatted_name":"Committee on \r\nFuel Poverty","organisation_brand_colour_class_name":"department-of-energy-climate-change","organisation_logo_type_class_name":"single-identity","closed_at":null,"govuk_status":"live","content_id":"65c1a7cd-9440-4812-a01f-63017435a3ac"},"analytics_identifier":"PB1172","parent_organisations":[{"id":"https://www.gov.uk/api/organisations/department-for-business-energy-and-industrial-strategy","web_url":"https://www.gov.uk/government/organisations/department-for-business-energy-and-industrial-strategy"}],"child_organisations":[]},{"id":"https://www.gov.uk/api/organisations/department-for-communities-northern-ireland","title":"Department for Communities (Northern Ireland)","format":"Other","updated_at":"2016-01-25T14:59:58.000+00:00","web_url":"https://www.gov.uk/government/organisations/department-for-communities-northern-ireland","details":{"slug":"department-for-communities-northern-ireland","abbreviation":"","logo_formatted_name":"Department for Communities \r\n(Northern Ireland)","organisation_brand_colour_class_name":null,"organisation_logo_type_class_name":"single-identity","closed_at":null,"govuk_status":"joining","content_id":"50767bd3-cbbe-47df-bc5e-ddd0140e4b04"},"analytics_identifier":"OT1173","parent_organisations":[],"child_organisations":[]},{"id":"https://www.gov.uk/api/organisations/department-for-the-economy-northern-ireland","title":"Department for the Economy (Northern Ireland)","format":"Other","updated_at":"2016-01-25T15:03:14.000+00:00","web_url":"https://www.gov.uk/government/organisations/department-for-the-economy-northern-ireland","details":{"slug":"department-for-the-economy-northern-ireland","abbreviation":"","logo_formatted_name":"Department for \r\nthe Economy\r\n(Northern Ireland)","organisation_brand_colour_class_name":null,"organisation_logo_type_class_name":"single-identity","closed_at":null,"govuk_status":"joining","content_id":"5c817b46-039f-4c4a-ac63-b28c1c2feb59"},"analytics_identifier":"OT1174","parent_organisations":[],"child_organisations":[]},{"id":"https://www.gov.uk/api/organisations/department-of-health-northern-ireland","title":"Department of Health (Northern Ireland)","format":"Other","updated_at":"2016-01-25T15:05:33.000+00:00","web_url":"https://www.gov.uk/government/organisations/department-of-health-northern-ireland","details":{"slug":"department-of-health-northern-ireland","abbreviation":"","logo_formatted_name":"Department of Health (Northern Ireland)","organisation_brand_colour_class_name":null,"organisation_logo_type_class_name":"single-identity","closed_at":null,"govuk_status":"joining","content_id":"a8636bd4-4e86-47af-987a-b672d4e6fa31"},"analytics_identifier":"OT1175","parent_organisations":[],"child_organisations":[]},{"id":"https://www.gov.uk/api/organisations/department-for-infrastructure-northern-ireland","title":"Department for Infrastructure (Northern Ireland)","format":"Other","updated_at":"2016-01-25T15:06:56.000+00:00","web_url":"https://www.gov.uk/government/organisations/department-for-infrastructure-northern-ireland","details":{"slug":"department-for-infrastructure-northern-ireland","abbreviation":"","logo_formatted_name":"Department for Infrastructure \r\n(Northern Ireland)","organisation_brand_colour_class_name":null,"organisation_logo_type_class_name":"single-identity","closed_at":null,"govuk_status":"joining","content_id":"a70fef9b-3a1e-475b-990b-fcf95cbca9b4"},"analytics_identifier":"OT1176","parent_organisations":[],"child_organisations":[]},{"id":"https://www.gov.uk/api/organisations/department-of-finance-northern-ireland","title":"Department of Finance (Northern Ireland)","format":"Other","updated_at":"2016-01-25T15:09:54.000+00:00","web_url":"https://www.gov.uk/government/organisations/department-of-finance-northern-ireland","details":{"slug":"department-of-finance-northern-ireland","abbreviation":"","logo_formatted_name":"Department of Finance (Northern Ireland)","organisation_brand_colour_class_name":null,"organisation_logo_type_class_name":"single-identity","closed_at":null,"govuk_status":"joining","content_id":"79308085-77ad-4473-8863-73cae379ba36"},"analytics_identifier":"OT1177","parent_organisations":[],"child_organisations":[]},{"id":"https://www.gov.uk/api/organisations/department-of-agriculture-environment-and-rural-affairs-northern-ireland","title":"Department of Agriculture, Environment and Rural Affairs (Northern Ireland)","format":"Other","updated_at":"2016-01-25T15:11:05.000+00:00","web_url":"https://www.gov.uk/government/organisations/department-of-agriculture-environment-and-rural-affairs-northern-ireland","details":{"slug":"department-of-agriculture-environment-and-rural-affairs-northern-ireland","abbreviation":"","logo_formatted_name":"Department of Agriculture, Environment and Rural Affairs (Northern Ireland)","organisation_brand_colour_class_name":null,"organisation_logo_type_class_name":"single-identity","closed_at":null,"govuk_status":"joining","content_id":"965a76d9-53f6-433d-8f3a-5802f8c7f31c"},"analytics_identifier":"OT1178","parent_organisations":[],"child_organisations":[]},{"id":"https://www.gov.uk/api/organisations/the-executive-office-northern-ireland","title":"The Executive Office (Northern Ireland)","format":"Other","updated_at":"2016-01-25T15:12:18.000+00:00","web_url":"https://www.gov.uk/government/organisations/the-executive-office-northern-ireland","details":{"slug":"the-executive-office-northern-ireland","abbreviation":"","logo_formatted_name":"The Executive Office (Northern Ireland)","organisation_brand_colour_class_name":null,"organisation_logo_type_class_name":"single-identity","closed_at":null,"govuk_status":"joining","content_id":"2f8a3e24-a21b-4e0c-a68e-22f236a0cc0c"},"analytics_identifier":"OT1179","parent_organisations":[],"child_organisations":[]},{"id":"https://www.gov.uk/api/organisations/national-data-guardian","title":"National Data Guardian","format":"Other","updated_at":"2016-02-08T16:36:45.000+00:00","web_url":"https://www.gov.uk/government/organisations/national-data-guardian","details":{"slug":"national-data-guardian","abbreviation":"NDG","logo_formatted_name":"National Data\r\nGuardian","organisation_brand_colour_class_name":"department-of-health","organisation_logo_type_class_name":"single-identity","closed_at":null,"govuk_status":"live","content_id":"c9fa14af-052d-451c-a003-5d03a13b92b2"},"analytics_identifier":"OT1180","parent_organisations":[{"id":"https://www.gov.uk/api/organisations/department-of-health","web_url":"https://www.gov.uk/government/organisations/department-of-health"}],"child_organisations":[]},{"id":"https://www.gov.uk/api/organisations/court-of-appeal-criminal-division","title":"Court of Appeal Criminal Division","format":"Court","updated_at":"2016-08-17T10:48:49.000+01:00","web_url":"https://www.gov.uk/courts-tribunals/court-of-appeal-criminal-division","details":{"slug":"court-of-appeal-criminal-division","abbreviation":"","logo_formatted_name":"Court of Appeal Criminal Division","organisation_brand_colour_class_name":null,"organisation_logo_type_class_name":"no-identity","closed_at":null,"govuk_status":"live","content_id":"698f9948-62e7-46f5-8e66-44da40c1a989"},"analytics_identifier":"CO1181","parent_organisations":[{"id":"https://www.gov.uk/api/organisations/hm-courts-and-tribunals-service","web_url":"https://www.gov.uk/government/organisations/hm-courts-and-tribunals-service"}],"child_organisations":[]}],"previous_page_url":"https://www.gov.uk/api/organisations?page=48","next_page_url":"https://www.gov.uk/api/organisations?page=50","current_page":49,"total":1009,"pages":51,"page_size":20,"start_index":961,"_response_info":{"status":"ok","links":[{"href":"https://www.gov.uk/api/organisations?page=48","rel":"previous"},{"href":"https://www.gov.uk/api/organisations?page=50","rel":"next"},{"href":"https://www.gov.uk/api/organisations?page=49","rel":"self"}]}}
