{"results":[{"id":"https://www.gov.uk/api/organisations/ofqual","title":"Ofqual","format":"Non-ministerial department","updated_at":"2016-09-07T11:35:47.000+01:00","web_url":"https://www.gov.uk/government/organisations/ofqual","details":{"slug":"ofqual","abbreviation":"Ofqual","logo_formatted_name":"Ofqual","organisation_brand_colour_class_name":"department-for-education","organisation_logo_type_class_name":"custom","closed_at":null,"govuk_status":"live","content_id":"83f6e93f-bb2c-46ab-9b02-394f972b7030"},"analytics_identifier":"D109","parent_organisations":[{"id":"https://www.gov.uk/api/organisations/department-for-education","web_url":"https://www.gov.uk/government/organisations/department-for-education"}],"child_organisations":[]},{"id":"https://www.gov.uk/api/organisations/office-of-rail-regulation","title":"Office of Rail Regulation","format":"Non-ministerial department","updated_at":"2015-04-01T09:36:21.000+01:00","web_url":"https://www.gov.uk/government/organisations/office-of-rail-regulation","details":{"slug":"office-of-rail-regulation","abbreviation":"ORR","logo_formatted_name":"Office\r\nof Rail Regulation","organisation_brand_colour_class_name":"department-for-transport","organisation_logo_type_class_name":"no-identity","closed_at":"2015-04-01T00:00:00.000+01:00","govuk_status":"closed","content_id":"73f390ba-72b1-433e-9b8c-66cf628a2a86"},"analytics_identifier":"D110","parent_organisations":[{"id":"https://www.gov.uk/api/organisations/department-for-transport","web_url":"https://www.gov.uk/government/organisations/department-for-transport"}],"child_organisations":[]},{"id":"https://www.gov.uk/api/organisations/royal-mint","title":"Royal Mint","format":"Other","updated_at":"2014-10-15T15:35:33.000+01:00","web_url":"https://www.gov.uk/government/organisations/royal-mint","details":{"slug":"royal-mint","abbreviation":"RM","logo_formatted_name":"Royal Mint","organisation_brand_colour_class_name":"hm-treasury","organisation_logo_type_class_name":"no-identity","closed_at":null,"govuk_status":"exempt","content_id":"b760c595-862e-4210-8f23-1a19dd07f4e7"},"analytics_identifier":"EA114","parent_organisations":[{"id":"https://www.gov.uk/api/organisations/hm-treasury","web_url":"https://www.gov.uk/government/organisations/hm-treasury"}],"child_organisations":[]},{"id":"https://www.gov.uk/api/organisations/serious-fraud-office","title":"Serious Fraud Office","format":"Non-ministerial department","updated_at":"2014-10-15T15:35:33.000+01:00","web_url":"https://www.gov.uk/government/organisations/serious-fraud-office","details":{"slug":"serious-fraud-office","abbreviation":"SFO","logo_formatted_name":"Serious Fraud Office","organisation_brand_colour_class_name":"attorney-generals-office","organisation_logo_type_class_name":"no-identity","closed_at":null,"govuk_status":"exempt","content_id":"ebae4517-422f-44dd-9f87-13304c9815cb"},"analytics_identifier":"D115","parent_organisations":[{"id":"https://www.gov.uk/api/organisations/attorney-generals-office","web_url":"https://www.gov.uk/government/organisations/attorney-generals-office"}],"child_organisations":[]},{"id":"https://www.gov.uk/api/organisations/uk-statistics-authority","title":"UK Statistics Authority","format":"Non-ministerial department","updated_at":"2014-10-15T15:35:33.000+01:00","web_url":"https://www.gov.uk/government/organisations/uk-statistics-authority","details":{"slug":"uk-statistics-authority","abbreviation":"Statistics","logo_formatted_name":"UK Statistics Authority","organisation_brand_colour_class_name":null,"organisation_logo_type_class_name":"no-identity","closed_at":null,"govuk_status":"exempt","content_id":"cd90918d-e15b-4d9a-939d-deabc465c824"},"analytics_identifier":"D116","parent_organisations":[],"child_organisations":[{"id":"https://www.gov.uk/api/organisations/office-for-national-statistics","web_url":"https://www.gov.uk/government/organisations/office-for-national-statistics"}]},{"id":"https://www.gov.uk/api/organisations/uk-trade-investment","title":"UK Trade \u0026 Investment","format":"Non-ministerial department","updated_at":"2016-08-09T11:56:17.000+01:00","web_url":"https://www.gov.uk/government/organisations/uk-trade-investment","details":{"slug":"uk-trade-investment","abbreviation":"UKTI","logo_formatted_name":"UK Trade\r\n\u0026 Investment","organisation_brand_colour_class_name":"uk-trade-investment","organisation_logo_type_class_name":"single-identity","closed_at":"2016-07-13T00:00:00.000+01:00","govuk_status":"closed","content_id":"b045c8df-d3c4-4219-88d8-264dc9ee5cc8"},"analytics_identifier":"D117","parent_organisations":[],"child_organisations":[{"id":"https://www.gov.uk/api/organisations/healthcare-uk","web_url":"https://www.gov.uk/government/organisations/healthcare-uk"},{"id":"https://www.gov.uk/api/organisations/ukti-education","web_url":"https://www.gov.uk/government/organisations/ukti-education"},{"id":"https://www.gov.uk/api/organisations/ukti-life-sciences-organisation","web_url":"https://www.gov.uk/government/organisations/ukti-life-sciences-organisation"},{"id":"https://www.gov.uk/api/organisations/regeneration-investment-organisation","web_url":"https://www.gov.uk/government/organisations/regeneration-investment-organisation"},{"id":"https://www.gov.uk/api/organisations/financial-services-organisation","web_url":"https://www.gov.uk/government/organisations/financial-services-organisation"}]},{"id":"https://www.gov.uk/api/organisations/horserace-betting-levy-board","title":"Horserace Betting Levy Board","format":"Executive non-departmental public body","updated_at":"2014-10-15T15:35:34.000+01:00","web_url":"https://www.gov.uk/government/organisations/horserace-betting-levy-board","details":{"slug":"horserace-betting-levy-board","abbreviation":"HBLB","logo_formatted_name":"Horserace Betting Levy Board","organisation_brand_colour_class_name":"department-for-culture-media-sport","organisation_logo_type_class_name":"no-identity","closed_at":null,"govuk_status":"exempt","content_id":"3cf62435-602b-4dc5-ac32-b01d635d0cc7"},"analytics_identifier":"PB118","parent_organisations":[{"id":"https://www.gov.uk/api/organisations/department-for-culture-media-sport","web_url":"https://www.gov.uk/government/organisations/department-for-culture-media-sport"}],"child_organisations":[]},{"id":"https://www.gov.uk/api/organisations/higher-education-funding-council-for-england","title":"Higher Education Funding Council for England","format":"Executive non-departmental public body","updated_at":"2016-07-25T17:06:24.000+01:00","web_url":"https://www.gov.uk/government/organisations/higher-education-funding-council-for-england","details":{"slug":"higher-education-funding-council-for-england","abbreviation":"HEFCE","logo_formatted_name":"Higher Education Funding \r\nCouncil for England","organisation_brand_colour_class_name":"department-for-business-innovation-skills","organisation_logo_type_class_name":"no-identity","closed_at":null,"govuk_status":"exempt","content_id":"b8e51cc0-de20-47a7-8d36-aec6736d3884"},"analytics_identifier":"PB120","parent_organisations":[{"id":"https://www.gov.uk/api/organisations/department-for-education","web_url":"https://www.gov.uk/government/organisations/department-for-education"}],"child_organisations":[]},{"id":"https://www.gov.uk/api/organisations/council-for-science-and-technology","title":"Council for Science and Technology","format":"Advisory non-departmental public body","updated_at":"2015-02-17T17:03:26.000+00:00","web_url":"https://www.gov.uk/government/organisations/council-for-science-and-technology","details":{"slug":"council-for-science-and-technology","abbreviation":"CST","logo_formatted_name":"Council for \r\nScience and \r\nTechnology","organisation_brand_colour_class_name":"department-for-business-innovation-skills","organisation_logo_type_class_name":"custom","closed_at":null,"govuk_status":"live","content_id":"fbc49af1-eb3a-4d17-9503-a3c249b8eee4"},"analytics_identifier":"PB121","parent_organisations":[{"id":"https://www.gov.uk/api/organisations/department-for-business-energy-and-industrial-strategy","web_url":"https://www.gov.uk/government/organisations/department-for-business-energy-and-industrial-strategy"}],"child_organisations":[]},{"id":"https://www.gov.uk/api/organisations/low-pay-commission","title":"Low Pay Commission","format":"Advisory non-departmental public body","updated_at":"2016-01-31T20:46:17.000+00:00","web_url":"https://www.gov.uk/government/organisations/low-pay-commission","details":{"slug":"low-pay-commission","abbreviation":"LPC","logo_formatted_name":"Low Pay Commission","organisation_brand_colour_class_name":null,"organisation_logo_type_class_name":"custom","closed_at":null,"govuk_status":"live","content_id":"56026645-0033-45ca-b988-8629a31a9882"},"analytics_identifier":"PB122","parent_organisations":[{"id":"https://www.gov.uk/api/organisations/department-for-business-energy-and-industrial-strategy","web_url":"https://www.gov.uk/government/organisations/department-for-business-energy-and-industrial-strategy"}],"child_organisations":[]},{"id":"https://www.gov.uk/api/organisations/arts-and-humanities-research-council","title":"Arts and Humanities Research Council","format":"Executive non-departmental public body","updated_at":"2016-07-25T14:56:04.000+01:00","web_url":"https://www.gov.uk/government/organisations/arts-and-humanities-research-council","details":{"slug":"arts-and-humanities-research-council","abbreviation":"AHRC","logo_formatted_name":"Arts and Humanities Research Council","organisation_brand_colour_class_name":"department-for-business-innovation-skills","organisation_logo_type_class_name":"no-identity","closed_at":null,"govuk_status":"exempt","content_id":"9132bf20-dee3-45bb-af5d-9d086bcffe77"},"analytics_identifier":"PB123","parent_organisations":[{"id":"https://www.gov.uk/api/organisations/department-for-business-energy-and-industrial-strategy","web_url":"https://www.gov.uk/government/organisations/department-for-business-energy-and-industrial-strategy"}],"child_organisations":[]},{"id":"https://www.gov.uk/api/organisations/british-hallmarking-council","title":"British Hallmarking Council","format":"Executive non-departmental public body","updated_at":"2015-07-28T09:32:44.000+01:00","web_url":"https://www.gov.uk/government/organisations/british-hallmarking-council","details":{"slug":"british-hallmarking-council","abbreviation":"BHC","logo_formatted_name":"British \r\nHallmarking \r\nCouncil ","organisation_brand_colour_class_name":"department-for-business-innovation-skills","organisation_logo_type_class_name":"custom","closed_at":null,"govuk_status":"live","content_id":"5f96af07-b11d-4447-8553-c6bdd8c0f0d5"},"analytics_identifier":"PB124","parent_organisations":[{"id":"https://www.gov.uk/api/organisations/department-for-business-energy-and-industrial-strategy","web_url":"https://www.gov.uk/government/organisations/department-for-business-energy-and-industrial-strategy"}],"child_organisations":[]},{"id":"https://www.gov.uk/api/organisations/construction-industry-training-board","title":"Construction Industry Training Board","format":"Executive non-departmental public body","updated_at":"2016-07-25T15:04:59.000+01:00","web_url":"https://www.gov.uk/government/organisations/construction-industry-training-board","details":{"slug":"construction-industry-training-board","abbreviation":"CITB","logo_formatted_name":"Construction Industry\r\nTraining Board","organisation_brand_colour_class_name":"department-for-business-innovation-skills","organisation_logo_type_class_name":"no-identity","closed_at":null,"govuk_status":"exempt","content_id":"8931f5ab-889d-4228-ab3a-633762b36319"},"analytics_identifier":"PB126","parent_organisations":[{"id":"https://www.gov.uk/api/organisations/department-for-education","web_url":"https://www.gov.uk/government/organisations/department-for-education"}],"child_organisations":[]},{"id":"https://www.gov.uk/api/organisations/economic-and-social-research-council","title":"Economic and Social Research Council","format":"Executive non-departmental public body","updated_at":"2016-07-25T15:05:32.000+01:00","web_url":"https://www.gov.uk/government/organisations/economic-and-social-research-council","details":{"slug":"economic-and-social-research-council","abbreviation":"ESRC","logo_formatted_name":"Economic and Social \r\nResearch Council","organisation_brand_colour_class_name":"department-for-business-innovation-skills","organisation_logo_type_class_name":"no-identity","closed_at":null,"govuk_status":"exempt","content_id":"a0f1fbc3-783b-42cb-b583-3934a6c2e652"},"analytics_identifier":"PB129","parent_organisations":[{"id":"https://www.gov.uk/api/organisations/department-for-business-energy-and-industrial-strategy","web_url":"https://www.gov.uk/government/organisations/department-for-business-energy-and-industrial-strategy"}],"child_organisations":[]},{"id":"https://www.gov.uk/api/organisations/engineering-and-physical-sciences-research-council","title":"Engineering and Physical Sciences Research Council","format":"Executive non-departmental public body","updated_at":"2016-07-25T15:06:42.000+01:00","web_url":"https://www.gov.uk/government/organisations/engineering-and-physical-sciences-research-council","details":{"slug":"engineering-and-physical-sciences-research-council","abbreviation":"EPSRC","logo_formatted_name":"Engineering and Physical Sciences \r\nResearch Council","organisation_brand_colour_class_name":"department-for-business-innovation-skills","organisation_logo_type_class_name":"no-identity","closed_at":null,"govuk_status":"exempt","content_id":"bcad7427-0a73-47ff-8199-82df7faf83b5"},"analytics_identifier":"PB130","parent_organisations":[{"id":"https://www.gov.uk/api/organisations/department-for-business-energy-and-industrial-strategy","web_url":"https://www.gov.uk/government/organisations/department-for-business-energy-and-industrial-strategy"}],"child_organisations":[]},{"id":"https://www.gov.uk/api/organisations/engineering-construction-industry-training-board","title":"Engineering Construction Industry Training Board","format":"Executive non-departmental public body","updated_at":"2016-07-25T15:06:09.000+01:00","web_url":"https://www.gov.uk/government/organisations/engineering-construction-industry-training-board","details":{"slug":"engineering-construction-industry-training-board","abbreviation":"ECITB","logo_formatted_name":"Engineering Construction \r\nIndustry Training Board","organisation_brand_colour_class_name":"department-for-business-innovation-skills","organisation_logo_type_class_name":"no-identity","closed_at":null,"govuk_status":"exempt","content_id":"e5fe8c83-8a3a-46df-a95c-6ea154b05103"},"analytics_identifier":"PB131","parent_organisations":[{"id":"https://www.gov.uk/api/organisations/department-for-education","web_url":"https://www.gov.uk/government/organisations/department-for-education"}],"child_organisations":[]},{"id":"https://www.gov.uk/api/organisations/medical-research-council","title":"Medical Research Council","format":"Executive non-departmental public body","updated_at":"2016-07-25T15:07:15.000+01:00","web_url":"https://www.gov.uk/government/organisations/medical-research-council","details":{"slug":"medical-research-council","abbreviation":"MRC","logo_formatted_name":"Medical Research Council","organisation_brand_colour_class_name":"department-for-business-innovation-skills","organisation_logo_type_class_name":"no-identity","closed_at":null,"govuk_status":"exempt","content_id":"c4e35ca7-01ed-4b2c-97cb-b31d9ebdb4dd"},"analytics_identifier":"PB132","parent_organisations":[{"id":"https://www.gov.uk/api/organisations/department-for-business-energy-and-industrial-strategy","web_url":"https://www.gov.uk/government/organisations/department-for-business-energy-and-industrial-strategy"}],"child_organisations":[]},{"id":"https://www.gov.uk/api/organisations/natural-environment-research-council","title":"Natural Environment Research Council","format":"Executive non-departmental public body","updated_at":"2016-07-25T15:07:47.000+01:00","web_url":"https://www.gov.uk/government/organisations/natural-environment-research-council","details":{"slug":"natural-environment-research-council","abbreviation":"NERC","logo_formatted_name":"Natural Environment Research Council","organisation_brand_colour_class_name":"department-for-business-innovation-skills","organisation_logo_type_class_name":"no-identity","closed_at":null,"govuk_status":"exempt","content_id":"e83c99b4-d96e-4772-88bc-2973e9412475"},"analytics_identifier":"PB133","parent_organisations":[{"id":"https://www.gov.uk/api/organisations/department-for-business-energy-and-industrial-strategy","web_url":"https://www.gov.uk/government/organisations/department-for-business-energy-and-industrial-strategy"}],"child_organisations":[]},{"id":"https://www.gov.uk/api/organisations/office-for-fair-access","title":"Office for Fair Access","format":"Executive non-departmental public body","updated_at":"2016-07-25T17:07:03.000+01:00","web_url":"https://www.gov.uk/government/organisations/office-for-fair-access","details":{"slug":"office-for-fair-access","abbreviation":"OFFA","logo_formatted_name":"Office for Fair Access","organisation_brand_colour_class_name":"department-for-business-innovation-skills","organisation_logo_type_class_name":"no-identity","closed_at":null,"govuk_status":"exempt","content_id":"2111aeb0-1638-4ca6-ac85-c4064b70ad0b"},"analytics_identifier":"PB134","parent_organisations":[{"id":"https://www.gov.uk/api/organisations/department-for-education","web_url":"https://www.gov.uk/government/organisations/department-for-education"}],"child_organisations":[]},{"id":"https://www.gov.uk/api/organisations/science-and-technology-facilities-council","title":"Science and Technology Facilities Council","format":"Executive non-departmental public body","updated_at":"2016-07-25T15:08:36.000+01:00","web_url":"https://www.gov.uk/government/organisations/science-and-technology-facilities-council","details":{"slug":"science-and-technology-facilities-council","abbreviation":"STFC","logo_formatted_name":"Science and Technology \r\nFacilities Council ","organisation_brand_colour_class_name":"department-for-business-innovation-skills","organisation_logo_type_class_name":"no-identity","closed_at":null,"govuk_status":"exempt","content_id":"a24bcb07-b88b-4e9c-ab06-98527242b78e"},"analytics_identifier":"PB135","parent_organisations":[{"id":"https://www.gov.uk/api/organisations/department-for-business-energy-and-industrial-strategy","web_url":"https://www.gov.uk/government/organisations/department-for-business-energy-and-industrial-strategy"}],"child_organisations":[]}],"previous_page_url":"https://www.gov.uk/api/organisations?page=4","next_page_url":"https://www.gov.uk/api/organisations?page=6","current_page":5,"total":1009,"pages":51,"page_size":20,"start_index":81,"_response_info":{"status":"ok","links":[{"href":"https://www.gov.uk/api/organisations?page=4","rel":"previous"},{"href":"https://www.gov.uk/api/organisations?page=6","rel":"next"},{"href":"https://www.gov.uk/api/organisations?page=5","rel":"self"}]}}
