{"results":[{"id":"https://www.gov.uk/api/organisations/digital-data-and-technology-professions","title":"Digital, data and technology professions","format":"Sub-organisation","updated_at":"2016-02-05T14:54:11.000+00:00","web_url":"https://www.gov.uk/government/organisations/digital-data-and-technology-professions","details":{"slug":"digital-data-and-technology-professions","abbreviation":"","logo_formatted_name":"Digital, data and technology professions","organisation_brand_colour_class_name":"cabinet-office","organisation_logo_type_class_name":"single-identity","closed_at":null,"govuk_status":"live","content_id":"9aeff00a-32b6-40de-b2fd-bf4664c5cd2c"},"analytics_identifier":"OT1182","parent_organisations":[{"id":"https://www.gov.uk/api/organisations/civil-service","web_url":"https://www.gov.uk/government/organisations/civil-service"}],"child_organisations":[]},{"id":"https://www.gov.uk/api/organisations/queens-bench-division-of-the-high-court","title":"Queen's Bench Division of the High Court","format":"Court","updated_at":"2016-05-24T17:12:03.000+01:00","web_url":"https://www.gov.uk/courts-tribunals/queens-bench-division-of-the-high-court","details":{"slug":"queens-bench-division-of-the-high-court","abbreviation":"","logo_formatted_name":"Queen's Bench Division of the High Court","organisation_brand_colour_class_name":null,"organisation_logo_type_class_name":"no-identity","closed_at":null,"govuk_status":"live","content_id":"dea8d335-9c90-43a7-ab9c-9b2d56e3cfd3"},"analytics_identifier":"CO1183","parent_organisations":[{"id":"https://www.gov.uk/api/organisations/hm-courts-and-tribunals-service","web_url":"https://www.gov.uk/government/organisations/hm-courts-and-tribunals-service"}],"child_organisations":[]},{"id":"https://www.gov.uk/api/organisations/porton-biopharma-limited","title":"Porton Biopharma Limited","format":"Other","updated_at":"2016-02-12T12:39:02.000+00:00","web_url":"https://www.gov.uk/government/organisations/porton-biopharma-limited","details":{"slug":"porton-biopharma-limited","abbreviation":"PBL","logo_formatted_name":"Porton Biopharma Limited","organisation_brand_colour_class_name":null,"organisation_logo_type_class_name":"no-identity","closed_at":null,"govuk_status":"exempt","content_id":"4b4f7a61-e342-4ebb-ac25-cf0352388fff"},"analytics_identifier":"OT1184","parent_organisations":[{"id":"https://www.gov.uk/api/organisations/department-of-health","web_url":"https://www.gov.uk/government/organisations/department-of-health"}],"child_organisations":[]},{"id":"https://www.gov.uk/api/organisations/dormant-assets-commission","title":"Independent Dormant Assets Commission ","format":"Advisory non-departmental public body","updated_at":"2016-03-10T11:46:37.000+00:00","web_url":"https://www.gov.uk/government/organisations/dormant-assets-commission","details":{"slug":"dormant-assets-commission","abbreviation":"","logo_formatted_name":"Independent Dormant Assets Commission","organisation_brand_colour_class_name":"cabinet-office","organisation_logo_type_class_name":"single-identity","closed_at":null,"govuk_status":"live","content_id":"ec2d53a1-0d51-4c9c-8d14-31cfee762922"},"analytics_identifier":"PB1185","parent_organisations":[],"child_organisations":[]},{"id":"https://www.gov.uk/api/organisations/uk-government-investments","title":"UK Government Investments","format":"Other","updated_at":"2016-05-20T21:51:21.000+01:00","web_url":"https://www.gov.uk/government/organisations/uk-government-investments","details":{"slug":"uk-government-investments","abbreviation":"UKGI","logo_formatted_name":"UK Government\r\nInvestments","organisation_brand_colour_class_name":"hm-treasury","organisation_logo_type_class_name":"single-identity","closed_at":null,"govuk_status":"live","content_id":"5329e3f4-08e5-4166-9bb2-434312442ce7"},"analytics_identifier":"OT1186","parent_organisations":[{"id":"https://www.gov.uk/api/organisations/hm-treasury","web_url":"https://www.gov.uk/government/organisations/hm-treasury"}],"child_organisations":[{"id":"https://www.gov.uk/api/organisations/uk-financial-investments-limited","web_url":"https://www.gov.uk/government/organisations/uk-financial-investments-limited"},{"id":"https://www.gov.uk/api/organisations/civil-service-corporate-finance-profession-cfp","web_url":"https://www.gov.uk/government/organisations/civil-service-corporate-finance-profession-cfp"}]},{"id":"https://www.gov.uk/api/organisations/office-of-financial-sanctions-implementation","title":"Office of Financial Sanctions Implementation","format":"Sub-organisation","updated_at":"2016-03-31T14:41:43.000+01:00","web_url":"https://www.gov.uk/government/organisations/office-of-financial-sanctions-implementation","details":{"slug":"office-of-financial-sanctions-implementation","abbreviation":"OFSI","logo_formatted_name":"Office of Financial\r\nSanctions Implementation\r\nHM Treasury","organisation_brand_colour_class_name":"hm-treasury","organisation_logo_type_class_name":"single-identity","closed_at":null,"govuk_status":"live","content_id":"e82999a0-79f0-4c77-a8f1-39135e7a123c"},"analytics_identifier":"OT1187","parent_organisations":[{"id":"https://www.gov.uk/api/organisations/hm-treasury","web_url":"https://www.gov.uk/government/organisations/hm-treasury"}],"child_organisations":[]},{"id":"https://www.gov.uk/api/organisations/administrative-court","title":"Administrative Court","format":"Court","updated_at":"2016-07-25T15:16:18.000+01:00","web_url":"https://www.gov.uk/courts-tribunals/administrative-court","details":{"slug":"administrative-court","abbreviation":"","logo_formatted_name":"Administrative Court","organisation_brand_colour_class_name":null,"organisation_logo_type_class_name":"no-identity","closed_at":null,"govuk_status":"live","content_id":"b0bdfcf3-2763-4002-961e-a0b2d7825038"},"analytics_identifier":"CO1188","parent_organisations":[{"id":"https://www.gov.uk/api/organisations/hm-courts-and-tribunals-service","web_url":"https://www.gov.uk/government/organisations/hm-courts-and-tribunals-service"}],"child_organisations":[]},{"id":"https://www.gov.uk/api/organisations/regulatory-delivery","title":"Regulatory Delivery","format":"Sub-organisation","updated_at":"2016-09-06T10:47:21.000+01:00","web_url":"https://www.gov.uk/government/organisations/regulatory-delivery","details":{"slug":"regulatory-delivery","abbreviation":"","logo_formatted_name":"Regulatory Delivery","organisation_brand_colour_class_name":"department-for-business-innovation-skills","organisation_logo_type_class_name":"single-identity","closed_at":null,"govuk_status":"live","content_id":"2ccd5003-9bc3-45b1-aa6d-e14066512a97"},"analytics_identifier":"OT1189","parent_organisations":[{"id":"https://www.gov.uk/api/organisations/department-for-business-energy-and-industrial-strategy","web_url":"https://www.gov.uk/government/organisations/department-for-business-energy-and-industrial-strategy"}],"child_organisations":[]},{"id":"https://www.gov.uk/api/organisations/lammy-review","title":"Lammy Review","format":"Other","updated_at":"2016-04-08T16:04:33.000+01:00","web_url":"https://www.gov.uk/government/organisations/lammy-review","details":{"slug":"lammy-review","abbreviation":"","logo_formatted_name":"Lammy Review","organisation_brand_colour_class_name":"ministry-of-justice","organisation_logo_type_class_name":"single-identity","closed_at":null,"govuk_status":"live","content_id":"94bea512-8422-413b-9c82-bfc4ee5f268b"},"analytics_identifier":"OT1190","parent_organisations":[],"child_organisations":[]},{"id":"https://www.gov.uk/api/organisations/defence-safety-authority","title":"Defence Safety Authority","format":"Sub-organisation","updated_at":"2016-04-18T17:20:02.000+01:00","web_url":"https://www.gov.uk/government/organisations/defence-safety-authority","details":{"slug":"defence-safety-authority","abbreviation":"DSA","logo_formatted_name":"Defence\r\nSafety \r\nAuthority","organisation_brand_colour_class_name":"ministry-of-defence","organisation_logo_type_class_name":"mod","closed_at":null,"govuk_status":"live","content_id":"9b412fdd-ca63-4aee-8530-afd2d893e331"},"analytics_identifier":"OT1191","parent_organisations":[{"id":"https://www.gov.uk/api/organisations/ministry-of-defence","web_url":"https://www.gov.uk/government/organisations/ministry-of-defence"}],"child_organisations":[]},{"id":"https://www.gov.uk/api/organisations/pubs-code-adjudicator","title":"Pubs Code Adjudicator","format":"Other","updated_at":"2016-07-21T11:04:44.000+01:00","web_url":"https://www.gov.uk/government/organisations/pubs-code-adjudicator","details":{"slug":"pubs-code-adjudicator","abbreviation":"PCA","logo_formatted_name":"Pubs Code Adjudicator","organisation_brand_colour_class_name":null,"organisation_logo_type_class_name":"single-identity","closed_at":null,"govuk_status":"live","content_id":"08c7e23c-d822-406c-812b-3de9c03a0518"},"analytics_identifier":"OT1192","parent_organisations":[],"child_organisations":[]},{"id":"https://www.gov.uk/api/organisations/social-mobility-commission","title":"Social Mobility Commission","format":"Advisory non-departmental public body","updated_at":"2016-05-16T10:36:07.000+01:00","web_url":"https://www.gov.uk/government/organisations/social-mobility-commission","details":{"slug":"social-mobility-commission","abbreviation":"","logo_formatted_name":"Social\r\nMobility \r\nCommission","organisation_brand_colour_class_name":"department-for-education","organisation_logo_type_class_name":"single-identity","closed_at":null,"govuk_status":"live","content_id":"6f6b7204-37b2-4b96-aee3-fb12c2c23e84"},"analytics_identifier":"PB1193","parent_organisations":[{"id":"https://www.gov.uk/api/organisations/cabinet-office","web_url":"https://www.gov.uk/government/organisations/cabinet-office"},{"id":"https://www.gov.uk/api/organisations/department-for-education","web_url":"https://www.gov.uk/government/organisations/department-for-education"},{"id":"https://www.gov.uk/api/organisations/department-for-work-pensions","web_url":"https://www.gov.uk/government/organisations/department-for-work-pensions"}],"child_organisations":[]},{"id":"https://www.gov.uk/api/organisations/central-advisory-committee-on-compensation","title":"Central Advisory Committee on Compensation","format":"Ad-hoc advisory group","updated_at":"2016-06-28T15:20:46.000+01:00","web_url":"https://www.gov.uk/government/organisations/central-advisory-committee-on-compensation","details":{"slug":"central-advisory-committee-on-compensation","abbreviation":"CAC Compensation","logo_formatted_name":"Central Advisory Committee \r\non Compensation","organisation_brand_colour_class_name":"ministry-of-defence","organisation_logo_type_class_name":"mod","closed_at":null,"govuk_status":"live","content_id":"689091b3-a023-4a18-90c1-8e37d4fee951"},"analytics_identifier":"PB1194","parent_organisations":[{"id":"https://www.gov.uk/api/organisations/ministry-of-defence","web_url":"https://www.gov.uk/government/organisations/ministry-of-defence"}],"child_organisations":[]},{"id":"https://www.gov.uk/api/organisations/iraq-inquiry","title":"Iraq Inquiry","format":"Other","updated_at":"2016-07-05T17:41:17.000+01:00","web_url":"https://www.gov.uk/government/organisations/iraq-inquiry","details":{"slug":"iraq-inquiry","abbreviation":"","logo_formatted_name":"Iraq Inquiry","organisation_brand_colour_class_name":null,"organisation_logo_type_class_name":"no-identity","closed_at":null,"govuk_status":"exempt","content_id":"edaa47a1-a986-4eac-a57a-ceea1b93a053"},"analytics_identifier":"OT1195","parent_organisations":[],"child_organisations":[]},{"id":"https://www.gov.uk/api/organisations/department-for-international-trade","title":"Department for International Trade","format":"Ministerial department","updated_at":"2016-11-14T13:40:49.000+00:00","web_url":"https://www.gov.uk/government/organisations/department-for-international-trade","details":{"slug":"department-for-international-trade","abbreviation":"DIT","logo_formatted_name":"Department for\r\nInternational Trade","organisation_brand_colour_class_name":"department-for-international-trade","organisation_logo_type_class_name":"dit","closed_at":null,"govuk_status":"live","content_id":"082092f1-656c-470e-b024-229dc6e750e9"},"analytics_identifier":"D1196","parent_organisations":[],"child_organisations":[{"id":"https://www.gov.uk/api/organisations/export-control-organisation","web_url":"https://www.gov.uk/government/organisations/export-control-organisation"},{"id":"https://www.gov.uk/api/organisations/uk-trade-and-investment-defence-and-security-organisation","web_url":"https://www.gov.uk/government/organisations/uk-trade-and-investment-defence-and-security-organisation"}]},{"id":"https://www.gov.uk/api/organisations/department-for-exiting-the-european-union","title":"Department for Exiting the European Union","format":"Ministerial department","updated_at":"2016-07-28T10:31:05.000+01:00","web_url":"https://www.gov.uk/government/organisations/department-for-exiting-the-european-union","details":{"slug":"department-for-exiting-the-european-union","abbreviation":"DExEU","logo_formatted_name":"Department\r\nfor Exiting the\r\nEuropean Union","organisation_brand_colour_class_name":"department-of-energy-climate-change","organisation_logo_type_class_name":"single-identity","closed_at":null,"govuk_status":"live","content_id":"f323e83c-868b-4bcb-b6e2-a8f9bb40397e"},"analytics_identifier":"D1197","parent_organisations":[],"child_organisations":[]},{"id":"https://www.gov.uk/api/organisations/department-for-business-energy-and-industrial-strategy","title":"Department for Business, Energy \u0026 Industrial Strategy","format":"Ministerial department","updated_at":"2016-12-02T14:01:20.000+00:00","web_url":"https://www.gov.uk/government/organisations/department-for-business-energy-and-industrial-strategy","details":{"slug":"department-for-business-energy-and-industrial-strategy","abbreviation":"BEIS","logo_formatted_name":"Department for\r\nBusiness, Energy\r\n\u0026 Industrial Strategy","organisation_brand_colour_class_name":"department-for-business-innovation-skills","organisation_logo_type_class_name":"single-identity","closed_at":null,"govuk_status":"live","content_id":"2bde479a-97f2-42b5-986a-287a623c2a1c"},"analytics_identifier":"D1198","parent_organisations":[],"child_organisations":[{"id":"https://www.gov.uk/api/organisations/companies-house","web_url":"https://www.gov.uk/government/organisations/companies-house"},{"id":"https://www.gov.uk/api/organisations/acas","web_url":"https://www.gov.uk/government/organisations/acas"},{"id":"https://www.gov.uk/api/organisations/uk-space-agency","web_url":"https://www.gov.uk/government/organisations/uk-space-agency"},{"id":"https://www.gov.uk/api/organisations/insolvency-service","web_url":"https://www.gov.uk/government/organisations/insolvency-service"},{"id":"https://www.gov.uk/api/organisations/intellectual-property-office","web_url":"https://www.gov.uk/government/organisations/intellectual-property-office"},{"id":"https://www.gov.uk/api/organisations/ordnance-survey","web_url":"https://www.gov.uk/government/organisations/ordnance-survey"},{"id":"https://www.gov.uk/api/organisations/met-office","web_url":"https://www.gov.uk/government/organisations/met-office"},{"id":"https://www.gov.uk/api/organisations/land-registry","web_url":"https://www.gov.uk/government/organisations/land-registry"},{"id":"https://www.gov.uk/api/organisations/council-for-science-and-technology","web_url":"https://www.gov.uk/government/organisations/council-for-science-and-technology"},{"id":"https://www.gov.uk/api/organisations/low-pay-commission","web_url":"https://www.gov.uk/government/organisations/low-pay-commission"},{"id":"https://www.gov.uk/api/organisations/arts-and-humanities-research-council","web_url":"https://www.gov.uk/government/organisations/arts-and-humanities-research-council"},{"id":"https://www.gov.uk/api/organisations/british-hallmarking-council","web_url":"https://www.gov.uk/government/organisations/british-hallmarking-council"},{"id":"https://www.gov.uk/api/organisations/economic-and-social-research-council","web_url":"https://www.gov.uk/government/organisations/economic-and-social-research-council"},{"id":"https://www.gov.uk/api/organisations/engineering-and-physical-sciences-research-council","web_url":"https://www.gov.uk/government/organisations/engineering-and-physical-sciences-research-council"},{"id":"https://www.gov.uk/api/organisations/medical-research-council","web_url":"https://www.gov.uk/government/organisations/medical-research-council"},{"id":"https://www.gov.uk/api/organisations/natural-environment-research-council","web_url":"https://www.gov.uk/government/organisations/natural-environment-research-council"},{"id":"https://www.gov.uk/api/organisations/science-and-technology-facilities-council","web_url":"https://www.gov.uk/government/organisations/science-and-technology-facilities-council"},{"id":"https://www.gov.uk/api/organisations/uk-atomic-energy-authority","web_url":"https://www.gov.uk/government/organisations/uk-atomic-energy-authority"},{"id":"https://www.gov.uk/api/organisations/certification-officer","web_url":"https://www.gov.uk/government/organisations/certification-officer"},{"id":"https://www.gov.uk/api/organisations/competition-appeal-tribunal","web_url":"https://www.gov.uk/government/organisations/competition-appeal-tribunal"},{"id":"https://www.gov.uk/api/organisations/central-arbitration-committee","web_url":"https://www.gov.uk/government/organisations/central-arbitration-committee"},{"id":"https://www.gov.uk/api/organisations/industrial-development-advisory-board","web_url":"https://www.gov.uk/government/organisations/industrial-development-advisory-board"},{"id":"https://www.gov.uk/api/organisations/committee-on-radioactive-waste-management","web_url":"https://www.gov.uk/government/organisations/committee-on-radioactive-waste-management"},{"id":"https://www.gov.uk/api/organisations/nuclear-liabilities-financing-assurance-board","web_url":"https://www.gov.uk/government/organisations/nuclear-liabilities-financing-assurance-board"},{"id":"https://www.gov.uk/api/organisations/civil-nuclear-police-authority","web_url":"https://www.gov.uk/government/organisations/civil-nuclear-police-authority"},{"id":"https://www.gov.uk/api/organisations/the-coal-authority","web_url":"https://www.gov.uk/government/organisations/the-coal-authority"},{"id":"https://www.gov.uk/api/organisations/committee-on-climate-change","web_url":"https://www.gov.uk/government/organisations/committee-on-climate-change"},{"id":"https://www.gov.uk/api/organisations/nuclear-decommissioning-authority","web_url":"https://www.gov.uk/government/organisations/nuclear-decommissioning-authority"},{"id":"https://www.gov.uk/api/organisations/office-of-manpower-economics","web_url":"https://www.gov.uk/government/organisations/office-of-manpower-economics"},{"id":"https://www.gov.uk/api/organisations/biotechnology-biological-sciences-research-council","web_url":"https://www.gov.uk/government/organisations/biotechnology-biological-sciences-research-council"},{"id":"https://www.gov.uk/api/organisations/competition-service","web_url":"https://www.gov.uk/government/organisations/competition-service"},{"id":"https://www.gov.uk/api/organisations/regulatory-policy-committee","web_url":"https://www.gov.uk/government/organisations/regulatory-policy-committee"},{"id":"https://www.gov.uk/api/organisations/copyright-tribunal","web_url":"https://www.gov.uk/government/organisations/copyright-tribunal"},{"id":"https://www.gov.uk/api/organisations/land-registration-rule-committee","web_url":"https://www.gov.uk/government/organisations/land-registration-rule-committee"},{"id":"https://www.gov.uk/api/organisations/uk-green-investment-bank","web_url":"https://www.gov.uk/government/organisations/uk-green-investment-bank"},{"id":"https://www.gov.uk/api/organisations/insolvency-rules-committee","web_url":"https://www.gov.uk/government/organisations/insolvency-rules-committee"},{"id":"https://www.gov.uk/api/organisations/office-for-life-sciences","web_url":"https://www.gov.uk/government/organisations/office-for-life-sciences"},{"id":"https://www.gov.uk/api/organisations/office-for-low-emission-vehicles","web_url":"https://www.gov.uk/government/organisations/office-for-low-emission-vehicles"},{"id":"https://www.gov.uk/api/organisations/insolvency-practitioners-tribunal","web_url":"https://www.gov.uk/government/organisations/insolvency-practitioners-tribunal"},{"id":"https://www.gov.uk/api/organisations/competition-and-markets-authority","web_url":"https://www.gov.uk/government/organisations/competition-and-markets-authority"},{"id":"https://www.gov.uk/api/organisations/groceries-code-adjudicator","web_url":"https://www.gov.uk/government/organisations/groceries-code-adjudicator"},{"id":"https://www.gov.uk/api/organisations/office-of-the-regulator-of-community-interest-companies","web_url":"https://www.gov.uk/government/organisations/office-of-the-regulator-of-community-interest-companies"},{"id":"https://www.gov.uk/api/organisations/government-office-for-science","web_url":"https://www.gov.uk/government/organisations/government-office-for-science"},{"id":"https://www.gov.uk/api/organisations/wave-hub","web_url":"https://www.gov.uk/government/organisations/wave-hub"},{"id":"https://www.gov.uk/api/organisations/government-chemist","web_url":"https://www.gov.uk/government/organisations/government-chemist"},{"id":"https://www.gov.uk/api/organisations/innovate-uk","web_url":"https://www.gov.uk/government/organisations/innovate-uk"},{"id":"https://www.gov.uk/api/organisations/independent-complaints-reviewer","web_url":"https://www.gov.uk/government/organisations/independent-complaints-reviewer"},{"id":"https://www.gov.uk/api/organisations/oil-and-gas-authority","web_url":"https://www.gov.uk/government/organisations/oil-and-gas-authority"},{"id":"https://www.gov.uk/api/organisations/british-business-bank","web_url":"https://www.gov.uk/government/organisations/british-business-bank"},{"id":"https://www.gov.uk/api/organisations/committee-on-fuel-poverty","web_url":"https://www.gov.uk/government/organisations/committee-on-fuel-poverty"},{"id":"https://www.gov.uk/api/organisations/regulatory-delivery","web_url":"https://www.gov.uk/government/organisations/regulatory-delivery"}]},{"id":"https://www.gov.uk/api/organisations/nhs-improvement","title":"NHS Improvement","format":"Other","updated_at":"2016-08-01T10:37:53.000+01:00","web_url":"https://www.gov.uk/government/organisations/nhs-improvement","details":{"slug":"nhs-improvement","abbreviation":"","logo_formatted_name":"NHS Improvement","organisation_brand_colour_class_name":"department-of-health","organisation_logo_type_class_name":"no-identity","closed_at":null,"govuk_status":"exempt","content_id":"cc7a2d0a-07dd-46a3-a12d-c63642e570fa"},"analytics_identifier":"PB1199","parent_organisations":[{"id":"https://www.gov.uk/api/organisations/department-of-health","web_url":"https://www.gov.uk/government/organisations/department-of-health"}],"child_organisations":[]},{"id":"https://www.gov.uk/api/organisations/civil-service-board","title":"Civil Service Board","format":"Sub-organisation","updated_at":"2016-08-05T16:32:57.000+01:00","web_url":"https://www.gov.uk/government/organisations/civil-service-board","details":{"slug":"civil-service-board","abbreviation":"","logo_formatted_name":"Civil Service\r\nBoard","organisation_brand_colour_class_name":null,"organisation_logo_type_class_name":"single-identity","closed_at":null,"govuk_status":"live","content_id":"7a9be5d2-a512-431b-9bf4-ec565fd41c18"},"analytics_identifier":"OT1200","parent_organisations":[{"id":"https://www.gov.uk/api/organisations/civil-service","web_url":"https://www.gov.uk/government/organisations/civil-service"}],"child_organisations":[]},{"id":"https://www.gov.uk/api/organisations/cabinet-office-board","title":"Cabinet Office Board","format":"Sub-organisation","updated_at":"2016-08-03T11:32:34.000+01:00","web_url":"https://www.gov.uk/government/organisations/cabinet-office-board","details":{"slug":"cabinet-office-board","abbreviation":"","logo_formatted_name":"Cabinet Office \r\nBoard","organisation_brand_colour_class_name":null,"organisation_logo_type_class_name":"single-identity","closed_at":null,"govuk_status":"live","content_id":"746822e7-8fe8-4a6f-89fc-2b3bd3e0dab8"},"analytics_identifier":"OT1201","parent_organisations":[{"id":"https://www.gov.uk/api/organisations/cabinet-office","web_url":"https://www.gov.uk/government/organisations/cabinet-office"}],"child_organisations":[]}],"previous_page_url":"https://www.gov.uk/api/organisations?page=49","next_page_url":"https://www.gov.uk/api/organisations?page=51","current_page":50,"total":1009,"pages":51,"page_size":20,"start_index":981,"_response_info":{"status":"ok","links":[{"href":"https://www.gov.uk/api/organisations?page=49","rel":"previous"},{"href":"https://www.gov.uk/api/organisations?page=51","rel":"next"},{"href":"https://www.gov.uk/api/organisations?page=50","rel":"self"}]}}
