{"results":[{"id":"https://www.gov.uk/api/organisations/nhs-digital","title":"NHS Digital","format":"Executive non-departmental public body","updated_at":"2016-08-03T11:39:45.000+01:00","web_url":"https://www.gov.uk/government/organisations/nhs-digital","details":{"slug":"nhs-digital","abbreviation":"","logo_formatted_name":"NHS\r\nDigital","organisation_brand_colour_class_name":null,"organisation_logo_type_class_name":"no-identity","closed_at":null,"govuk_status":"exempt","content_id":"57167442-dc92-49bf-a897-8a1969031c52"},"analytics_identifier":"PB1202","parent_organisations":[{"id":"https://www.gov.uk/api/organisations/department-of-health","web_url":"https://www.gov.uk/government/organisations/department-of-health"}],"child_organisations":[]},{"id":"https://www.gov.uk/api/organisations/the-electoral-commission","title":"The Electoral Commission","format":"Independent monitoring body","updated_at":"2016-08-11T10:54:10.000+01:00","web_url":"https://www.gov.uk/government/organisations/the-electoral-commission","details":{"slug":"the-electoral-commission","abbreviation":"","logo_formatted_name":"The Electoral Commission","organisation_brand_colour_class_name":null,"organisation_logo_type_class_name":"single-identity","closed_at":null,"govuk_status":"exempt","content_id":"5bbc65c0-8fbc-4794-8157-42a60ed97f87"},"analytics_identifier":"IM1203","parent_organisations":[],"child_organisations":[]},{"id":"https://www.gov.uk/api/organisations/valuation-tribunal-for-england","title":"Valuation Tribunal for England ","format":"Tribunal non-departmental public body","updated_at":"2016-08-16T15:59:24.000+01:00","web_url":"https://www.gov.uk/government/organisations/valuation-tribunal-for-england","details":{"slug":"valuation-tribunal-for-england","abbreviation":"VTE","logo_formatted_name":"Valuation \r\nTribunal for \r\nEngland ","organisation_brand_colour_class_name":"department-for-communities-and-local-government","organisation_logo_type_class_name":"no-identity","closed_at":null,"govuk_status":"exempt","content_id":"06fc84b7-f0de-4da4-b8fd-d4547dbab3f9"},"analytics_identifier":"PB1204","parent_organisations":[{"id":"https://www.gov.uk/api/organisations/department-for-communities-and-local-government","web_url":"https://www.gov.uk/government/organisations/department-for-communities-and-local-government"}],"child_organisations":[]},{"id":"https://www.gov.uk/api/organisations/chancery-division-of-the-high-court","title":"Chancery Division of the High Court","format":"Court","updated_at":"2016-08-22T15:27:43.000+01:00","web_url":"https://www.gov.uk/courts-tribunals/chancery-division-of-the-high-court","details":{"slug":"chancery-division-of-the-high-court","abbreviation":"","logo_formatted_name":"Chancery Division of the High Court","organisation_brand_colour_class_name":null,"organisation_logo_type_class_name":"no-identity","closed_at":null,"govuk_status":"live","content_id":"6fe5b36c-b875-45d8-bbe4-c29702708d44"},"analytics_identifier":"CO1205","parent_organisations":[{"id":"https://www.gov.uk/api/organisations/hm-courts-and-tribunals-service","web_url":"https://www.gov.uk/government/organisations/hm-courts-and-tribunals-service"}],"child_organisations":[]},{"id":"https://www.gov.uk/api/organisations/defence-and-security-accelerator","title":"Defence and Security Accelerator","format":"Sub-organisation","updated_at":"2016-12-08T06:57:44.000+00:00","web_url":"https://www.gov.uk/government/organisations/defence-and-security-accelerator","details":{"slug":"defence-and-security-accelerator","abbreviation":"","logo_formatted_name":"Defence and Security \r\nAccelerator","organisation_brand_colour_class_name":"ministry-of-defence","organisation_logo_type_class_name":"single-identity","closed_at":null,"govuk_status":"live","content_id":"54f97e9d-33ac-4813-93fb-623e184c4e22"},"analytics_identifier":"OT1206","parent_organisations":[{"id":"https://www.gov.uk/api/organisations/defence-science-and-technology-laboratory","web_url":"https://www.gov.uk/government/organisations/defence-science-and-technology-laboratory"}],"child_organisations":[]},{"id":"https://www.gov.uk/api/organisations/rail-safety-and-standards-board","title":"Rail Safety and Standards Board","format":"Other","updated_at":"2016-12-06T13:56:59.000+00:00","web_url":"https://www.gov.uk/government/organisations/rail-safety-and-standards-board","details":{"slug":"rail-safety-and-standards-board","abbreviation":"RSSB","logo_formatted_name":"Rail Safety and Standards Board","organisation_brand_colour_class_name":"department-for-transport","organisation_logo_type_class_name":"single-identity","closed_at":null,"govuk_status":"exempt","content_id":"62ceb9fe-bb8b-4587-acc0-ec903e68ddd1"},"analytics_identifier":"OT1207","parent_organisations":[],"child_organisations":[]},{"id":"https://www.gov.uk/api/organisations/academy-for-social-justice-commissioning","title":"Academy for Social Justice Commissioning","format":"Other","updated_at":"2017-01-09T11:44:56.000+00:00","web_url":"https://www.gov.uk/government/organisations/academy-for-social-justice-commissioning","details":{"slug":"academy-for-social-justice-commissioning","abbreviation":"","logo_formatted_name":"Academy for Social Justice \r\nCommissioning","organisation_brand_colour_class_name":"ministry-of-justice","organisation_logo_type_class_name":"single-identity","closed_at":null,"govuk_status":"live","content_id":"ce357bdb-6396-426a-9f1f-8cbfb444cffd"},"analytics_identifier":"OT1208","parent_organisations":[{"id":"https://www.gov.uk/api/organisations/ministry-of-justice","web_url":"https://www.gov.uk/government/organisations/ministry-of-justice"}],"child_organisations":[]},{"id":"https://www.gov.uk/api/organisations/her-majestys-government-communications-centre","title":"Her Majesty's Government Communications Centre","format":"Other","updated_at":"2017-01-19T11:31:43.000+00:00","web_url":"https://www.gov.uk/government/organisations/her-majestys-government-communications-centre","details":{"slug":"her-majestys-government-communications-centre","abbreviation":"HMGCC","logo_formatted_name":"Her Majesty's Government Communications Centre","organisation_brand_colour_class_name":"foreign-commonwealth-office","organisation_logo_type_class_name":"single-identity","closed_at":null,"govuk_status":"exempt","content_id":"0fd1fd4f-5779-4cf4-ac37-6fe1a91ad15c"},"analytics_identifier":"OT1209","parent_organisations":[{"id":"https://www.gov.uk/api/organisations/foreign-commonwealth-office","web_url":"https://www.gov.uk/government/organisations/foreign-commonwealth-office"}],"child_organisations":[]},{"id":"https://www.gov.uk/api/organisations/preventing-sexual-violence-initiative","title":"Preventing Sexual Violence Initiative","format":"Sub-organisation","updated_at":"2017-01-20T16:51:51.000+00:00","web_url":"https://www.gov.uk/government/organisations/preventing-sexual-violence-initiative","details":{"slug":"preventing-sexual-violence-initiative","abbreviation":"PSVI","logo_formatted_name":"Preventing Sexual Violence Initiative","organisation_brand_colour_class_name":"foreign-commonwealth-office","organisation_logo_type_class_name":"single-identity","closed_at":null,"govuk_status":"joining","content_id":"e474d31e-d466-4221-acdd-d8d4833e6043"},"analytics_identifier":"OT1210","parent_organisations":[{"id":"https://www.gov.uk/api/organisations/foreign-commonwealth-office","web_url":"https://www.gov.uk/government/organisations/foreign-commonwealth-office"}],"child_organisations":[]}],"previous_page_url":"https://www.gov.uk/api/organisations?page=50","current_page":51,"total":1009,"pages":51,"page_size":20,"start_index":1001,"_response_info":{"status":"ok","links":[{"href":"https://www.gov.uk/api/organisations?page=50","rel":"previous"},{"href":"https://www.gov.uk/api/organisations?page=51","rel":"self"}]}}
