{"results":[],"previous_page_url":"https://www.gov.uk/api/organisations?page=52","current_page":53,"total":1009,"pages":51,"page_size":20,"start_index":1041,"_response_info":{"status":"ok","links":[{"href":"https://www.gov.uk/api/organisations?page=52","rel":"previous"},{"href":"https://www.gov.uk/api/organisations?page=53","rel":"self"}]}}
