{"results":[],"previous_page_url":"https://www.gov.uk/api/organisations?page=53","current_page":54,"total":1009,"pages":51,"page_size":20,"start_index":1061,"_response_info":{"status":"ok","links":[{"href":"https://www.gov.uk/api/organisations?page=53","rel":"previous"},{"href":"https://www.gov.uk/api/organisations?page=54","rel":"self"}]}}
