{"results":[],"previous_page_url":"https://www.gov.uk/api/organisations?page=54","current_page":55,"total":1009,"pages":51,"page_size":20,"start_index":1081,"_response_info":{"status":"ok","links":[{"href":"https://www.gov.uk/api/organisations?page=54","rel":"previous"},{"href":"https://www.gov.uk/api/organisations?page=55","rel":"self"}]}}
