{"results":[],"previous_page_url":"https://www.gov.uk/api/organisations?page=55","current_page":56,"total":1009,"pages":51,"page_size":20,"start_index":1101,"_response_info":{"status":"ok","links":[{"href":"https://www.gov.uk/api/organisations?page=55","rel":"previous"},{"href":"https://www.gov.uk/api/organisations?page=56","rel":"self"}]}}
