{"results":[],"previous_page_url":"https://www.gov.uk/api/organisations?page=56","current_page":57,"total":1009,"pages":51,"page_size":20,"start_index":1121,"_response_info":{"status":"ok","links":[{"href":"https://www.gov.uk/api/organisations?page=56","rel":"previous"},{"href":"https://www.gov.uk/api/organisations?page=57","rel":"self"}]}}
