{"results":[{"id":"https://www.gov.uk/api/organisations/technology-strategy-board","title":"Technology Strategy Board","format":"Executive non-departmental public body","updated_at":"2014-10-15T15:35:37.000+01:00","web_url":"https://www.gov.uk/government/organisations/technology-strategy-board","details":{"slug":"technology-strategy-board","abbreviation":"","logo_formatted_name":"Technology Strategy Board","organisation_brand_colour_class_name":"department-for-business-innovation-skills","organisation_logo_type_class_name":"single-identity","closed_at":"2014-08-15T00:00:00.000+01:00","govuk_status":"closed","content_id":"bfeb444f-2430-4f20-a7b8-5f1748813cc2"},"analytics_identifier":"PB136","parent_organisations":[{"id":"https://www.gov.uk/api/organisations/department-for-business-innovation-skills","web_url":"https://www.gov.uk/government/organisations/department-for-business-innovation-skills"}],"child_organisations":[]},{"id":"https://www.gov.uk/api/organisations/uk-atomic-energy-authority","title":"UK Atomic Energy Authority","format":"Executive non-departmental public body","updated_at":"2017-01-18T15:46:32.000+00:00","web_url":"https://www.gov.uk/government/organisations/uk-atomic-energy-authority","details":{"slug":"uk-atomic-energy-authority","abbreviation":"UKAEA","logo_formatted_name":"UK Atomic \r\nEnergy \r\nAuthority ","organisation_brand_colour_class_name":"department-for-business-innovation-skills","organisation_logo_type_class_name":"ukaea","closed_at":null,"govuk_status":"live","content_id":"bb4afa19-6b2f-4bf7-9725-22a259c90c73"},"analytics_identifier":"PB137","parent_organisations":[{"id":"https://www.gov.uk/api/organisations/department-for-business-energy-and-industrial-strategy","web_url":"https://www.gov.uk/government/organisations/department-for-business-energy-and-industrial-strategy"}],"child_organisations":[]},{"id":"https://www.gov.uk/api/organisations/uk-commission-for-employment-and-skills","title":"UK Commission for Employment and Skills","format":"Executive non-departmental public body","updated_at":"2014-10-15T15:35:37.000+01:00","web_url":"https://www.gov.uk/government/organisations/uk-commission-for-employment-and-skills","details":{"slug":"uk-commission-for-employment-and-skills","abbreviation":"UKCES","logo_formatted_name":"UK Commission \r\nfor Employment \r\nand Skills","organisation_brand_colour_class_name":"department-for-business-innovation-skills","organisation_logo_type_class_name":"custom","closed_at":null,"govuk_status":"live","content_id":"9aa9d352-2c7d-41e1-8965-612fcc24d282"},"analytics_identifier":"PB138","parent_organisations":[{"id":"https://www.gov.uk/api/organisations/department-for-education","web_url":"https://www.gov.uk/government/organisations/department-for-education"}],"child_organisations":[]},{"id":"https://www.gov.uk/api/organisations/certification-officer","title":"Certification Officer","format":"Other","updated_at":"2015-01-19T16:14:08.000+00:00","web_url":"https://www.gov.uk/government/organisations/certification-officer","details":{"slug":"certification-officer","abbreviation":"Certification Officer","logo_formatted_name":"Certification Officer","organisation_brand_colour_class_name":"department-for-business-innovation-skills","organisation_logo_type_class_name":"single-identity","closed_at":null,"govuk_status":"live","content_id":"3c16fddc-350e-4b2f-abfe-1a7c1821bd28"},"analytics_identifier":"PB139","parent_organisations":[{"id":"https://www.gov.uk/api/organisations/department-for-business-energy-and-industrial-strategy","web_url":"https://www.gov.uk/government/organisations/department-for-business-energy-and-industrial-strategy"}],"child_organisations":[]},{"id":"https://www.gov.uk/api/organisations/competition-appeal-tribunal","title":"Competition Appeal Tribunal","format":"Tribunal non-departmental public body","updated_at":"2016-07-25T15:16:36.000+01:00","web_url":"https://www.gov.uk/government/organisations/competition-appeal-tribunal","details":{"slug":"competition-appeal-tribunal","abbreviation":"CAT","logo_formatted_name":"Competition Appeal Tribunal","organisation_brand_colour_class_name":"department-for-business-innovation-skills","organisation_logo_type_class_name":"single-identity","closed_at":null,"govuk_status":"exempt","content_id":"e97bdf95-cf01-462a-988b-84e42ef69c76"},"analytics_identifier":"PB140","parent_organisations":[{"id":"https://www.gov.uk/api/organisations/department-for-business-energy-and-industrial-strategy","web_url":"https://www.gov.uk/government/organisations/department-for-business-energy-and-industrial-strategy"}],"child_organisations":[]},{"id":"https://www.gov.uk/api/organisations/capital-for-enterprise-ltd","title":"Capital for Enterprise Limited","format":"Executive non-departmental public body","updated_at":"2015-07-10T12:21:08.000+01:00","web_url":"https://www.gov.uk/government/organisations/capital-for-enterprise-ltd","details":{"slug":"capital-for-enterprise-ltd","abbreviation":"CfEL","logo_formatted_name":"Capital for Enterprise Ltd","organisation_brand_colour_class_name":"department-for-business-innovation-skills","organisation_logo_type_class_name":"no-identity","closed_at":null,"govuk_status":"closed","content_id":"ca22a0db-0bd8-4d89-b080-c4e80b49884d"},"analytics_identifier":"PB147","parent_organisations":[{"id":"https://www.gov.uk/api/organisations/department-for-business-innovation-skills","web_url":"https://www.gov.uk/government/organisations/department-for-business-innovation-skills"}],"child_organisations":[]},{"id":"https://www.gov.uk/api/organisations/central-arbitration-committee","title":"Central Arbitration Committee","format":"Tribunal non-departmental public body","updated_at":"2014-10-24T15:39:33.000+01:00","web_url":"https://www.gov.uk/government/organisations/central-arbitration-committee","details":{"slug":"central-arbitration-committee","abbreviation":"CAC","logo_formatted_name":"Central Arbitration Committee","organisation_brand_colour_class_name":"department-for-business-innovation-skills","organisation_logo_type_class_name":"bis","closed_at":null,"govuk_status":"live","content_id":"b512e829-9473-490b-bac1-4be4eec8d7de"},"analytics_identifier":"PB148","parent_organisations":[{"id":"https://www.gov.uk/api/organisations/department-for-business-energy-and-industrial-strategy","web_url":"https://www.gov.uk/government/organisations/department-for-business-energy-and-industrial-strategy"}],"child_organisations":[]},{"id":"https://www.gov.uk/api/organisations/industrial-development-advisory-board","title":"Industrial Development Advisory Board","format":"Advisory non-departmental public body","updated_at":"2016-07-25T15:11:43.000+01:00","web_url":"https://www.gov.uk/government/organisations/industrial-development-advisory-board","details":{"slug":"industrial-development-advisory-board","abbreviation":"IDAB","logo_formatted_name":"Industrial Development \r\nAdvisory Board","organisation_brand_colour_class_name":"department-for-business-innovation-skills","organisation_logo_type_class_name":"single-identity","closed_at":null,"govuk_status":"live","content_id":"24484a19-997b-4702-8500-a059b26e951b"},"analytics_identifier":"OT152","parent_organisations":[{"id":"https://www.gov.uk/api/organisations/department-for-business-energy-and-industrial-strategy","web_url":"https://www.gov.uk/government/organisations/department-for-business-energy-and-industrial-strategy"}],"child_organisations":[]},{"id":"https://www.gov.uk/api/organisations/the-committee-on-standards-in-public-life","title":"Committee on Standards in Public Life","format":"Advisory non-departmental public body","updated_at":"2016-06-14T13:44:40.000+01:00","web_url":"https://www.gov.uk/government/organisations/the-committee-on-standards-in-public-life","details":{"slug":"the-committee-on-standards-in-public-life","abbreviation":"CSPL","logo_formatted_name":"Committee on Standards in Public Life","organisation_brand_colour_class_name":"cabinet-office","organisation_logo_type_class_name":"single-identity","closed_at":null,"govuk_status":"live","content_id":"844f5a92-4ea1-4a40-90f2-1ad9c9d6778b"},"analytics_identifier":"PB158","parent_organisations":[{"id":"https://www.gov.uk/api/organisations/cabinet-office","web_url":"https://www.gov.uk/government/organisations/cabinet-office"}],"child_organisations":[]},{"id":"https://www.gov.uk/api/organisations/building-regulations-advisory-committee","title":"Building Regulations Advisory Committee","format":"Advisory non-departmental public body","updated_at":"2014-10-15T15:35:39.000+01:00","web_url":"https://www.gov.uk/government/organisations/building-regulations-advisory-committee","details":{"slug":"building-regulations-advisory-committee","abbreviation":"BRAC","logo_formatted_name":"Building Regulations \r\nAdvisory Committee","organisation_brand_colour_class_name":"department-for-communities-and-local-government","organisation_logo_type_class_name":"single-identity","closed_at":null,"govuk_status":"live","content_id":"0eb3df59-aad1-4cb2-89f5-1de8032d0095"},"analytics_identifier":"PB160","parent_organisations":[{"id":"https://www.gov.uk/api/organisations/department-for-communities-and-local-government","web_url":"https://www.gov.uk/government/organisations/department-for-communities-and-local-government"}],"child_organisations":[]},{"id":"https://www.gov.uk/api/organisations/homes-and-communities-agency","title":"Homes and Communities Agency","format":"Executive non-departmental public body","updated_at":"2016-03-16T15:28:47.000+00:00","web_url":"https://www.gov.uk/government/organisations/homes-and-communities-agency","details":{"slug":"homes-and-communities-agency","abbreviation":"HCA","logo_formatted_name":"Homes \u0026\r\nCommunities \r\nAgency","organisation_brand_colour_class_name":"department-for-communities-and-local-government","organisation_logo_type_class_name":"single-identity","closed_at":null,"govuk_status":"live","content_id":"5ddb26f6-caad-4b14-97a7-fabcfa25d4bc"},"analytics_identifier":"PB161","parent_organisations":[{"id":"https://www.gov.uk/api/organisations/department-for-communities-and-local-government","web_url":"https://www.gov.uk/government/organisations/department-for-communities-and-local-government"}],"child_organisations":[]},{"id":"https://www.gov.uk/api/organisations/architects-registration-board","title":"Architects Registration Board","format":"Public corporation","updated_at":"2014-10-15T15:35:39.000+01:00","web_url":"https://www.gov.uk/government/organisations/architects-registration-board","details":{"slug":"architects-registration-board","abbreviation":"ARB","logo_formatted_name":"Architects Registration Board","organisation_brand_colour_class_name":"department-for-communities-and-local-government","organisation_logo_type_class_name":"no-identity","closed_at":null,"govuk_status":"exempt","content_id":"f79ac634-94d4-459c-9788-b3f3b1f9a293"},"analytics_identifier":"PC163","parent_organisations":[{"id":"https://www.gov.uk/api/organisations/department-for-communities-and-local-government","web_url":"https://www.gov.uk/government/organisations/department-for-communities-and-local-government"}],"child_organisations":[]},{"id":"https://www.gov.uk/api/organisations/arts-council-england","title":"Arts Council England","format":"Executive non-departmental public body","updated_at":"2014-10-15T15:35:39.000+01:00","web_url":"https://www.gov.uk/government/organisations/arts-council-england","details":{"slug":"arts-council-england","abbreviation":"","logo_formatted_name":"Arts Council England","organisation_brand_colour_class_name":"department-for-culture-media-sport","organisation_logo_type_class_name":"no-identity","closed_at":null,"govuk_status":"exempt","content_id":"16438d29-2b3f-4200-a3e6-e71b609e84f7"},"analytics_identifier":"PB165","parent_organisations":[{"id":"https://www.gov.uk/api/organisations/department-for-culture-media-sport","web_url":"https://www.gov.uk/government/organisations/department-for-culture-media-sport"}],"child_organisations":[]},{"id":"https://www.gov.uk/api/organisations/british-library","title":"British Library","format":"Executive non-departmental public body","updated_at":"2014-10-15T15:35:40.000+01:00","web_url":"https://www.gov.uk/government/organisations/british-library","details":{"slug":"british-library","abbreviation":"BL","logo_formatted_name":"The British Library","organisation_brand_colour_class_name":"department-for-culture-media-sport","organisation_logo_type_class_name":"no-identity","closed_at":null,"govuk_status":"exempt","content_id":"33fca0f5-1f62-493c-a059-5a1e98441f0c"},"analytics_identifier":"PB166","parent_organisations":[{"id":"https://www.gov.uk/api/organisations/department-for-culture-media-sport","web_url":"https://www.gov.uk/government/organisations/department-for-culture-media-sport"}],"child_organisations":[]},{"id":"https://www.gov.uk/api/organisations/british-museum","title":"British Museum","format":"Executive non-departmental public body","updated_at":"2014-10-15T15:35:40.000+01:00","web_url":"https://www.gov.uk/government/organisations/british-museum","details":{"slug":"british-museum","abbreviation":"BM","logo_formatted_name":"British Museum","organisation_brand_colour_class_name":"department-for-culture-media-sport","organisation_logo_type_class_name":"no-identity","closed_at":null,"govuk_status":"exempt","content_id":"1bd53730-69f4-46e5-8f11-6a5b3934c5bc"},"analytics_identifier":"PB167","parent_organisations":[{"id":"https://www.gov.uk/api/organisations/department-for-culture-media-sport","web_url":"https://www.gov.uk/government/organisations/department-for-culture-media-sport"}],"child_organisations":[]},{"id":"https://www.gov.uk/api/organisations/english-heritage","title":"English Heritage","format":"Executive non-departmental public body","updated_at":"2016-03-09T15:25:39.000+00:00","web_url":"https://www.gov.uk/government/organisations/english-heritage","details":{"slug":"english-heritage","abbreviation":"EH","logo_formatted_name":"English Heritage","organisation_brand_colour_class_name":"department-for-culture-media-sport","organisation_logo_type_class_name":"single-identity","closed_at":"2015-04-01T00:00:00.000+01:00","govuk_status":"closed","content_id":"2d9aa015-eb03-461b-a82d-ce420c635d25"},"analytics_identifier":"PB168","parent_organisations":[{"id":"https://www.gov.uk/api/organisations/department-for-culture-media-sport","web_url":"https://www.gov.uk/government/organisations/department-for-culture-media-sport"}],"child_organisations":[]},{"id":"https://www.gov.uk/api/organisations/gambling-commission","title":"Gambling Commission","format":"Executive non-departmental public body","updated_at":"2014-10-15T15:35:40.000+01:00","web_url":"https://www.gov.uk/government/organisations/gambling-commission","details":{"slug":"gambling-commission","abbreviation":"GC","logo_formatted_name":"Gambling Commission","organisation_brand_colour_class_name":"department-for-culture-media-sport","organisation_logo_type_class_name":"no-identity","closed_at":null,"govuk_status":"exempt","content_id":"4a76efdd-cf13-4eee-ad61-e13c3e6bf45e"},"analytics_identifier":"PB169","parent_organisations":[{"id":"https://www.gov.uk/api/organisations/department-for-culture-media-sport","web_url":"https://www.gov.uk/government/organisations/department-for-culture-media-sport"}],"child_organisations":[]},{"id":"https://www.gov.uk/api/organisations/geffrye-museum","title":"Geffrye Museum","format":"Executive non-departmental public body","updated_at":"2014-10-15T15:35:41.000+01:00","web_url":"https://www.gov.uk/government/organisations/geffrye-museum","details":{"slug":"geffrye-museum","abbreviation":"GMus","logo_formatted_name":"Geffrye Museum","organisation_brand_colour_class_name":"department-for-culture-media-sport","organisation_logo_type_class_name":"no-identity","closed_at":null,"govuk_status":"exempt","content_id":"1cfddf1c-85b5-414b-81d4-d9892e090890"},"analytics_identifier":"PB170","parent_organisations":[{"id":"https://www.gov.uk/api/organisations/department-for-culture-media-sport","web_url":"https://www.gov.uk/government/organisations/department-for-culture-media-sport"}],"child_organisations":[]},{"id":"https://www.gov.uk/api/organisations/horniman-museum","title":"Horniman Public Museum and Public Park Trust","format":"Executive non-departmental public body","updated_at":"2014-10-15T15:35:41.000+01:00","web_url":"https://www.gov.uk/government/organisations/horniman-museum","details":{"slug":"horniman-museum","abbreviation":"Horniman","logo_formatted_name":"Horniman Museum","organisation_brand_colour_class_name":"department-for-culture-media-sport","organisation_logo_type_class_name":"no-identity","closed_at":null,"govuk_status":"exempt","content_id":"aa59fde3-e687-445e-a5e9-036e515002ab"},"analytics_identifier":"PB171","parent_organisations":[{"id":"https://www.gov.uk/api/organisations/department-for-culture-media-sport","web_url":"https://www.gov.uk/government/organisations/department-for-culture-media-sport"}],"child_organisations":[]},{"id":"https://www.gov.uk/api/organisations/imperial-war-museum","title":"Imperial War Museum","format":"Executive non-departmental public body","updated_at":"2014-10-15T15:35:41.000+01:00","web_url":"https://www.gov.uk/government/organisations/imperial-war-museum","details":{"slug":"imperial-war-museum","abbreviation":"IWM","logo_formatted_name":"Imperial War Museum","organisation_brand_colour_class_name":"department-for-culture-media-sport","organisation_logo_type_class_name":"no-identity","closed_at":null,"govuk_status":"exempt","content_id":"9ec60cf3-32f6-454b-803e-1ce494baa554"},"analytics_identifier":"PB172","parent_organisations":[{"id":"https://www.gov.uk/api/organisations/department-for-culture-media-sport","web_url":"https://www.gov.uk/government/organisations/department-for-culture-media-sport"}],"child_organisations":[]}],"previous_page_url":"https://www.gov.uk/api/organisations?page=5","next_page_url":"https://www.gov.uk/api/organisations?page=7","current_page":6,"total":1009,"pages":51,"page_size":20,"start_index":101,"_response_info":{"status":"ok","links":[{"href":"https://www.gov.uk/api/organisations?page=5","rel":"previous"},{"href":"https://www.gov.uk/api/organisations?page=7","rel":"next"},{"href":"https://www.gov.uk/api/organisations?page=6","rel":"self"}]}}
