{"results":[],"previous_page_url":"https://www.gov.uk/api/organisations?page=59","current_page":60,"total":1009,"pages":51,"page_size":20,"start_index":1181,"_response_info":{"status":"ok","links":[{"href":"https://www.gov.uk/api/organisations?page=59","rel":"previous"},{"href":"https://www.gov.uk/api/organisations?page=60","rel":"self"}]}}
