{"results":[],"previous_page_url":"https://www.gov.uk/api/organisations?page=60","current_page":61,"total":1009,"pages":51,"page_size":20,"start_index":1201,"_response_info":{"status":"ok","links":[{"href":"https://www.gov.uk/api/organisations?page=60","rel":"previous"},{"href":"https://www.gov.uk/api/organisations?page=61","rel":"self"}]}}
