{"results":[],"previous_page_url":"https://www.gov.uk/api/organisations?page=61","current_page":62,"total":1009,"pages":51,"page_size":20,"start_index":1221,"_response_info":{"status":"ok","links":[{"href":"https://www.gov.uk/api/organisations?page=61","rel":"previous"},{"href":"https://www.gov.uk/api/organisations?page=62","rel":"self"}]}}
