{"results":[],"previous_page_url":"https://www.gov.uk/api/organisations?page=62","current_page":63,"total":1009,"pages":51,"page_size":20,"start_index":1241,"_response_info":{"status":"ok","links":[{"href":"https://www.gov.uk/api/organisations?page=62","rel":"previous"},{"href":"https://www.gov.uk/api/organisations?page=63","rel":"self"}]}}
