{"results":[],"previous_page_url":"https://www.gov.uk/api/organisations?page=64","current_page":65,"total":1009,"pages":51,"page_size":20,"start_index":1281,"_response_info":{"status":"ok","links":[{"href":"https://www.gov.uk/api/organisations?page=64","rel":"previous"},{"href":"https://www.gov.uk/api/organisations?page=65","rel":"self"}]}}
