{"results":[],"previous_page_url":"https://www.gov.uk/api/organisations?page=66","current_page":67,"total":1009,"pages":51,"page_size":20,"start_index":1321,"_response_info":{"status":"ok","links":[{"href":"https://www.gov.uk/api/organisations?page=66","rel":"previous"},{"href":"https://www.gov.uk/api/organisations?page=67","rel":"self"}]}}
