{"results":[],"previous_page_url":"https://www.gov.uk/api/organisations?page=67","current_page":68,"total":1009,"pages":51,"page_size":20,"start_index":1341,"_response_info":{"status":"ok","links":[{"href":"https://www.gov.uk/api/organisations?page=67","rel":"previous"},{"href":"https://www.gov.uk/api/organisations?page=68","rel":"self"}]}}
