{"results":[],"previous_page_url":"https://www.gov.uk/api/organisations?page=68","current_page":69,"total":1009,"pages":51,"page_size":20,"start_index":1361,"_response_info":{"status":"ok","links":[{"href":"https://www.gov.uk/api/organisations?page=68","rel":"previous"},{"href":"https://www.gov.uk/api/organisations?page=69","rel":"self"}]}}
