{"results":[{"id":"https://www.gov.uk/api/organisations/national-gallery","title":"National Gallery","format":"Executive non-departmental public body","updated_at":"2014-10-15T15:35:41.000+01:00","web_url":"https://www.gov.uk/government/organisations/national-gallery","details":{"slug":"national-gallery","abbreviation":"","logo_formatted_name":"National Gallery","organisation_brand_colour_class_name":"department-for-culture-media-sport","organisation_logo_type_class_name":"no-identity","closed_at":null,"govuk_status":"exempt","content_id":"4c3d83bd-00fc-432c-9b1a-2d4d16008976"},"analytics_identifier":"PB174","parent_organisations":[{"id":"https://www.gov.uk/api/organisations/department-for-culture-media-sport","web_url":"https://www.gov.uk/government/organisations/department-for-culture-media-sport"}],"child_organisations":[]},{"id":"https://www.gov.uk/api/organisations/national-heritage-memorial-fund","title":"National Heritage Memorial Fund","format":"Executive non-departmental public body","updated_at":"2014-10-15T15:35:42.000+01:00","web_url":"https://www.gov.uk/government/organisations/national-heritage-memorial-fund","details":{"slug":"national-heritage-memorial-fund","abbreviation":"NHMF","logo_formatted_name":"National Heritage Memorial Fund","organisation_brand_colour_class_name":"department-for-culture-media-sport","organisation_logo_type_class_name":"no-identity","closed_at":null,"govuk_status":"exempt","content_id":"898a7d06-0d77-4190-bc14-c4c4a4768f44"},"analytics_identifier":"PB175","parent_organisations":[{"id":"https://www.gov.uk/api/organisations/department-for-culture-media-sport","web_url":"https://www.gov.uk/government/organisations/department-for-culture-media-sport"}],"child_organisations":[]},{"id":"https://www.gov.uk/api/organisations/science-museum-group","title":"Science Museum Group","format":"Executive non-departmental public body","updated_at":"2014-10-15T15:35:42.000+01:00","web_url":"https://www.gov.uk/government/organisations/science-museum-group","details":{"slug":"science-museum-group","abbreviation":"","logo_formatted_name":"Science Museum Group","organisation_brand_colour_class_name":"department-for-culture-media-sport","organisation_logo_type_class_name":"no-identity","closed_at":null,"govuk_status":"exempt","content_id":"6ee60260-9821-4908-8363-6b94f079e384"},"analytics_identifier":"PB177","parent_organisations":[{"id":"https://www.gov.uk/api/organisations/department-for-culture-media-sport","web_url":"https://www.gov.uk/government/organisations/department-for-culture-media-sport"}],"child_organisations":[]},{"id":"https://www.gov.uk/api/organisations/national-museums-liverpool","title":"National Museums Liverpool","format":"Executive non-departmental public body","updated_at":"2014-10-15T15:35:42.000+01:00","web_url":"https://www.gov.uk/government/organisations/national-museums-liverpool","details":{"slug":"national-museums-liverpool","abbreviation":"NML","logo_formatted_name":"National Museums Liverpool","organisation_brand_colour_class_name":"department-for-culture-media-sport","organisation_logo_type_class_name":"no-identity","closed_at":null,"govuk_status":"exempt","content_id":"8819799d-d7cd-4b1f-8dcc-d8db9670c707"},"analytics_identifier":"PB178","parent_organisations":[{"id":"https://www.gov.uk/api/organisations/department-for-culture-media-sport","web_url":"https://www.gov.uk/government/organisations/department-for-culture-media-sport"}],"child_organisations":[]},{"id":"https://www.gov.uk/api/organisations/national-portrait-gallery","title":"National Portrait Gallery","format":"Executive non-departmental public body","updated_at":"2014-10-15T15:35:42.000+01:00","web_url":"https://www.gov.uk/government/organisations/national-portrait-gallery","details":{"slug":"national-portrait-gallery","abbreviation":"NPG","logo_formatted_name":"National Portrait Gallery","organisation_brand_colour_class_name":"department-for-culture-media-sport","organisation_logo_type_class_name":"no-identity","closed_at":null,"govuk_status":"exempt","content_id":"e81e15cf-90b2-43f3-b3f5-c48735531c23"},"analytics_identifier":"PB179","parent_organisations":[{"id":"https://www.gov.uk/api/organisations/department-for-culture-media-sport","web_url":"https://www.gov.uk/government/organisations/department-for-culture-media-sport"}],"child_organisations":[]},{"id":"https://www.gov.uk/api/organisations/natural-history-museum","title":"Natural History Museum","format":"Executive non-departmental public body","updated_at":"2014-10-15T15:35:43.000+01:00","web_url":"https://www.gov.uk/government/organisations/natural-history-museum","details":{"slug":"natural-history-museum","abbreviation":"NHM","logo_formatted_name":"Natural History Museum","organisation_brand_colour_class_name":"department-for-culture-media-sport","organisation_logo_type_class_name":"no-identity","closed_at":null,"govuk_status":"exempt","content_id":"085eb0d3-4696-4252-a7b0-71913cdba56b"},"analytics_identifier":"PB180","parent_organisations":[{"id":"https://www.gov.uk/api/organisations/department-for-culture-media-sport","web_url":"https://www.gov.uk/government/organisations/department-for-culture-media-sport"}],"child_organisations":[]},{"id":"https://www.gov.uk/api/organisations/olympic-delivery-authority","title":"Olympic Delivery Authority","format":"Executive non-departmental public body","updated_at":"2014-12-08T12:43:19.000+00:00","web_url":"https://www.gov.uk/government/organisations/olympic-delivery-authority","details":{"slug":"olympic-delivery-authority","abbreviation":"ODA","logo_formatted_name":"Olympic \r\nDelivery \r\nAuthority","organisation_brand_colour_class_name":"department-for-culture-media-sport","organisation_logo_type_class_name":"single-identity","closed_at":"2014-12-08T00:00:00.000+00:00","govuk_status":"closed","content_id":"5d407b48-22dd-4b4c-86d3-d0dc67ea729a"},"analytics_identifier":"PB181","parent_organisations":[{"id":"https://www.gov.uk/api/organisations/department-for-culture-media-sport","web_url":"https://www.gov.uk/government/organisations/department-for-culture-media-sport"}],"child_organisations":[]},{"id":"https://www.gov.uk/api/organisations/royal-armouries-museum","title":"Royal Armouries Museum","format":"Executive non-departmental public body","updated_at":"2014-10-15T15:35:43.000+01:00","web_url":"https://www.gov.uk/government/organisations/royal-armouries-museum","details":{"slug":"royal-armouries-museum","abbreviation":"RA","logo_formatted_name":"Royal Armouries","organisation_brand_colour_class_name":"department-for-culture-media-sport","organisation_logo_type_class_name":"no-identity","closed_at":null,"govuk_status":"exempt","content_id":"b2fc37d1-bc47-4bef-aa62-e9f01a5f7f32"},"analytics_identifier":"PB182","parent_organisations":[{"id":"https://www.gov.uk/api/organisations/department-for-culture-media-sport","web_url":"https://www.gov.uk/government/organisations/department-for-culture-media-sport"}],"child_organisations":[]},{"id":"https://www.gov.uk/api/organisations/sir-john-soane-s-museum","title":"Sir John Soane's Museum","format":"Executive non-departmental public body","updated_at":"2014-10-15T15:35:43.000+01:00","web_url":"https://www.gov.uk/government/organisations/sir-john-soane-s-museum","details":{"slug":"sir-john-soane-s-museum","abbreviation":"Soane's","logo_formatted_name":"Sir John Soane’s Museum","organisation_brand_colour_class_name":"department-for-culture-media-sport","organisation_logo_type_class_name":"no-identity","closed_at":null,"govuk_status":"exempt","content_id":"fcb99346-0249-4bee-a65e-82961c0169be"},"analytics_identifier":"PB183","parent_organisations":[{"id":"https://www.gov.uk/api/organisations/department-for-culture-media-sport","web_url":"https://www.gov.uk/government/organisations/department-for-culture-media-sport"}],"child_organisations":[]},{"id":"https://www.gov.uk/api/organisations/sports-grounds-safety-authority","title":"Sports Grounds Safety Authority","format":"Executive non-departmental public body","updated_at":"2014-10-15T15:35:43.000+01:00","web_url":"https://www.gov.uk/government/organisations/sports-grounds-safety-authority","details":{"slug":"sports-grounds-safety-authority","abbreviation":"SGSA","logo_formatted_name":"Sports Grounds Safety Authority","organisation_brand_colour_class_name":"department-for-culture-media-sport","organisation_logo_type_class_name":"no-identity","closed_at":null,"govuk_status":"exempt","content_id":"fdadc7ea-bd78-4a7a-a6eb-a8f657356994"},"analytics_identifier":"PB184","parent_organisations":[{"id":"https://www.gov.uk/api/organisations/department-for-culture-media-sport","web_url":"https://www.gov.uk/government/organisations/department-for-culture-media-sport"}],"child_organisations":[]},{"id":"https://www.gov.uk/api/organisations/uk-sport","title":"UK Sport","format":"Executive non-departmental public body","updated_at":"2014-10-15T15:35:44.000+01:00","web_url":"https://www.gov.uk/government/organisations/uk-sport","details":{"slug":"uk-sport","abbreviation":"UKSP","logo_formatted_name":"UK Sport","organisation_brand_colour_class_name":"department-for-culture-media-sport","organisation_logo_type_class_name":"no-identity","closed_at":null,"govuk_status":"exempt","content_id":"6a2e54ca-60b3-4436-b546-7430fbafbb23"},"analytics_identifier":"PB185","parent_organisations":[{"id":"https://www.gov.uk/api/organisations/department-for-culture-media-sport","web_url":"https://www.gov.uk/government/organisations/department-for-culture-media-sport"}],"child_organisations":[]},{"id":"https://www.gov.uk/api/organisations/visitbritain","title":"VisitBritain","format":"Executive non-departmental public body","updated_at":"2014-10-15T15:35:44.000+01:00","web_url":"https://www.gov.uk/government/organisations/visitbritain","details":{"slug":"visitbritain","abbreviation":"VB","logo_formatted_name":"VisitBritain","organisation_brand_colour_class_name":"department-for-culture-media-sport","organisation_logo_type_class_name":"no-identity","closed_at":null,"govuk_status":"exempt","content_id":"7f34c9c5-4e1f-4688-9731-3b44ddd3ede2"},"analytics_identifier":"PB186","parent_organisations":[{"id":"https://www.gov.uk/api/organisations/department-for-culture-media-sport","web_url":"https://www.gov.uk/government/organisations/department-for-culture-media-sport"}],"child_organisations":[]},{"id":"https://www.gov.uk/api/organisations/wallace-collection","title":"Wallace Collection","format":"Executive non-departmental public body","updated_at":"2014-10-15T15:35:44.000+01:00","web_url":"https://www.gov.uk/government/organisations/wallace-collection","details":{"slug":"wallace-collection","abbreviation":"","logo_formatted_name":"Wallace Collection","organisation_brand_colour_class_name":"department-for-culture-media-sport","organisation_logo_type_class_name":"no-identity","closed_at":null,"govuk_status":"exempt","content_id":"e6b23b05-05fc-4b9c-b8fb-4752a439a243"},"analytics_identifier":"PB187","parent_organisations":[{"id":"https://www.gov.uk/api/organisations/department-for-culture-media-sport","web_url":"https://www.gov.uk/government/organisations/department-for-culture-media-sport"}],"child_organisations":[]},{"id":"https://www.gov.uk/api/organisations/big-lottery-fund","title":"Big Lottery Fund","format":"Executive non-departmental public body","updated_at":"2014-10-15T15:35:44.000+01:00","web_url":"https://www.gov.uk/government/organisations/big-lottery-fund","details":{"slug":"big-lottery-fund","abbreviation":"BIG","logo_formatted_name":"Big Lottery Fund","organisation_brand_colour_class_name":"cabinet-office","organisation_logo_type_class_name":"no-identity","closed_at":null,"govuk_status":"exempt","content_id":"0d88b3ae-ca0e-4374-9995-c364ce3f74a3"},"analytics_identifier":"PB188","parent_organisations":[{"id":"https://www.gov.uk/api/organisations/cabinet-office","web_url":"https://www.gov.uk/government/organisations/cabinet-office"}],"child_organisations":[]},{"id":"https://www.gov.uk/api/organisations/british-film-institute","title":"British Film Institute","format":"Executive non-departmental public body","updated_at":"2014-10-15T15:35:44.000+01:00","web_url":"https://www.gov.uk/government/organisations/british-film-institute","details":{"slug":"british-film-institute","abbreviation":"BFI","logo_formatted_name":"British Film Institute","organisation_brand_colour_class_name":"department-for-culture-media-sport","organisation_logo_type_class_name":"no-identity","closed_at":null,"govuk_status":"exempt","content_id":"0bf06d87-d3a8-47c2-b823-e180d933a58c"},"analytics_identifier":"PB189","parent_organisations":[{"id":"https://www.gov.uk/api/organisations/department-for-culture-media-sport","web_url":"https://www.gov.uk/government/organisations/department-for-culture-media-sport"}],"child_organisations":[]},{"id":"https://www.gov.uk/api/organisations/sport-england","title":"Sport England","format":"Executive non-departmental public body","updated_at":"2014-10-15T15:35:45.000+01:00","web_url":"https://www.gov.uk/government/organisations/sport-england","details":{"slug":"sport-england","abbreviation":"SE","logo_formatted_name":"Sport England","organisation_brand_colour_class_name":"department-for-culture-media-sport","organisation_logo_type_class_name":"no-identity","closed_at":null,"govuk_status":"exempt","content_id":"7d365379-2e0e-4b45-a8e6-3de68d8dbbf0"},"analytics_identifier":"PB190","parent_organisations":[{"id":"https://www.gov.uk/api/organisations/department-for-culture-media-sport","web_url":"https://www.gov.uk/government/organisations/department-for-culture-media-sport"}],"child_organisations":[]},{"id":"https://www.gov.uk/api/organisations/committee-on-radioactive-waste-management","title":"Committee on Radioactive Waste Management","format":"Advisory non-departmental public body","updated_at":"2016-08-08T16:11:32.000+01:00","web_url":"https://www.gov.uk/government/organisations/committee-on-radioactive-waste-management","details":{"slug":"committee-on-radioactive-waste-management","abbreviation":"CoRWM","logo_formatted_name":"Committee \r\non Radioactive Waste \r\nManagement","organisation_brand_colour_class_name":null,"organisation_logo_type_class_name":"custom","closed_at":null,"govuk_status":"live","content_id":"5a99eabd-85c8-401a-9179-f2c11a928e98"},"analytics_identifier":"PB191","parent_organisations":[{"id":"https://www.gov.uk/api/organisations/department-for-business-energy-and-industrial-strategy","web_url":"https://www.gov.uk/government/organisations/department-for-business-energy-and-industrial-strategy"}],"child_organisations":[]},{"id":"https://www.gov.uk/api/organisations/the-fuel-poverty-advisory-group","title":"Fuel Poverty Advisory Group","format":"Advisory non-departmental public body","updated_at":"2016-02-18T13:33:20.000+00:00","web_url":"https://www.gov.uk/government/organisations/the-fuel-poverty-advisory-group","details":{"slug":"the-fuel-poverty-advisory-group","abbreviation":"FPAG","logo_formatted_name":"Fuel Poverty \r\nAdvisory Group","organisation_brand_colour_class_name":"department-of-energy-climate-change","organisation_logo_type_class_name":"single-identity","closed_at":"2016-01-25T00:00:00.000+00:00","govuk_status":"closed","content_id":"0fa07490-7bbb-4cb3-b7e8-ae0fd7ab68fe"},"analytics_identifier":"PB192","parent_organisations":[{"id":"https://www.gov.uk/api/organisations/department-of-energy-climate-change","web_url":"https://www.gov.uk/government/organisations/department-of-energy-climate-change"}],"child_organisations":[]},{"id":"https://www.gov.uk/api/organisations/nuclear-liabilities-financing-assurance-board","title":"Nuclear Liabilities Financing Assurance Board","format":"Advisory non-departmental public body","updated_at":"2016-08-08T16:04:28.000+01:00","web_url":"https://www.gov.uk/government/organisations/nuclear-liabilities-financing-assurance-board","details":{"slug":"nuclear-liabilities-financing-assurance-board","abbreviation":"NLFAB","logo_formatted_name":"Nuclear Liabilities \r\nFinancing Assurance Board","organisation_brand_colour_class_name":null,"organisation_logo_type_class_name":"single-identity","closed_at":null,"govuk_status":"live","content_id":"f3674dcf-fbe7-4077-8b8a-e5e09fd0d5d4"},"analytics_identifier":"PB193","parent_organisations":[{"id":"https://www.gov.uk/api/organisations/department-for-business-energy-and-industrial-strategy","web_url":"https://www.gov.uk/government/organisations/department-for-business-energy-and-industrial-strategy"}],"child_organisations":[]},{"id":"https://www.gov.uk/api/organisations/civil-nuclear-police-authority","title":"Civil Nuclear Police Authority","format":"Executive non-departmental public body","updated_at":"2014-10-15T15:35:46.000+01:00","web_url":"https://www.gov.uk/government/organisations/civil-nuclear-police-authority","details":{"slug":"civil-nuclear-police-authority","abbreviation":"CNPA","logo_formatted_name":"Civil Nuclear \r\nPolice Authority","organisation_brand_colour_class_name":"department-of-energy-climate-change","organisation_logo_type_class_name":"single-identity","closed_at":null,"govuk_status":"live","content_id":"b0f55845-c93e-44d3-bf04-56261181a845"},"analytics_identifier":"PB194","parent_organisations":[{"id":"https://www.gov.uk/api/organisations/department-for-business-energy-and-industrial-strategy","web_url":"https://www.gov.uk/government/organisations/department-for-business-energy-and-industrial-strategy"}],"child_organisations":[{"id":"https://www.gov.uk/api/organisations/civil-nuclear-constabulary","web_url":"https://www.gov.uk/government/organisations/civil-nuclear-constabulary"}]}],"previous_page_url":"https://www.gov.uk/api/organisations?page=6","next_page_url":"https://www.gov.uk/api/organisations?page=8","current_page":7,"total":1009,"pages":51,"page_size":20,"start_index":121,"_response_info":{"status":"ok","links":[{"href":"https://www.gov.uk/api/organisations?page=6","rel":"previous"},{"href":"https://www.gov.uk/api/organisations?page=8","rel":"next"},{"href":"https://www.gov.uk/api/organisations?page=7","rel":"self"}]}}
