{"results":[],"previous_page_url":"https://www.gov.uk/api/organisations?page=69","current_page":70,"total":1009,"pages":51,"page_size":20,"start_index":1381,"_response_info":{"status":"ok","links":[{"href":"https://www.gov.uk/api/organisations?page=69","rel":"previous"},{"href":"https://www.gov.uk/api/organisations?page=70","rel":"self"}]}}
