{"results":[],"previous_page_url":"https://www.gov.uk/api/organisations?page=70","current_page":71,"total":1009,"pages":51,"page_size":20,"start_index":1401,"_response_info":{"status":"ok","links":[{"href":"https://www.gov.uk/api/organisations?page=70","rel":"previous"},{"href":"https://www.gov.uk/api/organisations?page=71","rel":"self"}]}}
