{"results":[],"previous_page_url":"https://www.gov.uk/api/organisations?page=71","current_page":72,"total":1009,"pages":51,"page_size":20,"start_index":1421,"_response_info":{"status":"ok","links":[{"href":"https://www.gov.uk/api/organisations?page=71","rel":"previous"},{"href":"https://www.gov.uk/api/organisations?page=72","rel":"self"}]}}
