{"results":[],"previous_page_url":"https://www.gov.uk/api/organisations?page=73","current_page":74,"total":1009,"pages":51,"page_size":20,"start_index":1461,"_response_info":{"status":"ok","links":[{"href":"https://www.gov.uk/api/organisations?page=73","rel":"previous"},{"href":"https://www.gov.uk/api/organisations?page=74","rel":"self"}]}}
