{"results":[],"previous_page_url":"https://www.gov.uk/api/organisations?page=74","current_page":75,"total":1009,"pages":51,"page_size":20,"start_index":1481,"_response_info":{"status":"ok","links":[{"href":"https://www.gov.uk/api/organisations?page=74","rel":"previous"},{"href":"https://www.gov.uk/api/organisations?page=75","rel":"self"}]}}
