{"results":[],"previous_page_url":"https://www.gov.uk/api/organisations?page=75","current_page":76,"total":1009,"pages":51,"page_size":20,"start_index":1501,"_response_info":{"status":"ok","links":[{"href":"https://www.gov.uk/api/organisations?page=75","rel":"previous"},{"href":"https://www.gov.uk/api/organisations?page=76","rel":"self"}]}}
