{"results":[],"previous_page_url":"https://www.gov.uk/api/organisations?page=76","current_page":77,"total":1009,"pages":51,"page_size":20,"start_index":1521,"_response_info":{"status":"ok","links":[{"href":"https://www.gov.uk/api/organisations?page=76","rel":"previous"},{"href":"https://www.gov.uk/api/organisations?page=77","rel":"self"}]}}
