{"results":[],"previous_page_url":"https://www.gov.uk/api/organisations?page=77","current_page":78,"total":1009,"pages":51,"page_size":20,"start_index":1541,"_response_info":{"status":"ok","links":[{"href":"https://www.gov.uk/api/organisations?page=77","rel":"previous"},{"href":"https://www.gov.uk/api/organisations?page=78","rel":"self"}]}}
