{"results":[],"previous_page_url":"https://www.gov.uk/api/organisations?page=78","current_page":79,"total":1009,"pages":51,"page_size":20,"start_index":1561,"_response_info":{"status":"ok","links":[{"href":"https://www.gov.uk/api/organisations?page=78","rel":"previous"},{"href":"https://www.gov.uk/api/organisations?page=79","rel":"self"}]}}
