{"results":[{"id":"https://www.gov.uk/api/organisations/the-coal-authority","title":"Coal Authority","format":"Executive non-departmental public body","updated_at":"2016-11-16T11:55:36.000+00:00","web_url":"https://www.gov.uk/government/organisations/the-coal-authority","details":{"slug":"the-coal-authority","abbreviation":"","logo_formatted_name":"Coal \r\nAuthority","organisation_brand_colour_class_name":null,"organisation_logo_type_class_name":"single-identity","closed_at":null,"govuk_status":"live","content_id":"ffc70f77-4ee8-4a6b-a5f2-54657ee4f4c6"},"analytics_identifier":"PB195","parent_organisations":[{"id":"https://www.gov.uk/api/organisations/department-for-business-energy-and-industrial-strategy","web_url":"https://www.gov.uk/government/organisations/department-for-business-energy-and-industrial-strategy"}],"child_organisations":[]},{"id":"https://www.gov.uk/api/organisations/committee-on-climate-change","title":"Committee on Climate Change","format":"Executive non-departmental public body","updated_at":"2016-08-08T16:05:21.000+01:00","web_url":"https://www.gov.uk/government/organisations/committee-on-climate-change","details":{"slug":"committee-on-climate-change","abbreviation":"CCC","logo_formatted_name":"Committee on \r\nClimate Change","organisation_brand_colour_class_name":"department-of-energy-climate-change","organisation_logo_type_class_name":"no-identity","closed_at":null,"govuk_status":"exempt","content_id":"cbc24f1d-6413-40a3-8ff7-fbb5bbbc7889"},"analytics_identifier":"PB196","parent_organisations":[{"id":"https://www.gov.uk/api/organisations/department-for-business-energy-and-industrial-strategy","web_url":"https://www.gov.uk/government/organisations/department-for-business-energy-and-industrial-strategy"}],"child_organisations":[]},{"id":"https://www.gov.uk/api/organisations/nuclear-decommissioning-authority","title":"Nuclear Decommissioning Authority","format":"Executive non-departmental public body","updated_at":"2016-03-03T15:20:20.000+00:00","web_url":"https://www.gov.uk/government/organisations/nuclear-decommissioning-authority","details":{"slug":"nuclear-decommissioning-authority","abbreviation":"NDA","logo_formatted_name":"Nuclear \r\nDecommissioning \r\nAuthority","organisation_brand_colour_class_name":"department-of-energy-climate-change","organisation_logo_type_class_name":"custom","closed_at":null,"govuk_status":"live","content_id":"bd692b3d-2d4c-43d9-aa85-32c465e1984a"},"analytics_identifier":"PB197","parent_organisations":[{"id":"https://www.gov.uk/api/organisations/department-for-business-energy-and-industrial-strategy","web_url":"https://www.gov.uk/government/organisations/department-for-business-energy-and-industrial-strategy"}],"child_organisations":[{"id":"https://www.gov.uk/api/organisations/radioactive-waste-management","web_url":"https://www.gov.uk/government/organisations/radioactive-waste-management"}]},{"id":"https://www.gov.uk/api/organisations/consumer-council-for-water","title":"Consumer Council for Water","format":"Executive non-departmental public body","updated_at":"2014-10-15T15:35:46.000+01:00","web_url":"https://www.gov.uk/government/organisations/consumer-council-for-water","details":{"slug":"consumer-council-for-water","abbreviation":"CCWater","logo_formatted_name":"Consumer Council \r\nfor Water","organisation_brand_colour_class_name":"department-for-environment-food-rural-affairs","organisation_logo_type_class_name":"no-identity","closed_at":null,"govuk_status":"exempt","content_id":"49856c04-7866-41a9-ad46-341c94be1962"},"analytics_identifier":"PB198","parent_organisations":[{"id":"https://www.gov.uk/api/organisations/department-for-environment-food-rural-affairs","web_url":"https://www.gov.uk/government/organisations/department-for-environment-food-rural-affairs"}],"child_organisations":[]},{"id":"https://www.gov.uk/api/organisations/environment-agency","title":"Environment Agency","format":"Executive non-departmental public body","updated_at":"2016-02-12T15:08:26.000+00:00","web_url":"https://www.gov.uk/government/organisations/environment-agency","details":{"slug":"environment-agency","abbreviation":"EA","logo_formatted_name":"Environment Agency","organisation_brand_colour_class_name":"department-for-environment-food-rural-affairs","organisation_logo_type_class_name":"custom","closed_at":null,"govuk_status":"live","content_id":"16628142-57b2-4611-bc03-5912785acee3"},"analytics_identifier":"EA199","parent_organisations":[{"id":"https://www.gov.uk/api/organisations/department-for-environment-food-rural-affairs","web_url":"https://www.gov.uk/government/organisations/department-for-environment-food-rural-affairs"}],"child_organisations":[]},{"id":"https://www.gov.uk/api/organisations/gangmasters-licensing-authority","title":"Gangmasters Licensing Authority","format":"Executive non-departmental public body","updated_at":"2016-04-04T14:44:26.000+01:00","web_url":"https://www.gov.uk/government/organisations/gangmasters-licensing-authority","details":{"slug":"gangmasters-licensing-authority","abbreviation":"GLA","logo_formatted_name":"Gangmasters \r\nLicensing Authority","organisation_brand_colour_class_name":"home-office","organisation_logo_type_class_name":"ho","closed_at":null,"govuk_status":"exempt","content_id":"4dbcc134-bdcc-4f67-be6c-9a3f6b4918f1"},"analytics_identifier":"PB200","parent_organisations":[{"id":"https://www.gov.uk/api/organisations/home-office","web_url":"https://www.gov.uk/government/organisations/home-office"}],"child_organisations":[]},{"id":"https://www.gov.uk/api/organisations/joint-nature-conservation-committee","title":"Joint Nature Conservation Committee","format":"Executive non-departmental public body","updated_at":"2014-10-15T15:35:47.000+01:00","web_url":"https://www.gov.uk/government/organisations/joint-nature-conservation-committee","details":{"slug":"joint-nature-conservation-committee","abbreviation":"JNCC","logo_formatted_name":"Joint Nature \r\nConservation \r\nCommittee","organisation_brand_colour_class_name":"department-for-environment-food-rural-affairs","organisation_logo_type_class_name":"no-identity","closed_at":null,"govuk_status":"exempt","content_id":"04da446d-df33-496b-a3c0-368e1d97fbb7"},"analytics_identifier":"PB201","parent_organisations":[{"id":"https://www.gov.uk/api/organisations/department-for-environment-food-rural-affairs","web_url":"https://www.gov.uk/government/organisations/department-for-environment-food-rural-affairs"}],"child_organisations":[]},{"id":"https://www.gov.uk/api/organisations/natural-england","title":"Natural England","format":"Executive non-departmental public body","updated_at":"2016-07-04T16:28:12.000+01:00","web_url":"https://www.gov.uk/government/organisations/natural-england","details":{"slug":"natural-england","abbreviation":"Natural England","logo_formatted_name":"Natural England","organisation_brand_colour_class_name":"department-for-environment-food-rural-affairs","organisation_logo_type_class_name":"custom","closed_at":null,"govuk_status":"live","content_id":"d3ce4ba7-bc75-46b4-89d9-38cb3240376d"},"analytics_identifier":"PB202","parent_organisations":[{"id":"https://www.gov.uk/api/organisations/department-for-environment-food-rural-affairs","web_url":"https://www.gov.uk/government/organisations/department-for-environment-food-rural-affairs"}],"child_organisations":[]},{"id":"https://www.gov.uk/api/organisations/agriculture-and-horticulture-development-board","title":"Agriculture and Horticulture Development Board","format":"Executive non-departmental public body","updated_at":"2014-10-15T15:35:48.000+01:00","web_url":"https://www.gov.uk/government/organisations/agriculture-and-horticulture-development-board","details":{"slug":"agriculture-and-horticulture-development-board","abbreviation":"AHDB","logo_formatted_name":"Agriculture and Horticulture \r\nDevelopment Board","organisation_brand_colour_class_name":"department-for-environment-food-rural-affairs","organisation_logo_type_class_name":"no-identity","closed_at":null,"govuk_status":"exempt","content_id":"55aacfdf-a236-4d4f-be82-201014f061a3"},"analytics_identifier":"OT204","parent_organisations":[{"id":"https://www.gov.uk/api/organisations/department-for-environment-food-rural-affairs","web_url":"https://www.gov.uk/government/organisations/department-for-environment-food-rural-affairs"}],"child_organisations":[]},{"id":"https://www.gov.uk/api/organisations/sea-fish-industry-authority","title":"Sea Fish Industry Authority","format":"Executive non-departmental public body","updated_at":"2014-10-15T15:35:48.000+01:00","web_url":"https://www.gov.uk/government/organisations/sea-fish-industry-authority","details":{"slug":"sea-fish-industry-authority","abbreviation":"Seafish","logo_formatted_name":"Sea Fish Industry Authority","organisation_brand_colour_class_name":"department-for-environment-food-rural-affairs","organisation_logo_type_class_name":"no-identity","closed_at":null,"govuk_status":"exempt","content_id":"d682a499-3446-4520-b333-af62cb35a105"},"analytics_identifier":"OT205","parent_organisations":[{"id":"https://www.gov.uk/api/organisations/department-for-environment-food-rural-affairs","web_url":"https://www.gov.uk/government/organisations/department-for-environment-food-rural-affairs"}],"child_organisations":[]},{"id":"https://www.gov.uk/api/organisations/health-and-safety-executive","title":"Health and Safety Executive","format":"Executive non-departmental public body","updated_at":"2014-10-15T15:35:48.000+01:00","web_url":"https://www.gov.uk/government/organisations/health-and-safety-executive","details":{"slug":"health-and-safety-executive","abbreviation":"HSE","logo_formatted_name":"Health and Safety\r\nExecutive","organisation_brand_colour_class_name":"department-for-work-pensions","organisation_logo_type_class_name":"no-identity","closed_at":null,"govuk_status":"exempt","content_id":"5416838d-cdd3-4172-94db-caafd966fdf3"},"analytics_identifier":"PB207","parent_organisations":[{"id":"https://www.gov.uk/api/organisations/department-for-work-pensions","web_url":"https://www.gov.uk/government/organisations/department-for-work-pensions"}],"child_organisations":[]},{"id":"https://www.gov.uk/api/organisations/advisory-committee-on-pesticides","title":"Advisory Committee on Pesticides","format":"Advisory non-departmental public body","updated_at":"2015-12-11T17:56:31.000+00:00","web_url":"https://www.gov.uk/government/organisations/advisory-committee-on-pesticides","details":{"slug":"advisory-committee-on-pesticides","abbreviation":"ACP","logo_formatted_name":"Advisory Committee \r\non Pesticides","organisation_brand_colour_class_name":"department-for-environment-food-rural-affairs","organisation_logo_type_class_name":"single-identity","closed_at":"2015-03-31T00:00:00.000+01:00","govuk_status":"closed","content_id":"e219513b-81a9-418d-9ac8-3476bd4995e5"},"analytics_identifier":"PB208","parent_organisations":[{"id":"https://www.gov.uk/api/organisations/department-for-environment-food-rural-affairs","web_url":"https://www.gov.uk/government/organisations/department-for-environment-food-rural-affairs"}],"child_organisations":[]},{"id":"https://www.gov.uk/api/organisations/advisory-committee-on-releases-to-the-environment","title":"Advisory Committee on Releases to the Environment","format":"Advisory non-departmental public body","updated_at":"2015-02-17T17:52:16.000+00:00","web_url":"https://www.gov.uk/government/organisations/advisory-committee-on-releases-to-the-environment","details":{"slug":"advisory-committee-on-releases-to-the-environment","abbreviation":"ACRE","logo_formatted_name":"Advisory Committee \r\non Releases to \r\nthe Environment","organisation_brand_colour_class_name":"department-for-environment-food-rural-affairs","organisation_logo_type_class_name":"single-identity","closed_at":null,"govuk_status":"live","content_id":"baf7f75e-00c3-41b1-accc-c082ef5f83d7"},"analytics_identifier":"PB209","parent_organisations":[{"id":"https://www.gov.uk/api/organisations/department-for-environment-food-rural-affairs","web_url":"https://www.gov.uk/government/organisations/department-for-environment-food-rural-affairs"}],"child_organisations":[]},{"id":"https://www.gov.uk/api/organisations/independent-agricultural-appeals-panel","title":"Independent Agricultural Appeals Panel","format":"Advisory non-departmental public body","updated_at":"2014-10-15T15:35:49.000+01:00","web_url":"https://www.gov.uk/government/organisations/independent-agricultural-appeals-panel","details":{"slug":"independent-agricultural-appeals-panel","abbreviation":"IAAP","logo_formatted_name":"Independent Agricultural \r\nAppeals Panel","organisation_brand_colour_class_name":"department-for-environment-food-rural-affairs","organisation_logo_type_class_name":"single-identity","closed_at":null,"govuk_status":"live","content_id":"7a1b7347-6040-4b8c-9687-b18a0125b5e6"},"analytics_identifier":"PB210","parent_organisations":[{"id":"https://www.gov.uk/api/organisations/department-for-environment-food-rural-affairs","web_url":"https://www.gov.uk/government/organisations/department-for-environment-food-rural-affairs"}],"child_organisations":[]},{"id":"https://www.gov.uk/api/organisations/science-advisory-council","title":"Science Advisory Council","format":"Advisory non-departmental public body","updated_at":"2016-05-27T11:10:42.000+01:00","web_url":"https://www.gov.uk/government/organisations/science-advisory-council","details":{"slug":"science-advisory-council","abbreviation":"SAC","logo_formatted_name":"Science \r\nAdvisory \r\nCouncil","organisation_brand_colour_class_name":"department-for-environment-food-rural-affairs","organisation_logo_type_class_name":"single-identity","closed_at":null,"govuk_status":"live","content_id":"43559ac9-1d97-43c2-b77d-0541c799c643"},"analytics_identifier":"PB211","parent_organisations":[{"id":"https://www.gov.uk/api/organisations/department-for-environment-food-rural-affairs","web_url":"https://www.gov.uk/government/organisations/department-for-environment-food-rural-affairs"}],"child_organisations":[]},{"id":"https://www.gov.uk/api/organisations/veterinary-products-committee","title":"Veterinary Products Committee","format":"Advisory non-departmental public body","updated_at":"2014-10-15T15:35:49.000+01:00","web_url":"https://www.gov.uk/government/organisations/veterinary-products-committee","details":{"slug":"veterinary-products-committee","abbreviation":"VPC","logo_formatted_name":"Veterinary \r\nProducts \r\nCommittee","organisation_brand_colour_class_name":"department-for-environment-food-rural-affairs","organisation_logo_type_class_name":"single-identity","closed_at":null,"govuk_status":"live","content_id":"0060cddd-0be2-42d5-8a7e-89c766951185"},"analytics_identifier":"PB212","parent_organisations":[{"id":"https://www.gov.uk/api/organisations/department-for-environment-food-rural-affairs","web_url":"https://www.gov.uk/government/organisations/department-for-environment-food-rural-affairs"}],"child_organisations":[]},{"id":"https://www.gov.uk/api/organisations/covent-garden-market-authority","title":"Covent Garden Market Authority","format":"Other","updated_at":"2014-10-15T15:35:50.000+01:00","web_url":"https://www.gov.uk/government/organisations/covent-garden-market-authority","details":{"slug":"covent-garden-market-authority","abbreviation":"CGMA","logo_formatted_name":"Covent Garden Market Authority","organisation_brand_colour_class_name":"department-for-environment-food-rural-affairs","organisation_logo_type_class_name":"no-identity","closed_at":null,"govuk_status":"exempt","content_id":"15e81063-675e-42e3-b4b9-957b1d0680ba"},"analytics_identifier":"OT214","parent_organisations":[{"id":"https://www.gov.uk/api/organisations/department-for-environment-food-rural-affairs","web_url":"https://www.gov.uk/government/organisations/department-for-environment-food-rural-affairs"}],"child_organisations":[]},{"id":"https://www.gov.uk/api/organisations/broads-authority","title":"Broads Authority","format":"Other","updated_at":"2014-10-15T15:35:50.000+01:00","web_url":"https://www.gov.uk/government/organisations/broads-authority","details":{"slug":"broads-authority","abbreviation":"","logo_formatted_name":"Broads Authority","organisation_brand_colour_class_name":"department-for-environment-food-rural-affairs","organisation_logo_type_class_name":"no-identity","closed_at":null,"govuk_status":"exempt","content_id":"e0bbdd5d-5e58-437e-ad1f-4134f90c02ed"},"analytics_identifier":"OT216","parent_organisations":[{"id":"https://www.gov.uk/api/organisations/department-for-environment-food-rural-affairs","web_url":"https://www.gov.uk/government/organisations/department-for-environment-food-rural-affairs"}],"child_organisations":[]},{"id":"https://www.gov.uk/api/organisations/dartmoor-national-park-authority","title":"Dartmoor National Park Authority","format":"Other","updated_at":"2014-10-15T15:35:50.000+01:00","web_url":"https://www.gov.uk/government/organisations/dartmoor-national-park-authority","details":{"slug":"dartmoor-national-park-authority","abbreviation":"DNPA","logo_formatted_name":"Dartmoor National \r\nPark Authority","organisation_brand_colour_class_name":"department-for-environment-food-rural-affairs","organisation_logo_type_class_name":"no-identity","closed_at":null,"govuk_status":"exempt","content_id":"01a2126f-c810-4120-94f0-1a5d657c71b1"},"analytics_identifier":"OT217","parent_organisations":[{"id":"https://www.gov.uk/api/organisations/department-for-environment-food-rural-affairs","web_url":"https://www.gov.uk/government/organisations/department-for-environment-food-rural-affairs"}],"child_organisations":[]},{"id":"https://www.gov.uk/api/organisations/exmoor-national-park-authority","title":"Exmoor National Park Authority","format":"Other","updated_at":"2014-10-15T15:35:50.000+01:00","web_url":"https://www.gov.uk/government/organisations/exmoor-national-park-authority","details":{"slug":"exmoor-national-park-authority","abbreviation":"Exmoor","logo_formatted_name":"Exmoor National \r\nPark Authority","organisation_brand_colour_class_name":"department-for-environment-food-rural-affairs","organisation_logo_type_class_name":"no-identity","closed_at":null,"govuk_status":"exempt","content_id":"8fc36a1b-b4f2-4b58-b86d-d160a9c161bb"},"analytics_identifier":"OT219","parent_organisations":[{"id":"https://www.gov.uk/api/organisations/department-for-environment-food-rural-affairs","web_url":"https://www.gov.uk/government/organisations/department-for-environment-food-rural-affairs"}],"child_organisations":[]}],"previous_page_url":"https://www.gov.uk/api/organisations?page=7","next_page_url":"https://www.gov.uk/api/organisations?page=9","current_page":8,"total":1009,"pages":51,"page_size":20,"start_index":141,"_response_info":{"status":"ok","links":[{"href":"https://www.gov.uk/api/organisations?page=7","rel":"previous"},{"href":"https://www.gov.uk/api/organisations?page=9","rel":"next"},{"href":"https://www.gov.uk/api/organisations?page=8","rel":"self"}]}}
