{"results":[],"previous_page_url":"https://www.gov.uk/api/organisations?page=80","current_page":81,"total":1009,"pages":51,"page_size":20,"start_index":1601,"_response_info":{"status":"ok","links":[{"href":"https://www.gov.uk/api/organisations?page=80","rel":"previous"},{"href":"https://www.gov.uk/api/organisations?page=81","rel":"self"}]}}
