{"results":[],"previous_page_url":"https://www.gov.uk/api/organisations?page=82","current_page":83,"total":1009,"pages":51,"page_size":20,"start_index":1641,"_response_info":{"status":"ok","links":[{"href":"https://www.gov.uk/api/organisations?page=82","rel":"previous"},{"href":"https://www.gov.uk/api/organisations?page=83","rel":"self"}]}}
