{"results":[],"previous_page_url":"https://www.gov.uk/api/organisations?page=83","current_page":84,"total":1009,"pages":51,"page_size":20,"start_index":1661,"_response_info":{"status":"ok","links":[{"href":"https://www.gov.uk/api/organisations?page=83","rel":"previous"},{"href":"https://www.gov.uk/api/organisations?page=84","rel":"self"}]}}
