{"results":[],"previous_page_url":"https://www.gov.uk/api/organisations?page=85","current_page":86,"total":1009,"pages":51,"page_size":20,"start_index":1701,"_response_info":{"status":"ok","links":[{"href":"https://www.gov.uk/api/organisations?page=85","rel":"previous"},{"href":"https://www.gov.uk/api/organisations?page=86","rel":"self"}]}}
