{"results":[],"previous_page_url":"https://www.gov.uk/api/organisations?page=86","current_page":87,"total":1009,"pages":51,"page_size":20,"start_index":1721,"_response_info":{"status":"ok","links":[{"href":"https://www.gov.uk/api/organisations?page=86","rel":"previous"},{"href":"https://www.gov.uk/api/organisations?page=87","rel":"self"}]}}
