{"results":[{"id":"https://www.gov.uk/api/organisations/lake-district-national-park-authority","title":"Lake District National Park Authority","format":"Other","updated_at":"2014-10-15T15:35:51.000+01:00","web_url":"https://www.gov.uk/government/organisations/lake-district-national-park-authority","details":{"slug":"lake-district-national-park-authority","abbreviation":"LDNP","logo_formatted_name":"Lake District \r\nNational Park Authority","organisation_brand_colour_class_name":"department-for-environment-food-rural-affairs","organisation_logo_type_class_name":"no-identity","closed_at":null,"govuk_status":"exempt","content_id":"521ef7a8-cd3c-410a-913e-97b27c686f61"},"analytics_identifier":"OT220","parent_organisations":[{"id":"https://www.gov.uk/api/organisations/department-for-environment-food-rural-affairs","web_url":"https://www.gov.uk/government/organisations/department-for-environment-food-rural-affairs"}],"child_organisations":[]},{"id":"https://www.gov.uk/api/organisations/new-forest-national-park-authority","title":"New Forest National Park Authority","format":"Other","updated_at":"2014-10-15T15:35:51.000+01:00","web_url":"https://www.gov.uk/government/organisations/new-forest-national-park-authority","details":{"slug":"new-forest-national-park-authority","abbreviation":"NFNPA","logo_formatted_name":"New Forest \r\nNational Park Authority","organisation_brand_colour_class_name":"department-for-environment-food-rural-affairs","organisation_logo_type_class_name":"no-identity","closed_at":null,"govuk_status":"exempt","content_id":"b24f28d7-97ea-4c31-b5bd-114111f87b9a"},"analytics_identifier":"OT222","parent_organisations":[{"id":"https://www.gov.uk/api/organisations/department-for-environment-food-rural-affairs","web_url":"https://www.gov.uk/government/organisations/department-for-environment-food-rural-affairs"}],"child_organisations":[]},{"id":"https://www.gov.uk/api/organisations/north-york-moors-national-park","title":"North York Moors National Park Authority","format":"Other","updated_at":"2014-10-15T15:35:51.000+01:00","web_url":"https://www.gov.uk/government/organisations/north-york-moors-national-park","details":{"slug":"north-york-moors-national-park","abbreviation":"NYMNP","logo_formatted_name":"North York Moors \r\nNational Park Authority","organisation_brand_colour_class_name":"department-for-environment-food-rural-affairs","organisation_logo_type_class_name":"no-identity","closed_at":null,"govuk_status":"exempt","content_id":"1986a54b-eea9-45b5-8534-6830fec6fbfc"},"analytics_identifier":"OT223","parent_organisations":[{"id":"https://www.gov.uk/api/organisations/department-for-environment-food-rural-affairs","web_url":"https://www.gov.uk/government/organisations/department-for-environment-food-rural-affairs"}],"child_organisations":[]},{"id":"https://www.gov.uk/api/organisations/commonwealth-scholarship-commission-in-the-uk","title":"Commonwealth Scholarship Commission in the UK","format":"Executive non-departmental public body","updated_at":"2014-11-21T16:59:46.000+00:00","web_url":"https://www.gov.uk/government/organisations/commonwealth-scholarship-commission-in-the-uk","details":{"slug":"commonwealth-scholarship-commission-in-the-uk","abbreviation":"CSC","logo_formatted_name":"Commonwealth Scholarship Commission in the UK","organisation_brand_colour_class_name":"department-for-international-development","organisation_logo_type_class_name":"single-identity","closed_at":null,"govuk_status":"live","content_id":"154e05f5-4d77-4d92-89e8-ee0ad1064ac4"},"analytics_identifier":"PB226","parent_organisations":[{"id":"https://www.gov.uk/api/organisations/department-for-international-development","web_url":"https://www.gov.uk/government/organisations/department-for-international-development"}],"child_organisations":[]},{"id":"https://www.gov.uk/api/organisations/equality-2025","title":"Equality 2025","format":"Advisory non-departmental public body","updated_at":"2014-10-15T15:35:52.000+01:00","web_url":"https://www.gov.uk/government/organisations/equality-2025","details":{"slug":"equality-2025","abbreviation":"E2025","logo_formatted_name":"Equality 2025","organisation_brand_colour_class_name":"department-for-work-pensions","organisation_logo_type_class_name":"no-identity","closed_at":"2013-09-30T00:00:00.000+01:00","govuk_status":"closed","content_id":"e5e72d77-be67-44bf-be40-3ee08e12964f"},"analytics_identifier":"PB230","parent_organisations":[{"id":"https://www.gov.uk/api/organisations/department-for-work-pensions","web_url":"https://www.gov.uk/government/organisations/department-for-work-pensions"}],"child_organisations":[]},{"id":"https://www.gov.uk/api/organisations/industrial-injuries-advisory-council","title":"Industrial Injuries Advisory Council","format":"Advisory non-departmental public body","updated_at":"2014-10-15T15:35:52.000+01:00","web_url":"https://www.gov.uk/government/organisations/industrial-injuries-advisory-council","details":{"slug":"industrial-injuries-advisory-council","abbreviation":"IIAC","logo_formatted_name":"Industrial Injuries Advisory Council","organisation_brand_colour_class_name":"department-for-work-pensions","organisation_logo_type_class_name":"no-identity","closed_at":null,"govuk_status":"live","content_id":"c5bfac93-8575-4b9e-af4f-12feafa46881"},"analytics_identifier":"PB231","parent_organisations":[{"id":"https://www.gov.uk/api/organisations/department-for-work-pensions","web_url":"https://www.gov.uk/government/organisations/department-for-work-pensions"}],"child_organisations":[]},{"id":"https://www.gov.uk/api/organisations/social-security-advisory-committee","title":"Social Security Advisory Committee","format":"Advisory non-departmental public body","updated_at":"2015-05-19T10:13:00.000+01:00","web_url":"https://www.gov.uk/government/organisations/social-security-advisory-committee","details":{"slug":"social-security-advisory-committee","abbreviation":"SSAC","logo_formatted_name":"Social Security Advisory Committee","organisation_brand_colour_class_name":"department-for-work-pensions","organisation_logo_type_class_name":"custom","closed_at":null,"govuk_status":"live","content_id":"882bef25-6922-4fbb-9049-7bc2575646f6"},"analytics_identifier":"PB232","parent_organisations":[{"id":"https://www.gov.uk/api/organisations/department-for-work-pensions","web_url":"https://www.gov.uk/government/organisations/department-for-work-pensions"}],"child_organisations":[]},{"id":"https://www.gov.uk/api/organisations/the-pensions-advisory-service","title":"The Pensions Advisory Service","format":"Executive non-departmental public body","updated_at":"2014-10-15T15:35:52.000+01:00","web_url":"https://www.gov.uk/government/organisations/the-pensions-advisory-service","details":{"slug":"the-pensions-advisory-service","abbreviation":"TPAS","logo_formatted_name":"The Pensions Advisory Service","organisation_brand_colour_class_name":"department-for-work-pensions","organisation_logo_type_class_name":"no-identity","closed_at":null,"govuk_status":"exempt","content_id":"9d6ec831-77c1-4140-9ebd-8cbf87245565"},"analytics_identifier":"PB233","parent_organisations":[{"id":"https://www.gov.uk/api/organisations/department-for-work-pensions","web_url":"https://www.gov.uk/government/organisations/department-for-work-pensions"}],"child_organisations":[]},{"id":"https://www.gov.uk/api/organisations/the-pensions-regulator","title":"The Pensions Regulator","format":"Executive non-departmental public body","updated_at":"2014-10-15T15:35:53.000+01:00","web_url":"https://www.gov.uk/government/organisations/the-pensions-regulator","details":{"slug":"the-pensions-regulator","abbreviation":"TPR","logo_formatted_name":"The Pensions Regulator","organisation_brand_colour_class_name":"department-for-work-pensions","organisation_logo_type_class_name":"no-identity","closed_at":null,"govuk_status":"exempt","content_id":"283a5e75-445b-47d7-8b46-a2bd74fb8232"},"analytics_identifier":"PB234","parent_organisations":[{"id":"https://www.gov.uk/api/organisations/department-for-work-pensions","web_url":"https://www.gov.uk/government/organisations/department-for-work-pensions"}],"child_organisations":[]},{"id":"https://www.gov.uk/api/organisations/pension-protection-fund-ombudsman","title":"Pension Protection Fund Ombudsman","format":"Tribunal non-departmental public body","updated_at":"2014-10-15T15:35:53.000+01:00","web_url":"https://www.gov.uk/government/organisations/pension-protection-fund-ombudsman","details":{"slug":"pension-protection-fund-ombudsman","abbreviation":"PPFO","logo_formatted_name":"Pension Protection Fund Ombudsman","organisation_brand_colour_class_name":"department-for-work-pensions","organisation_logo_type_class_name":"no-identity","closed_at":null,"govuk_status":"exempt","content_id":"6a285ab2-f068-40d8-a4a7-1db8cb42da45"},"analytics_identifier":"PB235","parent_organisations":[{"id":"https://www.gov.uk/api/organisations/department-for-work-pensions","web_url":"https://www.gov.uk/government/organisations/department-for-work-pensions"}],"child_organisations":[]},{"id":"https://www.gov.uk/api/organisations/pensions-ombudsman","title":"Pensions Ombudsman","format":"Tribunal non-departmental public body","updated_at":"2014-10-15T15:35:53.000+01:00","web_url":"https://www.gov.uk/government/organisations/pensions-ombudsman","details":{"slug":"pensions-ombudsman","abbreviation":"PO","logo_formatted_name":"Pensions Ombudsman","organisation_brand_colour_class_name":"department-for-work-pensions","organisation_logo_type_class_name":"no-identity","closed_at":null,"govuk_status":"exempt","content_id":"9db1fb50-bf20-4cf0-a00d-5a95654b7d7e"},"analytics_identifier":"PB236","parent_organisations":[{"id":"https://www.gov.uk/api/organisations/department-for-work-pensions","web_url":"https://www.gov.uk/government/organisations/department-for-work-pensions"}],"child_organisations":[]},{"id":"https://www.gov.uk/api/organisations/national-employment-savings-trust","title":"National Employment Savings Trust (NEST) Corporation","format":"Executive non-departmental public body","updated_at":"2014-10-15T15:35:53.000+01:00","web_url":"https://www.gov.uk/government/organisations/national-employment-savings-trust","details":{"slug":"national-employment-savings-trust","abbreviation":"NEST Corporation","logo_formatted_name":"National Employment Savings Trust (NEST) Corporation","organisation_brand_colour_class_name":"department-for-work-pensions","organisation_logo_type_class_name":"no-identity","closed_at":null,"govuk_status":"exempt","content_id":"4d14dda6-55a5-4bfa-9e4b-25dda8207b37"},"analytics_identifier":"OT237","parent_organisations":[{"id":"https://www.gov.uk/api/organisations/department-for-work-pensions","web_url":"https://www.gov.uk/government/organisations/department-for-work-pensions"}],"child_organisations":[]},{"id":"https://www.gov.uk/api/organisations/the-water-services-regulation-authority","title":"The Water Services Regulation Authority ","format":"Non-ministerial department","updated_at":"2014-10-15T15:35:53.000+01:00","web_url":"https://www.gov.uk/government/organisations/the-water-services-regulation-authority","details":{"slug":"the-water-services-regulation-authority","abbreviation":"Ofwat","logo_formatted_name":"Office for Water Services","organisation_brand_colour_class_name":"department-for-environment-food-rural-affairs","organisation_logo_type_class_name":"no-identity","closed_at":null,"govuk_status":"exempt","content_id":"99dd36d9-5e9f-4c04-a21e-175d1e680988"},"analytics_identifier":"D240","parent_organisations":[{"id":"https://www.gov.uk/api/organisations/department-for-environment-food-rural-affairs","web_url":"https://www.gov.uk/government/organisations/department-for-environment-food-rural-affairs"}],"child_organisations":[]},{"id":"https://www.gov.uk/api/organisations/uk-export-finance","title":"UK Export Finance","format":"Ministerial department","updated_at":"2016-10-11T18:21:03.000+01:00","web_url":"https://www.gov.uk/government/organisations/uk-export-finance","details":{"slug":"uk-export-finance","abbreviation":"UKEF","logo_formatted_name":"UK Export \r\nFinance","organisation_brand_colour_class_name":"department-for-international-trade","organisation_logo_type_class_name":"dit","closed_at":null,"govuk_status":"live","content_id":"c4e41647-ad69-4e96-843b-05fa7867bbc0"},"analytics_identifier":"D241","parent_organisations":[],"child_organisations":[{"id":"https://www.gov.uk/api/organisations/export-guarantees-advisory-council","web_url":"https://www.gov.uk/government/organisations/export-guarantees-advisory-council"}]},{"id":"https://www.gov.uk/api/organisations/education-funding-agency","title":"Education Funding Agency","format":"Executive agency","updated_at":"2015-04-20T13:43:38.000+01:00","web_url":"https://www.gov.uk/government/organisations/education-funding-agency","details":{"slug":"education-funding-agency","abbreviation":"EFA","logo_formatted_name":"Education\r\nFunding\r\nAgency","organisation_brand_colour_class_name":"department-for-education","organisation_logo_type_class_name":"single-identity","closed_at":null,"govuk_status":"live","content_id":"b9fc8528-81d1-419b-8748-6c00be71044b"},"analytics_identifier":"EA242","parent_organisations":[{"id":"https://www.gov.uk/api/organisations/department-for-education","web_url":"https://www.gov.uk/government/organisations/department-for-education"}],"child_organisations":[]},{"id":"https://www.gov.uk/api/organisations/standards-and-testing-agency","title":"Standards and Testing Agency","format":"Executive agency","updated_at":"2014-10-15T15:35:54.000+01:00","web_url":"https://www.gov.uk/government/organisations/standards-and-testing-agency","details":{"slug":"standards-and-testing-agency","abbreviation":"STA","logo_formatted_name":"Standards\r\n\u0026 Testing\r\nAgency","organisation_brand_colour_class_name":"department-for-education","organisation_logo_type_class_name":"single-identity","closed_at":null,"govuk_status":"live","content_id":"863ffacd-d313-49c1-b856-58fe0799fd41"},"analytics_identifier":"EA243","parent_organisations":[{"id":"https://www.gov.uk/api/organisations/department-for-education","web_url":"https://www.gov.uk/government/organisations/department-for-education"}],"child_organisations":[]},{"id":"https://www.gov.uk/api/organisations/children-and-family-court-advisory-and-support-service","title":"Cafcass","format":"Executive non-departmental public body","updated_at":"2014-10-15T15:35:54.000+01:00","web_url":"https://www.gov.uk/government/organisations/children-and-family-court-advisory-and-support-service","details":{"slug":"children-and-family-court-advisory-and-support-service","abbreviation":"Cafcass","logo_formatted_name":"Cafcass","organisation_brand_colour_class_name":"ministry-of-justice","organisation_logo_type_class_name":"no-identity","closed_at":null,"govuk_status":"exempt","content_id":"cc46a817-e7f3-4b60-9f5e-a004dc32ba44"},"analytics_identifier":"PB246","parent_organisations":[{"id":"https://www.gov.uk/api/organisations/ministry-of-justice","web_url":"https://www.gov.uk/government/organisations/ministry-of-justice"}],"child_organisations":[]},{"id":"https://www.gov.uk/api/organisations/disabled-persons-transport-advisory-committee","title":"Disabled Persons Transport Advisory Committee","format":"Advisory non-departmental public body","updated_at":"2014-11-06T08:48:54.000+00:00","web_url":"https://www.gov.uk/government/organisations/disabled-persons-transport-advisory-committee","details":{"slug":"disabled-persons-transport-advisory-committee","abbreviation":"DPTAC","logo_formatted_name":"Disabled Persons \r\nTransport Advisory Committee (DPTAC)","organisation_brand_colour_class_name":"department-for-transport","organisation_logo_type_class_name":"no-identity","closed_at":null,"govuk_status":"live","content_id":"b969a617-7c4b-4d3b-97ef-41656ef688c9"},"analytics_identifier":"PB247","parent_organisations":[{"id":"https://www.gov.uk/api/organisations/department-for-transport","web_url":"https://www.gov.uk/government/organisations/department-for-transport"}],"child_organisations":[]},{"id":"https://www.gov.uk/api/organisations/air-accidents-investigation-branch","title":"Air Accidents Investigation Branch","format":"Other","updated_at":"2015-04-15T11:04:28.000+01:00","web_url":"https://www.gov.uk/government/organisations/air-accidents-investigation-branch","details":{"slug":"air-accidents-investigation-branch","abbreviation":"AAIB","logo_formatted_name":"Air Accidents\r\nInvestigation Branch","organisation_brand_colour_class_name":"department-for-transport","organisation_logo_type_class_name":"custom","closed_at":null,"govuk_status":"live","content_id":"38eb5d8f-2d89-480c-8655-e2e7ac23f8f4"},"analytics_identifier":"OT248","parent_organisations":[{"id":"https://www.gov.uk/api/organisations/department-for-transport","web_url":"https://www.gov.uk/government/organisations/department-for-transport"}],"child_organisations":[]},{"id":"https://www.gov.uk/api/organisations/rail-accident-investigation-branch","title":"Rail Accident Investigation Branch","format":"Other","updated_at":"2015-04-01T10:33:41.000+01:00","web_url":"https://www.gov.uk/government/organisations/rail-accident-investigation-branch","details":{"slug":"rail-accident-investigation-branch","abbreviation":"RAIB","logo_formatted_name":"Rail Accident\r\nInvestigation Branch","organisation_brand_colour_class_name":"department-for-transport","organisation_logo_type_class_name":"custom","closed_at":null,"govuk_status":"live","content_id":"013872d8-8bbb-4e80-9b79-45c7c5cf9177"},"analytics_identifier":"OT249","parent_organisations":[{"id":"https://www.gov.uk/api/organisations/department-for-transport","web_url":"https://www.gov.uk/government/organisations/department-for-transport"}],"child_organisations":[]}],"previous_page_url":"https://www.gov.uk/api/organisations?page=8","next_page_url":"https://www.gov.uk/api/organisations?page=10","current_page":9,"total":1009,"pages":51,"page_size":20,"start_index":161,"_response_info":{"status":"ok","links":[{"href":"https://www.gov.uk/api/organisations?page=8","rel":"previous"},{"href":"https://www.gov.uk/api/organisations?page=10","rel":"next"},{"href":"https://www.gov.uk/api/organisations?page=9","rel":"self"}]}}
