{"results":[],"previous_page_url":"https://www.gov.uk/api/organisations?page=89","current_page":90,"total":1009,"pages":51,"page_size":20,"start_index":1781,"_response_info":{"status":"ok","links":[{"href":"https://www.gov.uk/api/organisations?page=89","rel":"previous"},{"href":"https://www.gov.uk/api/organisations?page=90","rel":"self"}]}}
