{"results":[],"previous_page_url":"https://www.gov.uk/api/organisations?page=90","current_page":91,"total":1009,"pages":51,"page_size":20,"start_index":1801,"_response_info":{"status":"ok","links":[{"href":"https://www.gov.uk/api/organisations?page=90","rel":"previous"},{"href":"https://www.gov.uk/api/organisations?page=91","rel":"self"}]}}
