{"results":[],"previous_page_url":"https://www.gov.uk/api/organisations?page=91","current_page":92,"total":1009,"pages":51,"page_size":20,"start_index":1821,"_response_info":{"status":"ok","links":[{"href":"https://www.gov.uk/api/organisations?page=91","rel":"previous"},{"href":"https://www.gov.uk/api/organisations?page=92","rel":"self"}]}}
