{"results":[],"previous_page_url":"https://www.gov.uk/api/organisations?page=92","current_page":93,"total":1009,"pages":51,"page_size":20,"start_index":1841,"_response_info":{"status":"ok","links":[{"href":"https://www.gov.uk/api/organisations?page=92","rel":"previous"},{"href":"https://www.gov.uk/api/organisations?page=93","rel":"self"}]}}
