{"results":[],"previous_page_url":"https://www.gov.uk/api/organisations?page=93","current_page":94,"total":1009,"pages":51,"page_size":20,"start_index":1861,"_response_info":{"status":"ok","links":[{"href":"https://www.gov.uk/api/organisations?page=93","rel":"previous"},{"href":"https://www.gov.uk/api/organisations?page=94","rel":"self"}]}}
