{"results":[],"previous_page_url":"https://www.gov.uk/api/organisations?page=95","current_page":96,"total":1009,"pages":51,"page_size":20,"start_index":1901,"_response_info":{"status":"ok","links":[{"href":"https://www.gov.uk/api/organisations?page=95","rel":"previous"},{"href":"https://www.gov.uk/api/organisations?page=96","rel":"self"}]}}
