{"results":[],"previous_page_url":"https://www.gov.uk/api/organisations?page=96","current_page":97,"total":1009,"pages":51,"page_size":20,"start_index":1921,"_response_info":{"status":"ok","links":[{"href":"https://www.gov.uk/api/organisations?page=96","rel":"previous"},{"href":"https://www.gov.uk/api/organisations?page=97","rel":"self"}]}}
