{"results":[],"previous_page_url":"https://www.gov.uk/api/organisations?page=97","current_page":98,"total":1009,"pages":51,"page_size":20,"start_index":1941,"_response_info":{"status":"ok","links":[{"href":"https://www.gov.uk/api/organisations?page=97","rel":"previous"},{"href":"https://www.gov.uk/api/organisations?page=98","rel":"self"}]}}
