{"results":[],"previous_page_url":"https://www.gov.uk/api/organisations?page=98","current_page":99,"total":1009,"pages":51,"page_size":20,"start_index":1961,"_response_info":{"status":"ok","links":[{"href":"https://www.gov.uk/api/organisations?page=98","rel":"previous"},{"href":"https://www.gov.uk/api/organisations?page=99","rel":"self"}]}}
